1: https://ru.wikipedia.org/wiki/Заглавная_страница
2: https://ru.wikipedia.org/wiki/%D0%92%D0%B8%D0%BA%D0%B8%D0%BF%D0%B5%D0%B4%D0%B8%D1%8F:%D0%9F%D0%B0%D1%82%D1%80%D1%83%D0%BB%D0%B8%D1%80%D0%BE%D0%B2%D0%B0%D0%BD%D0%B8%D0%B5
3: https://ru.wikipedia.org/w/index.php?title=%D0%A1%D0%BB%D1%83%D0%B6%D0%B5%D0%B1%D0%BD%D0%B0%D1%8F:%D0%96%D1%83%D1%80%D0%BD%D0%B0%D0%BB%D1%8B&type=review&page=%D0%97%D0%B0%D0%B3%D0%BB%D0%B0%D0%B2%D0%BD%D0%B0%D1%8F_%D1%81%D1%82%D1%80%D0%B0%D0%BD%D0%B8%D1%86%D0%B0
4: https://ru.wikipedia.org/wiki/%D0%92%D0%B8%D0%BA%D0%B8%D0%BF%D0%B5%D0%B4%D0%B8%D1%8F
5: https://ru.wikipedia.org/wiki/%D0%A1%D0%B2%D0%BE%D0%B1%D0%BE%D0%B4%D0%BD%D1%8B%D0%B9_%D0%BA%D0%BE%D0%BD%D1%82%D0%B5%D0%BD%D1%82
6: https://ru.wikipedia.org/wiki/%D0%A0%D1%83%D1%81%D1%81%D0%BA%D0%B8%D0%B9_%D1%8F%D0%B7%D1%8B%D0%BA
7: https://ru.wikipedia.org/wiki/%D0%9F%D0%BE%D1%80%D1%82%D0%B0%D0%BB:%D0%9E%D0%B1%D0%B7%D0%BE%D1%80
8: https://ru.wikipedia.org/wiki/%D0%9D%D0%BE%D1%87%D1%8C_%D0%BD%D0%B0_%D0%BF%D0%B5%D1%80%D0%B5%D0%BA%D1%80%D1%91%D1%81%D1%82%D0%BA%D0%B5_(%D1%84%D0%B8%D0%BB%D1%8C%D0%BC)
9: https://ru.wikipedia.org/wiki/%D0%A4%D1%80%D0%B0%D0%BD%D1%86%D1%83%D0%B7%D1%81%D0%BA%D0%B8%D0%B9_%D1%8F%D0%B7%D1%8B%D0%BA
10: https://ru.wikipedia.org/wiki/%D0%A0%D0%B5%D0%BD%D1%83%D0%B0%D1%80,_%D0%96%D0%B0%D0%BD
11: https://ru.wikipedia.org/wiki/%D0%A1%D0%B8%D0%BC%D0%B5%D0%BD%D0%BE%D0%BD,_%D0%96%D0%BE%D1%80%D0%B6
12: https://ru.wikipedia.org/wiki/%D0%9A%D0%BE%D0%BC%D0%B8%D1%81%D1%81%D0%B0%D1%80_%D0%9C%D0%B5%D0%B3%D1%80%D1%8D
13: https://ru.wikipedia.org/wiki/%D0%91%D1%80%D0%BE%D0%BD%D0%B1%D0%B5%D1%80%D0%B6%D0%B5,_%D0%9F%D1%8C%D0%B5%D1%80
14: https://ru.wikipedia.org/wiki/%D0%A0%D0%B5%D0%B1%D1%91%D0%BD%D0%BA%D1%83_%D0%B4%D0%B0%D1%8E%D1%82_%D1%81%D0%BB%D0%B0%D0%B1%D0%B8%D1%82%D0%B5%D0%BB%D1%8C%D0%BD%D0%BE%D0%B5
15: https://ru.wikipedia.org/wiki/%D0%A1%D1%83%D0%BA%D0%B0_(%D1%84%D0%B8%D0%BB%D1%8C%D0%BC,_1931)
16: https://ru.wikipedia.org/wiki/%D0%98%D0%BB%D1%8C-%D0%B4%D0%B5-%D0%A4%D1%80%D0%B0%D0%BD%D1%81
17: https://ru.wikipedia.org/wiki/%D0%A0%D0%B5%D0%BD%D1%83%D0%B0%D1%80,_%D0%9F%D1%8C%D0%B5%D1%80
18: https://ru.wikipedia.org/wiki/%D0%92%D0%B8%D0%BA%D0%B8%D0%BF%D0%B5%D0%B4%D0%B8%D1%8F:%D0%98%D0%B7%D0%B1%D1%80%D0%B0%D0%BD%D0%BD%D1%8B%D0%B5_%D1%81%D1%82%D0%B0%D1%82%D1%8C%D0%B8
19: https://ru.wikipedia.org/wiki/%D0%92%D0%B8%D0%BA%D0%B8%D0%BF%D0%B5%D0%B4%D0%B8%D1%8F:%D0%9A%D0%B0%D0%BD%D0%B4%D0%B8%D0%B4%D0%B0%D1%82%D1%8B_%D0%B2_%D0%B8%D0%B7%D0%B1%D1%80%D0%B0%D0%BD%D0%BD%D1%8B%D0%B5_%D1%81%D1%82%D0%B0%D1%82%D1%8C%D0%B8
20: https://ru.wikipedia.org/wiki/%D0%A8%D0%B0%D0%B1%D0%BB%D0%BE%D0%BD:%D0%A2%D0%B5%D0%BA%D1%83%D1%89%D0%B0%D1%8F_%D0%B8%D0%B7%D0%B1%D1%80%D0%B0%D0%BD%D0%BD%D0%B0%D1%8F_%D1%81%D1%82%D0%B0%D1%82%D1%8C%D1%8F
21: https://ru.wikipedia.org/wiki/%D0%91%D0%BE%D0%B9%D0%BD%D1%8F_%D0%B2_%D0%9B%D0%BE%D1%85%D0%B8%D0%BD%D0%B0%D0%B9%D0%BB%D0%B5%D0%BD%D0%B4%D0%B5
22: https://ru.wikipedia.org/wiki/%D0%90%D0%BD%D0%B3%D0%BB%D0%B8%D0%B9%D1%81%D0%BA%D0%B8%D0%B9_%D1%8F%D0%B7%D1%8B%D0%BA
23: https://ru.wikipedia.org/wiki/%D0%98%D1%80%D0%BB%D0%B0%D0%BD%D0%B4%D1%81%D0%BA%D0%B8%D0%B9_%D1%8F%D0%B7%D1%8B%D0%BA
24: https://ru.wikipedia.org/wiki/%D0%A1%D0%B5%D0%B2%D0%B5%D1%80%D0%BD%D0%B0%D1%8F_%D0%98%D1%80%D0%BB%D0%B0%D0%BD%D0%B4%D0%B8%D1%8F
25: https://ru.wikipedia.org/wiki/%D0%92%D0%B5%D0%BB%D0%B8%D0%BA%D0%BE%D0%B1%D1%80%D0%B8%D1%82%D0%B0%D0%BD%D0%B8%D1%8F
26: https://ru.wikipedia.org/wiki/%D0%9E%D0%BB%D1%8C%D1%81%D1%82%D0%B5%D1%80%D1%81%D0%BA%D0%B8%D0%B5_%D0%B4%D0%BE%D0%B1%D1%80%D0%BE%D0%B2%D0%BE%D0%BB%D1%8C%D1%87%D0%B5%D1%81%D0%BA%D0%B8%D0%B5_%D1%81%D0%B8%D0%BB%D1%8B
27: https://ru.wikipedia.org/wiki/%D0%A1%D0%B1%D0%BE%D1%80%D0%BD%D0%B0%D1%8F_%D0%98%D1%80%D0%BB%D0%B0%D0%BD%D0%B4%D0%B8%D0%B8_%D0%BF%D0%BE_%D1%84%D1%83%D1%82%D0%B1%D0%BE%D0%BB%D1%83
28: https://ru.wikipedia.org/wiki/%D0%A1%D0%B1%D0%BE%D1%80%D0%BD%D0%B0%D1%8F_%D0%98%D1%82%D0%B0%D0%BB%D0%B8%D0%B8_%D0%BF%D0%BE_%D1%84%D1%83%D1%82%D0%B1%D0%BE%D0%BB%D1%83
29: https://ru.wikipedia.org/wiki/%D0%A7%D0%B5%D0%BC%D0%BF%D0%B8%D0%BE%D0%BD%D0%B0%D1%82_%D0%BC%D0%B8%D1%80%D0%B0_%D0%BF%D0%BE_%D1%84%D1%83%D1%82%D0%B1%D0%BE%D0%BB%D1%83_1994
30: https://ru.wikipedia.org/wiki/%D0%9A%D0%BE%D1%80%D0%BE%D0%BB%D0%B5%D0%B2%D1%81%D0%BA%D0%B0%D1%8F_%D0%BF%D0%BE%D0%BB%D0%B8%D1%86%D0%B8%D1%8F_%D0%9E%D0%BB%D1%8C%D1%81%D1%82%D0%B5%D1%80%D0%B0
31: https://ru.wikipedia.org/wiki/%D0%92%D0%B8%D0%BA%D0%B8%D0%BF%D0%B5%D0%B4%D0%B8%D1%8F:%D0%A5%D0%BE%D1%80%D0%BE%D1%88%D0%B8%D0%B5_%D1%81%D1%82%D0%B0%D1%82%D1%8C%D0%B8
32: https://ru.wikipedia.org/wiki/%D0%92%D0%B8%D0%BA%D0%B8%D0%BF%D0%B5%D0%B4%D0%B8%D1%8F:%D0%9A%D0%B0%D0%BD%D0%B4%D0%B8%D0%B4%D0%B0%D1%82%D1%8B_%D0%B2_%D1%85%D0%BE%D1%80%D0%BE%D1%88%D0%B8%D0%B5_%D1%81%D1%82%D0%B0%D1%82%D1%8C%D0%B8
33: https://ru.wikipedia.org/wiki/%D0%A8%D0%B0%D0%B1%D0%BB%D0%BE%D0%BD:%D0%A2%D0%B5%D0%BA%D1%83%D1%89%D0%B0%D1%8F_%D1%85%D0%BE%D1%80%D0%BE%D1%88%D0%B0%D1%8F_%D1%81%D1%82%D0%B0%D1%82%D1%8C%D1%8F
34: https://ru.wikipedia.org/wiki/%D0%A1%D0%BF%D0%B8%D1%81%D0%BE%D0%BA_%D0%BD%D0%B0%D0%B3%D1%80%D0%B0%D0%B4_%D0%B8_%D0%BD%D0%BE%D0%BC%D0%B8%D0%BD%D0%B0%D1%86%D0%B8%D0%B9_%D1%84%D0%B8%D0%BB%D1%8C%D0%BC%D0%B0_%C2%AB%D0%90%D0%B2%D0%B0%D1%82%D0%B0%D1%80:_%D0%9F%D1%83%D1%82%D1%8C_%D0%B2%D0%BE%D0%B4%D1%8B%C2%BB
35: https://ru.wikipedia.org/wiki/%D0%A4%D0%B0%D0%B9%D0%BB:Emblem_of_Ethiopia.svg
36: https://ru.wikipedia.org/wiki/%D0%A1%D0%BF%D0%B8%D1%81%D0%BE%D0%BA_%D0%B3%D0%BB%D0%B0%D0%B2_%D0%BF%D1%80%D0%B0%D0%B2%D0%B8%D1%82%D0%B5%D0%BB%D1%8C%D1%81%D1%82%D0%B2%D0%B0_%D0%AD%D1%84%D0%B8%D0%BE%D0%BF%D0%B8%D0%B8
37: https://ru.wikipedia.org/wiki/%D0%92%D0%B8%D0%BA%D0%B8%D0%BF%D0%B5%D0%B4%D0%B8%D1%8F:%D0%98%D0%B7%D0%B1%D1%80%D0%B0%D0%BD%D0%BD%D1%8B%D0%B5_%D1%81%D0%BF%D0%B8%D1%81%D0%BA%D0%B8_%D0%B8_%D0%BF%D0%BE%D1%80%D1%82%D0%B0%D0%BB%D1%8B
38: https://ru.wikipedia.org/wiki/%D0%92%D0%B8%D0%BA%D0%B8%D0%BF%D0%B5%D0%B4%D0%B8%D1%8F:%D0%9A%D0%B0%D0%BD%D0%B4%D0%B8%D0%B4%D0%B0%D1%82%D1%8B_%D0%B2_%D0%B8%D0%B7%D0%B1%D1%80%D0%B0%D0%BD%D0%BD%D1%8B%D0%B5_%D1%81%D0%BF%D0%B8%D1%81%D0%BA%D0%B8_%D0%B8_%D0%BF%D0%BE%D1%80%D1%82%D0%B0%D0%BB%D1%8B
39: https://ru.wikipedia.org/wiki/%D0%A4%D0%B0%D0%B9%D0%BB:D%C3%BClmen,_Kirchspiel,_ehem._Sondermunitionslager_Visbeck,_Beobachtungsturm_der_US_Army_--_2022_--_4452_(bw).jpg
40: https://ru.wikipedia.org/wiki/%D0%94%D1%8E%D0%BB%D1%8C%D0%BC%D0%B5%D0%BD
41: https://ru.wikipedia.org/wiki/%D0%A1%D0%B5%D0%B2%D0%B5%D1%80%D0%BD%D1%8B%D0%B9_%D0%A0%D0%B5%D0%B9%D0%BD-%D0%92%D0%B5%D1%81%D1%82%D1%84%D0%B0%D0%BB%D0%B8%D1%8F
42: https://ru.wikipedia.org/wiki/%D0%92%D0%B8%D0%BA%D0%B8%D0%BF%D0%B5%D0%B4%D0%B8%D1%8F:%D0%98%D0%B7%D0%BE%D0%B1%D1%80%D0%B0%D0%B6%D0%B5%D0%BD%D0%B8%D0%B5_%D0%B4%D0%BD%D1%8F
43: https://ru.wikipedia.org/wiki/%D0%93%D0%BE%D0%B2%D0%B0%D1%80%D0%B4,_%D0%90%D0%B3%D0%BD%D0%B5%D1%81,_%D0%B3%D0%B5%D1%80%D1%86%D0%BE%D0%B3%D0%B8%D0%BD%D1%8F_%D0%9D%D0%BE%D1%80%D1%84%D0%BE%D0%BB%D0%BA
44: https://ru.wikipedia.org/wiki/%D0%9C%D0%B0%D1%80%D0%B8%D1%8F_I_(%D0%BA%D0%BE%D1%80%D0%BE%D0%BB%D0%B5%D0%B2%D0%B0_%D0%90%D0%BD%D0%B3%D0%BB%D0%B8%D0%B8)
45: https://ru.wikipedia.org/wiki/%D0%95%D0%BB%D0%B8%D0%B7%D0%B0%D0%B2%D0%B5%D1%82%D0%B0_I
46: https://ru.wikipedia.org/wiki/%D0%93%D0%B5%D0%BD%D1%80%D0%B8%D1%85_VIII
47: https://ru.wikipedia.org/wiki/%D0%90%D0%BD%D0%B4%D1%80%D0%BE%D0%BD%D0%B8%D0%BA_%D0%94%D1%83%D0%BA%D0%B0_%D0%90%D0%BD%D0%B3%D0%B5%D0%BB
48: https://ru.wikipedia.org/wiki/%D0%90%D0%BD%D0%B3%D0%B5%D0%BB%D1%8B_(%D0%B4%D0%B8%D0%BD%D0%B0%D1%81%D1%82%D0%B8%D1%8F)
49: https://ru.wikipedia.org/wiki/%D0%9A%D0%BE%D0%BD%D1%81%D1%82%D0%B0%D0%BD%D1%82%D0%B8%D0%BD%D0%BE%D0%BF%D0%BE%D0%BB%D1%8C
50: https://ru.wikipedia.org/wiki/%D0%9A%D0%B0%D0%B7%D0%B0%D1%85%D1%81%D0%BA%D0%B8%D0%B9_%D1%81%D1%83%D0%BB%D1%82%D0%B0%D0%BD%D0%B0%D1%82
51: https://ru.wikipedia.org/wiki/%D0%98%D1%81%D1%82%D0%BE%D1%80%D0%B8%D1%8F_%D0%9A%D0%B0%D0%B7%D0%B0%D1%85%D1%81%D1%82%D0%B0%D0%BD%D0%B0
52: https://ru.wikipedia.org/wiki/%D0%9A%D0%B0%D0%B7%D0%B0%D1%85%D1%81%D1%82%D0%B0%D0%BD
53: https://ru.wikipedia.org/wiki/South_Park_(%D0%B8%D0%B3%D1%80%D0%B0)
54: https://ru.wikipedia.org/wiki/%D0%AE%D0%B6%D0%BD%D1%8B%D0%B9_%D0%9F%D0%B0%D1%80%D0%BA
55: https://ru.wikipedia.org/wiki/Nintendo_64
56: https://ru.wikipedia.org/wiki/%D0%A4%D0%B0%D0%B9%D0%BB:Jean_Paul_Laurens_Le_Pape_Formose_et_Etienne_VI_1870.jpg
57: https://ru.wikipedia.org/wiki/%D0%A4%D0%BE%D1%80%D0%BC%D0%BE%D0%B7
58: https://ru.wikipedia.org/wiki/%D0%A2%D1%80%D1%83%D0%BF%D0%BD%D1%8B%D0%B9_%D1%81%D0%B8%D0%BD%D0%BE%D0%B4
59: https://ru.wikipedia.org/wiki/%D0%A1%D0%BE%D1%86%D0%B8%D0%B0%D0%BB%D0%B8%D1%81%D1%82%D0%B8%D1%87%D0%B5%D1%81%D0%BA%D0%B0%D1%8F_%D0%A0%D0%B5%D1%81%D0%BF%D1%83%D0%B1%D0%BB%D0%B8%D0%BA%D0%B0_%D0%A0%D1%83%D0%BC%D1%8B%D0%BD%D0%B8%D1%8F
60: https://ru.wikipedia.org/wiki/%D0%9F%D1%80%D0%BE%D0%B3%D1%80%D0%B0%D0%BC%D0%BC%D0%B0_%D1%81%D0%B8%D1%81%D1%82%D0%B5%D0%BC%D0%B0%D1%82%D0%B8%D0%B7%D0%B0%D1%86%D0%B8%D0%B8_%D0%B4%D0%B5%D1%80%D0%B5%D0%B2%D0%B5%D0%BD%D1%8C_%D0%B2_%D0%A0%D1%83%D0%BC%D1%8B%D0%BD%D0%B8%D0%B8
61: https://ru.wikipedia.org/wiki/%D0%9E%D0%B1%D0%BE%D1%80%D0%BE%D0%BD%D0%B0_%D0%A1%D0%BC%D0%BE%D1%80%D0%B3%D0%BE%D0%BD%D0%B8
62: https://ru.wikipedia.org/wiki/Five_Nights_at_Freddy%E2%80%99s:_Security_Breach
63: https://ru.wikipedia.org/wiki/Five_Nights_at_Freddy%E2%80%99s
64: https://ru.wikipedia.org/wiki/%D0%A2%D1%83%D1%80%D0%B0%D0%BA%D0%BE%D0%B2%D0%B5%D1%80%D0%B4%D0%B8%D0%BD
65: https://ru.wikipedia.org/wiki/%D0%9C%D0%B5%D0%B4%D1%8C
66: https://ru.wikipedia.org/wiki/%D0%A1%D1%82%D1%80%D0%B0%D0%B2%D0%B8%D0%BD%D1%81%D0%BA%D0%B8%D0%B9,_%D0%A4%D1%91%D0%B4%D0%BE%D1%80_%D0%98%D0%B3%D0%BE%D1%80%D0%B5%D0%B2%D0%B8%D1%87
67: https://ru.wikipedia.org/wiki/%D0%A1%D1%82%D1%80%D0%B0%D0%B2%D0%B8%D0%BD%D1%81%D0%BA%D0%B8%D0%B9,_%D0%98%D0%B3%D0%BE%D1%80%D1%8C_%D0%A4%D1%91%D0%B4%D0%BE%D1%80%D0%BE%D0%B2%D0%B8%D1%87
68: https://ru.wikipedia.org/wiki/%D0%9E%D1%80%D0%B4%D0%B5%D0%BD_%D0%A1%D0%B2%D1%8F%D1%82%D0%BE%D0%B3%D0%BE_%D0%93%D1%80%D0%B8%D0%B3%D0%BE%D1%80%D0%B8%D1%8F_%D0%92%D0%B5%D0%BB%D0%B8%D0%BA%D0%BE%D0%B3%D0%BE
69: https://ru.wikipedia.org/wiki/%D0%9F%D0%B0%D0%B2%D0%B5%D0%BB_VI
70: https://ru.wikipedia.org/wiki/%D0%91%D0%B0%D1%81%D1%82%D0%B0%D1%80%D0%B4,_%D0%A1%D0%B8%D0%B3%D0%B0%D1%80
71: https://ru.wikipedia.org/wiki/%D0%A1%D0%B1%D0%BE%D1%80%D0%BD%D0%B0%D1%8F_%D0%90%D0%BD%D0%B3%D0%BB%D0%B8%D0%B8_%D0%BF%D0%BE_%D1%84%D1%83%D1%82%D0%B1%D0%BE%D0%BB%D1%83
72: https://ru.wikipedia.org/wiki/%D0%A1%D0%B1%D0%BE%D1%80%D0%BD%D0%B0%D1%8F_%D0%A3%D1%8D%D0%BB%D1%8C%D1%81%D0%B0_%D0%BF%D0%BE_%D1%84%D1%83%D1%82%D0%B1%D0%BE%D0%BB%D1%83
73: https://ru.wikipedia.org/wiki/%D0%91%D0%BE%D0%B3%D0%BE%D1%80%D0%BE%D0%B4%D0%B8%D1%86%D0%B0
74: https://ru.wikipedia.org/wiki/%D0%A1%D1%82%D0%B0%D1%80%D0%BE%D0%BC%D0%B5%D1%81%D1%82%D1%81%D0%BA%D0%B0%D1%8F_%D0%BF%D0%BB%D0%BE%D1%89%D0%B0%D0%B4%D1%8C
75: https://ru.wikipedia.org/wiki/%D0%9F%D1%80%D0%BE%D0%B5%D0%BA%D1%82:%D0%97%D0%BD%D0%B0%D0%B5%D1%82%D0%B5_%D0%BB%D0%B8_%D0%B2%D1%8B/%D0%9F%D0%BE%D0%B4%D0%B3%D0%BE%D1%82%D0%BE%D0%B2%D0%BA%D0%B0_%D1%81%D0%BB%D0%B5%D0%B4%D1%83%D1%8E%D1%89%D0%B5%D0%B3%D0%BE_%D0%B2%D1%8B%D0%BF%D1%83%D1%81%D0%BA%D0%B0
76: https://ru.wikipedia.org/wiki/%D0%9F%D1%80%D0%BE%D0%B5%D0%BA%D1%82:%D0%97%D0%BD%D0%B0%D0%B5%D1%82%D0%B5_%D0%BB%D0%B8_%D0%B2%D1%8B/%D0%90%D1%80%D1%85%D0%B8%D0%B2_%D1%80%D1%83%D0%B1%D1%80%D0%B8%D0%BA%D0%B8
77: https://ru.wikipedia.org/wiki/%D0%92%D0%BE%D0%B9%D0%BD%D0%B0_%D0%B2_%D0%93%D0%B0%D0%B7%D0%B5_(%D1%81_2023)
78: https://ru.wikipedia.org/wiki/%D0%92%D1%82%D0%BE%D1%80%D0%B6%D0%B5%D0%BD%D0%B8%D0%B5_%D0%A0%D0%BE%D1%81%D1%81%D0%B8%D0%B8_%D0%BD%D0%B0_%D0%A3%D0%BA%D1%80%D0%B0%D0%B8%D0%BD%D1%83_(%D1%81_2022)
79: https://ru.wikipedia.org/wiki/%D0%9E%D0%BF%D0%B5%D1%80%D0%B0%D1%86%D0%B8%D1%8F_%C2%AB%D0%A1%D1%82%D1%80%D0%B0%D0%B6_%D0%BF%D1%80%D0%BE%D1%86%D0%B2%D0%B5%D1%82%D0%B0%D0%BD%D0%B8%D1%8F%C2%BB
80: https://ru.wikipedia.org/wiki/%D0%9F%D1%80%D0%BE%D1%82%D0%B5%D1%81%D1%82%D1%8B_%D0%B5%D0%B2%D1%80%D0%BE%D0%BF%D0%B5%D0%B9%D1%81%D0%BA%D0%B8%D1%85_%D1%84%D0%B5%D1%80%D0%BC%D0%B5%D1%80%D0%BE%D0%B2_(2024)
81: https://ru.wikipedia.org/wiki/%D0%A1%D0%BF%D0%B8%D1%81%D0%BE%D0%BA_%D1%83%D0%BC%D0%B5%D1%80%D1%88%D0%B8%D1%85_%D0%B2_2024_%D0%B3%D0%BE%D0%B4%D1%83
82: https://ru.wikipedia.org/wiki/%D0%A4%D0%B0%D0%B9%D0%BB:Map_of_the_Schengen_Area.svg
83: https://ru.wikipedia.org/wiki/%D0%91%D0%BE%D0%BB%D0%B3%D0%B0%D1%80%D0%B8%D1%8F
84: https://ru.wikipedia.org/wiki/%D0%A0%D1%83%D0%BC%D1%8B%D0%BD%D0%B8%D1%8F
85: https://ru.wikipedia.org/wiki/%D0%A8%D0%B5%D0%BD%D0%B3%D0%B5%D0%BD%D1%81%D0%BA%D0%BE%D0%B5_%D1%81%D0%BE%D0%B3%D0%BB%D0%B0%D1%88%D0%B5%D0%BD%D0%B8%D0%B5
86: https://ru.wikipedia.org/wiki/%D0%A8%D0%B5%D0%BD%D0%B3%D0%B5%D0%BD%D1%81%D0%BA%D0%B0%D1%8F_%D0%B7%D0%BE%D0%BD%D0%B0
87: https://ru.wikipedia.org/wiki/%D0%9F%D0%BE%D0%B3%D1%80%D0%B0%D0%BD%D0%B8%D1%87%D0%BD%D1%8B%D0%B9_%D0%BA%D0%BE%D0%BD%D1%82%D1%80%D0%BE%D0%BB%D1%8C
88: https://ru.wikipedia.org/wiki/%D0%93%D0%BE%D1%81%D1%83%D0%B4%D0%B0%D1%80%D1%81%D1%82%D0%B2%D0%B5%D0%BD%D0%BD%D0%B0%D1%8F_%D0%B3%D1%80%D0%B0%D0%BD%D0%B8%D1%86%D0%B0
89: https://ru.wikipedia.org/wiki/%D0%91%D0%B0%D0%BB%D1%82%D0%B8%D0%BC%D0%BE%D1%80
90: https://ru.wikipedia.org/wiki/%D0%9A%D0%BE%D0%BD%D1%82%D0%B5%D0%B9%D0%BD%D0%B5%D1%80%D0%BE%D0%B2%D0%BE%D0%B7
91: https://ru.wikipedia.org/wiki/%D0%9E%D0%B1%D1%80%D1%83%D1%88%D0%B5%D0%BD%D0%B8%D0%B5_%D0%BC%D0%BE%D1%81%D1%82%D0%B0_%D0%B2_%D0%91%D0%B0%D0%BB%D1%82%D0%B8%D0%BC%D0%BE%D1%80%D0%B5
92: https://ru.wikipedia.org/wiki/%D0%9C%D0%BE%D1%81%D1%82_%D0%A4%D1%80%D1%8D%D0%BD%D1%81%D0%B8%D1%81%D0%B0_%D0%A1%D0%BA%D0%BE%D1%82%D1%82%D0%B0_%D0%9A%D0%B8_(%D0%91%D0%B0%D0%BB%D1%82%D0%B8%D0%BC%D0%BE%D1%80)
93: https://ru.wikipedia.org/wiki/%D0%A1%D0%B5%D0%BD%D0%B5%D0%B3%D0%B0%D0%BB
94: https://ru.wikipedia.org/wiki/%D0%A4%D0%B0%D0%B9,_%D0%91%D0%B0%D1%81%D1%81%D0%B8%D1%80%D1%83_%D0%94%D0%B8%D0%BE%D0%BC%D0%B0%D0%B9
95: https://ru.wikipedia.org/wiki/%D0%A2%D0%B5%D1%80%D0%B0%D0%BA%D1%82_%D0%B2_%C2%AB%D0%9A%D1%80%D0%BE%D0%BA%D1%83%D1%81_%D0%A1%D0%B8%D1%82%D0%B8_%D0%A5%D0%BE%D0%BB%D0%BB%D0%B5%C2%BB
96: https://ru.wikipedia.org/wiki/%D0%9A%D1%80%D0%BE%D0%BA%D1%83%D1%81_%D0%A1%D0%B8%D1%82%D0%B8_%D0%A5%D0%BE%D0%BB%D0%BB
97: https://ru.wikipedia.org/wiki/%D0%9A%D1%80%D0%B0%D1%81%D0%BD%D0%BE%D0%B3%D0%BE%D1%80%D1%81%D0%BA
98: https://ru.wikipedia.org/wiki/%D0%A0%D0%B0%D0%BA%D0%B5%D1%82%D0%BD%D1%8B%D0%B9_%D1%83%D0%B4%D0%B0%D1%80_%D0%BF%D0%BE_%D0%A3%D0%BA%D1%80%D0%B0%D0%B8%D0%BD%D0%B5_22_%D0%BC%D0%B0%D1%80%D1%82%D0%B0_2024_%D0%B3%D0%BE%D0%B4%D0%B0
99: https://ru.wikipedia.org/wiki/%D0%A0%D0%BE%D1%81%D1%81%D0%B8%D0%B9%D1%81%D0%BA%D0%B8%D0%B5_%D1%83%D0%B4%D0%B0%D1%80%D1%8B_%D0%BF%D0%BE_%D1%83%D0%BA%D1%80%D0%B0%D0%B8%D0%BD%D1%81%D0%BA%D0%BE%D0%B9_%D1%8D%D0%BD%D0%B5%D1%80%D0%B3%D0%BE%D1%81%D0%B8%D1%81%D1%82%D0%B5%D0%BC%D0%B5
100: https://ru.wikipedia.org/wiki/%D0%94%D0%BD%D0%B5%D0%BF%D1%80%D0%BE%D0%B3%D1%8D%D1%81
