аванкамера;0.00149
аварийный;0.00019
август;0.00186
аверс;0.00019
авиабомба;0.00037
автодорожный;0.00112
автомобильный;0.00019
авторство;0.00019
автотранспорт;0.00019
автотрансформатор;0.00019
агап;0.00075
агео;0.00019
агрегат;0.00019
административный;0.00019
азовсталь;0.00019
акад;0.00019
академик;0.00019
академия;0.00037
акцент;0.00019
александр;0.00019
александрийский;0.00019
александров;0.00112
александровск;0.00019
александровский;0.00056
алексеев;0.00019
алексеенко;0.00019
алфавит;0.00056
алчевский;0.00019
алюминиевый;0.00019
американский;0.00112
англ;0.00019
антропогенный;0.00019
апрель;0.00149
арестовать;0.00019
арка;0.00019
армия;0.00019
арочный;0.00019
артикский;0.00019
архивировать;0.00727
архитектор;0.00019
архитектурный;0.00019
атака;0.00019
атаковать;0.00037
атмосфера;0.00037
атэц;0.00037
аэс;0.00037
база;0.00037
балка;0.00037
балтийский;0.00019
банк;0.00037
бассейн;0.00037
бахметьев;0.00019
беларускать;0.00037
белоцерковский;0.00019
берег;0.00261
бетон;0.00373
бетонирование;0.00075
бетонный;0.00093
би-би-си;0.00056
библиографический;0.00019
билет;0.00019
благоприятный;0.00019
бледно-розовый;0.00019
близкий;0.00019
близость;0.00019
болград;0.00019
более;0.00224
большегрузный;0.00019
больший;0.00205
большой;0.00037
ботиевский;0.00019
будущее;0.00019
бурштынский;0.00019
бутовый;0.00019
бык;0.00019
быть;0.02963
бычков;0.00019
бычок;0.00037
бьеф;0.00112
бюллетень;0.00019
вал;0.00019
вариант;0.00093
ввести;0.00093
ввод;0.00075
вдвое;0.00019
веденеев;0.00056
ведение;0.00037
ведущий;0.00019
век;0.00019
великий;0.00075
вермахт;0.00056
версия;0.00093
верхний;0.00112
верховный;0.00019
верховой;0.00037
вес;0.00019
весна;0.00037
веснин;0.00019
вестись;0.00149
весь;0.00224
вещество;0.00019
взорвать;0.00056
взрыв;0.00019
взрывчатка;0.00037
взрывчатый;0.00019
видався;0.00019
визуальный;0.00019
викидать;0.00019
викимедиа;0.00019
викиновость;0.00019
википедия;0.00149
викисклад;0.00075
виконуються;0.00019
випустить;0.00019
вклад;0.00019
включать;0.00112
включить;0.00019
владимир;0.00056
власть;0.00037
вмешательство;0.00019
внешний;0.00019
внешторгиздат;0.00019
внутренний;0.00019
вовсе;0.00019
вода;0.00205
водный;0.00037
водовод;0.00075
водопропускной;0.00056
водосбросный;0.00149
водосливный;0.00019
водохранилище;0.00335
воениздат;0.00019
военно-инженерный;0.00037
военно-исторический;0.00019
военнопленный;0.00019
военный;0.00056
возбуждение;0.00019
возведение;0.00037
возвести;0.00037
возлагаться;0.00037
возможность;0.00093
возрасти;0.00056
возрождение;0.00019
война;0.00149
войско;0.00261
войти;0.00075
волна;0.00037
волшебный;0.00019
ворота;0.00019
восемь;0.00037
воспринимать;0.00037
восстанавливаться;0.00019
восстановительный;0.00056
восстановить;0.00112
восстановление;0.00317
востокэнерго;0.00019
восьмой;0.00019
впервые;0.00019
впоследствии;0.00037
враг;0.00019
временной;0.00019
временный;0.00019
время;0.0013
вс;0.00019
всероссийский;0.00019
всесоюзный;0.00019
вскай;0.00019
вскоре;0.00019
вснх;0.00019
вспомогательный;0.00019
встречаться;0.00019
вторжение;0.00037
второй;0.00224
вход;0.00019
входить;0.00037
выбрать;0.00037
вывести;0.00019
вывод;0.00019
выгнутый;0.00019
выгон;0.00019
выдаваться;0.00019
выдача;0.00093
выделение;0.00056
выемка;0.00019
выйти;0.00019
выключатель;0.00019
вып;0.00037
выполнение;0.00019
выполнить;0.00019
выполнять;0.00019
выпуск;0.00019
выпустить;0.00019
вырабатывать;0.00019
выработать;0.00056
выработка;0.00112
высокий;0.00056
высота;0.0013
вытащить;0.00019
выше;0.00019
вышележащий;0.00019
г;0.00298
га;0.00019
габарит;0.00019
гавань;0.00019
галерея;0.00112
гаситься;0.00019
гаэс;0.00037
генерал;0.00019
генератор;0.00056
генерация;0.00019
генштаб;0.00019
географический;0.00019
геологический;0.00019
гибель;0.00019
гидроагрегат;0.01025
гидрогенератор;0.00186
гидропроект;0.00037
гидросооружение;0.00019
гидростанция;0.00037
гидротехник;0.00019
гидротехнический;0.00075
гидротурбина;0.00186
гидроузел;0.00205
гидроэлектрический;0.00019
гидроэлектростанция;0.00708
гидроэнергетик;0.00075
гидроэнергетический;0.00019
гл;0.00075
глава;0.00056
главный;0.00093
гладков;0.00019
глубина;0.00019
глухой;0.00056
гнейс;0.00019
говорить;0.00019
год;0.03615
годовой;0.00019
гораздо;0.00019
горизонтальный;0.00019
город;0.00056
гос;0.00019
госплан;0.00037
гостехиздат;0.00019
государственный;0.00149
госэнергоиздат;0.00037
госюриздат;0.00019
гоэлро;0.00261
гравитационный;0.00037
гражданский;0.00019
гранат;0.00019
гранит;0.00019
гранитый;0.00019
грань;0.00019
графтио;0.00019
грунт;0.00056
группа;0.00075
грязеспуск;0.00019
губернский;0.00019
гэс;0.01286
далее;0.0013
дальнейший;0.00093
дамба;0.00037
данные;0.00019
дарницкий;0.00019
дасть;0.00019
дата;0.00689
дать;0.00019
два;0.00373
движение;0.00075
двор;0.00019
двухъярусный;0.00019
девятый;0.00056
девять;0.0013
действовать;0.00019
декабрь;0.00186
декоммунизация;0.00019
делаться;0.00019
демонтаж;0.00019
демонтировать;0.00037
день;0.00019
десять;0.00019
детский;0.00019
джуца;0.00037
диаметр;0.00037
диапазон;0.00019
диверсант;0.00019
динамика;0.00037
директор;0.00037
дирижаблестроение;0.00019
дирижабль;0.00019
длина;0.00224
днепр;0.00354
днепро;0.00019
днепровский;0.01043
днепрогэ;0.00037
днепрогэс;0.01472
днепрокомбинат;0.00019
днепропетровск;0.00037
днепропетровский;0.00019
днепроспецсталь;0.00019
днепростроить;0.00056
днепрострой;0.00186
днепрострый;0.00019
днепроэнерго;0.00056
днестровский;0.00019
добротворский;0.00019
довженко;0.00019
договор;0.00037
документ;0.00112
должный;0.00037
доллар;0.00037
донбасс;0.00019
донбассэнерго;0.00019
донна;0.00019
донный;0.00037
доп;0.00019
дополнительный;0.00019
дорога;0.00056
достаточный;0.00019
достигать;0.00037
достигнуть;0.00019
достроить;0.00056
доступный;0.00019
др;0.00019
дренажный;0.00019
другой;0.00093
дружба;0.00019
дружинник;0.00019
дтэк;0.00019
дубовец;0.00037
дукаревич;0.00019
дума;0.00019
думпкар;0.00019
дунайский;0.00019
европа;0.00075
единый;0.00037
ежемесячный;0.00019
енергетичный;0.00019
енерговидать;0.00037
есть;0.00019
еэс;0.00019
железнодорожный;0.00149
железный;0.00037
железобетон;0.00019
жестоко;0.00019
жизнь;0.00019
житель;0.00019
журнал;0.00019
журналист;0.00019
забетонировать;0.00019
завал;0.00037
завершение;0.00056
завершить;0.00261
завод;0.00242
заглавный;0.00019
заглубить;0.00019
задача;0.00037
задействовать;0.00037
заделать;0.00019
заказать;0.00019
заканчиваться;0.00019
закладка;0.00019
закон;0.00019
закрытый;0.00056
зал;0.00093
залечить;0.00019
заложить;0.00019
залом;0.00037
замена;0.00168
заменить;0.00019
заместитель;0.00019
замыкание;0.00019
заниматься;0.00037
занятой;0.00019
западэнерго;0.00019
запись;0.00019
запланировать;0.00075
запорожкокс;0.00019
запорожский;0.00112
запорожсталь;0.00037
запорожтрансформатор;0.00019
запорожье;0.00261
запрашивать;0.00019
заработать;0.00037
заранее;0.00019
зарегистрировать;0.00019
зарегулировать;0.00019
зарубежный;0.00037
заряд;0.00093
заступник;0.00019
засядько;0.00019
затапливаться;0.00019
затвор;0.00093
затем;0.00019
затон;0.00019
затопить;0.00112
затопление;0.0013
затронуть;0.00019
затруднять;0.00019
захват;0.00019
зачем;0.00019
защита;0.00019
заявление;0.00019
здание;0.00838
земля;0.00037
земляной;0.00019
знак;0.00019
знамя;0.00056
значение;0.00019
значительно;0.00037
значительный;0.00019
зображеннь;0.00019
золотой;0.00019
зона;0.00056
зуевский;0.00019
и-маш;0.00019
ибатулин;0.0013
иван;0.00019
игоревич;0.00019
игорь;0.00019
избранный;0.00075
известно;0.00019
известный;0.00019
извлечь;0.00019
изготовить;0.00075
изготовление;0.00037
изд;0.00037
изд-во;0.00019
изменить;0.00075
изначально;0.00056
износ;0.00019
изобразить;0.00019
изучение;0.00019
изыскание;0.00019
именоваться;0.00019
иметь;0.00093
иметься;0.00019
империя;0.00019
имя;0.00186
индустриализация;0.00037
инженер;0.00186
иностранный;0.00037
институт;0.00056
инструмент;0.00037
инструментальный;0.00019
интенсивность;0.00037
инфографик;0.00019
информация;0.00019
инфраструктура;0.00019
исполнитель;0.00019
использование;0.00093
использовать;0.00037
использоваться;0.00037
исследование;0.00019
историк;0.00019
исторический;0.00205
история;0.00093
источник;0.00093
исходный;0.00019
итог;0.00037
июль;0.00075
июнь;0.00149
кабель;0.00019
каждый;0.00112
казнить;0.00019
калушскай;0.00019
каменецкий;0.00019
камера;0.00075
кампания;0.00037
канал;0.00056
кандалы;0.00037
каневский;0.00075
каркас;0.00037
каролингский;0.00037
карта;0.00056
каскад;0.00149
каталог;0.00019
категория;0.00037
каховскай;0.00037
кв;0.00261
квт;0.00112
кг;0.00019
киев;0.00019
киевский;0.0013
киевэнерго;0.00019
кировоградолий;0.00019
кировоградский;0.00019
кичкас;0.00019
кичкасский;0.00019
кладка;0.00019
ключевой;0.00019
км;0.0013
книга;0.00019
княгиня;0.00019
князь;0.00019
ковалевский;0.00224
код;0.00522
кодекс;0.00019
козлов;0.00075
коксохимический;0.00019
колесо;0.00056
количество;0.0013
кольцо;0.00019
командир;0.00019
командующий;0.00019
комбинат;0.00056
комиссар;0.00019
комиссия;0.00056
комитет;0.00056
комментарий;0.00056
коммерческий;0.00019
коммунизм;0.00019
компания;0.00075
компенсационный;0.00019
компетентный;0.00019
комплекс;0.00056
комплексный;0.00019
компоновка;0.00019
комсомольский;0.00037
конец;0.00056
конкурировать;0.00019
консорциум;0.00019
конструкция;0.0013
консультант;0.00056
консультировать;0.00019
контрразведка;0.00019
конференция;0.00019
конфиденциальность;0.00019
копейка;0.00037
короткий;0.00037
корпус;0.00019
котлован;0.00224
который;0.00354
крайне;0.00019
краматорский;0.00019
кран;0.0013
крановый;0.00037
красноармеец;0.00019
краснодонский;0.00019
красный;0.00056
кременчугский;0.00075
кремль;0.00019
кривой;0.00037
криволинейный;0.00019
криворожский;0.00019
критика;0.00019
кровля;0.00019
крупин;0.00019
крупнотоннажный;0.00019
крупный;0.00298
крымский;0.00019
крыша;0.00019
крышка;0.00019
кубометр;0.00019
куземина;0.00168
кук;0.00019
культура;0.00037
купер;0.00093
кураховский;0.00019
кустарник;0.00019
кухаренко;0.00019
л;0.00186
лавочкин;0.00019
ладыжинский;0.00019
лазурный;0.00019
лаупман;0.00019
левобережный;0.0013
левый;0.00186
лелявский;0.00019
ленин;0.00261
лепин;0.00019
лето;0.00019
ликвидировать;0.00019
лиманский;0.00019
линикова;0.00019
линия;0.0013
лисичанский;0.00019
литература;0.00056
лицензия;0.00019
лоббирование;0.00019
логинов;0.00112
луганский;0.00019
львовский;0.00019
лэп;0.00019
м;0.00876
магниевый;0.00019
май;0.01062
макензен;0.00019
максимальный;0.0013
максимов;0.00019
мандельштам;0.00019
маневрирование;0.00019
марк;0.00149
марка;0.00019
март;0.00391
маршак;0.00019
массировать;0.00037
массовый;0.00019
масштабность;0.00019
масштабный;0.00056
материал;0.00279
мачтовый;0.00019
машинный;0.0013
мвт;0.00522
медиафайл;0.00037
межа;0.00019
мельников;0.00019
менее;0.00037
меняться;0.00019
мера;0.00019
мероприятие;0.00019
местность;0.00019
местный;0.00019
место;0.00037
местоположение;0.00019
месяц;0.00037
месячный;0.00019
металлический;0.00019
металлоконструкция;0.00056
металлургический;0.00019
метизный;0.00019
методика;0.00019
метр;0.00075
механизировать;0.00019
меч;0.00075
миллиард;0.00019
миллион;0.00019
мина;0.00019
минимум;0.00019
мир;0.00037
мировой;0.00037
мироновский;0.00019
млн;0.00186
млрд;0.00019
мнение;0.00019
многий;0.00019
многоступенчатый;0.00019
мобильный;0.00019
модернизация;0.00112
модернизированный;0.00019
модернизировать;0.00056
момент;0.00075
монета;0.00056
монтаж;0.00093
монтироваться;0.00019
моргуненков;0.00019
море;0.00019
морин;0.00019
мороко;0.00019
московский;0.00019
мост;0.00298
мостовый;0.00056
моторостроительный;0.00019
мочь;0.00112
мошенский;0.00019
мощность;0.00652
мощный;0.00112
музейний;0.00019
мюллер;0.00019
мягкий;0.00019
н;0.0013
навигация;0.00056
награда;0.00019
наградить;0.00112
нагрузка;0.00037
назад;0.00019
назначить;0.00037
называться;0.00019
найти;0.00037
наказывать;0.00019
наличие;0.00019
наметить;0.00019
нанести;0.00056
нанос;0.00019
напор;0.0013
напорный;0.00056
напряжение;0.00093
народный;0.00019
население;0.00037
населить;0.00019
настоящий;0.00037
наука;0.00056
научно-исследовательский;0.00019
находиться;0.00112
нацбанк;0.00019
национальный;0.00019
нацистский;0.00019
начало;0.0013
начальник;0.00075
начать;0.00224
начаться;0.00075
небольшой;0.00019
недельный;0.00019
неделя;0.00019
недостаток;0.00019
недостаточно;0.00019
недостроенный;0.00019
незатопляемость;0.00019
незатопляемый;0.00019
неизвестно;0.00019
некоммерческий;0.00019
немец;0.00075
немецкий;0.00186
необходимо;0.00019
необходимость;0.00019
необходимый;0.00037
неоднократно;0.00019
непорожний;0.00019
непосредственно;0.00037
непосредственный;0.00037
непрерывный;0.00019
неравномерность;0.00019
несколько;0.00019
нестерука;0.00019
нет;0.00019
нижний;0.00093
низкий;0.00037
низовой;0.00037
николаевский;0.00019
николай;0.00019
нитка;0.00019
новицкий;0.00019
новоазовский;0.00019
новообразованный;0.00019
новороздольский;0.00019
новояворовской;0.00019
новый;0.00149
номинал;0.00019
нормальный;0.00056
носок-трамплин;0.00019
ноябрь;0.00112
нужда;0.00056
нумизматика;0.00037
обеспечение;0.00056
обеспечивать;0.00056
обеспечиваться;0.00019
обеспечить;0.00056
область;0.00056
облегчать;0.00019
облегчить;0.00019
облицевать;0.00019
оборона;0.00037
обороняться;0.00019
оборудование;0.00335
оборудовать;0.00112
обоснованный;0.00019
образ;0.00037
образование;0.00037
образовать;0.0013
образоваться;0.00056
обращение;0.00689
обслуживание;0.00056
обстрел;0.00037
обсуждение;0.00037
обход;0.00019
общество;0.00019
общий;0.00168
объединить;0.00019
объект;0.00037
объявить;0.00019
огонь;0.00019
ограждать;0.00037
ограничиваться;0.00019
одесский;0.00037
один;0.00205
одновременно;0.0013
одновременный;0.00019
однокамерный;0.00112
однониточный;0.00019
однофазный;0.00019
одобрить;0.00019
ожидать;0.00019
озеро;0.00019
оказаться;0.00019
оккупация;0.00037
оккупировать;0.00037
окончание;0.00019
октябрь;0.0013
операция;0.00019
описание;0.00019
опора;0.00075
опрокидной;0.00019
опыт;0.00056
ор;0.00075
организация;0.00093
организовать;0.00056
орден;0.00149
оригинал;0.00037
орнаментировать;0.00019
освободить;0.00037
освобождение;0.00019
осень;0.00019
осипов;0.00037
основа;0.00019
основной;0.00186
основный;0.00093
особенность;0.00019
остальной;0.00037
остановить;0.00056
остаться;0.00019
остров;0.00037
осушение;0.00037
осушить;0.00037
осуществить;0.00019
осуществлять;0.00019
отверстие;0.00037
ответственность;0.00037
отводить;0.00019
отгрузить;0.00019
отгрузка;0.00019
отдать;0.00019
отдел;0.00037
отделение;0.00019
отдельный;0.00075
отечественный;0.00056
отказ;0.00019
отказываться;0.00019
отключить;0.00019
открывать;0.00019
открытие;0.00037
открыто;0.00056
открытый;0.00037
открыть;0.00019
отметка;0.00019
относиться;0.00019
отработать;0.00019
отредактировать;0.00019
отсутствовать;0.00019
отходить;0.00019
отчуждение;0.00019
официальный;0.00037
оцениваться;0.00019
оценка;0.00056
очаковский;0.00019
очень;0.00019
очередной;0.00019
очередь;0.00186
очистка;0.00037
ошибка;0.00019
п;0.00186
пам;0.00019
параллельный;0.00019
паровоз;0.00019
паровой;0.00019
пашня;0.00019
пер;0.00019
первомайский;0.00019
первоначально;0.00019
первоочередной;0.00019
первый;0.00466
перевести;0.00019
передавать;0.00019
передаваться;0.00019
передвигаться;0.00019
переизолировка;0.00019
перейти;0.00056
перекрывать;0.00037
перекрыть;0.00019
переместить;0.00037
перемычка;0.00186
перенесенний;0.00019
перераб;0.00019
перерезать;0.00019
переселить;0.00019
перестроить;0.00019
перетекать;0.00019
переустраиваться;0.00019
переход;0.00019
перечеркнуть;0.00019
период;0.00037
персональный;0.00019
перспектива;0.00019
петровский;0.00019
печать;0.00056
пешеходный;0.00019
пиковый;0.00019
пирс;0.00019
плавень;0.00019
план;0.00447
планироваться;0.00075
платформа;0.00019
плоский;0.00037
плотина;0.0136
плотинный;0.00037
площадка;0.00037
площадь;0.00019
побить;0.00019
поведение;0.00019
поворотно-лопастный;0.00093
повредить;0.00075
повторный;0.00019
повысить;0.00037
повышенный;0.00019
погибнуть;0.00037
подаваться;0.00019
подвергаться;0.00019
подвозиться;0.00019
подготовительный;0.00056
подготовка;0.00037
подкрановый;0.00019
подлежащее;0.00019
поднять;0.00019
подорвать;0.00019
подполковник;0.00019
подпорный;0.00056
подпятник;0.00037
подробный;0.00019
подрыв;0.00186
подход;0.00037
подходный;0.00019
подчеркнуть;0.00019
подъездный;0.00019
поезд;0.00037
пожар;0.00019
пожертвовать;0.00019
позволить;0.00168
позволять;0.00056
поздний;0.00037
поиск;0.00037
покорение;0.00019
полезный;0.00019
политбюро;0.00019
политика;0.00019
полностью;0.00093
полный;0.00056
половодье;0.00037
положение;0.00019
полоса;0.00019
полтора;0.00019
получить;0.00037
полюс;0.00037
помощник;0.00019
помощь;0.00112
понизить;0.00019
попадание;0.00019
попадать;0.00019
попасть;0.00037
попутный;0.00019
поразить;0.00019
порог;0.00186
порода;0.00037
портальный;0.00019
поручить;0.00019
посвятить;0.00037
последний;0.00093
последствие;0.00112
послужить;0.00019
поставить;0.00019
постановление;0.00093
постепенно;0.00019
постепенный;0.00019
постоянный;0.00019
пострадать;0.00037
построить;0.00168
поступать;0.00019
поступить;0.00019
потребность;0.00019
почти;0.00019
почтовый;0.00112
правда;0.00019
править;0.01081
правка;0.00075
право;0.00056
правобережный;0.00149
правый;0.00093
практически;0.00019
превышать;0.00019
предлагаться;0.00019
предложение;0.00056
предложить;0.00037
предложный;0.00019
предназначить;0.00019
предотвратить;0.00037
предотвращение;0.00037
предписание;0.00019
предприятие;0.00168
председатель;0.00019
представитель;0.00037
представить;0.00019
представиться;0.00019
представлять;0.00037
предстоять;0.00019
предупредить;0.00019
предусматривать;0.00037
предусматриваться;0.00056
предусмотреть;0.00019
предыстория;0.00019
президиум;0.00056
приближение;0.00019
прибыть;0.00019
привести;0.00037
привлечение;0.00037
пригласительный;0.00019
приднепровский;0.00019
признать;0.00019
прийтись;0.00019
приказ;0.00056
приложение;0.00019
прим;0.00056
примечание;0.00037
примыкать;0.00056
принадлежать;0.00019
принять;0.00149
приостановить;0.00019
приплотинный;0.00019
присвоить;0.00019
приступить;0.00075
причальный;0.00019
проблема;0.00037
проверить;0.00019
проверка;0.00019
провести;0.00075
проводиться;0.00019
прогресс;0.00019
продолжаться;0.00019
продолжение;0.00019
проект;0.0054
проектирование;0.00168
проектный;0.00037
произвести;0.00037
производиться;0.00019
производственный;0.00037
производство;0.00075
произойти;0.00019
происхождение;0.00019
проложить;0.00093
пролом;0.00019
промежуточный;0.00019
промышленный;0.00112
пропаганда;0.00019
пропеллерный;0.00112
пропуск;0.00037
пропускной;0.00056
проработать;0.00019
проработка;0.00019
прорыв;0.00037
просмотр;0.00019
пространство;0.00037
противник;0.00019
противоречие;0.00019
проток;0.00056
протяжение;0.00037
профессор;0.00019
проходить;0.00019
прохождение;0.00019
процесс;0.00019
прочий;0.00019
прочный;0.00019
проявиться;0.00019
прямо;0.00019
прямолинейный;0.00019
пункт;0.00019
пуск;0.00093
пустить;0.00112
путь;0.00056
пытаться;0.00056
пятилетка;0.00019
пятилетний;0.00019
пятый;0.00075
пять;0.00037
р;0.00019
работа;0.00503
работать;0.00075
рабочий;0.00037
радиально-осевой;0.00037
радиус;0.00019
раз;0.00037
разбитый;0.00019
разбор;0.00019
разведчик;0.00019
развернуть;0.00019
развитие;0.00093
раздел;0.00019
различаться;0.00019
различный;0.00037
разместить;0.00019
размещение;0.00037
разминирование;0.00037
размывать;0.00019
разновидность;0.00019
разобрать;0.00056
разработать;0.00019
разработка;0.00093
разработчик;0.00019
разрушаться;0.00019
разрушение;0.00075
разрушить;0.00186
разъединение;0.00019
район;0.00279
районный;0.00019
ракетный;0.00056
рамка;0.00037
ранг;0.00019
ранее;0.00019
ранний;0.00075
располагаться;0.00056
расположение;0.00075
расположить;0.00224
распределительный;0.00112
рассматриваться;0.00019
рассмотреть;0.00019
расти;0.00019
расход;0.00019
расширение;0.00056
расширить;0.00019
расширяться;0.00019
реализация;0.00056
реализовать;0.00019
реверс;0.00019
регион;0.00019
регулирование;0.00075
регулировать;0.00019
ред;0.00149
режим;0.00056
резерв;0.00019
резкий;0.00019
результат;0.00149
река;0.0013
реконструировать;0.00019
реконструкция;0.00112
рекорд;0.00019
республика;0.00019
ресурс;0.00056
референц-лист;0.00037
речной;0.00019
речь;0.00019
решение;0.0013
решить;0.00019
роботить;0.00019
робочий;0.00019
ровенский;0.00019
рог;0.00037
розовый;0.00056
рок;0.00019
роман;0.00019
российский;0.00279
россия;0.00112
россиянин;0.00019
рост;0.00037
ротор;0.00037
роттереть;0.00019
рубин;0.00037
рубль;0.00056
руководитель;0.00037
руководить;0.00019
руководство;0.00056
румма;0.00019
рундо;0.00019
русловый;0.00019
русский;0.00112
русскоязычный;0.00019
рыбак;0.00019
рыбаков;0.00019
ряжевый;0.00037
савченко;0.00019
сайт;0.00056
салтанкин;0.00019
сам;0.00056
самуил;0.00019
самый;0.00019
саха;0.00019
сборник;0.00149
сбрасывать;0.00019
св;0.00112
сварка;0.00019
сведение;0.00037
свежий;0.00019
свет;0.00019
светлана;0.00019
свидетельство;0.00019
свободный;0.00019
свой;0.00037
свть;0.00019
связанный;0.00056
связать;0.00019
связаться;0.00019
связь;0.00037
святослав;0.00019
сделать;0.00056
себестоимость;0.00019
северодонецкий;0.00019
седьмой;0.00037
семь;0.00019
сентябрь;0.00037
сергей;0.00019
середина;0.00019
серпенить;0.00019
серпень;0.00019
сеть;0.00056
сжатый;0.00019
сила;0.00019
силовой;0.00093
сильно;0.00037
символ;0.00056
сименс;0.00019
симонов;0.00019
сирота;0.00019
система;0.00075
сказать;0.00019
скальный;0.00075
скандинав;0.00019
скандинавский;0.00019
скачать;0.00037
сквозной;0.00019
скорость;0.00019
скрытый;0.00019
славянин;0.00019
славянский;0.00019
следующий;0.00019
слива;0.00075
словарь;0.00019
слово;0.00037
сложность;0.00019
слой;0.00019
служащий;0.00019
служба;0.00075
служебный;0.00037
случай;0.00056
случайный;0.00019
сместиться;0.00019
смирнов;0.00037
смонтировать;0.00112
смотреть;0.00056
снаряд;0.00019
сначала;0.00019
собрание;0.00019
собственник;0.00037
собственный;0.00112
событие;0.00019
совал;0.00019
совершить;0.00019
совет;0.00112
советский;0.00317
советско-американский;0.00019
совместно;0.00019
совнарком;0.00019
современный;0.00075
содействие;0.00019
содержание;0.00037
соединить;0.00056
соединять;0.00037
создание;0.00112
создатель;0.00019
создать;0.00093
сократиться;0.00019
соображение;0.00019
сообщество;0.00019
сообщить;0.00019
соорудить;0.00019
сооружение;0.00522
соответственно;0.00056
соответствующий;0.00019
сопрягать;0.00037
сороудерживающий;0.00019
состав;0.00056
составить;0.00056
составление;0.00019
составлять;0.00186
состояние;0.00037
состоять;0.00019
состояться;0.00037
сохранение;0.00019
сохранить;0.00019
соцгород;0.00019
социальный;0.00037
социологический;0.00019
сочинение;0.00019
союз;0.00037
союзный;0.00019
специалист;0.00056
специально;0.00019
спешка;0.00019
спиральный;0.00037
список;0.00037
способность;0.00056
справка;0.00019
спуск;0.00019
сработать;0.00019
среднегодовой;0.00019
среднеднепровский;0.00037
средненапорный;0.00019
средний;0.00019
средство;0.00056
срок;0.00037
срочный;0.00019
српски;0.00019
српскохрватски;0.00019
сср;0.00056
ссср;0.00484
ссылка;0.00149
стабильный;0.00019
сталин;0.00019
сталинский;0.00019
сталь;0.00019
станционный;0.00019
станция;0.00894
старобешевский;0.00019
староказачий;0.00019
старый;0.00019
статистика;0.00019
статор;0.00019
статус;0.00019
стать;0.00186
статья;0.00168
створ;0.00037
стена;0.00037
стенка;0.00093
степень;0.00019
стирол;0.00019
стихотворение;0.00019
стоимость;0.00075
сток;0.00056
столетие;0.00019
столь;0.00019
сторона;0.00112
страна;0.00093
страница;0.00149
стрелецкий;0.00019
строение;0.00019
строитель;0.00056
строительный;0.00056
строительство;0.01248
строить;0.00019
строиться;0.00075
строй;0.00037
стройка;0.00075
ступень;0.00019
судно;0.00037
судоходный;0.00317
судоходство;0.00075
сумма;0.00019
сумский;0.00037
сутки;0.00019
суточный;0.00056
существенно;0.00019
существующий;0.00019
сформировать;0.00019
схема;0.00112
сходство;0.00019
сша;0.00019
съезд;0.00019
сьогоденний;0.00019
сюда;0.00019
так;0.00317
такой;0.00075
танковый;0.00037
ташлыкский;0.00019
тверская;0.00019
тверь;0.00019
текст;0.00019
текущий;0.00056
тело;0.00037
тематический;0.00019
тепловой;0.00037
теребль-рикскай;0.00019
территория;0.00019
техника;0.00056
технический;0.00075
течение;0.00056
тимоновый;0.00019
тип;0.00149
типография;0.00037
товарный;0.00019
толщина;0.00019
только;0.00019
тонна;0.00056
тоннель;0.00019
торговый;0.00037
торец;0.00019
торжественный;0.00056
тот;0.00242
транспортный;0.00019
трансформатор;0.00149
третий;0.00075
трещина;0.00019
три;0.00112
трипольский;0.00019
тротил;0.00019
троцкий;0.00019
труд;0.00056
трудовой;0.00056
трьохнуть;0.00019
турбина;0.00168
турбинный;0.00075
турбоатом;0.00075
туф;0.00019
тыл;0.00019
тыс;0.00317
тысяча;0.00149
тэс;0.00019
тэц;0.0013
увеличение;0.00112
увеличивать;0.00019
увеличиваться;0.00037
увеличить;0.00075
увеличиться;0.00037
углегорский;0.00019
угроза;0.00019
удалить;0.00019
удар;0.00093
ударный;0.00019
удаться;0.00056
удостоить;0.00019
уже;0.00093
узел;0.00037
указ;0.00037
указание;0.00037
указать;0.00019
укладка;0.00093
украина;0.00354
украинский;0.00112
укрводшлях;0.00019
укргидропроект;0.00056
укргидроэнерго;0.00279
укринтерэнерго;0.00019
укрэнерго;0.00019
уложить;0.00186
ультрамарин;0.00019
уменьшить;0.00019
ун-тот;0.00019
унести;0.00019
уничтожение;0.00037
уничтожить;0.00056
управление;0.00093
урезать;0.00019
уровень;0.00205
условие;0.0013
успешный;0.00037
установить;0.00019
установление;0.00019
установленный;0.00019
устой;0.00037
устройство;0.00112
утвердить;0.00112
утверждение;0.00019
утратить;0.00019
участие;0.00019
участок;0.00056
учитывать;0.00037
ф;0.00093
фактически;0.00019
факультет;0.00019
февраль;0.0013
ферросплав;0.00019
филателия;0.00037
фильм;0.00019
фирма;0.00168
фонд;0.00037
форма;0.00056
форум;0.00019
франкский;0.00019
французский;0.00019
фронт;0.00075
функция;0.00019
х;0.00093
характеристика;0.00037
харьков;0.00019
харьковский;0.00093
хейнрици;0.00019
херсонский;0.00019
хлынуть;0.00019
хмельницкий;0.00037
ход;0.00186
холдинг;0.00019
хортица;0.00019
хроника;0.00056
художественный;0.00019
хью;0.00037
целое;0.00037
цель;0.00056
цементация;0.00037
цена;0.00037
центр;0.00019
центральный;0.00019
центрполиграф;0.00019
центрэнерго;0.00019
церемония;0.00037
цитировать;0.00019
цк;0.00019
ч;0.00149
частиня;0.00019
частично;0.00056
часть;0.00224
человек;0.0013
черкасский;0.00019
черниговский;0.00019
чернобыльский;0.00019
честь;0.00019
четыре;0.00056
чигиринский;0.00019
численность;0.00019
число;0.00056
читать;0.00019
член;0.00019
чорний;0.00019
шахта;0.00037
шевченко;0.00019
шестеро;0.00019
шестой;0.00056
шесть;0.0013
ширина;0.00075
широкий;0.00019
широта;0.00019
шлакоцементный;0.00019
шлюз;0.00522
шлюзование;0.00037
шмидт;0.00037
штаб;0.00019
штеровский;0.00019
щитовой;0.00093
э;0.00019
эвакуировать;0.00019
экз;0.00019
экономический;0.00056
экскаватор;0.00037
экспертиза;0.00019
эксплуатационник;0.00019
эксплуатация;0.0013
эксплуатироваться;0.00019
экспорт;0.00037
электрификация;0.00186
электрический;0.00056
электропередача;0.0013
электросила;0.00019
электростанция;0.00168
электростроительство;0.00019
электротехнический;0.00019
электротяжмаш;0.00093
электроэнергетика;0.00019
электроэнергия;0.00224
элемент;0.00037
энергетика;0.00037
энергетический;0.00093
энергия;0.00037
энергоатом;0.00019
энергоиздата;0.00019
энергомост;0.00019
энергопотребление;0.00019
энергосистема;0.0013
энергоснабжение;0.00019
энциклопедия;0.00242
эпов;0.00019
этап;0.00037
этот;0.00205
эффективно;0.00019
эффективный;0.00019
ю;0.00112
юбилейный;0.00037
юг;0.00019
южно-украинский;0.00019
южный;0.0013
юргевич;0.00019
юрезанский;0.00019
юскевич;0.00019
являться;0.00168
язык;0.00037
яким;0.00019
январь;0.00093
ятнуть;0.00019
