абориген;0.0005
авангард;0.00025
авар;0.00025
август;0.00025
авиадиспетчер;0.00025
австралиец;0.00025
австралийский;0.00075
австралия;0.002
автор;0.00025
авторство;0.00025
агония;0.00025
адыгабзэ;0.00025
адыгэбзэ;0.00025
азия;0.00075
айвенго;0.00025
айдахо;0.00025
айова;0.00025
академия;0.0005
активно;0.00025
активный;0.00025
акцент;0.00075
алеманнский;0.00025
алфавит;0.00175
альвеола;0.00025
альвеолярный;0.00075
америка;0.0015
американец;0.0005
американский;0.00401
аналитический;0.00125
аналитичность;0.00025
анга;0.00025
англ;0.00175
англи;0.00025
английский;0.0358
англичанин;0.00025
англия;0.00376
англо-русский;0.0005
англо-фризский;0.00075
англов;0.00025
англосакс;0.001
англосаксонский;0.0005
англосфера;0.00025
англофон;0.00075
англоязычный;0.00075
апикальный;0.0005
апостол;0.00025
апостроф;0.00025
аппалачи;0.00025
аппалачский;0.00025
аппроксимант;0.00025
апрель;0.001
арабский;0.0005
аракина;0.00025
армия;0.00025
артикль;0.00025
архаичный;0.00025
архивировать;0.0025
архивный;0.00075
аршавирович;0.00025
ассамский;0.0005
ассимиляция;0.00025
атлантика;0.00025
африка;0.001
африкаанс;0.0005
афроамериканец;0.00025
афроамериканский;0.00025
аффриката;0.00025
баварский;0.00025
багамы;0.00025
база;0.00025
балтийский;0.00025
балтимор;0.00025
балтиморский;0.00025
бант;0.00025
баранина;0.00025
барроу-ин-фернесса;0.00025
башкирский;0.00025
бедствие;0.00025
бежать;0.00025
безобразный;0.00025
безопасность;0.00025
бейсик-инглиш;0.0005
беларускать;0.0005
белиз;0.00025
белфаст;0.00025
бенгальский;0.00025
бермудский;0.00025
бермуды;0.00025
би-би-си;0.00025
библиографический;0.00025
бизнес;0.00025
бирма;0.00025
бирмингем;0.0005
битва;0.00025
близкий;0.00025
блэк-кантри;0.00025
богатство;0.0005
бодо;0.00025
болгарский;0.00025
более;0.002
болтон;0.00025
больной;0.00025
больший;0.0025
большинство;0.0025
большой;0.00175
борьба;0.00025
бостон;0.00025
бостонский;0.00025
брабантский;0.00025
брадж;0.0005
брать;0.00025
британец;0.00075
британия;0.001
британский;0.00476
брокгауз;0.0005
бросать;0.00025
бруней;0.00025
будущее;0.001
буква;0.001
букмол;0.00025
бунтлинга;0.00025
бургундский;0.00025
буряад;0.00025
буффало;0.00025
буффальский;0.00025
бхак;0.00025
български;0.00025
бывший;0.0005
бык;0.00025
быть;0.003
важность;0.00025
важный;0.00075
валлисский;0.00025
вальтер;0.00025
вандальский;0.00025
вариант;0.00426
вариативность;0.00075
вашингтонский;0.00025
ввести;0.00075
вежливый;0.00025
век;0.00225
великий;0.0005
великобритания;0.002
велярный;0.00025
венгерский;0.00025
венд;0.00025
вермонтский;0.00025
вернер;0.00025
версия;0.00125
вертикальный;0.00025
верхнеалеманнский;0.00025
верхненемецкий;0.00025
верхнесаксонский;0.00025
верхний;0.001
весь;0.0015
ветвь;0.0005
взгляд;0.00025
взрывной;0.00025
взять;0.00025
вид;0.00125
видео;0.00025
видово-временной;0.00025
видовременный;0.00025
викиверситет;0.00025
викигид;0.00075
викидать;0.0005
викимедиа;0.00025
викинг;0.00025
викиновость;0.00025
википедия;0.003
викисклад;0.00075
викисловарь;0.00075
викиучебник;0.00075
викифункция;0.00025
викицитатник;0.00075
вилямовский;0.00025
вино;0.00025
виргинский;0.00025
виски;0.0005
висконсин;0.0005
вклад;0.00025
включать;0.00075
включить;0.00025
владеть;0.00025
владимир;0.00025
влияние;0.00075
вместе;0.0005
внешний;0.0005
вниз;0.00025
внутренний;0.00025
внутриконтинентальный;0.00025
внутриматериковый;0.00025
вода;0.00025
военный;0.001
возможный;0.00075
возникнуть;0.0005
возрождение;0.00025
войти;0.0005
волна;0.00025
волшебный;0.00025
вообще;0.00025
вопрос;0.00075
вопросительный;0.00125
вопрошение;0.00025
восемьдесят;0.00025
воспринять;0.00025
восточногерманский;0.0005
восточнонижненемецкий;0.00025
восточноскандинавский;0.00025
восточносредненемецкий;0.00025
восточнофризский;0.00025
восточный;0.001
восходить;0.00025
восходящий;0.00025
временной;0.00025
время;0.00451
всегда;0.00025
вспомогательный;0.0005
встречаться;0.0005
вступить;0.00025
всякий;0.00025
второй;0.00125
второстепенный;0.00025
входить;0.0005
входящий;0.00025
выделиться;0.0005
выделять;0.0005
выделяться;0.0005
вызывать;0.00025
выйти;0.00025
вып;0.00025
выпадать;0.00025
выполнять;0.0005
высокий;0.00075
высш;0.00025
вышеуказанный;0.00025
г;0.00075
гавайский;0.00025
гавань;0.00025
гайана;0.0005
галла;0.00025
гамлет;0.00025
гвинея;0.00025
где;0.0025
гейль;0.00025
генерал;0.00025
географический;0.00025
германец;0.00075
германоязычный;0.00025
германский;0.00476
гернси;0.00025
герундий;0.00025
герцог;0.00025
гибралтар;0.00025
гич;0.00025
главное;0.00025
главный;0.0005
глагол;0.00551
глагольный;0.0005
гласный;0.001
глобализация;0.0005
глобиш;0.00025
глоттальное;0.00025
глубоко;0.00025
гнусавость;0.00025
говор;0.0005
говорить;0.001
говорящий;0.001
говядина;0.00025
год;0.00626
голландский;0.00025
гонконг;0.00025
горноалеманнский;0.00025
гос;0.00025
господство;0.00025
господствующий;0.00075
гост;0.00025
государственный;0.0005
государство;0.0015
готский;0.0005
гоугейт;0.00025
гоуэр;0.00025
грамматика;0.001
грамматический;0.00175
гранат;0.0005
графический;0.00025
графство;0.00025
греко-латинский;0.00025
грецизм;0.00025
греческий;0.0005
гримм;0.00025
громадный;0.00025
группа;0.0005
груша;0.00025
губно-губной;0.00025
губно-зубной;0.00025
гуджарать;0.0005
гудзона;0.00025
давать;0.0005
дакота;0.0005
далее;0.0015
далеко;0.00025
дальнейший;0.00025
данный;0.00025
дарем;0.00025
дарэм;0.00025
дата;0.00275
датский;0.00125
дать;0.0005
два;0.00075
двойной;0.00025
двуязычие;0.00025
девоншир;0.0005
деепричастие;0.00025
действие;0.00025
действительный;0.00025
действовать;0.00025
декабрь;0.00125
делать;0.00025
делить;0.00025
дело;0.0005
денглиш;0.00025
деятельность;0.00025
джерси;0.0005
джорджия;0.00025
джорди;0.0005
джульетта;0.00025
диалект;0.02128
диаспоральный;0.00025
диккенс;0.00025
дипломатия;0.00025
диссимиляция;0.00025
длина;0.0005
длинный;0.00075
длительный;0.00075
добавочный;0.00025
довольно;0.00025
дозволить;0.00025
долгий;0.001
долина;0.0005
доп;0.00025
дописьменный;0.00025
дополнение;0.00075
дополнительный;0.00025
дополнить;0.00025
дорога;0.00025
дорсет;0.00025
достигать;0.00025
достояние;0.00025
доступный;0.00025
др;0.00075
древнеанглийский;0.00325
древнегреческий;0.00025
древний;0.0015
дротик;0.00025
другой;0.00501
друид;0.00025
дублин;0.00025
дэвид;0.00025
евразия;0.00025
европа;0.0005
европейский;0.00125
еда;0.00025
единица;0.00025
единственный;0.0005
епископ;0.00025
есть;0.00125
ефрон;0.0005
жаргон;0.00025
ждать;0.00025
жест;0.00025
жестовый;0.00025
жестокий;0.00025
живой;0.0005
животное;0.00075
житель;0.0005
житомир;0.00025
житомирский;0.00025
забег;0.00025
заведение;0.00025
завершить;0.00025
зависимость;0.00025
завоевание;0.001
завоеватель;0.0005
заглавный;0.00025
задний;0.00025
заимствование;0.001
заимствовать;0.0005
заключаться;0.00025
закон;0.0005
закономерный;0.00025
закрепление;0.00025
заменить;0.00025
замечание;0.00025
западноамериканский;0.00025
западногерманский;0.00075
западноскандинавский;0.00025
западносредненемецкий;0.00025
западнофризский;0.00025
западный;0.00225
запах;0.00025
запись;0.00025
запятая;0.00025
зарегистрировать;0.00025
затем;0.0005
захватывать;0.00025
зачем;0.00025
заявление;0.00025
звонкий;0.00025
звук;0.00025
звучание;0.00025
зеландия;0.001
зеландский;0.00025
зеленецкий;0.00025
землевладелец;0.00025
зима;0.00025
зимний;0.00025
знак;0.00025
знание;0.00025
знать;0.00025
значение;0.0015
значительно;0.0005
значительный;0.00125
значить;0.00025
зона;0.00025
зубной;0.00025
зулу;0.00025
иврит;0.00025
идиш;0.00025
идти;0.001
избранный;0.00025
известный;0.00025
изд;0.00075
изд-во;0.00025
издаваться;0.00025
издавна;0.00025
издательский;0.0005
изменение;0.001
изменить;0.0005
изменяться;0.00075
изолировать;0.00025
изучать;0.0005
изучение;0.00075
именной;0.00025
иметь;0.0025
иметься;0.00025
иммигрант;0.00025
империя;0.00075
имя;0.00125
иначе;0.00025
инверсия;0.0005
инверсный;0.00025
инвертировать;0.00025
индиана;0.00025
индийский;0.0005
индия;0.00225
индоевропеец;0.00025
индоевропейский;0.00125
индоиранский;0.00025
индустрия;0.00025
иногда;0.0005
иной;0.0005
иностранный;0.0005
инструмент;0.0005
инфинитив;0.00025
иранский;0.00025
ирландия;0.00125
ирландский;0.00075
ирон;0.00025
исключение;0.001
исключить;0.00025
исконно;0.0005
искусный;0.00025
искусство;0.00025
исландский;0.00025
испанский;0.001
использование;0.00025
использовать;0.001
использоваться;0.00175
исправа;0.00025
исправить;0.00025
исследователь;0.0005
исторический;0.00075
история;0.00275
источник;0.00075
исходить;0.00025
исчезать;0.0005
исчезновение;0.00025
исчезнуть;0.00025
итальянский;0.0005
итог;0.00025
июль;0.00025
июнь;0.00075
йол;0.0005
йоркшир;0.001
йский;0.00025
кавычка;0.00025
каджуна;0.00025
каджунский;0.00025
каждый;0.001
какой;0.00025
калифорнийский;0.00025
калифорния;0.00025
камберленд;0.0005
камбрий;0.00025
камерун;0.00025
камтхо;0.00025
канада;0.0015
канадский;0.00125
каннада;0.00025
капитан;0.00025
кардифф;0.00025
кариб;0.00025
каролина;0.0005
карта;0.00025
карточка;0.00025
каталанский;0.00025
каталог;0.00025
категория;0.00125
качество;0.0005
качр;0.0005
кашмирить;0.00025
квалифицировать;0.00025
квебек;0.00025
квебекский;0.00025
кейп-бретон;0.00025
кельт;0.00075
кельтский;0.00075
кения;0.00025
кент;0.00025
киев;0.00025
китайский;0.00075
клан;0.00025
класс;0.0005
классификация;0.00025
книга;0.00075
книгопечатание;0.00025
книжный;0.00025
код;0.00751
кодекс;0.00025
койсканский;0.00025
кокнуть;0.0005
количественный;0.00025
количество;0.00125
колониальный;0.0005
колония;0.00125
коми;0.0005
компенсироваться;0.00025
компромисс;0.00025
компромиссный;0.00025
конверсия;0.0005
конец;0.0015
конечный;0.00025
конкани;0.00025
конкретизация;0.00025
конкурс;0.0005
консервативный;0.0005
конституция;0.00025
контактный;0.00025
контекст;0.00025
континент;0.00025
континентальный;0.00025
конфиденциальность;0.00025
концентрически;0.00025
кончик;0.0005
копия;0.00075
коренной;0.001
корнуолл;0.00025
корнуэлла;0.00025
корова;0.00025
королева;0.00025
король;0.00025
корона;0.00025
короткий;0.00125
коса;0.00025
косвенный;0.00025
который;0.003
красный;0.00025
краткий;0.00075
креол;0.00025
кристал;0.00025
кромлех;0.00025
круг;0.00025
кругосвета;0.00025
крупный;0.00025
кук;0.00025
культ;0.00025
культура;0.00025
культурно-языковой;0.00025
культурный;0.00075
купец;0.00025
кхий;0.00025
къарачай-малкъар;0.00025
кыргызча;0.00025
кырык;0.00025
л;0.00125
лагерь;0.00025
лакку;0.00025
лал;0.00025
ламинальный;0.00025
ланкашир;0.00025
ларусс;0.00025
лата;0.00325
латеральный;0.00025
латинизм;0.0005
латиница;0.00025
латинский;0.00125
латинско-французский;0.00025
латышский;0.00025
лгбт-сленг;0.00025
левицкий;0.0005
лезга;0.00025
лексика;0.00225
лексикон;0.00025
лексический;0.001
либерия;0.00025
ливерпуль;0.0005
лимбургский;0.00025
лингва-франк;0.0005
лингвистика;0.00025
лингвистический;0.0005
лингвогеография;0.0005
линия;0.00025
литература;0.0005
литературный;0.00025
литовский;0.00025
лицензия;0.00025
лицо;0.00075
логический;0.00025
лозить;0.00025
лондон;0.0005
лондонский;0.00025
луизиана;0.00025
луненбург;0.00025
луненбургский;0.00025
лэнкэшир;0.00025
любить;0.00025
любовь;0.00025
любой;0.00025
люксембургский;0.00025
м;0.00075
май;0.00025
майтхиль;0.00025
макать;0.00025
македонски;0.00025
маколя;0.00025
макс;0.00025
малавия;0.00025
малайзия;0.00025
малайский;0.00025
малаялам;0.00025
мало;0.00025
малый;0.00025
мальта;0.00025
мальтийский;0.0005
маммерсет;0.00025
манипури;0.00025
манчестер;0.00025
маори;0.00025
маратх;0.00025
марий;0.00025
март;0.00075
мары;0.00025
масло;0.00025
масса;0.00025
массовый;0.0005
мастерство;0.0005
матвеев;0.00025
материал;0.00025
медиафайл;0.00025
медленно;0.00025
межгосударственный;0.00025
междометие;0.00025
международный;0.002
мелкий;0.00025
менее;0.00025
менять;0.00025
местность;0.00025
местный;0.0005
место;0.0005
местоимение;0.00025
месяц;0.00025
метательный;0.00025
миграция;0.00025
мидленд;0.00025
мидлендс;0.0005
министерство;0.00025
министр;0.00025
миннесота;0.00025
мир;0.00275
мировой;0.00075
мичиган;0.00075
млн;0.0005
млрд;0.00075
многий;0.0005
много;0.0005
многовековый;0.00025
множество;0.0005
мобильный;0.00025
могучий;0.00025
модальный;0.00025
можно;0.001
мокнуть;0.00025
мокшень;0.00025
монастырь;0.00025
монгол;0.00025
монофтонг;0.00025
морской;0.0005
морфология;0.00075
москва;0.00025
мочь;0.001
мьянма;0.00025
мэн;0.0005
мюллер;0.00025
мягкий;0.00025
мясо;0.00025
набег;0.00025
наблюдаться;0.00025
навигация;0.001
навязать;0.00025
нагорный;0.0005
название;0.00225
назвать;0.00025
называть;0.003
называться;0.00025
наиболее;0.00025
наклонение;0.00025
нама;0.00025
намедни;0.0005
намибия;0.00025
наоборот;0.00025
написание;0.00025
написать;0.00025
наречие;0.001
народ;0.00025
нарушение;0.00025
наряду;0.00125
население;0.00275
настоящий;0.001
насчитывать;0.0005
наука;0.00025
научный;0.001
находиться;0.00025
национальный;0.002
нация;0.00025
начальный;0.00025
начинать;0.0005
начинаться;0.00025
наш;0.00025
нгкумо;0.00025
нгунь;0.00025
ндебел;0.0005
небраска;0.00025
неделя;0.00025
недостаток;0.00025
независимость;0.00025
некоммерческий;0.00025
некорректный;0.00025
некоторый;0.00225
немец;0.00025
немецкий;0.00125
немецко-платский;0.00025
немногий;0.00025
немного;0.00025
немногочисленный;0.00025
необходимый;0.00025
неоднозначный;0.00025
неоднородный;0.00025
непасть;0.00025
непосредственно;0.0005
неправильный;0.00025
неприятель;0.00025
неразрывно;0.00025
нередко;0.00025
нерьер;0.00025
несколько;0.0005
несуверенный;0.00025
нигерия;0.001
нидерландский;0.0005
нидерланды;0.00025
нижнеалеманнский;0.00025
нижненемецкий;0.0005
нижнесаксонский;0.0005
нижнефранкский;0.00025
нижний;0.0005
новоанглийский;0.001
новозеландский;0.0005
новый;0.00325
норвежский;0.0005
норма;0.00075
нормандский;0.00025
норманизм;0.00025
норманн;0.00025
норманно-французский;0.00125
норманнский;0.00025
нормативный;0.00025
норн;0.00025
нортамберленд;0.00025
нортумберленд;0.00075
норфолк;0.0005
носитель;0.00175
носовой;0.00025
нохчийна;0.00025
ноябрь;0.00025
нтв;0.00025
нхлангвини;0.00025
нынешний;0.00025
нью-гэмпшир;0.00025
нью-йорк;0.00075
нью-йоркский;0.00025
нью-фаундленский;0.00025
ньюкасл;0.00025
ньюфаундленд;0.00025
нюношк;0.00025
оба;0.00025
обладать;0.00025
область;0.0005
обонять;0.00025
оборот;0.00025
обосноваться;0.00025
образ;0.00075
образование;0.00075
образовательный;0.0005
образовать;0.0005
обратить;0.0005
обратиться;0.00025
обратный;0.0005
обращение;0.003
обретение;0.00025
обстоятельство;0.00075
обстоять;0.00025
обсуждение;0.0005
общегерманский;0.00025
общеиндоевропейский;0.0005
общение;0.0005
общеупотребительный;0.00025
общий;0.0015
общность;0.00025
объединять;0.00025
объявить;0.00025
объяснить;0.00025
обычно;0.00025
обычный;0.0005
овладеть;0.00025
овца;0.00025
огайо;0.0005
оглушение;0.00025
ограничить;0.00025
огромный;0.0005
одежда;0.00025
один;0.00476
одинарный;0.00025
односложный;0.00075
ожидать;0.00025
озарк;0.00025
озеро;0.00025
оказываться;0.00025
океания;0.00025
оклахома;0.00025
окончание;0.001
оксфордский;0.00025
октябрь;0.00175
олыко;0.00025
ольстер;0.00025
онлайн;0.00025
оон;0.001
описание;0.0005
описать;0.00025
определение;0.0005
определяться;0.00025
опустить;0.00025
ораторский;0.0005
организация;0.00075
ория;0.00025
орламский;0.00025
орлеан;0.0005
орфографический;0.0005
орфография;0.001
ослабевать;0.00025
основа;0.00125
основное;0.00075
основной;0.0005
основный;0.00275
особенно;0.00025
особенность;0.001
оставаться;0.00025
остальной;0.0005
остаться;0.0005
остров;0.00175
осуществляться;0.00025
ответственность;0.00025
отглагольный;0.00025
отдаляться;0.00025
отделение;0.00025
отделиться;0.00025
отдельно;0.00025
отдельный;0.00075
отказ;0.00025
отличие;0.00075
отметить;0.0005
отмечаться;0.00025
отмирание;0.00025
относить;0.00025
относиться;0.00125
отношение;0.00075
отойти;0.00025
отпадать;0.00025
отпадение;0.00025
отпатрулировать;0.00025
отражать;0.00025
отредактировать;0.00025
отрицательный;0.00025
отрывок;0.00025
отступать;0.0005
отсутствие;0.0005
отсутствовать;0.00025
оттава;0.00025
оттавскай;0.00025
официальный;0.00476
охватить;0.00025
охватывать;0.00025
очень;0.0005
очередь;0.00025
ошибка;0.00025
ошибочий;0.00025
п;0.00025
пакистан;0.0005
палатализация;0.00025
палатализовать;0.00025
палатальный;0.00025
палау;0.00025
памятник;0.00025
панджаби;0.00025
панкглиш;0.00025
папуа;0.00025
парламентский;0.00025
партия;0.00025
пахнуть;0.00025
пенджабский;0.00025
пенсильвания;0.00075
пенсильванский;0.0005
пенсильванско-немецкий;0.00025
первый;0.00175
передаваться;0.00025
передача;0.00025
передний;0.00025
перейти;0.00075
переселение;0.0005
переселиться;0.0005
переход;0.00025
переходить;0.00025
период;0.00476
персик;0.00025
персональный;0.00025
перь;0.00025
песня;0.00025
печать;0.0005
пик;0.00025
писатель;0.00025
письменность;0.001
письменный;0.0005
письмо;0.00025
питматик;0.00025
питтсбург;0.00025
питтсбургский;0.00025
пласт;0.00075
плато;0.00025
плащ;0.00025
плед;0.00025
племя;0.00075
по-ирландски;0.00025
победа;0.00025
победитель-англосакс;0.00025
поведение;0.00025
повествовательный;0.00075
повлиять;0.00025
повторяться;0.00025
погребальный;0.00025
подавлять;0.00025
подвергаться;0.00025
подгорный;0.0005
подгруппа;0.0005
подлежащее;0.0015
поднять;0.00025
подобный;0.00025
подразделяться;0.00025
подробный;0.00075
пожертвовать;0.00025
поздний;0.00025
поиск;0.0005
пойти;0.0005
показательно;0.00025
показательный;0.00025
поливать;0.00025
политика;0.00075
политический;0.00025
полностью;0.00075
полный;0.00075
половина;0.00025
полоса;0.00075
полуостров;0.00025
получить;0.00025
польский;0.00025
помочь;0.00025
помощь;0.00025
поныне;0.00025
понятие;0.00025
порой;0.00025
португальский;0.00075
порядок;0.00175
последний;0.00025
последствие;0.00025
последующий;0.00075
пособие;0.0005
пост-альвеолярный;0.00025
постальвеолярный;0.00025
постановление;0.00025
постепенно;0.001
постоянный;0.00025
постройка;0.00025
потом;0.00025
потомок;0.0005
поттерис;0.00025
почти;0.00125
появиться;0.00025
появляться;0.00025
пр;0.00025
правило;0.00075
правильный;0.00025
правительство;0.00025
править;0.01502
правка;0.0005
право;0.00025
правописание;0.00025
прагерманский;0.00025
практически;0.00025
практический;0.00075
праязык;0.00025
превратить;0.00025
превращение;0.00025
предел;0.00025
предлог;0.0005
предложение;0.00351
предок;0.0005
предположение;0.00025
предпочитать;0.00025
представиться;0.00025
прекратить;0.00025
преобладать;0.0005
преподавание;0.00025
преступление;0.00025
претерпевать;0.00025
претерпеть;0.00025
преторийский;0.00025
прибавление;0.00025
приближаться;0.00025
прибрежный;0.00025
привести;0.00025
пригород;0.00025
придавать;0.00025
признак;0.0005
призыв;0.00025
прилагательное;0.00125
прилив;0.00025
пример;0.00075
примерно;0.00025
примечание;0.0005
приморский;0.00025
принадлежать;0.0005
принимать;0.00025
принять;0.0005
приобретать;0.00075
приобретение;0.0005
присоединяться;0.00025
приход;0.00025
приходиться;0.00025
причастие;0.00125
причитание;0.00025
пробежка;0.00025
провести;0.00025
провиденс;0.00025
провинция;0.00025
проводить;0.00025
проволока;0.00025
программа;0.00025
продолж-ть;0.00025
продолжать;0.00025
продолжаться;0.00025
продолжить;0.00025
продолжиться;0.00025
проект;0.00075
проза;0.00025
произносительный;0.0005
произносить;0.00025
произноситься;0.00025
произношение;0.00075
происходить;0.00075
происхождение;0.002
пролив;0.00025
промежуток;0.00025
промышленность;0.0005
проникать;0.00025
проникновение;0.0005
просмотр;0.00025
простой;0.00175
пространство;0.00025
противопоставляться;0.00025
противоречие;0.00025
профессиональный;0.00025
процент;0.00025
процесс;0.0015
прочно;0.00025
прошедшее;0.00125
проявляться;0.00025
прямой;0.001
псевдодиалект;0.0005
публицистика;0.00025
пунктуация;0.0005
путеводитель;0.00025
пхутхи;0.00025
пьеса;0.00025
пэр;0.00025
пять;0.0005
работа;0.00075
рабочий;0.00025
равнинный;0.00025
раджастхани;0.00025
раз;0.00025
разбойник;0.00025
разветвить;0.00025
развиваться;0.00025
развитие;0.002
развлечение;0.00025
разговорный;0.00075
раздел;0.00075
разительный;0.00025
различие;0.0005
различный;0.00025
разновидность;0.00025
разнообразие;0.00075
разноязычный;0.00025
разный;0.0005
разработчик;0.00025
район;0.00025
ранненовоанглийский;0.00025
ранний;0.001
распадаться;0.00025
распределяться;0.00025
распространение;0.00125
распространить;0.0005
распространиться;0.00025
расселение;0.00025
рассказ;0.00025
расслабить;0.00025
рассматривать;0.00025
растение;0.00025
расходиться;0.00025
расширение;0.0005
расширяться;0.00025
реакция;0.00025
реальный;0.00025
регион;0.001
региональный;0.0005
редкий;0.0005
редко;0.00025
редукция;0.0005
результат;0.00125
рейтинг;0.00025
река;0.00025
религиозный;0.0005
ремесленный;0.00025
ремесло;0.00025
республика;0.00025
ресурс;0.00025
речь;0.00275
римлянин;0.00025
род-айленд;0.00025
родный;0.0025
родоначальник;0.00025
родственный;0.0005
родство;0.00025
роль;0.00125
роман;0.00025
романский;0.00025
российский;0.00025
рост;0.00025
румынский;0.00025
рунглиш;0.00025
рунический;0.00025
русиньскый;0.00025
русский;0.0025
русый;0.0005
ряд;0.00175
саванна;0.00025
сайт;0.00025
сакс;0.00025
сам;0.00025
самоназвание;0.0005
самостоятельно;0.00025
самостоятельность;0.00025
самоучитель;0.00025
самый;0.00075
сандерленд;0.00025
санскрит;0.0005
санталь;0.00025
сассекс;0.00025
саха;0.00025
сватить;0.00025
сведение;0.00025
свежий;0.00025
свинина;0.00025
свинья;0.0005
свободный;0.00025
своеобразный;0.00025
свой;0.0015
связанный;0.0005
связать;0.0005
связаться;0.00025
связь;0.0005
сдвиг;0.00025
сделать;0.00025
север;0.00075
севернофризский;0.00025
северный;0.00426
северо-восточный;0.0005
северо-запад;0.00025
северо-западный;0.0005
семья;0.0005
сент-луисский;0.00025
сентябрь;0.00025
середина;0.00125
серийный;0.00025
сесото;0.00025
сильный;0.0005
сингапур;0.00025
синдх;0.00025
синтаксис;0.0005
синтаксический;0.00025
синтетический;0.00025
система;0.00125
сказуемое;0.0005
скамтый;0.00025
скандинавский;0.00075
сканский;0.00025
скауза;0.0005
скачать;0.0005
складываться;0.00025
склонение;0.00025
скотт;0.00025
скрытый;0.00025
скрэнтон;0.00025
слабо;0.00025
слабость;0.00025
слабый;0.00025
славовый;0.0005
славянский;0.00025
следовать;0.00025
следствие;0.00025
следующий;0.00075
слишком;0.00025
слияние;0.00025
словарный;0.00025
словарь;0.00225
словацкий;0.00025
словенский;0.00025
слово;0.01452
словоформа;0.00025
слог;0.0005
сложность;0.00025
сложный;0.0005
слой;0.00025
служба;0.0005
служебный;0.00025
служить;0.00025
случай;0.001
случайный;0.00025
сметь;0.00025
смешанный;0.0005
смешение;0.0005
сми;0.00025
смотреть;0.00225
смысл;0.00025
смысловой;0.0005
смычный;0.0005
смягчение;0.00025
сначала;0.00025
событие;0.00025
совершенно;0.0005
совершенный;0.00025
совершенство;0.00025
совершить;0.00075
совет;0.00025
советский;0.00025
совпадать;0.00025
совр;0.001
современный;0.00376
согласный;0.001
согласование;0.00025
содержание;0.0005
содержать;0.00025
содержаться;0.00025
содружество;0.001
соединить;0.00025
соединяться;0.00025
создать;0.00025
сокращаться;0.00025
сокращение;0.00025
солдат;0.00025
соломонов;0.00025
сомерсет;0.00025
сонант;0.00025
сообщество;0.00025
сообщить;0.00025
соответственно;0.00025
соответствовать;0.00025
соответствующий;0.00025
сопоставить;0.00025
соприкосновение;0.00025
соседний;0.00025
состав;0.00025
составлять;0.00075
составляться;0.00025
состояние;0.00025
сосуществовать;0.00025
сото;0.0005
сото-тсвана;0.00025
сохранение;0.00025
сохранить;0.0005
сохраниться;0.00025
социальный;0.0005
социо-культурный;0.00025
союз;0.001
спанглиш;0.00025
специальный;0.0005
список;0.0005
сплачивать;0.00025
способ;0.00075
способствовать;0.0005
справка;0.00025
спряжение;0.00025
спустить;0.00025
сравнение;0.0015
сравнительно;0.00075
сравнительный;0.001
среда;0.00025
средне-атлантический;0.00025
средне-западный;0.00025
средне-нижний;0.00025
среднеанглийский;0.001
среднеатлантический;0.00025
средневековый;0.00025
средневековье;0.0005
среднезападный;0.00025
средненемецкий;0.00025
средний;0.00125
српски;0.00025
српскохрватски;0.00025
ссср;0.0005
ссылка;0.003
стабильный;0.00025
ставиться;0.0005
стандартный;0.00125
становиться;0.00225
становление;0.00025
старое;0.00025
старофранцузский;0.00175
старый;0.00025
статистика;0.00025
статус;0.00075
стать;0.002
статья;0.00551
стена;0.00025
степень;0.0005
стихотворный;0.00025
стоить;0.00025
сток-он-трент;0.00025
страдательный;0.00025
страна;0.00501
страница;0.002
строгий;0.00025
строение;0.00025
строить;0.00025
строй;0.0005
структура;0.00025
студа;0.00025
стык;0.00025
суд;0.0005
судопроизводство;0.00025
судья;0.00025
супплетивый;0.00025
суссекс;0.00025
суффикс;0.00025
суффолкнуть;0.00025
существительное;0.00125
существовать;0.00075
сфера;0.00075
считать;0.0005
считаться;0.0015
сша;0.00325
сыграть;0.00025
сыр;0.00025
сьерра-леоне;0.00025
сюда;0.00025
таблица;0.00025
тайдуотерский;0.00025
тайна;0.00025
тайнсайда;0.0005
так;0.001
таков;0.0005
такой;0.00275
тамильский;0.00075
тампский;0.00025
танзания;0.00025
татарча;0.00025
текст;0.0005
текущий;0.00025
телеграфировать;0.00025
телекомпания;0.00025
телугу;0.0005
телятина;0.00025
темза;0.00025
теннисон;0.00025
теоретический;0.00025
термин;0.0015
территориальный;0.00075
территория;0.001
терять;0.00025
техасский;0.00025
течение;0.00075
типология;0.001
титул;0.00025
тихоокеанский;0.00075
тишина;0.00025
тобаго;0.00025
товарный;0.00025
только;0.001
тонкий;0.0005
торговля;0.0005
торресова;0.00025
тот;0.00175
точка;0.0005
традиционно;0.00025
традиция;0.00025
транскрипция;0.00075
требовать;0.00025
третий;0.00075
три;0.0005
тридцать;0.00025
тринидад;0.00025
трудный;0.00025
тсв-ронг;0.00025
тсван;0.00025
тсонг;0.00025
тсотситааль;0.00025
тыва;0.00025
тыл;0.00025
тюрингско;0.00025
уганда;0.0005
ударение;0.0005
удмурт;0.00025
уже;0.0005
уилтшир;0.00025
уильям;0.00025
уйти;0.00025
указание;0.00025
указать;0.00025
указывать;0.00025
украина;0.0005
украинский;0.00025
улучшение;0.00025
уметь;0.00025
умирать;0.00025
уна-т;0.00025
универсальный;0.00025
уничтожение;0.00025
упомянуть;0.00025
употребление;0.00075
употреблять;0.00025
употребляться;0.0005
управление;0.00075
упрощение;0.00025
урд;0.0005
уровень;0.0005
условие;0.001
условный;0.00025
устный;0.0005
устье;0.00025
утвердительный;0.00025
участвовать;0.00025
участие;0.00025
учебный;0.00075
учитывать;0.00025
учиться;0.00025
учреждение;0.00025
уэбстер;0.00025
уэксфорд;0.00025
уэльс;0.001
уэст-кантри;0.00025
уэстморленд;0.00025
фактически;0.00025
фактический;0.00025
фактор;0.00025
фанагало;0.00025
фантазия;0.00025
фарерский;0.00025
февраль;0.00025
федеральный;0.0005
физматлить;0.00025
филадельфийский;0.00025
филадельфия;0.00025
филиппина;0.00025
фильм;0.00025
финский;0.00025
фламандский;0.0005
флексия;0.00075
флоридский;0.00025
фолклендский;0.00025
фонд;0.00025
фонетика;0.001
фонетический;0.0005
фонологический;0.00025
фонология;0.00075
форма;0.00401
формально-звуковой;0.00025
формирование;0.00025
форум;0.00025
фр;0.001
фраза;0.00025
франгл;0.00025
франко;0.00025
франкофон;0.00025
француз;0.00025
французский;0.00125
фризский;0.0005
функция;0.0005
фэнтези;0.00025
хальмг;0.00025
характер;0.00025
характеристика;0.0005
характерный;0.002
харкерс;0.00025
хинглисать;0.00025
хинглиш;0.00025
хинди;0.001
ходить;0.00025
хождение;0.00025
хозяйство;0.00025
хорватский;0.00025
христианство;0.0005
худяков;0.00025
царствовать;0.00025
центр;0.0005
центральный;0.00275
церковный;0.0005
церковь;0.0005
цех;0.00025
цимбрский;0.00025
цитата;0.00025
цитировать;0.00025
чарлстон;0.00025
частично;0.00075
частичный;0.00025
частность;0.0005
частый;0.00025
часть;0.00426
чел;0.00075
человек;0.001
человеческий;0.00025
четыре;0.001
чешир;0.0005
чешский;0.00025
чикаго;0.00025
чикагский;0.00025
чикано;0.0005
числительное;0.00025
число;0.0025
чисто;0.00025
читать;0.00025
член;0.00075
чтение;0.00075
шаблон;0.00025
шахбагов;0.00025
швабский;0.00025
шведский;0.0005
швейцарский;0.0005
шекспир;0.00025
шелли;0.00025
шесть;0.00025
шеффилд;0.00025
шикнуть;0.00025
широко;0.00025
школа;0.00025
школьный;0.00025
шотландия;0.001
шотландский;0.0005
шри-ланка;0.00025
штат;0.0015
щелевой;0.00025
э;0.0005
эдинбург;0.00025
эквивалент;0.00025
экз;0.00025
экспорт;0.00025
экстаз;0.00025
элемент;0.00025
эльвдальский;0.00025
эмоциональный;0.00025
энциклопедический;0.00025
энциклопедия;0.0005
эпоха;0.001
эрзянить;0.00025
эссекс;0.00025
эстонглиш;0.00025
эстонский;0.00025
этап;0.0005
этимология;0.00025
этот;0.00476
юар;0.00075
юго-восточный;0.00025
южно-африканский;0.00025
южноафриканский;0.00025
южнонемецкий;0.00025
южный;0.00351
юнеско;0.00025
юпер;0.00025
ют;0.00025
ютский;0.00025
явление;0.00025
являться;0.00451
язык;0.05208
языковед;0.0005
языковедение;0.00025
языковой;0.00075
языковый;0.00025
ямайка;0.00025
