апрель;0.00533
благодарность;0.00107
блокировка;0.00213
более;0.00426
большой;0.00107
вера;0.00107
версия;0.10981
верхний;0.00107
визуальный;0.0032
вика-текст;0.00107
википедия;0.00213
вклад;0.05437
войти;0.00107
вопрос;0.0032
выбрать;0.00107
глобальный;0.00426
дата;0.00107
действие;0.00107
декабрь;0.02132
добавить;0.00107
добавление;0.00107
домен;0.00107
дополнение;0.00107
доставка;0.00107
достигнуть;0.00107
доступный;0.00107
другой;0.00107
журнал;0.03518
заблокировать;0.00107
заглавный;0.05437
загрузка;0.00107
задача;0.0064
замена;0.00107
запись;0.00107
защита;0.00107
заявление;0.00107
избранный;0.00107
изменение;0.01919
изменить;0.00107
импорт;0.00107
имя;0.00213
инструмент;0.00533
исполнитель;0.00107
источник;0.00213
июль;0.00213
категория;0.00107
кодекс;0.00107
количество;0.00107
конфиденциальность;0.00107
короткий;0.00107
корректура;0.00107
кук;0.00107
май;0.00533
март;0.01493
массовый;0.00107
машинный;0.00107
метка;0.0032
мобильный;0.00533
модель;0.00213
модуль;0.00107
навигация;0.0032
название;0.00107
наставник;0.00213
наставничество;0.00107
неоднозначность;0.00107
новичок;0.0064
новый;0.00746
ноябрь;0.02026
обновление;0.00107
обсуждение;0.05437
объединение;0.00107
октябрь;0.01493
описание;0.00107
ответ;0.00107
ответственность;0.00107
отказ;0.00107
откат;0.00107
отключить;0.00107
отмена;0.00213
отменить;0.00107
отметка;0.00426
отпатрулировать;0.10021
очистка;0.00107
ошибка;0.00107
панель;0.00213
пат;0.00107
патрулирование;0.00853
перевод;0.00426
переименование;0.0032
перейти;0.00213
перенаправление;0.0032
персональный;0.00107
печать;0.00213
поведение;0.00107
подтверждение;0.00107
пожертвовать;0.00107
поиск;0.00213
показать;0.00107
политика;0.00107
получить;0.00107
помощь;0.00107
править;0.00107
правка;0.0032
право;0.00213
предел;0.00107
предложение;0.00107
представиться;0.00107
прежний;0.00107
приложение;0.0032
проверить;0.01493
просмотр;0.00107
просмотреть;0.00213
пространство;0.00107
разработчик;0.00107
ранее;0.00107
расширить;0.00107
регистрация;0.00107
редактор;0.00426
режим;0.00107
русский;0.00107
ручной;0.0032
свежий;0.00107
связаться;0.00107
сентябрь;0.00107
система;0.00107
скачать;0.00107
скрытый;0.00959
скрыть;0.00107
служебный;0.0032
случайный;0.00107
снятие;0.00107
снять;0.0032
событие;0.00107
содержание;0.00107
содержимое;0.00213
создание;0.00107
создать;0.00107
сообщение;0.00107
сообщество;0.00107
сообщить;0.00107
соответствовать;0.00107
состояние;0.05011
список;0.00107
справка;0.00213
справочный;0.00107
ссылка;0.00426
стабилизация;0.00107
старый;0.00426
статистика;0.00107
статья;0.0032
страница;0.11301
тег;0.00959
текст;0.00107
текущий;0.00107
тема;0.00107
тестовый;0.00107
тип;0.00107
требование;0.00107
удаление;0.00213
удалить;0.00107
управление;0.00107
условие;0.00107
устройство;0.00107
участие;0.00107
участник;0.0064
файл;0.00107
февраль;0.01493
фиксация;0.00107
фильтр;0.00213
форум;0.00107
цель;0.00213
экспорт;0.00107
эмодзь;0.00107
язык;0.00107
январь;0.0064
