аанга;0.0001
аарон;0.0001
аббасидский;0.0001
абдал-хан;0.0001
абдель;0.0001
абденанов;0.0001
абдул;0.0001
абдул-меджид;0.0001
абдул-муслим;0.0001
абдуллаев;0.0001
абдур-рахим;0.0001
абеть;0.0001
аблаут;0.0001
абрахам;0.00019
абхазия;0.0001
абхазский;0.0001
абхидхамма;0.0001
авантюрист;0.0001
авария;0.00029
аватар;0.0001
авгур;0.0001
август;0.00039
аверс;0.0001
авиабаза;0.0001
авиадесантный;0.0001
авиакатастрофа;0.0001
авиационно-космический;0.0001
авиационный;0.0001
авиация;0.00029
аврам;0.0001
авранша;0.0001
аврелиана;0.0001
аврелий;0.0001
австралийский;0.00019
австралия;0.0001
австро-венгерский;0.0001
австро-венгрия;0.00019
автобиографический;0.0001
автобиография;0.0001
автозаводский;0.0001
автомат;0.00019
автоматический;0.0001
автомобиль;0.0001
автономный;0.00019
автопортрет;0.0001
автор;0.00019
авторство;0.00019
автохтон;0.0001
ага;0.0001
агамемнон;0.0001
агасси;0.0001
агата;0.0001
агафокл;0.0001
агафья;0.0001
аггей;0.0001
агенобарба;0.00019
агент;0.00019
агис;0.0001
агриппина;0.0001
агьон;0.0001
ад;0.00029
ада-дурра;0.0001
адам;0.0001
адамантан;0.0001
адвенчур;0.0001
аденоассоциированный;0.0001
адиабатический;0.0001
административно-территориальный;0.0001
административный;0.00019
администрация;0.0001
адольф;0.00029
адонис;0.0001
адриано;0.0001
азар;0.0001
азербайджан;0.00039
азербайджанский;0.00019
азиатский;0.0001
азизов;0.0001
азия;0.00029
азов;0.0001
азриэль;0.0001
аир;0.0001
айдар;0.0001
айдарович;0.0001
айдахо;0.0001
айдыногуллар;0.0001
айзек;0.0001
айомми;0.0001
ак-сункура;0.0001
академический;0.00019
академовский;0.0001
акантода;0.0001
акатена;0.0001
аквилий;0.0001
акидзук;0.0001
акий;0.0001
аким;0.0001
акимович;0.0001
акр;0.00019
акт;0.00029
актиноид;0.0001
акула;0.00135
акула-нянька;0.0001
аламо;0.00019
алан;0.00039
алауддевле;0.0001
алаэддин-бей;0.0001
алгоритм;0.0001
але;0.0001
алекпер;0.0001
александара;0.0001
александер-арнольд;0.0001
александр;0.00279
александрийский;0.00019
александров;0.0001
александрович;0.0001
александровский;0.00019
алексей;0.00106
алессандро;0.0001
алжир;0.0001
алжирский;0.0001
али-ага;0.0001
али-масджид;0.0001
али-хан;0.0001
алибаба;0.0001
алиме;0.0001
алипанов;0.0001
алиса;0.00039
алкалоид;0.00019
алкен;0.0001
алкет;0.0001
алкивиад;0.0001
алкина;0.0001
алкоголизм;0.0001
алла;0.0001
аллан;0.0001
алонсо;0.0001
алтарь;0.0001
алукарда;0.0001
алуф;0.0001
алфавит;0.00019
алхимик;0.0001
алшихов;0.0001
аль-хаджиб;0.0001
альбатросовый;0.0001
альберс;0.0001
альберт;0.0001
альбертозавр;0.0001
альбинский;0.0001
альбом;0.00029
альбрехт;0.0001
альгология;0.0001
альдо;0.0001
альдольный;0.0001
альпийский;0.0001
альпинист;0.0001
альтернативный;0.00019
альцгеймер;0.0001
амадей;0.0001
амалия;0.0001
амбарный;0.0001
амбато;0.0001
амелия;0.0001
америка;0.0001
американец;0.00019
американский;0.00106
аметистовый;0.0001
амин;0.0001
аминта;0.00019
аммиан;0.0001
амория;0.0001
ампеть;0.0001
амстердам;0.0001
амурский;0.0001
амфетамин;0.00019
амьенскай;0.0001
ана;0.0001
анаксагор;0.0001
анаксарх;0.0001
анализ;0.0001
анатолий;0.00077
анатомия;0.00019
ангвиссол;0.0001
ангел;0.00039
англ;0.00039
английский;0.00019
англия;0.00087
англо-нормандский;0.00019
англо-эфиопский;0.0001
андерсен;0.0001
андерсон;0.0001
анджей;0.0001
андре;0.00019
андреас;0.0001
андреев;0.00029
андреевич;0.00019
андреевский;0.0001
андрей;0.00077
андресс;0.0001
андриск;0.0001
андроген;0.0001
андрогеновый;0.0001
андроник;0.0001
анекдот;0.0001
анечка;0.0001
анжуйский;0.0001
анимация;0.0001
аниме;0.0001
анит;0.0001
аничков;0.0001
анкваб;0.0001
анкилозавр;0.0001
анкирский;0.0001
анна;0.00096
анна-элизабет;0.0001
аннамачарья;0.0001
аннандейл;0.0001
аноикиса;0.0001
анри;0.0001
антарктида;0.0001
антарктический;0.00029
антверпен;0.0001
антверпенский;0.0001
антенна;0.0001
антиген;0.0001
антигона;0.0001
антидепрессант;0.0001
антина;0.0001
антиохийский;0.00019
антиохия;0.0001
антиохнуть;0.0001
антипапа;0.0001
антипатра;0.0001
антипатры;0.0001
антисемитизм;0.00029
антисфен;0.0001
антифашистский;0.0001
античность;0.00019
античный;0.0001
антология;0.0001
антон;0.00019
антоний;0.00039
антонин;0.00019
антонино;0.0001
антониус;0.0001
антонов;0.0001
аня;0.0001
апельсиннолепестковый;0.0001
апиата;0.0001
апология;0.0001
апория;0.0001
апостольский;0.0001
аппарат;0.0001
аппиева;0.00019
аппий;0.0001
аппуля;0.0001
апрель;0.00019
аптекарский;0.0001
аптечный;0.0001
аптон;0.00019
апэкс;0.0001
араб;0.0001
арабо-хазарский;0.0001
арабский;0.0001
аракчеев;0.0001
арбакл;0.0001
арбатский;0.0001
арбитражный;0.0001
арвид;0.0001
аргайла;0.0001
аргентина;0.0001
аргинусский;0.0001
аргумент;0.0001
ардатов;0.0001
ардзинб;0.0001
ардмор;0.0001
арест;0.0001
арестант;0.0001
аретея;0.0001
арзамас;0.0001
ариарат;0.0001
арион;0.0001
аристандра;0.0001
аристогитон;0.0001
аристократ;0.0001
арк;0.0001
арка;0.0001
аркада;0.0001
армандо;0.0001
армейский;0.0001
армения;0.0001
армия;0.00164
армянин;0.0001
армянский;0.00058
арнольд;0.00019
арнольдо;0.0001
арнульф;0.0001
арриана;0.0001
арриб;0.0001
арсеньев;0.0001
арт;0.0001
артабаз;0.0001
артабан;0.0001
артемида;0.0001
артемисия;0.0001
артиллерия;0.00019
артук;0.00019
артур;0.00067
арумынский;0.0001
арундеть;0.00029
архангельский;0.0001
архелая;0.0001
археоиндри;0.0001
археологический;0.0001
архидать;0.0001
архиерейский;0.0001
архипелаг;0.0001
архипелагскай;0.0001
архит;0.0001
архитектор;0.0001
архитектура;0.00039
арцезо;0.0001
арчимбольдо;0.0001
аршак;0.00019
асаповый;0.0001
асимптотический;0.0001
аслан;0.0001
аспасий;0.0001
аспект;0.0001
аспириновый;0.0001
ассоциативность;0.0001
ассоциация;0.00019
астма;0.0001
астрономия;0.00019
атаго;0.0001
атака;0.00039
атаковать;0.0001
аталант;0.0001
атеизм;0.00019
атилия;0.0001
атиу;0.0001
атлант;0.0001
атлантический;0.00019
атлетика;0.0001
атмосфера;0.00019
атсызть;0.0001
атта;0.0001
атталый;0.0001
ауэрштедт;0.0001
афаманта;0.0001
афанасий;0.0001
афинский;0.0001
афон;0.0001
афрасиябнуть;0.0001
африканец;0.0001
африканский;0.00029
ах;0.0001
ахаик;0.0001
ахалтекинский;0.0001
ахарняня;0.0001
ахейский;0.0001
ахмад;0.0001
ахмед;0.0001
ахмед-паша;0.00029
ахмеди;0.00019
ахмет-паша;0.0001
ахметзян;0.00019
ацилия;0.0001
ашворт;0.0001
ашик-гариб;0.0001
аэропорт;0.00019
аэс;0.0001
аякс;0.00019
аяна;0.0001
ба-и;0.0001
бабакотия;0.0001
бабат;0.0001
бабенберг;0.0001
баварский;0.0001
багапш;0.0001
багли;0.0001
багровый;0.0001
бадалбейль;0.0001
бадда;0.0001
бажан;0.0001
база;0.0001
базовицкий;0.0001
байич;0.0001
байкеев;0.0001
байконур;0.0001
байло;0.0001
байтурсуновский;0.0001
баклс;0.0001
бакри;0.0001
баксанский;0.0001
бакстер;0.0001
бактериальный;0.0001
бактерия;0.0001
бал;0.0001
балак;0.0001
баламандский;0.0001
баланс;0.0001
балет;0.0001
балкан;0.0001
балканский;0.00019
балкарец;0.0001
баллада;0.00019
балтийский;0.00029
балтьер;0.0001
балхаш;0.0001
балянус;0.0001
бамбанг;0.0001
бандит;0.0001
банкер-хилла;0.0001
банко;0.0001
баня;0.0001
бар;0.00019
барабан;0.0001
барановичский;0.0001
барбара;0.00019
барбер;0.0001
барберинить;0.0001
бардо;0.0001
барзилай;0.0001
барин;0.0001
барка;0.00019
баркид;0.00019
бармак;0.0001
барнаул;0.00039
барон;0.00077
баронесса;0.0001
барра;0.0001
барретта;0.0001
барсаум;0.0001
барсин;0.0001
бартлетта;0.0001
барщина;0.0001
баскетбол;0.00019
баскетболист;0.0001
басс-харбор-хед;0.0001
бассейн;0.0001
бассет;0.0001
бастиан;0.0001
батальон;0.0001
батарея;0.0001
баттенберг;0.0001
батый;0.00019
бауманский;0.0001
бахметьевский;0.0001
бахра;0.0001
бахтин;0.0001
бахчисарай;0.0001
башкортостан;0.0001
башкурдистан;0.0001
башня;0.00019
баязет;0.0001
беато;0.0001
беатриса;0.0001
беатриче;0.0001
беггар;0.0001
бедный;0.0001
бедфорд;0.00019
бежать;0.0001
беженец;0.00019
безземельный;0.0001
безмолвный;0.0001
безноминальный;0.0001
безродный;0.0001
бейзилона;0.0001
бейлербеть;0.0001
бейлербь;0.0001
бейлик;0.00019
бейсбол;0.0001
бейсболист;0.0001
бейтс;0.0001
бел;0.0001
беларускать;0.00019
беларусь;0.0001
белгравий;0.0001
белград;0.00029
белз;0.0001
белина-пражмовский;0.0001
беллерофонт;0.0001
белль;0.0001
белоглазый;0.0001
белоголовый;0.00019
белогорлый;0.0001
белок;0.0001
белоклювый;0.0001
белокопытник;0.0001
белокрыльник;0.0001
белорус;0.0001
белоруссия;0.00029
белорусский;0.00039
белоспинный;0.0001
белостокский;0.0001
белохвостый;0.0001
белый;0.00039
бельво;0.0001
бельгийский;0.0001
бельцони;0.0001
бен;0.00058
бенджамин;0.0001
бендиса;0.0001
бенедетта;0.0001
бенжамена;0.0001
бензопила;0.00039
бенинга;0.0001
бенитый;0.0001
бенна;0.0001
беннингтон;0.0001
бенч;0.0001
беорн;0.0001
беортнота;0.0001
беортхельма;0.0001
беотийский;0.0001
березань;0.0001
березуцкий;0.0001
беременность;0.0001
беренгарий;0.0001
берлинский;0.0001
берлускони;0.0001
бернардин;0.0001
бернуть;0.0001
бернхард;0.0001
беро;0.0001
берроуз;0.0001
берроуз-младший;0.0001
бесобой;0.00029
беспозвоночный;0.0001
бесс;0.0001
бессарабия;0.0001
бесславный;0.0001
бессмертный;0.00019
бесшумный;0.0001
бехарри;0.0001
библейский;0.0001
библиотека;0.00077
библия;0.0001
бибоп;0.0001
бивердем-крик;0.0001
биверс;0.0001
бидлисить;0.0001
бикини;0.0001
бикрофт;0.0001
билл;0.00039
биллапс;0.0001
билли;0.00019
билялетдин;0.0001
бингэма;0.0001
бинкс;0.0001
биоактивный;0.0001
биогеография;0.0001
биография;0.00019
биология;0.00039
биоортогональный;0.0001
биосинтез;0.0001
биосферный;0.0001
биотеррористический;0.0001
биохимия;0.0001
бирн;0.0001
бисмарк;0.0001
битва;0.00414
битник;0.00029
битый;0.00019
бишоп;0.0001
биюк;0.0001
благай;0.0001
благовещение;0.00029
благовещенский;0.0001
благой;0.0001
благословенный;0.0001
благотворительный;0.0001
бланк;0.0001
бланшар;0.0001
бланшетта;0.00019
блейн;0.0001
блестяще;0.0001
блестящий;0.0001
близкий;0.0001
блич;0.0001
блок;0.0001
блокада;0.0001
блондинка;0.0001
блуд;0.0001
блудница;0.0001
блум;0.0001
блынский;0.0001
блэкмера;0.0001
блэкс;0.0001
боб;0.00019
бобковый;0.0001
боброк;0.0001
бог;0.00019
богатырец;0.0001
богатырство;0.0001
богга;0.0001
богдан;0.0001
богиня;0.0001
богоматерь;0.0001
богородица;0.0001
богородицкий;0.00019
богослов;0.0001
богословский;0.00019
богсайда;0.0001
бодлить;0.0001
боевой;0.00019
божий;0.00048
бозкурт;0.0001
бой;0.00067
бойда;0.0001
бойня;0.00039
бокал;0.0001
бокасса;0.0001
бокий;0.0001
бокс;0.00029
болгария;0.0001
более;0.0001
болезнь;0.00058
боливийский;0.0001
болотник;0.0001
болото;0.00019
большевик;0.0001
больший;0.00039
большой;0.00067
бомбадил;0.0001
бомбардировка;0.0001
бомбардировщик;0.00019
бомон;0.00048
бомонт;0.0001
бонапарт;0.0001
бонвилл;0.00029
бонина;0.0001
бонингтон;0.0001
бонистика;0.0001
бордель;0.0001
борис;0.00058
борисоглебский;0.0001
борман;0.0001
борн;0.0001
бородинский;0.0001
боруц;0.0001
борхгревинк;0.0001
борьба;0.0001
босния;0.0001
бостон;0.0001
ботаника;0.0001
ботанический;0.0001
ботсвана;0.0001
боуя;0.00039
бофорт;0.0001
бошана;0.0001
бояться;0.0001
брабант;0.0001
брага;0.0001
брагин;0.00019
бразилия;0.0001
бразильский;0.00029
брайан;0.00039
брайс-кроссроудс;0.0001
брак;0.00039
браминский;0.0001
бранденбург-ансбахский;0.0001
бранкович;0.0001
брат;0.00106
братский;0.00019
брать;0.0001
брауншвейгский;0.0001
брауэр;0.0001
брахма;0.0001
бревенчатый;0.0001
бревно;0.0001
бремен;0.0001
брендивайн;0.0001
брест;0.00029
брестский;0.00019
бретонский;0.00019
бретя;0.0001
бриана;0.0001
бригада;0.00067
бриджито;0.0001
бриедис;0.0001
брижит;0.0001
брикстонский;0.0001
британский;0.00058
бритн;0.0001
брожение;0.0001
брок;0.0001
брокгауз;0.0001
бронеавтомобиль;0.0001
броненосец;0.0001
бронепалубный;0.0001
бронзовка;0.0001
бронхиальный;0.0001
бросс;0.0001
броудить;0.0001
брук;0.0001
брут;0.0001
бруэма;0.0001
брэдбрать;0.0001
брэддок;0.0001
брюс;0.00019
брюстер;0.0001
брюэр;0.0001
брянск;0.0001
бугак;0.0001
бугенвиль;0.00019
бугерр;0.0001
бугро;0.0001
будда;0.0001
буддизм;0.0001
буддийский;0.0001
бузулук;0.0001
буйвол;0.0001
бук;0.0001
букин;0.0001
булавкина-ончукова;0.0001
булла-рана;0.0001
бунт;0.0001
бунтарь;0.0001
бупропион;0.0001
буратино;0.0001
бурба;0.0001
бурденко;0.0001
бурунди;0.0001
бурханеддин;0.0001
буршие;0.0001
буря;0.00019
буснаш;0.0001
бутан;0.0001
бутбить;0.0001
бутылка;0.0001
бухгалтерия;0.0001
бухгалтерский;0.0001
бухта;0.00019
бучинторо;0.0001
бушар;0.0001
буэн-вист;0.0001
буэнос-айрес;0.0001
бхол;0.0001
бхуми;0.0001
български;0.0001
бывший;0.0001
быков;0.0001
быт;0.0001
быть;0.00173
бычий;0.0001
бэкон;0.0001
бэлза;0.0001
бэнкс;0.0001
бэнкс-форд;0.0001
бэтмена;0.00019
ваан;0.0001
вавилов;0.0001
вавилонский;0.00039
вагнер;0.0001
вазех;0.0001
вазопись;0.00019
вазюлина;0.0001
вайбхашик;0.0001
вайкханас;0.0001
вайнвилльский;0.0001
вайоминг;0.0001
вайсало;0.0001
вайсвайлер;0.0001
вайсс;0.0001
вакариан;0.0001
вакциниум;0.0001
вал;0.0001
валантра;0.0001
валахий;0.0001
валенса;0.00019
валентин;0.00019
валерий;0.00048
валле;0.0001
валуйка;0.0001
валуйский;0.0001
валькин;0.0001
вальс;0.0001
валюта;0.00029
ваман;0.0001
вампир;0.0001
вампирша-лесбиянка;0.0001
ванкувер;0.0001
варанася;0.0001
варах;0.0001
варварин;0.0001
варга;0.0001
варди;0.0001
варна;0.0001
варнава;0.0001
варрон;0.00019
вартанян;0.0001
варшавский;0.0001
васенков;0.0001
василиевич;0.00029
василий;0.00135
васильев;0.0001
васиньчук;0.0001
ватий;0.0001
ватиканский;0.00029
ватинья;0.0001
вашингтон;0.00067
вебер;0.0001
вега;0.0001
вегетативный;0.0001
ведомость;0.0001
ведьмин;0.0001
вейентон;0.0001
вейл;0.0001
вейра;0.0001
век;0.00087
великий;0.00116
великобритания;0.00058
великобританский;0.00048
великое;0.00019
велимир;0.0001
величество;0.0001
веллей;0.0001
велоспорт;0.0001
вельгартица;0.0001
венанция;0.0001
венгерский;0.0001
венера;0.00029
венеция;0.00019
венкатешвар;0.0001
веннерстереть;0.0001
веном;0.00019
венона;0.0001
вентол;0.0001
веприк;0.0001
вергера;0.0001
вергилий;0.0001
веригар;0.0001
вермахт;0.0001
вернер;0.0001
вернуться;0.00019
вероника;0.0001
версия;0.00029
вертоград;0.0001
верть;0.0001
верхне-волжский;0.0001
верхне-нарынский;0.0001
верхне-покровский;0.0001
верхне-свирский;0.0001
верхнетренчинский;0.0001
верхний;0.0001
верховой;0.0001
вес;0.0001
весенний;0.0001
весна;0.00019
веспасиана;0.00019
вест-индия;0.0001
веста;0.0001
вести;0.00019
вестник;0.0001
весь;0.00077
ветвь;0.00019
ветер;0.00019
веттереть;0.0001
вечевой;0.0001
вечер;0.00039
вечерний;0.0001
вечером;0.0001
вечеря;0.0001
взвесить;0.0001
взвод;0.0001
взгляд;0.0001
взорвать;0.0001
взрослый;0.0001
взрыв;0.00029
взятие;0.00029
взять;0.0001
вибия;0.0001
виварий;0.0001
вивиан;0.0001
вигмор;0.0001
вид;0.00019
видение;0.0001
визавер;0.0001
византийский;0.00019
византийско-печенежский;0.0001
визит;0.00019
визуальный;0.0001
вика;0.0001
викариатный;0.0001
викернести;0.0001
викидать;0.0001
викимедиа;0.0001
википедия;0.00116
виконт;0.0001
виктор;0.00029
виктория;0.00058
виллем;0.0001
вильгельм;0.00048
вилькина;0.0001
вильнюс;0.0001
вильялмур;0.0001
вильям;0.0001
виндзора;0.0001
винецкий;0.0001
винилхлорид;0.0001
винкс;0.0001
винни-пух;0.0001
виноградов;0.0001
виноделие;0.0001
винс;0.0001
винтаж;0.0001
винтовка;0.0001
винья;0.0001
вирус;0.00019
вирусология;0.0001
вит;0.0001
виталий;0.00029
витамин;0.0001
виттория;0.0001
вишн;0.00019
вишневский;0.0001
вишнуизм;0.0001
вклад;0.00029
владение;0.00039
владивосток;0.0001
владимир;0.0027
владислав;0.00058
власть;0.00019
влахернский;0.0001
влиятельный;0.0001
вмешательство;0.0001
внесение;0.0001
внетелесный;0.0001
внешний;0.0001
внизу;0.00019
внутренний;0.0001
водоросль;0.00019
водский;0.0001
военачальник;0.00039
военизированный;0.0001
военно-воздушный;0.0001
военнопленный;0.0001
военный;0.00135
вождь;0.0001
возвращение;0.00039
возглавить;0.0001
возглавлять;0.0001
воздух-воздух;0.0001
воздушно-десантный;0.00019
воздушный;0.00039
возможность;0.0001
возможный;0.0001
вознесенский;0.00029
возникновение;0.0001
возрасти;0.0001
воин;0.0001
воинство;0.0001
войковский;0.0001
война;0.0052
войнилович;0.0001
войско;0.00029
войтечь;0.0001
войти;0.00019
вокзал;0.0001
волга;0.00029
волгоград;0.00019
волейбол;0.0001
волк;0.0001
волков;0.0001
воллмера;0.0001
волна;0.0001
волнистый;0.0001
вологда;0.0001
вологодский;0.0001
волоконный;0.0001
волынский;0.0001
вольт;0.0001
вольф;0.0001
вольфганг;0.0001
вописк;0.0001
вопль;0.0001
вопрос;0.0001
вор;0.0001
ворваться;0.0001
ворон;0.0001
ворона;0.00019
воронеж;0.0001
воронежский;0.00019
воронов;0.0001
воронцов;0.0001
ворота;0.00048
ворошилов;0.00019
восковидный;0.0001
воскресение;0.0001
воскресный;0.0001
воспретить;0.0001
восстание;0.00116
восток;0.00019
восточно-забайкальский;0.0001
восточноазиатский;0.0001
восточный;0.00067
враг;0.0001
враждебный;0.0001
врасплох;0.0001
вратарь;0.0001
вращение;0.0001
время;0.00221
врубель;0.0001
врэн-люка;0.0001
всеволодович;0.0001
всеволож;0.0001
вселенная;0.0001
всемогущий;0.0001
всероссийский;0.00019
всехсвятский;0.0001
вскоре;0.0001
вспышкина;0.0001
встать;0.0001
встреча;0.0001
встречать;0.0001
вторжение;0.00019
второе;0.00048
второй;0.00096
втянутый;0.0001
вудлить;0.0001
вулкан;0.0001
вулнетарь;0.0001
вульсон;0.0001
вульф;0.0001
вурстый;0.0001
вход;0.0001
выбирать;0.0001
выбор;0.0001
выборгский;0.0001
выборы;0.00048
выбрать;0.0001
выдвигаться;0.0001
выдворение;0.0001
выжить;0.0001
вызвать;0.0001
вызов;0.0001
выйти;0.0001
вынудить;0.0001
выпуск;0.0001
выравнивание;0.00019
высокий;0.0001
высоко;0.0001
высоцкий;0.0001
выставка;0.00039
выстрел;0.0001
выступление;0.00019
выход;0.0001
вьюрок;0.0001
вэньцзина;0.0001
вяз;0.0001
вятский;0.0001
вячеслав;0.0001
г;0.00096
га-га-г;0.0001
гааз;0.0001
габель;0.0001
габиена;0.0001
габиния;0.0001
габул;0.0001
гагарин;0.00029
гаджа;0.0001
газ;0.0001
газа;0.0001
гази;0.00029
газинур;0.0001
гай;0.00173
гайгэкс;0.0001
гайдамак;0.0001
галактика;0.00019
галактион;0.0001
галаррага;0.0001
галацан;0.0001
гален;0.0001
галерея;0.00029
галерий;0.00019
галилея;0.00019
галицкий;0.00019
галицко-волынский;0.00019
галка;0.0001
галл;0.00019
галла;0.0001
галтон;0.0001
галушкин;0.0001
гальба;0.00019
гамаль;0.0001
гаман;0.0001
гамартом;0.0001
гамаюна;0.0001
гамбино;0.0001
гамбург;0.0001
гамзат-бек;0.0001
гамилькар;0.00019
гамл;0.0001
гамов;0.0001
гампа;0.0001
гамсахурдия;0.0001
ганимед;0.00019
ганнибал;0.0001
гапон;0.00019
гар;0.0001
гараж;0.0001
гарай;0.0001
гараш;0.0001
гарднер;0.0001
гарель;0.0001
гарем;0.0001
гарлем;0.0001
гармодия;0.0001
гармскай;0.0001
гарольд;0.00019
гарпасть;0.0001
гарри;0.00029
гаррисон;0.0001
гаррусый;0.0001
гартман;0.0001
гасдрубать;0.0001
гастрольный;0.0001
гастростомия;0.0001
гатчина;0.00029
гатчинский;0.0001
гаудсмит;0.0001
гаультерия;0.0001
гауссов;0.0001
гаутама;0.0001
гашек;0.0001
гаэс;0.0001
гвардейский;0.0001
гвардия;0.00019
гвискара;0.0001
гвоздика;0.0001
где;0.00048
гдр;0.0001
гевар;0.0001
геворк;0.0001
гей;0.00019
гей-прайд;0.0001
гейгера;0.0001
гейдрих;0.0001
гекзаметр;0.0001
гексапнуть;0.0001
гелиболулу;0.0001
геллер;0.00019
геллеспонт;0.0001
геллия;0.0001
гельголандский;0.00019
гельмут;0.0001
ген;0.0001
генерал;0.00019
генерал-резидент;0.0001
генератор;0.0001
геннадий;0.00019
геном;0.0001
геноцид;0.0001
генри;0.00106
генриетта;0.00019
генрих;0.00087
геньо;0.0001
география;0.00058
геология;0.0001
геометрия;0.0001
георг;0.00019
георгий;0.00067
гера;0.0001
гераклей;0.0001
геральдика;0.0001
герасимов;0.0001
герб;0.00048
герберт;0.00019
гербовый;0.0001
геринг;0.0001
герма;0.0001
герман;0.00019
германия;0.00077
германо-китайский;0.0001
германский;0.0001
герменегильда;0.0001
герметичный;0.0001
гермияногуллар;0.0001
герой;0.00029
герпетология;0.0001
герреро;0.0001
гертеть;0.0001
герхард;0.0001
герхардт;0.0001
герцеговина;0.0001
герцен;0.0001
герцог;0.00048
герцогиня;0.00029
гесс;0.0001
гессен-дармштадтский;0.0001
гессенский;0.0001
гессло;0.0001
гетероциклический;0.0001
гетто;0.00029
гиады;0.0001
гиацинт;0.0001
гибель;0.00029
гибрид;0.0001
гибридизация;0.0001
гивено;0.0001
гигак;0.0001
гигант;0.00029
гигантский;0.00029
гидасп;0.0001
гидросооружение;0.0001
гиерон;0.0001
гиероним;0.0001
гизельдонский;0.0001
гикета;0.0001
гилада;0.0001
гилазов;0.0001
гилберт;0.0001
гилфорд;0.0001
гилфорд-кортхауз;0.0001
гиль;0.0001
гильдесхаймер;0.0001
гилязутдинов;0.0001
гимаев;0.0001
гиммлер;0.0001
гиннесса;0.0001
гипаспист;0.0001
гипекоум;0.0001
гипербола;0.0001
гипогликемический;0.0001
гиппий;0.0001
гиппиус;0.0001
гипподать;0.0001
гиппократ;0.0001
гирция;0.0001
гисгон;0.0001
гистондеацетилаза;0.0001
гкнть;0.0001
глабрион;0.0001
глава;0.0001
главное;0.0001
главный;0.00019
глагол;0.0001
глаз;0.00019
глазго;0.00019
гламорганский;0.0001
гласный;0.0001
глаукофитовый;0.0001
глеб;0.00019
глейшер;0.0001
гленвиль;0.0001
глиоксилатный;0.0001
глицерий;0.0001
глобтроттерс;0.0001
гловера;0.0001
гломеромицета;0.0001
глостер;0.00019
глостерский;0.00019
глотка;0.0001
глубокий;0.0001
глухарь;0.0001
глушко;0.0001
глюконеогенез;0.0001
гнев;0.0001
гнездо;0.0001
гней;0.00058
го;0.0001
гобелен;0.0001
гоблин;0.0001
говард;0.00019
говор;0.00039
говорить;0.0001
гогенцоллерна;0.0001
год;0.00472
годвард;0.0001
годунов;0.0001
гозон;0.0001
гол;0.0001
голден;0.0001
голдинга;0.0001
голландский;0.0001
голова;0.00029
головоломка;0.0001
голод;0.0001
голодомор;0.0001
голосование;0.0001
голубиный;0.0001
голубь;0.00029
голубянка;0.0001
голый;0.0001
гольцшмидт;0.0001
гомель;0.0001
гомельский;0.0001
гомиша;0.0001
гомомонумент;0.0001
гомосексуал;0.0001
гомосексуальность;0.0001
гонзаго;0.0001
гонка;0.00039
гонконг;0.00039
гонконгский;0.00019
гонсалес;0.00019
гончаров;0.0001
гора;0.00067
гордиана;0.00019
гордон;0.0001
горение;0.0001
горлица;0.0001
горне-успенский;0.0001
горнопехотный;0.00019
горнопромышленник;0.0001
горностай;0.0001
горный;0.0001
город;0.00067
городина;0.0001
городище;0.00019
городской;0.00039
горохов;0.0001
горчица;0.0001
горький;0.00019
горячка;0.0001
госпич;0.0001
господь;0.0001
гостилия;0.0001
гостиница;0.0001
гостить;0.0001
госторг;0.0001
гость;0.0001
государственный;0.00067
государство;0.00058
готический;0.0001
готфрид;0.0001
гоутереть;0.0001
гоферс;0.0001
гофман;0.0001
градостроительный;0.0001
градчан;0.0001
гражданин;0.0001
гражданский;0.00067
гракх;0.0001
гранат;0.0001
гранд-титон;0.0001
грандслам;0.0001
граник;0.0001
граница;0.00029
гранмениль;0.0001
грань;0.0001
граф;0.00279
графен;0.0001
график;0.0001
графиня;0.00039
графство;0.0001
гребенский;0.0001
гребля;0.0001
грей;0.00019
грейта;0.0001
грек;0.0001
греко-персидский;0.0001
греков;0.0001
гренландия;0.00019
гренландский;0.0001
грета;0.0001
греция;0.00019
греческий;0.0001
грибоедов;0.0001
григорий;0.00067
григорьев;0.0001
гриззлис;0.00019
гриль;0.0001
гримм;0.0001
грин;0.0001
гринвич;0.0001
грифид;0.00019
гриффина;0.0001
гриффита;0.0001
гробница;0.00029
грозить;0.0001
гром;0.00058
громов;0.0001
громыко;0.0001
грот;0.0001
грош;0.0001
груйтуйзть;0.0001
группа;0.00067
групповой;0.0001
грушецкий;0.0001
гувера;0.0001
гуго;0.00029
гугс;0.0001
гудоваца;0.0001
гун-гун;0.0001
гунибский;0.0001
гусак;0.0001
гусейнов;0.0001
гусь-гусь;0.0001
гуттманна;0.0001
гхала;0.0001
гэбриэла;0.0001
гэльский;0.0001
гэмджи;0.0001
гэри;0.00019
гэс;0.00144
гэс-гаэс;0.0001
гюльнуш-султан;0.0001
гянджа;0.0001
гянджевить;0.0001
гяр;0.0001
давид;0.00039
давыдов;0.00019
дага;0.0001
дагги-тица;0.0001
дагеротипия;0.0001
дадиани;0.0001
дадин;0.0001
дадли;0.00029
далее;0.00144
далек;0.0001
далия;0.0001
даллас;0.00019
далмат;0.0001
далматинский;0.0001
дама;0.0001
дамаскин;0.0001
дамер;0.0001
данвудить;0.00029
даниил;0.0001
данил;0.00019
даниленко-карин;0.0001
данин;0.0001
даниэль;0.0001
данкан;0.0001
данные;0.0001
дантес;0.0001
дань;0.0001
дапплин-мур;0.0001
дарвин;0.00019
даррен;0.0001
дата;0.00019
датский;0.00048
датчанин;0.0001
дать;0.0001
даун;0.0001
дафна;0.0001
дача;0.0001
два;0.00019
двадцать;0.0001
дважды;0.0001
движение;0.0001
двое;0.0001
двойка;0.0001
двойной;0.0001
дворец;0.00077
дворцовый;0.00029
дворянский;0.0001
двухколосковый;0.0001
двухчасовой;0.0001
дебаты;0.0001
дева;0.0001
девон;0.00019
девочка;0.00019
девушка;0.0001
дедушка;0.00029
дейвис;0.0001
дейнека;0.0001
дейнохейрус;0.0001
действие;0.0001
действовать;0.0001
декабрист;0.0001
декабрь;0.0001
декарбоксилирование;0.0001
декарт;0.0001
декелейский;0.0001
декларация;0.00019
декоративный;0.0001
делавэр;0.0001
делагарди;0.0001
делайла;0.0001
деление;0.00029
дело;0.00048
деметрия;0.0001
демид;0.0001
демидкий;0.0001
демократический;0.00019
демократия;0.00019
демон;0.0001
демюрен;0.0001
ден;0.0001
денежный;0.00019
дени;0.0001
денис;0.00019
денисултан;0.0001
деннис;0.0001
дентат;0.0001
дентон;0.0001
день;0.00039
деонтея;0.0001
депай;0.0001
депортация;0.00019
дерби;0.0001
деревня;0.00067
дерево;0.0001
деревянный;0.0001
деррик;0.0001
дерфлингера;0.0001
деспина-хатуна;0.0001
детройт;0.00019
детский;0.00019
детство;0.00029
децима;0.0001
дечанский;0.0001
деш;0.0001
дешифровка;0.0001
деятель;0.00039
деятельность;0.00019
джа-дж;0.0001
джавали;0.0001
джайлс;0.0001
джамал;0.0001
джами;0.0001
джандарогуллар;0.0001
джанет;0.0001
джапаридзе;0.0001
джарылгач;0.0001
джебраный;0.0001
джейкоб;0.0001
джеймс;0.00096
джек;0.0001
джексон;0.0001
джема;0.0001
джемиле-султан;0.0001
дженять;0.00019
джерасся;0.0001
джереми;0.0001
джермера;0.0001
джерри;0.00019
джессика;0.0001
джеф;0.0001
джефф;0.00019
джефферь;0.0001
джеффри;0.00019
джибриль;0.0001
джилла;0.0001
джимми;0.00029
джиня;0.0001
джиу-джитсу;0.0001
джоан;0.00029
джоанна;0.0001
джованна;0.0001
джозеф;0.0001
джойнт;0.0001
джомолунгма;0.00019
джон;0.0026
джонатан;0.00019
джонни;0.0001
джонс;0.0001
джонсон;0.00048
джонстон;0.0001
джордан;0.0001
джордж;0.00173
джорджо;0.0001
джошуа;0.00029
джуда;0.0001
джузеппе;0.0001
джулио;0.0001
джулия;0.00019
джульфа;0.0001
джунейд-бей;0.0001
джурич;0.0001
дзагоев;0.0001
дзюбан;0.0001
диадох;0.00058
диалект;0.00019
диалектный;0.0001
диалог;0.00019
диаметр;0.0001
диана;0.0001
диапауза;0.0001
диатессарон;0.0001
дивизия;0.00039
дигест;0.0001
дигрегорио;0.0001
дида;0.0001
дизель-поезд;0.0001
дикарь;0.0001
дикгоф;0.0001
дикемба;0.0001
дилан;0.0001
дилмачогуллар;0.0001
дин;0.0001
динамит;0.0001
динамо;0.0001
династия;0.00019
динияр;0.0001
динозавр;0.00019
диоген;0.0001
диодот;0.0001
дион;0.00039
дионис;0.0001
дионисий;0.00019
диоскура;0.0001
дипонегоро;0.0001
диптих;0.0001
дирижабль;0.0001
диррахий;0.0001
диспенсер;0.0001
дитер;0.0001
дифтонг;0.0001
дифференция;0.0001
длиннокрылый;0.0001
длиннорылый;0.0001
дмитрий;0.00116
днк;0.00019
доар;0.0001
добро;0.00019
добровольческий;0.00087
добровский;0.0001
доброслав;0.0001
добротный;0.0001
добрый;0.0001
договор;0.00029
дож;0.0001
дождевальный;0.0001
дождь;0.00029
дозор;0.00029
доказательство;0.0001
докинг;0.0001
доктор;0.00058
документальный;0.0001
долгорукий;0.0001
долина;0.00019
доллар;0.00039
доля;0.0001
дом;0.00144
домара;0.0001
домашний;0.0001
домери;0.0001
доминик;0.0001
домиция;0.00029
домобранство;0.0001
донбасс;0.00019
донецк;0.00019
донецкий;0.00029
донлеви;0.0001
донна;0.0001
донован;0.0001
донский;0.00029
дополнительный;0.0001
дора;0.0001
доработка;0.0001
дорилей;0.0001
дорис;0.0001
дормидонт;0.0001
дорн;0.00019
дорнер;0.0001
дорога;0.00096
дороти;0.00029
дорошиха;0.0001
дорсет;0.0001
дортмунд;0.0001
доска;0.00019
доставка;0.0001
достаточно;0.0001
доступный;0.0001
дот;0.0001
дофаминергический;0.0001
дочь;0.00048
др;0.0001
драголюб;0.0001
драгутиный;0.0001
драка;0.0001
дракон;0.00039
дракула;0.00029
драма;0.0001
драммонд;0.0001
древесный;0.00019
древневосточный;0.0001
древнепольский;0.0001
древнесербский;0.0001
древний;0.00116
древо;0.0001
дрезден;0.0001
дренович;0.0001
дрилла;0.0001
дрис;0.0001
дрисколл;0.0001
дровосек;0.0001
дроздовый;0.0001
дрофа;0.0001
друг;0.00019
другой;0.00144
друза;0.0001
друэн;0.0001
дуайт;0.0001
дубайса;0.0001
дубасовый;0.0001
дубина;0.0001
дубовский;0.00048
дубовско;0.0001
дубощит;0.0001
дубровник;0.00019
дувр;0.0001
дудоров;0.0001
дукля;0.0001
дуковац;0.0001
дулкадирогуллар;0.0001
дума;0.0001
дунайский;0.00019
дункан;0.0001
дурень;0.0001
дуров;0.0001
дутый;0.0001
дух;0.0001
душан;0.0001
душечка;0.0001
душко;0.0001
дуэйн;0.0001
дуэль;0.0001
дымный;0.0001
дыра;0.0001
дэвид;0.00067
дэвиссон;0.0001
дэгути;0.0001
дэйн;0.0001
дэн;0.0001
дэнни;0.0001
дюамель;0.0001
дюваля;0.0001
дювино;0.0001
дюкс;0.0001
дюморье;0.0001
дюна;0.0001
дюпон;0.0001
дюрер;0.0001
дюркгейм;0.0001
дюрренматт;0.0001
дюссельдорф;0.0001
дятел;0.00019
ева;0.0001
евангелие;0.00019
евангелиона;0.00019
евангельский;0.0001
евгений;0.00048
евджевич;0.0001
евдокия;0.0001
евдом;0.0001
евпл;0.0001
еврей;0.00019
еврейский;0.00029
еврейство;0.0001
европа;0.00029
европейский;0.00029
евсевий;0.0001
евтифрон;0.0001
евфрат;0.0001
евфросиния;0.0001
египет;0.00029
египетский;0.00019
египетско-ливийский;0.0001
егор;0.0001
егорьевский;0.0001
единица;0.00019
единоборство;0.0001
ежи;0.0001
езеро;0.0001
екатерина;0.00019
екатеринбург;0.00029
елена;0.00029
елизавета;0.00048
ель;0.0001
енисей;0.0001
епархиальный;0.0001
естественный;0.0001
есть;0.0001
ефим;0.0001
ефимович;0.0001
ефимок;0.0001
ефрем;0.00019
ехиднаэдр;0.0001
жаворонок;0.0001
жан;0.00019
жан-пьер;0.0001
жан-франсуа;0.0001
жанна;0.00019
жанр;0.0001
жатва;0.0001
жгутик;0.0001
жебрак-русанович;0.0001
желать;0.0001
железнодорожный;0.0001
железный;0.00039
жена;0.00029
женевуа;0.0001
женский;0.0001
женщина;0.00029
жером;0.0001
жертва;0.00019
жестокость;0.0001
живой;0.0001
живописец;0.0001
живопись;0.00039
животное;0.0001
жизнь;0.00039
жилберт;0.0001
жилинский;0.0001
жирицкий;0.0001
жировой;0.00019
житель;0.0001
житомирский;0.0001
жить;0.0001
жорж;0.0001
жук-носорог;0.0001
жук-олень;0.0001
жумабай;0.0001
журнал;0.0001
журналист;0.0001
заветный;0.0001
завод;0.00019
завоеватель;0.0001
завтрак;0.00029
заглавный;0.00019
заговор;0.0001
загряжский;0.0001
задача;0.00029
задумываться;0.0001
зайнаб;0.0001
закат;0.00019
заключить;0.00029
заклятый;0.0001
закон;0.00048
законодательный;0.0001
зал;0.0001
залесова;0.0001
залив;0.00019
заложник;0.0001
заляловый;0.0001
замалчивание;0.0001
замок;0.00058
заморский;0.0001
зангезурский;0.0001
занзибар;0.0001
западно-суррейский;0.0001
запись;0.0001
заповедник;0.00019
запорожье;0.0001
запрет;0.0001
запрос;0.0001
зарасти;0.0001
зарегистрировать;0.0001
зарубинецкий;0.0001
заслуга;0.00019
застава;0.0001
застигнуть;0.0001
застрять;0.0001
затем;0.0001
затопление;0.0001
затронуть;0.0001
захаров;0.00019
захват;0.00029
захватывать;0.0001
зачаровать;0.0001
зашиверск;0.0001
зашквара;0.0001
защита;0.00019
заявление;0.0001
збоншинский;0.0001
звание;0.0001
звезда;0.00096
звездообразование;0.0001
зверь;0.0001
звиад;0.0001
звон;0.0001
звонок;0.0001
здание;0.00039
здоровье;0.0001
зеландия;0.00019
зеленецкий;0.0001
зеленогорск;0.0001
зеленчукский;0.0001
зель;0.0001
землетрясение;0.0001
земля;0.00048
земной;0.0001
земский;0.00019
зенит;0.0001
зенон;0.0001
зеркало;0.0001
зеркальный;0.0001
зерсенать;0.0001
зигмунд;0.00019
зилант;0.0001
зима;0.00067
зименко;0.0001
зимний;0.00019
зинаида;0.00019
зиновий;0.0001
зиткала-ша;0.0001
златана;0.0001
златка;0.0001
зло;0.0001
злодей;0.0001
злой;0.0001
злотый;0.0001
знак;0.00058
знакомиться;0.0001
знакомство;0.0001
знаменский;0.0001
знамя;0.0001
знание;0.0001
знать;0.00019
значительно;0.0001
зов;0.0001
зодчество;0.0001
золотарник;0.0001
золотарь;0.0001
золотинка;0.0001
золотистый;0.0001
золото;0.0001
золотой;0.00067
зона;0.00029
зоология;0.00029
зотов;0.0001
зрение;0.0001
зритель;0.0001
зуфар;0.0001
зыгмунт;0.0001
зюганов;0.0001
иаков;0.0001
иблис;0.0001
ибрагим;0.0001
ибрагимович;0.0001
ива;0.0001
иван;0.00173
иванов;0.0001
иванов-радкевич;0.0001
иванович;0.00029
иверскай;0.0001
иводзима;0.0001
ивон;0.0001
ивуаре;0.0001
игнашевич;0.0001
иго;0.0001
игоревич;0.0001
игорь;0.00077
игра;0.0027
играть;0.0001
игровой;0.00029
игрок;0.0001
игрушка;0.00019
идвал;0.0001
идиот;0.00019
идол;0.0001
идомень;0.0001
идти;0.0001
иегова;0.0001
иерусалим;0.00029
иерусалимский;0.0001
иешуа;0.0001
ижевско-воткинский;0.0001
ижорский;0.0001
изабелла;0.00039
изба;0.0001
избежать;0.0001
избирательный;0.0001
избрание;0.00019
избранный;0.00058
известный;0.00019
изгой;0.0001
изгородь;0.0001
издательство;0.00039
издать;0.0001
иззеддин-эфенди;0.0001
изложение;0.0001
измирогла;0.0001
изнасилование;0.0001
изнер;0.0001
изображение;0.00019
изобразительный;0.00019
изобразить;0.0001
изобретатель;0.0001
изобретение;0.0001
изолятор;0.0001
изоляция;0.0001
израиль;0.00039
изумрудный;0.0001
изящный;0.0001
иисус;0.0001
икона;0.00077
иконоборчество;0.0001
иконография;0.00019
икс;0.00029
иксион;0.0001
иллюзия;0.0001
илона;0.0001
ильдар;0.0001
илья;0.00039
илюшечкин;0.0001
иметь;0.0001
иммуно-пцр;0.0001
иммунодефицит;0.0001
император;0.00039
императорский;0.00019
империя;0.00048
имперский;0.0001
имя;0.00067
имяславие;0.0001
ингальский;0.0001
ингеборга;0.0001
ингерманландия;0.00019
инглеса;0.0001
ингпена;0.0001
ингрия;0.0001
инд;0.0001
индеец;0.00019
индейский;0.00019
индефатигебла;0.0001
индиана;0.00019
индийский;0.00039
индольный;0.0001
индонезийский;0.00019
индонезия;0.0001
индуизм;0.00019
индуистский;0.0001
инженер;0.0001
иннинг;0.0001
иной;0.00019
инок;0.00019
иностранный;0.0001
инструмент;0.00019
инсульт;0.0001
интегральный;0.0001
интербол;0.0001
интерзона;0.0001
интеркосмос;0.0001
интернационал;0.0001
интернет;0.0001
интершок;0.0001
инфанта;0.0001
информация;0.00019
инцидент;0.00058
иоанн;0.00087
иоганн;0.0001
иолкнуть;0.0001
ионийский;0.0001
иорверт;0.0001
иосиф;0.0001
иосифович;0.0001
иофф;0.0001
ирак;0.0001
ираклий;0.0001
иранский;0.0001
иргизский;0.0001
иркутск;0.0001
иркутский;0.0001
ирландия;0.00039
ирландский;0.00039
ирокез;0.0001
иса;0.0001
исаак;0.00039
исаврик;0.00019
исетский;0.0001
искатель;0.0001
искендер-нама;0.0001
искусственный;0.0001
искусство;0.00058
искусствовед;0.0001
искушение;0.0001
исландия;0.0001
испания;0.0001
испаноязычный;0.0001
испанский;0.00019
исповедник;0.0001
исповедь;0.0001
использование;0.00019
использовать;0.00019
иссь;0.0001
ист-сайда;0.0001
историк;0.0001
историография;0.00019
исторический;0.00048
история;0.00453
источник;0.0001
истрорумынский;0.0001
исфендияр-бей;0.0001
исчезновение;0.00048
исчерпание;0.0001
италия;0.00039
итальянский;0.0001
итана;0.0001
иудаизм;0.0001
ифтаха;0.0001
ихтиология;0.0001
ицукусим;0.0001
ишемический;0.00019
ишимбай;0.0001
иштван;0.0001
июль;0.00019
июнь;0.0001
йейтс;0.0001
йеллоу-таверна;0.0001
йемен;0.0001
йена;0.0001
йенсный;0.0001
йеуд;0.0001
йо-йо;0.0001
йоать;0.0001
йовчев;0.0001
йозеф;0.0001
йомен;0.0001
йордан;0.0001
йорк;0.00019
йоркский;0.00029
йосеф;0.0001
йост;0.0001
кабанатуан;0.0001
кавалерийский;0.0001
кавалерист;0.0001
кавендиш;0.0001
кавказский;0.0001
кагульский;0.0001
кадуцей;0.0001
кадым;0.0001
кадын-эфенди;0.0001
кадь;0.0001
каждый;0.0001
казак;0.0001
казал;0.0001
казанский;0.00029
казарский;0.0001
казаться;0.0001
казахстан;0.0001
казачий;0.0001
казмайер;0.0001
казнь;0.0001
кайгородов;0.0001
кайрат;0.0001
како;0.0001
какой;0.0001
каладзе;0.0001
калашников;0.0001
калека;0.0001
калиновский;0.0001
калистратов;0.0001
калифорнийский;0.00019
калка;0.0001
каллаик;0.0001
каллисто;0.0001
калхас;0.0001
калыко;0.0001
кальва;0.0001
кальви;0.0001
кальвин;0.0001
кальдони;0.0001
кальман;0.0001
кальпурний;0.0001
кама;0.0001
камарон;0.0001
каменец-подольский;0.0001
каменный;0.0001
каменск-уральский;0.0001
каменский;0.00019
камень;0.00029
камеристка;0.0001
камиль;0.0001
камингор;0.0001
кампанинить;0.0001
кампания;0.00087
кампуша;0.0001
камуфляж;0.0001
камчатский;0.0001
камышница;0.0001
канавка;0.0001
канада;0.00019
канадский;0.0001
канал;0.00019
канатчиков;0.0001
кандагар;0.0001
кандидат;0.0001
кандий;0.0001
канеллис;0.0001
каннинга;0.0001
кантонмент;0.0001
канторович;0.0001
каныш;0.0001
каодать;0.0001
капелла;0.0001
капитуляция;0.0001
каппадокия;0.0001
каприз;0.0001
кара;0.0001
караб;0.0001
каракиса;0.0001
караманид;0.00029
карасыогуллар;0.0001
карательный;0.0001
карачаевец;0.0001
карачаевский;0.0001
карбамазепин;0.0001
карбон;0.0001
карибский;0.0001
карим;0.0001
карина;0.0001
карл;0.00077
карл-вильгельм;0.0001
карл-готфрид;0.0001
карла;0.0001
карлайла;0.0001
карлик;0.0001
карлинь;0.0001
карлович;0.0001
кармелит;0.0001
кармена;0.0001
каролайн;0.0001
каролина;0.00019
каролинг;0.0001
карсон;0.0001
карстен;0.0001
картина;0.00048
карфаген;0.0001
касаи;0.0001
каскад;0.00019
каслинский;0.0001
касса;0.0001
кассандра;0.0001
кассиана;0.0001
кассирер;0.0001
кассия;0.0001
кастилия;0.0001
кастильо;0.0001
кастильский;0.0001
каталог;0.0001
катание;0.00019
катастрофа;0.00193
категория;0.00019
католик;0.0001
католицизм;0.0001
католический;0.00019
катон;0.0001
каупенс;0.0001
кафедральный;0.0001
кахабер;0.0001
кахан;0.0001
кахан-кармон;0.0001
кахраб;0.0001
качество;0.0001
кашка;0.0001
каштановоголовый;0.0001
кашхатау;0.0001
кащи;0.0001
квадрат;0.0001
квантовый;0.0001
кварк;0.0001
квест;0.0001
квинарий;0.00029
квинта;0.00154
кевин;0.00029
кедрина;0.0001
кейн;0.0001
кейпс;0.0001
кейс;0.0001
кейт;0.00019
келли;0.00019
кен;0.0001
кеннет;0.0001
кент;0.0001
кентуккийский;0.0001
кеплер;0.0001
кератоконус;0.0001
керенский;0.0001
керра;0.0001
керри;0.00029
керриган;0.0001
керченский;0.00019
керчь;0.0001
киберспортивный;0.0001
киблер;0.0001
кидда;0.0001
киев;0.00039
киевский;0.00019
кизика;0.0001
кизил-кобинский;0.0001
кикимора;0.0001
кил;0.0001
килла-кази;0.0001
киллер;0.0001
ким;0.0001
кимона;0.0001
киналить;0.0001
кинг;0.00048
кингисепп;0.0001
кинематограф;0.0001
кинкладзе;0.0001
кино;0.00029
кинодекламация;0.0001
кинопанорама;0.0001
кинчев;0.0001
киоск;0.0001
кипр;0.0001
киприан;0.0001
кипро-генуэзский;0.0001
киргизия;0.0001
кирико;0.0001
кириленко;0.0001
кирилл;0.0001
кировский;0.0001
кирсан;0.0001
кислота;0.0001
кислотный;0.00019
кит;0.00039
китай;0.00019
китай-город;0.0001
клавдий;0.00048
клад;0.00019
кладбище;0.00039
кладдахский;0.0001
клайд;0.0001
кларенс;0.0001
кларет;0.0001
кларк;0.0001
класа-яна;0.0001
классификатор;0.0001
классификация;0.00029
клаудио;0.0001
клеомена;0.00019
клеон;0.0001
клеопатра;0.0001
клеопин;0.0001
клеофонт;0.0001
клер;0.00019
клетка;0.00019
клетновый;0.0001
клеточный;0.00019
клехий;0.00019
кливленд-стрит;0.0001
климан;0.0001
климат;0.0001
климатология;0.0001
климбить;0.0001
климовый;0.00019
климт;0.0001
клинтон;0.0001
клипер;0.00019
клита;0.0001
клитарх;0.0001
клиффорд;0.00077
кличко;0.00096
клишить;0.0001
клод-мариюс;0.0001
клуб;0.00039
книга;0.00048
книгопечатание;0.0001
книжный;0.00019
княгиня;0.0001
княжество;0.00116
князь;0.00019
ковалевский;0.0001
ковбой;0.0001
код;0.0001
кодекс;0.00048
кодж;0.0001
кодить;0.0001
кодрян;0.0001
кодский;0.0001
кожаный;0.0001
козимый;0.0001
козодой;0.0001
колеч-мечеть;0.0001
колея;0.0001
колизей;0.0001
колин;0.0001
количество;0.0001
коллегия;0.0001
коллекция;0.0001
колобанов;0.0001
колодия;0.0001
колокол;0.0001
колокольня;0.0001
коломар;0.0001
колонизация;0.0001
колония;0.00019
колонна;0.00029
колорадо;0.0001
колорадо-спрингс;0.0001
колосковый;0.0001
колумбия;0.0001
колхозник;0.0001
колчак;0.0001
колыван;0.0001
кольцевой;0.00019
кольцо;0.00019
кольчатый;0.0001
колюпановский;0.0001
колючий;0.0001
кома;0.0001
команда;0.0001
командировка;0.0001
командный;0.0001
командование;0.00029
командующий;0.00029
команч;0.0001
команча;0.00106
комедия;0.0001
комета;0.0001
комзина;0.0001
комикс;0.00067
комина;0.0001
комиссар;0.0001
комиссия;0.00019
комитет;0.00019
коммандос;0.0001
комментарий;0.0001
коммерческий;0.0001
коммуна;0.0001
коммунизм;0.00019
коммунистический;0.0001
комнина;0.00029
компания;0.00019
комплекс;0.0001
комплексный;0.0001
компьютер;0.0001
компьютерный;0.00039
комсомол;0.0001
комсомолка;0.0001
комсомольский;0.0001
кон;0.0001
конго;0.0001
конгресс;0.0001
конденсация;0.0001
конденсировать;0.0001
кондолиза;0.0001
кондоминиум;0.0001
конец;0.00039
коннелла;0.0001
коннолли;0.0001
конный;0.0001
коновалец;0.0001
конр;0.0001
конрад;0.0001
консолидированный;0.0001
константа;0.0001
константин;0.00039
константиновский;0.0001
констанция;0.00019
конституция;0.00039
конструктор;0.0001
консул;0.00116
контакт;0.0001
контрнаступление;0.0001
контрпартизанский;0.0001
конференция;0.00019
конфетнораскрашенный;0.0001
конфиденциальность;0.0001
конфисковать;0.0001
конфликт;0.00029
концепция;0.0001
концерт;0.00019
кончита;0.0001
конъюгация;0.0001
конь;0.0001
копенгагенский;0.0001
корабельный;0.0001
корабль;0.00144
корабль-призрак;0.0001
корбут;0.00029
корейский;0.00019
коренной;0.0001
корень;0.0001
корецкий;0.0001
корея;0.00019
коринфский;0.0001
коркул;0.0001
корнелий;0.00067
корнелиу;0.0001
корнелия;0.0001
корнихон;0.00019
корнуолл;0.0001
корова;0.0001
коровин;0.0001
королева;0.00019
королевич;0.0001
королевна;0.0001
королевский;0.00077
король;0.00077
коронация;0.0001
коронеля;0.0001
коростель;0.0001
короткий;0.00019
короткоклювый;0.0001
короткохвостый;0.0001
корпус;0.00029
корри;0.0001
коррупционный;0.0001
кортуз;0.0001
корф;0.0001
корчеватель;0.0001
косец;0.0001
космический;0.00048
космонавтика;0.0001
космос;0.0001
косово;0.00019
косой;0.0001
костадинов;0.0001
костенко;0.0001
кострома;0.0001
кость;0.00019
кот-д;0.0001
который;0.00116
котт;0.0001
коттингли;0.0001
коулбрук;0.0001
коулунский;0.0001
кочегар;0.0001
кошмар;0.00019
кошт;0.0001
коэкспрессия;0.0001
кравань;0.0001
краина;0.00019
край;0.00029
краймбррать;0.0001
кракс;0.0001
крамма;0.0001
краниофарингиома;0.0001
крапивина;0.0001
крапинка;0.0001
красавица;0.00019
красник;0.0001
красногорск;0.0001
красногрудый;0.0001
краснодарский;0.0001
красноспинный;0.0001
краснофигурный;0.00019
красношейный;0.0001
красный;0.00067
красс;0.00019
кратер;0.00019
крауна;0.0001
краучий;0.0001
креец;0.0001
крейсер;0.00087
крейцер;0.0001
кремль;0.0001
кремонский;0.0001
крепостной;0.0001
крепость;0.00039
крест;0.00048
крестовый;0.00039
крестьянин;0.0001
кретьен;0.0001
кречет;0.0001
кривая;0.00019
крик;0.00048
крикет;0.0001
криорусый;0.0001
криптография;0.0001
крис;0.00019
кристи;0.00019
кристиан;0.0001
кристин;0.0001
кристофер;0.0001
крит;0.0001
критерий;0.00029
критик;0.00019
критиковать;0.0001
критон;0.0001
критский;0.0001
кровавый;0.00029
кровь;0.0001
крокодил;0.0001
крона;0.00019
кронштадтский;0.0001
кросби;0.0001
кроссинговер;0.0001
крошка;0.0001
круг;0.0001
кружок;0.0001
круковский;0.0001
крупный;0.0001
крус;0.0001
крускал;0.0001
крушение;0.0001
крым;0.0001
крымский;0.0001
крыса;0.0001
крыша;0.0001
крэмптон;0.0001
кряква;0.0001
ксаверий;0.0001
ксения;0.00019
ктистый;0.0001
ктулху;0.0001
куанга;0.0001
куб;0.0001
кубал;0.0001
кубанский;0.00019
кубань;0.0001
кубок;0.00058
кубрат;0.0001
кузнецов;0.00019
кузнечик;0.0001
кузьмин;0.0001
куйбышев;0.0001
кук;0.00029
кукучка;0.0001
кукушка;0.0001
кульпин;0.0001
культура;0.00096
культурно-исторический;0.0001
культурный;0.0001
кульчицкий;0.0001
кумано;0.0001
кумариса;0.0001
кунис;0.0001
кунст;0.0001
купманс;0.0001
купон;0.0001
купрес;0.0001
купчиха;0.0001
курамшиевич;0.0001
курион;0.00019
курия;0.0001
куркуас;0.0001
курманжан-датка;0.0001
курс;0.00019
курск;0.00019
курский;0.00029
курт;0.00019
куртен;0.00019
куртык;0.0001
кустарник;0.0001
кустодий;0.0001
кутень;0.0001
куттинирпаак;0.0001
кухня;0.00019
кучик;0.0001
куш;0.0001
къарачай-малкъар;0.0001
кызылагаджский;0.0001
кылович-арслан;0.0001
кью;0.0001
кэйтлина;0.0001
кэмден;0.0001
кэрд;0.0001
кэролайна;0.00019
кэрри;0.0001
кэрролл;0.00019
кэтрин;0.00019
кюрикида;0.0001
ла-вий;0.0001
ла-манш;0.0001
лабазанов;0.0001
лабиринт;0.0001
лабиринтул;0.0001
лав-канал;0.0001
лаваль;0.0001
лавлейс;0.0001
лавр;0.0001
лавриненко;0.0001
лавровый;0.00019
лагерь;0.00039
ладен;0.0001
ладислав;0.0001
ладого-тихвинский;0.0001
лазер;0.00019
лазурь;0.0001
лайкенс;0.0001
лаймона;0.0001
лайон;0.0001
лакку;0.0001
лактоферрина;0.0001
лакшми;0.0001
лалли;0.0001
ламбьель;0.0001
ламийскай;0.0001
лангольер;0.0001
ланкастерский;0.0001
ланский;0.0001
ланцетник;0.0001
лаос;0.0001
лапченко;0.0001
лапшин;0.0001
ларри;0.0001
ласкер;0.0001
латвия;0.0001
латур;0.0001
лаудруп;0.0001
лаури;0.0001
лауриккать;0.0001
лафайет;0.0001
лахман;0.0001
лгбт;0.0001
лдпр;0.0001
лев;0.00067
левандовский;0.0001
левитан;0.0001
левый;0.0001
легар;0.0001
легенда;0.00039
легендарный;0.0001
легион;0.00019
легкоартиллерийский;0.0001
лежать;0.0001
лезвие;0.0001
лезга;0.0001
лей;0.0001
лейбензон;0.0001
лейденский;0.0001
лейк;0.0001
лейла;0.0001
лейли;0.0001
лейпунский;0.0001
лейпцигский;0.0001
лейся;0.0001
лейтенант;0.0001
лекхеть;0.0001
лелия;0.00019
лемера;0.0001
лемурия;0.0001
лена;0.0001
лендок;0.0001
ленин;0.00077
ленинград;0.00019
лениногорск;0.0001
лениногорский;0.0001
леннон;0.00019
леночка;0.0001
ленточник;0.0001
лео;0.0001
леон;0.00029
леонард;0.00019
леонид;0.00019
леоннат;0.0001
леонтина;0.0001
леопард;0.0001
леосфен;0.0001
лепешинский;0.0001
лепид;0.0001
лес;0.00019
лесбиянка;0.0001
лесничий;0.0001
лестер;0.00039
лестница;0.0001
летиция;0.0001
летний;0.00077
лето;0.00019
лехитский;0.0001
лжедмитрий;0.0001
лиам;0.0001
либия;0.0001
либревиль;0.0001
ливия;0.00019
ливский;0.0001
лига;0.00039
лигнотубер;0.0001
лиговскай;0.0001
лидер;0.00019
лидия;0.0001
лизосомный;0.0001
лизюков;0.0001
лик;0.0001
ликия;0.0001
ликорис;0.0001
лилия;0.0001
лимб;0.0001
лимонад;0.0001
лимонный;0.0001
лингвистика;0.0001
линда;0.0001
линден;0.0001
линейный;0.00135
линия;0.00029
линкольн;0.00029
линн;0.0001
лионелло;0.0001
лионель;0.0001
липидный;0.0001
липофусциноз;0.0001
лис;0.0001
лисистрата;0.0001
лисица;0.0001
лист;0.00019
лита;0.0001
литва;0.0001
литература;0.00067
литературный;0.0001
литл-раунд-топ;0.0001
литл-роуб-крик;0.0001
литовский;0.00029
литтл;0.0001
лиутпранд;0.0001
лицензия;0.0001
лициния;0.00029
лицо;0.0001
личность;0.00019
личный;0.00019
лишак;0.0001
лливелин;0.00019
логан;0.00019
лодка;0.00067
лодочный;0.0001
лозорайтис;0.0001
лока;0.0001
локализация;0.0001
ломаный;0.0001
ломоносов;0.0001
лонг;0.0001
лонг-айлендское;0.0001
лонгисквам;0.0001
лонгмонт;0.0001
лонго;0.0001
лондонский;0.00029
лорд;0.00019
лос-анджелес;0.0001
лосев;0.0001
лоуренс;0.0001
лохвицкий;0.0001
лохинайленд;0.00029
лошадь;0.00019
лоялистский;0.0001
луа-луа;0.0001
лубянка;0.0001
лужичанин;0.0001
луиза;0.00019
луис;0.0001
луисвилл;0.0001
лука;0.0001
лукан;0.0001
лукас;0.0001
лукич;0.0001
лукулла;0.00019
лукьяненко;0.0001
лукьянов;0.0001
лумумба;0.0001
луна;0.00019
луналить;0.0001
лундгрена;0.0001
лунден;0.0001
лунный;0.0001
луция;0.00116
львиный;0.0001
львовский;0.0001
льеж;0.0001
льежский;0.0001
льюис;0.00019
лэдброук;0.0001
лэмптить;0.0001
лэндон;0.0001
лэнс;0.0001
любитель;0.0001
любить;0.0001
любовь;0.00029
людмила;0.0001
люк;0.0001
люмен;0.0001
люси;0.0001
лютцена;0.0001
мабель;0.0001
мавзолей;0.0001
мавр;0.0001
маврикийский;0.0001
магдалина;0.0001
магелланов;0.00019
магна;0.0001
магнат;0.0001
магомаев;0.0001
магон;0.0001
мадагаскарский;0.00019
маджид;0.0001
мадур;0.0001
мадурцы;0.0001
мазеп;0.0001
мазовецкий;0.0001
мазхаб;0.0001
мазь;0.0001
май;0.0001
майванда;0.0001
майер;0.0001
майк;0.00019
майкен;0.0001
майкл;0.00048
майор;0.00039
майотен;0.0001
майрис;0.0001
майя;0.00019
мак-клинток;0.0001
мак-крорь;0.0001
мак-минн;0.0001
макалпайн;0.0001
макаров;0.00019
макау;0.0001
макг;0.0001
макграт;0.0001
макдорманд;0.0001
македония;0.0001
македонски;0.0001
македонский;0.00039
македонянин;0.0001
макемаке;0.0001
макензный;0.0001
маки;0.0001
макка;0.0001
маккаддный;0.0001
маккарти;0.0001
маккиннон;0.0001
макклеллан;0.0001
маккул;0.0001
маклюэн;0.0001
маковка;0.0001
макроэкономика;0.0001
макроэкономический;0.0001
макс;0.00029
максвелл;0.0001
максим;0.00048
максимилиан;0.0001
макхейл;0.0001
макшейн;0.0001
малавский;0.0001
мале;0.0001
малкольм;0.0001
малоун;0.0001
малый;0.00029
мальгашский;0.0001
мальтузианство;0.0001
мальчик;0.00039
малютка;0.0001
малярия;0.0001
манга;0.0001
мангра;0.0001
мангуст;0.00019
манданда;0.0001
манежный;0.0001
манитоба;0.0001
манифест;0.00019
манихейство;0.0001
мания;0.00029
манлия;0.0001
мансур;0.0001
мануэль;0.0001
манхеттен;0.00019
манцин;0.0001
манчестер;0.00019
манчестерский;0.0001
маньяк;0.0001
маньяни;0.0001
мара;0.00029
марат;0.0001
маргарет;0.00039
маргарита;0.00019
марек;0.0001
марена;0.0001
мариам;0.00019
мариинский;0.0001
марий;0.00019
мариный;0.0001
марио;0.0001
мариса;0.0001
мариуш;0.0001
мария;0.00125
марк;0.00241
марка;0.00029
маркелла;0.0001
маркиз;0.0001
маркиньос;0.0001
марко;0.0001
маркович;0.0001
маркс;0.0001
марракеш;0.0001
марсден;0.0001
марсианин;0.0001
марта;0.00019
мартин;0.00029
мартиниевый;0.0001
марцелла;0.00029
марцеллин;0.0001
марция;0.00019
марч;0.00029
маршал;0.0001
маршалл;0.00019
марь;0.00019
маска;0.00019
маскарад;0.0001
маскат;0.0001
маслов;0.0001
масса;0.0001
массовый;0.00058
мастер;0.0001
мастер-билдинг;0.0001
масуд;0.0001
математик;0.00019
математика;0.00029
математический;0.00019
материал;0.00019
матильда;0.0001
мато;0.0001
матрик;0.0001
матричный;0.0001
маттиоля;0.0001
матч;0.00106
мать;0.00058
маудгальяян;0.0001
мах;0.0001
махико;0.0001
махмуд;0.0001
махмуд-паша;0.0001
машина;0.00029
маю;0.0001
маяк;0.0001
маяковский;0.00019
мвд;0.0001
мвый;0.0001
меблировочный;0.0001
мегаладапис;0.0001
мегана;0.0001
мегар;0.0001
мегленорумынский;0.0001
медаль;0.00029
медведка;0.0001
меджнун;0.0001
медицина;0.00019
медицинский;0.0001
медуза;0.0001
медуллобластома;0.0001
межвидовой;0.0001
междоусобный;0.00019
международный;0.00077
межклеточный;0.0001
межконтинентальный;0.0001
мелеагра;0.0001
мелек;0.0001
мелека-хатуна;0.0001
мелесия;0.0001
мелик;0.0001
мелисса;0.0001
мелита;0.0001
мельников;0.0001
мемлинга;0.0001
меммия;0.00019
мемнона;0.0001
мемориал;0.00039
мемориальный;0.0001
мемфис;0.00029
мена;0.0001
менгист;0.0001
менгюджекогуллар;0.0001
ментешеогуллар;0.0001
мередить;0.0001
мережковский;0.0001
мерил;0.0001
меркурий;0.00019
мерсийский;0.0001
мертенс;0.0001
мерфь;0.0001
мерцалов;0.0001
мессать;0.0001
мессье;0.00019
местный;0.0001
место;0.0001
местоимение;0.0001
месть;0.00019
месяц;0.0001
мета-вика;0.0001
метагеномик;0.0001
металкор;0.0001
метатеза;0.0001
метать;0.00019
метелла;0.00039
метеор;0.00019
метеорология;0.0001
метка;0.0001
метод;0.00019
метро;0.0001
метрополитен;0.00048
метформин;0.0001
механика;0.0001
мехмет-бей;0.0001
мечеть;0.0001
мечтатель;0.0001
мечтать;0.0001
мешеный;0.0001
мешок;0.0001
миддлгемский;0.0001
миддлтон;0.0001
мидзухо;0.0001
мизерь;0.0001
микале;0.0001
микология;0.0001
микробиология;0.0001
микробиом;0.0001
микрорайон;0.0001
микроспоридия;0.0001
микума;0.0001
мила;0.0001
милан;0.0001
милетский;0.0001
миллер;0.00029
милликен;0.0001
миллисента;0.0001
миллс;0.0001
милляр;0.0001
милон;0.0001
милосердие;0.0001
милоша;0.0001
милунка;0.0001
милутиный;0.0001
милый;0.0001
мильтиада;0.0001
мими;0.0001
мингечевирский;0.0001
минейко;0.0001
минерв;0.0001
мини-альбом;0.0001
министерство;0.0001
миннесота;0.0001
миноносец;0.00039
минск;0.0001
минченков;0.0001
миорица;0.0001
мир;0.00135
миранда;0.0001
мирза;0.00029
мирзаджан;0.0001
мирко;0.0001
мирмекийский;0.0001
мирный;0.00039
мировой;0.00125
миронид;0.0001
миронов;0.0001
миротворец;0.0001
мироходец;0.0001
миртить;0.0001
миссия;0.0001
миссури;0.0001
мистер;0.0001
митридата;0.00019
митя;0.0001
мифология;0.00019
михаил;0.00183
михаилович;0.00019
михайловский;0.0001
михаэль;0.0001
михей;0.0001
михель;0.0001
михоэлс;0.00019
мишель;0.00029
мия;0.0001
младенец;0.0001
младич;0.0001
младный;0.0001
младший;0.00039
млекопитающее;0.00039
мнение;0.00019
много;0.0001
многочисленный;0.0001
множественный;0.0001
мобильник;0.0001
мобильный;0.0001
мобут;0.0001
могами;0.0001
могила;0.00019
могилевский;0.0001
могильник;0.0001
могулеский;0.0001
мода;0.00019
мода-центр;0.0001
модель;0.00096
моденскай;0.0001
модрич;0.0001
мозг;0.0001
мозжечок;0.0001
моир;0.0001
мой;0.00077
мойский;0.0001
мол;0.0001
молдавия;0.0001
молдавский;0.00029
молекулярный;0.00019
молли;0.0001
молния;0.0001
молодой;0.0001
молтон;0.0001
молчание;0.0001
мольтка;0.0001
монарх;0.0001
монастырь;0.00144
монах;0.0001
монаш;0.0001
монгол;0.0001
монгольский;0.0001
мондадори;0.0001
моне;0.0001
монета;0.00116
монетный;0.0001
монитор;0.0001
моногород;0.0001
моноопера;0.0001
монофтонгизация;0.0001
монтаг;0.0001
монтгомери;0.00029
монтегть;0.0001
монтесума;0.0001
моргать;0.0001
море;0.00039
морейский;0.0001
мореплаватель;0.0001
морин;0.0001
морис;0.00048
моро;0.0001
морозов;0.0001
моррис;0.0001
морриссь;0.0001
морской;0.00039
мортемера;0.00019
мортимера;0.00039
мортира;0.0001
мортон;0.0001
морфолиновый;0.0001
морфология;0.0001
мосарабский;0.0001
москва;0.00135
московский;0.00058
моссад;0.0001
моссельпром;0.0001
мост;0.00135
мотив;0.00019
мотт;0.0001
моубрить;0.00039
мохамед;0.0001
мохаммед;0.00019
мохинь;0.0001
моцарт;0.00019
мочь;0.00029
мраморный;0.0001
мститель;0.00019
мудрый;0.00019
мужество;0.00019
мужской;0.00019
мужчина;0.00029
музафферуддин;0.0001
музей;0.00039
музыка;0.00087
музыкант;0.00019
мультсериал;0.0001
мультфильм;0.0001
мумия;0.0001
муммия;0.0001
мумтаз;0.0001
мун;0.0001
мурад;0.00029
мурат;0.0001
мургабский;0.0001
мурманск;0.0001
муса;0.0001
мусатов;0.0001
мусейон;0.0001
мускусный;0.0001
муссолини;0.0001
мустафа;0.0001
мутомбо;0.0001
мухаммад;0.0001
мухаммат;0.0001
мухаммед;0.0001
мухоловка;0.0001
муция;0.00019
мученик;0.0001
мученичество;0.0001
мыс;0.00019
мытник;0.0001
мышление;0.0001
мэджик;0.00019
мэдисон;0.0001
мэйсон;0.0001
мэлоун;0.0001
мэн;0.0001
мэнкью;0.0001
мэнни;0.0001
мэри;0.00019
мэтт;0.0001
мэттью;0.0001
мюзикл;0.0001
мюнхен;0.0001
мягкий;0.0001
мясник;0.0001
мятлевый;0.0001
н;0.0027
набабкин;0.0001
набарзан;0.0001
набат;0.0001
набег;0.00019
набережная;0.0001
набережночелнинский;0.0001
наварра;0.0001
навет;0.0001
навигация;0.00029
навкратис;0.0001
наг-хаммади;0.0001
нагорный;0.0001
награда;0.0001
нагрудный;0.0001
наджие-султан;0.0001
надиршах;0.0001
надо;0.0001
надувательство;0.0001
название;0.0001
назвать;0.0001
назик;0.00029
назикед;0.0001
назначить;0.0001
называть;0.00019
найти;0.00019
накопление;0.0001
намюр;0.00019
наноархеот;0.0001
нансен;0.0001
нападение;0.00058
напалков;0.0001
написание;0.0001
написать;0.00019
наполеон;0.0001
нарасимха;0.0001
нарбут;0.0001
нарезка;0.0001
народ;0.00039
народно-революционный;0.0001
народный;0.0001
наруто;0.0001
нарцисс;0.0001
население;0.0001
насер;0.0001
наси-паданг;0.00019
наследственный;0.0001
наследство;0.00029
насос;0.0001
настольный;0.00019
насутион;0.0001
нася-капау;0.0001
натали;0.0001
натаниэль;0.0001
наташа;0.0001
нать;0.0001
наука;0.00019
наум;0.0001
наундорф;0.0001
научно-исследовательский;0.0001
нахичевань;0.0001
нахманович;0.0001
находиться;0.0001
находка;0.0001
нацизм;0.0001
национализм;0.0001
националист;0.0001
национальный;0.00058
нацистский;0.0001
начало;0.00039
начинающий;0.0001
наш;0.00029
нашествие;0.0001
нашивка;0.0001
неаполь;0.0001
неарх;0.0001
небесный;0.00019
небо;0.0001
небольшой;0.0001
нева;0.0001
невероятный;0.0001
невеста;0.0001
невилл;0.00019
невилла;0.00067
неволя;0.0001
неврином;0.0001
негативный;0.0001
негомологичный;0.0001
негражданин;0.0001
недавно;0.00019
недведа;0.0001
неделя;0.0001
независимость;0.00029
неизвестный;0.0001
нейрон;0.0001
нейротоксичность;0.0001
нейрофиброматоз;0.0001
нейтральность;0.0001
некоммерческий;0.0001
некрасов;0.0001
неманя;0.0001
немецкий;0.00019
неолит;0.0001
неохалкидонизм;0.0001
непот;0.0001
нептун;0.00019
неравенство;0.0001
нерв;0.0001
нерон;0.00039
несколько;0.0001
несомненный;0.0001
нест;0.0001
нестор;0.0001
неудержимый;0.0001
нефиса;0.0001
неформальный;0.0001
нефть;0.0001
нефтяной;0.0001
нечисловой;0.0001
нива;0.0001
нигер;0.0001
нигерзавр;0.0001
нидерланды;0.0001
нидхема;0.0001
нижегородский;0.0001
нижне-бурейский;0.0001
нижне-воскресенский;0.0001
нижне-свирский;0.0001
нижнеамурский;0.0001
нижний;0.00029
низами;0.0001
нии;0.0001
никанор;0.0001
никатор;0.0001
никий;0.0001
никита;0.00019
никифор;0.0001
никола;0.0001
николаевский;0.0001
николай;0.00231
николас;0.0001
николсон;0.0001
николя;0.0001
никотинамидадениндинуклеотид;0.0001
нил;0.00029
нилтон;0.0001
нильский;0.0001
нина;0.0001
ниндзя;0.0001
ниро;0.0001
нквд;0.0001
новаторство;0.0001
новгород;0.0001
новелла;0.00029
новиков;0.0001
ново-михайловский;0.0001
новокузнецкий;0.0001
новомосковск;0.0001
новопесчаный;0.0001
новоселье;0.0001
новослободский;0.0001
новый;0.00183
нойер;0.0001
ноллис;0.0001
номенклатура;0.00019
норбан;0.0001
норвегия;0.00019
норвежский;0.00019
нордман;0.0001
норманди;0.0001
нормандия;0.00019
нормандский;0.0001
нормативный;0.0001
нортон;0.0001
нортумберленд;0.00019
норфолк;0.0001
носов;0.0001
носорог;0.00019
ноубла;0.0001
нохчий;0.0001
нохчийна;0.0001
ночной;0.0001
ночь;0.0001
ноэль;0.0001
ноябрь;0.00019
нумериана;0.0001
нуметь;0.0001
нумидийский;0.0001
нумизматика;0.0001
нумизматический;0.0001
нунавута;0.0001
нью-джерси;0.0001
нью-йорк;0.00019
ньюкома;0.0001
ньютон;0.00019
ньягатар;0.0001
о-бан;0.0001
оба;0.0001
обвинить;0.0001
обелиск;0.0001
оберон;0.0001
обеспечение;0.00019
обет;0.00019
обилич;0.0001
обитель;0.0001
обиход;0.0001
обладание;0.0001
облако;0.00029
областной;0.00019
область;0.00106
обнаружить;0.0001
оболочка;0.0001
обоняние;0.0001
оборона;0.00048
образец;0.00048
образование;0.0001
обратный;0.0001
обрушение;0.0001
обрыв;0.0001
обряд;0.0001
обстоятельство;0.0001
обструктивный;0.0001
обсуждать;0.0001
обсуждение;0.00029
обтекаемый;0.0001
обучение;0.0001
обходный;0.0001
общесоюзный;0.0001
общественный;0.0001
общество;0.00039
община;0.0001
общность;0.0001
объединение;0.00019
объединить;0.00019
объект;0.0001
объективный;0.0001
объять;0.0001
обыкновенный;0.00039
овраг;0.00019
огайо;0.00019
оганесян;0.0001
огненногрудый;0.0001
огонь;0.0001
огюст;0.0001
оде-де-сион;0.0001
одесский;0.00019
один;0.00077
одинокий;0.0001
одиночка;0.00019
одиночный;0.00019
однополый;0.00019
одумегва-оджуква;0.0001
ожидать;0.0001
ожие;0.0001
оздемирогла;0.0001
озеро;0.00029
ойген;0.0001
оказать;0.0001
оказаться;0.00019
океан;0.00048
окислительный;0.0001
оккупация;0.0001
оклад;0.0001
оклахома-сити;0.00019
околосолнечный;0.0001
окончательный;0.0001
окончить;0.0001
округ;0.00019
оксана;0.0001
октябрь;0.00039
окуева;0.0001
олга-хорха;0.0001
олдмена;0.0001
олег;0.00039
оленик;0.0001
оливковоспинный;0.0001
олигонуклеотид;0.00019
олимпиада;0.00019
олимпийский;0.00087
оллред;0.0001
олмейер;0.0001
ольга;0.00029
ольстер;0.0001
ольстерский;0.00039
оман;0.0001
онежский;0.0001
онесикрит;0.0001
онисабурый;0.0001
оон;0.0001
опасный;0.0001
опера;0.00019
операция;0.0025
опимия;0.0001
описание;0.0001
оплата;0.0001
опоздать;0.0001
оппель;0.0001
определение;0.00019
оптический;0.0001
оптопара;0.0001
опустошение;0.0001
опыт;0.00039
опытный;0.0001
ор;0.0001
оранго;0.0001
оранжевый;0.0001
оранский;0.0001
оратор;0.0001
орбитальный;0.0001
организация;0.00039
организовать;0.0001
орден;0.00058
орегонский;0.0001
оренбург;0.0001
оресть;0.0001
ориджинал;0.0001
орион;0.00029
оркинии;0.0001
орландо;0.0001
орлова-чесменский;0.0001
орловский;0.00019
орнитология;0.0001
орстхоец;0.0001
ортегаль;0.0001
ортис;0.00019
ортомолекулярный;0.0001
оруженосец;0.0001
оружие;0.00029
орхан;0.0001
осада;0.00164
осама;0.0001
осборн;0.0001
осведомитель;0.0001
освободитель;0.0001
освободительный;0.0001
освобождение;0.00019
осгуд;0.0001
осенний;0.0001
осень;0.00019
осесть;0.0001
осиекскай;0.0001
осиос-лукас;0.0001
оскар;0.00019
ослятина;0.0001
осман;0.00019
осман-паша;0.0001
османо-мамлюкский;0.0001
осмонд;0.0001
основание;0.0001
основать;0.0001
основный;0.00019
особый;0.00029
осока;0.0001
оссуария;0.0001
оставить;0.0001
остарбайтер;0.0001
остаться;0.0001
остеохондропластический;0.0001
остров;0.00087
островский;0.0001
остроносый;0.0001
остроухов;0.0001
ось;0.0001
ответный;0.0001
ответственность;0.00029
отвечать;0.0001
отворить;0.0001
отдельный;0.00019
отец;0.00048
отечественный;0.00029
отзыв;0.00019
отказ;0.0001
открытый;0.0001
открыть;0.0001
открыться;0.0001
отличие;0.00019
отлукбель;0.0001
отметить;0.0001
отмечать;0.0001
относительность;0.0001
отношение;0.0001
отправить;0.0001
отравить;0.0001
отражение;0.00019
отредактировать;0.0001
отречение;0.00029
отряд;0.0001
отступить;0.0001
отсутствие;0.0001
оттепель;0.0001
оттон;0.0001
отчаянный;0.0001
отшельник;0.0001
офицер;0.0001
охота;0.00019
охрана;0.00029
оценивание;0.0001
оценить;0.0001
очанка;0.0001
очевидный;0.0001
очки;0.0001
ошейниковый;0.0001
ошибка;0.0001
ошибочность;0.0001
п;0.00019
паб;0.00029
павел;0.00077
павелецкий;0.0001
павильон;0.00019
павлович;0.0001
павловск;0.0001
павловский;0.0001
павсания;0.00019
паго-паго;0.0001
падманабхасвами;0.0001
пайса;0.0001
пайтити;0.0001
пакт;0.0001
паланик;0.0001
палата;0.0001
палатализация;0.00029
палатинский;0.0001
палатка;0.0001
палеолит;0.00019
палеонтология;0.0001
палермо;0.0001
палестина;0.0001
палестинский;0.0001
палиндром;0.0001
палладиум;0.0001
пальма;0.0001
памфилий;0.0001
памятник;0.00077
панген;0.0001
панов;0.0001
панс;0.0001
паньковы;0.0001
папа;0.0001
папапетра;0.0001
папирия;0.0001
парабазалия;0.0001
параграф;0.0001
парад;0.00019
парадокс;0.0001
паралимпийский;0.0001
парамонов;0.0001
параспекл;0.0001
парашютный;0.0001
пардубицкий;0.0001
парень;0.0001
паретакен;0.0001
парк;0.00087
парк-музей;0.0001
парка;0.0001
паркер;0.0001
парламент;0.0001
парламентский;0.0001
паровоз;0.0001
пароход;0.0001
партизан;0.00019
партизанский;0.0001
партия;0.0001
парус;0.0001
парфий;0.00019
парыгин;0.0001
пассаж;0.0001
пастушок;0.0001
пасхалия;0.0001
пасхальный;0.0001
пасынок;0.0001
патагозавр;0.0001
патер;0.0001
патеркул;0.0001
патерно-кастелло;0.0001
патец;0.0001
патрик;0.00019
патрикий;0.0001
патрис;0.0001
патрокл;0.0001
пауэлла;0.00029
пачка;0.0001
пашков;0.0001
пашня;0.0001
педерсена;0.0001
педра-бранка;0.0001
педро;0.00019
пейвар-котал;0.0001
пейзаж;0.00029
пейзажный;0.0001
пейн;0.0001
пелагея;0.0001
пелхам;0.0001
пембрук;0.00019
пенелопа;0.00019
пенза;0.0001
пентод;0.0001
пентозофосфатный;0.0001
пеньковский;0.0001
пепел;0.0001
пер;0.0001
первовенчать;0.0001
первый;0.00183
перевал;0.0001
перевезти;0.0001
перевод;0.0001
переворот;0.00019
переговоры;0.0001
передача;0.00019
передвижник;0.0001
передвижной;0.00019
передискретизация;0.00019
переезд;0.00019
переехать;0.0001
переживание;0.0001
перейти;0.00019
перекопский;0.0001
перелом;0.00019
переменный;0.0001
перерыв;0.0001
пересекаться;0.0001
переселение;0.0001
переславщина;0.0001
перестановка;0.0001
переход;0.0001
пержина;0.0001
периандра;0.0001
перкинс;0.0001
пермский;0.0001
пернель;0.0001
пероксисома;0.0001
перперный;0.0001
перселла;0.0001
перси;0.00096
персидский;0.00019
персиковый;0.0001
персонаж;0.00077
персональный;0.0001
перхун;0.0001
песенно-поэтический;0.0001
песня;0.00039
песчаный;0.00029
петербург;0.0001
петербургский;0.0001
петергоф;0.0001
петерсон;0.0001
петик;0.00019
петков;0.0001
петрей;0.0001
петреск;0.0001
петров;0.00019
петров-водкин;0.0001
петрович;0.0001
петровка;0.0001
петровский;0.0001
петрозаводск;0.0001
петроик;0.0001
петронилла;0.0001
петрония;0.0001
петропавловск;0.0001
петька;0.0001
печальный;0.0001
печать;0.00019
пеший;0.0001
пешитта;0.0001
пигмалиона;0.0001
пидный;0.0001
пиетас;0.0001
пизона;0.0001
пий;0.0001
пик-трам;0.0001
пикача;0.0001
пикильякт;0.0001
пикингилла;0.0001
пиктограмма;0.0001
пиночет;0.0001
пинск;0.0001
пинцет;0.0001
пирамидоголовый;0.0001
пири;0.0001
пирогов;0.0001
пироптоз;0.0001
пирс;0.00019
пирувата;0.0001
писарро;0.0001
писатель;0.00019
писать;0.00019
писистрата;0.0001
писко;0.0001
пистонс;0.00019
письменность;0.0001
письмо;0.0001
питер;0.00029
питомец;0.0001
пифагор;0.0001
пифон;0.0001
пихтовый;0.0001
пищевод;0.0001
пиявка;0.0001
пияле-паша;0.0001
плавный;0.0001
плавучий;0.0001
плагга;0.0001
пламя;0.0001
план;0.0001
планета;0.0001
планк;0.0001
плантагеть;0.0001
пластина;0.0001
плата;0.0001
платиновый;0.0001
платон;0.0001
платонов;0.0001
платформа;0.00029
платформер;0.0001
плацидия;0.0001
плесси;0.0001
плещеев;0.0001
плеяда;0.0001
плиния;0.0001
плистоанакт;0.0001
плот;0.00019
плотина;0.0001
площадь;0.00077
плютеть;0.0001
побег;0.0001
победа;0.00029
побережье;0.0001
поведение;0.0001
повелитель;0.0001
повесть;0.00019
поветкин;0.0001
поганкин;0.0001
погибнуть;0.0001
погоныш;0.00019
погостища;0.0001
погребение;0.0001
погребецкий;0.0001
подводный;0.00058
подземный;0.00019
подлинный;0.0001
подмандатный;0.0001
подольский;0.0001
подошва;0.0001
подпись;0.0001
подробность;0.0001
подробный;0.0001
подунавий;0.0001
поезд;0.00019
пожаловать;0.00019
пожертвовать;0.0001
позаботиться;0.0001
позволить;0.0001
позвоночный;0.0001
поздний;0.0001
поимка;0.0001
поиск;0.00029
пойма;0.0001
пока;0.00019
показать;0.0001
покемон;0.00019
покой;0.0001
поколение;0.00067
покоситься;0.0001
покров;0.0001
покровский;0.00019
покрыть;0.0001
пол;0.00039
поле;0.00039
полевика;0.0001
поленов;0.0001
полиаденилирование;0.0001
поливанов;0.00019
полиглотт;0.00029
поликсеня;0.0001
полимеразный;0.0001
полиперхон;0.0001
политик;0.0001
политика;0.00029
политический;0.00058
полицейский;0.0001
полиция;0.0001
полк;0.00039
полка;0.0001
полковник;0.0001
полногеномный;0.0001
полнота;0.0001
полосатый;0.0001
полотно;0.0001
полудница;0.0001
получить;0.00019
полый;0.0001
поль;0.00029
польза;0.0001
польский;0.00019
польско-украинский;0.0001
полюс;0.0001
полярный;0.0001
помазун;0.0001
помпей;0.00029
понгс;0.0001
понкрашов;0.0001
понтус;0.0001
поплавкий;0.0001
попов;0.0001
поползень;0.00019
поправка;0.0001
попугай;0.00019
популярный;0.00019
пора;0.00019
поразить;0.0001
порнократия;0.0001
порох;0.0001
порт;0.0001
портал;0.00019
портман;0.0001
портрет;0.00106
поручение;0.0001
порфириат;0.0001
порция;0.0001
порядок;0.0001
посейдон;0.0001
поселение;0.0001
посетитель;0.0001
посетить;0.00019
последний;0.00058
последовательность;0.00019
последствие;0.0001
посмертно;0.0001
посполить;0.0001
поставить;0.0001
поставка;0.0001
постановка;0.0001
посторонний;0.0001
постоянный;0.0001
построить;0.0001
посттравматический;0.0001
поступить;0.0001
потеря;0.00019
потерять;0.0001
потина;0.0001
потомакский;0.0001
потоп;0.0001
поттер;0.00019
похищение;0.00029
поход;0.00077
похороны;0.00019
почиталина;0.0001
почта;0.0001
почтамт;0.0001
почтамтский;0.0001
почти;0.0001
почтовый;0.00029
поэзия;0.0001
поэма;0.00019
поэт;0.0001
поэтому;0.0001
появиться;0.0001
появление;0.0001
прабалтийский;0.0001
правда;0.0001
правитель;0.0001
править;0.00019
правка;0.00019
право;0.00058
правоведение;0.0001
православие;0.0001
православно-старокатолический;0.0001
православный;0.0001
правящий;0.0001
прага;0.0001
пражский;0.00019
праздничный;0.0001
праиндоевропейский;0.00058
прасемитский;0.0001
праславянский;0.00019
прауральский;0.0001
предменструальный;0.0001
предместье;0.0001
предмет;0.0001
предоставить;0.0001
предполагать;0.00019
предположение;0.0001
предположительно;0.00019
предпринимательство;0.00019
предприятие;0.0001
предсердие;0.0001
предсказание;0.0001
представитель;0.0001
представить;0.0001
представиться;0.0001
предтеча;0.0001
преемник;0.0001
президент;0.00019
президентский;0.00019
президентство;0.0001
преимущественно;0.0001
преимущество;0.0001
премия;0.0001
преображение;0.0001
преображенский;0.0001
преподобный;0.0001
препятствовать;0.0001
прерафаэлит;0.0001
прервать;0.0001
пресвятой;0.00019
преследование;0.0001
пресса;0.0001
преступление;0.0001
преступник;0.00019
преступность;0.00019
претор;0.0001
прибыть;0.0001
привал;0.0001
приворожить;0.0001
пригласить;0.00019
приграничный;0.0001
приз;0.0001
приквел;0.0001
приключение;0.0001
прикраса;0.0001
принадлежать;0.0001
принимать;0.0001
принц;0.00019
принцесса;0.00029
принять;0.0001
приобрести;0.0001
прион;0.0001
присоединение;0.0001
приставка;0.0001
притихнуть;0.0001
приток;0.0001
причал;0.0001
причина;0.0001
причислять;0.0001
пришелец;0.0001
пришествие;0.0001
прованс;0.0001
провести;0.0001
провинция;0.0001
проводник;0.0001
провозглашение;0.0001
прогноз;0.0001
программа;0.0001
программировать;0.0001
программный;0.0001
прогрессив-филд;0.0001
продажа;0.0001
продвижение;0.00019
проект;0.00135
проехать;0.0001
произведение;0.00048
произношение;0.0001
произойти;0.00019
происхождение;0.0001
пройти;0.00019
проказник;0.0001
прокай;0.0001
прокламация;0.0001
проконсул;0.0001
пролетать;0.0001
пролив;0.00029
промышленность;0.00029
пропасть;0.0001
проповедь;0.0001
пропретор;0.0001
просмотр;0.00019
проспект;0.00019
простить;0.0001
пространственный;0.0001
пространство;0.0001
протагонист;0.0001
протасов;0.0001
протеинкиназа;0.0001
протеомик;0.0001
противовоздушный;0.0001
противолодочный;0.00019
противостояние;0.0001
протистология;0.0001
протозвезда;0.0001
протокол;0.00019
протоптер;0.0001
профиль;0.0001
проходить;0.0001
прохождение;0.0001
процедура;0.0001
процентный;0.0001
процесс;0.00058
прочий;0.0001
прошлое;0.0001
прощальный;0.0001
пруд;0.0001
прудников;0.0001
прямой;0.0001
пряничный;0.0001
птица;0.00039
птица-колокольчик;0.0001
птица-мышь;0.00039
пуанкара;0.0001
пуатевинец;0.0001
публия;0.00106
пуджа;0.0001
пулевый;0.0001
пульсировать;0.0001
пульхра;0.0001
пункт;0.00019
пуринергический;0.0001
путешественник;0.0001
путешествие;0.00019
путь;0.00039
путь-дорога;0.0001
пушистый;0.00019
пушка;0.00039
пушкин;0.00048
пушкинский;0.0001
пуштунистан;0.0001
пуэрто-риканский;0.0001
пфайфхофер;0.0001
пфаффенфейндталер;0.0001
пчелинцев;0.0001
пышлиц;0.0001
пьер;0.00019
пьеса;0.0001
пьетро;0.00019
пэйн;0.0001
пэйсерс;0.00019
пюиза;0.0001
пятеро;0.0001
пятигорский;0.0001
пятикнижие;0.0001
пятнистолобый;0.0001
пятно;0.0001
пять;0.0001
р;0.00019
раби;0.0001
рабий;0.0001
рабочий;0.00019
рабство;0.0001
равенсбрюки;0.0001
равноапостольный;0.0001
радецкий;0.0001
раджастхан;0.0001
радио;0.0001
радиотехник;0.0001
радов;0.0001
радонежский;0.0001
радость;0.0001
раз;0.0001
разведывательный;0.0001
развитие;0.0001
развлечение;0.0001
разворачиваться;0.0001
раздел;0.00019
разделить;0.0001
разлив;0.0001
размер;0.0001
разнообразие;0.0001
разный;0.0001
разогнать;0.0001
разработчик;0.0001
разрушение;0.0001
разрыв;0.0001
разряд;0.0001
разум;0.00019
разумовский;0.0001
рай;0.0001
райан;0.0001
раймонди;0.0001
район;0.00067
райса;0.0001
райт;0.00019
райя;0.0001
ракета;0.00019
ракета-носитель;0.0001
ральф;0.00039
рамазаногуллар;0.0001
рамбахадур;0.0001
раменский;0.0001
рамка;0.0001
рамсеять;0.0001
ранганатх;0.0001
раненый;0.0001
ранить;0.0001
ранний;0.0001
ранульф;0.00019
рапас;0.0001
рапопорт;0.00019
раскол;0.0001
раскраска;0.0001
раскрывать;0.0001
распад;0.00029
расположить;0.0001
распространение;0.0001
распятие;0.0001
расселла;0.0001
рассказ;0.0001
расследование;0.00019
расставить;0.0001
расстрел;0.00019
расстрельный;0.0001
расстройство;0.0001
растение;0.0001
расти;0.0001
расценить;0.0001
ратим;0.0001
ратко;0.0001
ратленд;0.0001
рафт;0.0001
рахим;0.0001
рахман;0.0001
рациональный;0.0001
раш-крик;0.0001
раш-спрингс;0.0001
рашид;0.0001
рашит;0.0001
рашка;0.0001
реакция;0.00019
реал;0.0001
реальность;0.0001
реальный;0.0001
револьвер;0.0001
революция;0.00039
регби;0.00029
регбист;0.0001
регион;0.0001
регулы;0.0001
редактирование;0.0001
редакция;0.0001
реджеле;0.0001
реджинальда;0.0001
реджис;0.0001
редлера;0.0001
реднапп;0.0001
резерват;0.0001
резисторный;0.0001
резник;0.0001
резня;0.00067
результат;0.00019
рей;0.00019
рейд;0.00029
рейнджер;0.0001
рейнхард;0.0001
рейс;0.00019
рейтар;0.0001
рейх;0.00019
рейчел;0.00019
река;0.00039
рекреационный;0.0001
религиозный;0.00029
религия;0.00019
релиз;0.0001
реликтовый;0.0001
рембрандт;0.0001
ремесло;0.0001
реми;0.0001
рен;0.0001
ренат;0.0001
рентный;0.0001
репин;0.0001
репрессия;0.0001
республика;0.00116
республиканский;0.00019
рестлер;0.0001
рестлинг;0.0001
рестлмания;0.0001
реформа;0.00029
реформация;0.0001
рецензент;0.0001
рецептор;0.0001
речной;0.0001
речь;0.0001
решение;0.0001
рибонуклеиновый;0.0001
рибопереключатель;0.0001
ригсдалер;0.0001
рижский;0.0001
ризлить;0.0001
рик;0.00019
риксдалер;0.0001
рилина;0.0001
рим;0.00029
римский;0.00039
римско-католический;0.0001
риордан;0.0001
рис;0.0001
рита;0.0001
ритуальный;0.0001
рифкина;0.0001
рифовый;0.0001
ричард;0.00087
ришар;0.0001
рнк-интерференция;0.0001
рнк-термометр;0.0001
роальд;0.0001
роба;0.0001
робер;0.0001
роберт;0.00221
робертсон;0.0001
рогатый;0.0001
рогожина;0.0001
род-айлендский;0.0001
роден;0.0001
родерик;0.0001
роджер;0.00067
роджерс;0.00019
родина;0.0001
родитель;0.0001
родиться;0.0001
родосский;0.00019
родченко;0.0001
рождество;0.0001
рожер;0.00019
рожок;0.0001
роза;0.00019
розарио;0.0001
розвальни;0.0001
розовый;0.0001
розть;0.0001
рок-спрингс;0.0001
ролевый;0.0001
роман;0.00058
романов;0.00019
ромашка;0.0001
ромер;0.0001
ромни;0.0001
ромул;0.0001
рональд;0.0001
ронана;0.0001
ронни;0.00019
роскилла;0.0001
россиада;0.0001
российский;0.00029
россия;0.00202
рост;0.0001
ростов;0.0001
роуэтта;0.0001
роща;0.00019
ртищево;0.0001
ртуть;0.0001
руанда;0.0001
рубашка;0.0001
рубль;0.0001
рубый;0.0001
руджеро;0.0001
руис;0.0001
рукия;0.0001
рукнеддин;0.0001
рукописный;0.00019
рукопись;0.00019
румыния;0.0001
руслан;0.00029
русский;0.00135
русско-прусский;0.0001
русско-японский;0.0001
русь;0.00048
рутилия;0.0001
рыжезатылочный;0.0001
рыльск;0.00019
рысак;0.0001
рыскулбек;0.0001
рыцарь;0.00019
рэббитоуз;0.0001
рэби;0.0001
рэдфорд;0.0001
рэй;0.0001
рэндзя;0.0001
рэпторс;0.0001
рюгить;0.0001
рюкзак;0.0001
ряд;0.00039
рязанский;0.0001
рязань;0.0001
саванна;0.0001
савельев;0.0001
савенко;0.0001
савич-глигоревич;0.0001
савойский;0.0001
сад;0.00039
садак;0.00019
садык;0.0001
садырина;0.0001
садыхджан;0.0001
сазерленд;0.0001
сазонов;0.0001
саид;0.0001
сайлента;0.00019
сайменский;0.0001
саймон;0.0001
сакав;0.0001
саламин;0.00019
салинатор;0.0001
салли;0.0001
салливана;0.00019
салман;0.0001
сало;0.0001
саломея-повитуха;0.0001
салон;0.0001
салоники;0.0001
салпаусселькть;0.0001
салтукогуллар;0.0001
сальери;0.0001
саманта;0.0001
самара;0.00029
самаритянский;0.0001
самарский;0.00019
самоанский;0.0001
самосдельский;0.0001
самосский;0.0001
самохин;0.0001
самуилович;0.0001
самурай;0.0001
самуэль;0.0001
самый;0.00029
сан-бабил;0.0001
сан-витале;0.0001
сангхамитта;0.0001
сандармохнуть;0.0001
сандерс;0.0001
санджий;0.0001
санкт-петербург;0.00077
санкция;0.0001
санный;0.0001
санос;0.00019
сант-аполлинаре-ин-класс;0.0001
сант-аполлинаре-нуовый;0.0001
сантос;0.0001
сара;0.00019
сараево;0.0001
саратов;0.0001
сарезское;0.0001
саруханогуллар;0.0001
сарычев;0.0001
сасанид;0.0001
сата;0.0001
сатир;0.0001
сатпай;0.0001
сатрап;0.0001
сатурнина;0.0001
саум;0.0001
саур-могила;0.0001
саут;0.00019
сауэр;0.0001
сафиуллин;0.0001
сафьянский;0.0001
саха;0.0001
сачко;0.0001
саша;0.0001
сборная;0.00039
сборник;0.0001
сборный;0.0001
свадьба;0.0001
сватовство;0.0001
сведение;0.0001
свежий;0.00019
свербига;0.0001
сверхгигант;0.0001
свет;0.0001
светлана;0.0001
свеча;0.0001
свидетель;0.00019
свинец;0.0001
свистун;0.0001
свифт;0.0001
свободный;0.0001
свой;0.00058
связанный;0.0001
связаться;0.0001
связь;0.0001
святитель;0.0001
свято-варваринский;0.0001
свято-николаевский;0.00019
свято-троицкий;0.0001
святой;0.00135
святослав;0.00019
святославич;0.0001
священный;0.00019
сделать;0.0001
себастьян;0.0001
север;0.00019
северный;0.00048
северо-ингерманландский;0.0001
северовирджинский;0.0001
северомексиканский;0.0001
сегалович;0.0001
сегедский;0.0001
сезон;0.00019
секвенирование;0.0001
секретный;0.00029
секреция;0.0001
селение;0.0001
селина;0.00019
селить;0.0001
село;0.00019
сельдевый;0.0001
сельский;0.0001
семинольский;0.0001
семнадцатый;0.0001
семпрония;0.0001
семь;0.00019
семья;0.00039
сенешаль;0.0001
сент-годенс;0.0001
сент-луис;0.0001
сентиментальный;0.0001
сентябрь;0.0001
серапион;0.0001
серб;0.00019
сербия;0.0001
сербский;0.00058
сервие;0.00029
сервилиан;0.0001
сервилий;0.00048
сергей;0.00144
сергий;0.0001
сердце;0.00029
серебристошейный;0.0001
серебряков;0.0001
серебряный;0.0001
сереветь;0.0001
сержио;0.0001
сериал;0.0001
серия;0.00039
серогорлый;0.0001
сес;0.0001
сесилия;0.00019
сестра;0.00019
сестрорецк;0.0001
сеть;0.00029
си;0.0001
сиада;0.0001
сибилла;0.0001
сигарета;0.0001
сигнал;0.0001
сид;0.0001
сидень;0.0001
сидней;0.0001
сидней-харбор;0.0001
сидоренко;0.0001
сидти;0.0001
сила;0.00096
силва;0.0001
сильвий;0.0001
сильвио;0.0001
сильвия;0.0001
сильный;0.0001
сим;0.0001
симберг;0.0001
символ;0.0001
симма;0.0001
симмондс;0.0001
симон;0.0001
симоново;0.0001
симс;0.0001
синайский;0.0001
синайско-палестинский;0.0001
синан-паша;0.0001
синано;0.0001
сингапурский;0.0001
сингидунский;0.0001
синдбада;0.0001
синдром;0.0001
синешапочный;0.0001
синий;0.0001
синкретизм;0.0001
синод;0.0001
синокаллиоптерикс;0.0001
синтагрус;0.0001
синтез;0.0001
синтоистский;0.0001
сионизм;0.0001
сиракуза;0.00029
сиракузский;0.00019
сирилл;0.0001
сириус;0.0001
сиро-малабарский;0.0001
сирота;0.0001
сироткин;0.0001
сиссь;0.0001
система;0.00077
сити;0.0001
сифилис;0.0001
сиффлита;0.0001
сицилийский;0.0001
сицилия;0.00019
сиэтл;0.0001
сияние;0.0001
скавр;0.0001
скалолаз;0.0001
скандал;0.00029
скандербег;0.0001
скат;0.0001
скаут;0.00019
скачать;0.00019
скворец;0.00019
скелет;0.0001
скифский;0.00029
склодовский-кюри;0.0001
скобей;0.0001
скопление;0.0001
скорбеть;0.0001
скорбь;0.00019
скот;0.0001
скотт;0.0001
скрапбукинг;0.0001
скрибония;0.00019
скрытый;0.0001
скуби-д;0.0001
скульптор;0.0001
слабый;0.00019
славянский;0.00019
следить;0.0001
следом;0.0001
следующий;0.0001
слеза;0.0001
слейвено;0.0001
сливицкий;0.0001
слобода;0.0001
слободан;0.0001
словенский;0.0001
слово;0.00019
слоник;0.0001
слоновский;0.0001
служба;0.00039
служебный;0.0001
слух;0.0001
слуховой;0.0001
случай;0.00019
случайный;0.00019
случиться;0.0001
слюдянка;0.0001
смарт;0.0001
смауга;0.0001
смертный;0.0001
смерть;0.00116
смесь;0.0001
смешанный;0.0001
смешарик;0.00019
смещение;0.0001
смирна;0.0001
смирнов;0.00039
смит;0.00039
смоленский;0.0001
смотреть;0.00048
смутный;0.0001
смысл;0.0001
сначала;0.0001
снег;0.00019
снеговик;0.0001
снежинка;0.0001
снежный;0.00019
снейк;0.0001
сновидение;0.0001
сноу;0.0001
собакевич;0.0001
собор;0.00096
собрание;0.0001
собственный;0.0001
событие;0.00029
совать;0.0001
совершенный;0.00019
совет;0.00019
совет-синедрион;0.0001
советский;0.00058
советско-албанский;0.0001
совиный;0.0001
совка;0.0001
современный;0.0001
соглашение;0.00048
содержание;0.00019
соединение;0.00019
соединить;0.0001
созвездие;0.0001
создание;0.00029
создать;0.00019
созидание;0.0001
сокол;0.00039
сократ;0.0001
солдат;0.00039
солнечный;0.0001
солнце;0.00019
соловей;0.0001
соловецкий;0.0001
соломенный;0.0001
соломон;0.00019
солоу;0.0001
солсбери;0.0001
соляный;0.0001
сомалиленд;0.0001
сомосьерра;0.0001
сон;0.00019
сондерс;0.0001
соник;0.00029
сонковый;0.0001
сообщество;0.00019
сообщить;0.0001
сооружение;0.00029
соответствовать;0.00019
соотношение;0.0001
сопротивление;0.00019
сор;0.0001
соратник;0.0001
соревнование;0.0001
сорок;0.00019
сосед;0.0001
состав;0.0001
составлять;0.0001
состояние;0.0001
состояться;0.0001
сотрудник;0.0001
сотрудничество;0.00019
софи;0.0001
софийский;0.00019
софия;0.00039
софонида;0.0001
софья;0.00019
сохранение;0.0001
социалистический;0.0001
социальный;0.00029
социология;0.00019
сочинение;0.0001
сошествие;0.0001
союз;0.0001
союзник;0.00019
спайвить;0.0001
спайк;0.0001
спарта;0.0001
спас;0.0001
спасение;0.00029
спасительный;0.0001
спасо-преображенский;0.0001
спасский;0.00019
спасти;0.00019
спейся;0.0001
спектральный;0.00019
спектроскопия;0.0001
спекулятивный;0.0001
спиритический;0.0001
список;0.00029
спичка;0.0001
сплайсинг;0.0001
сподвижник;0.0001
спонтанный;0.00019
спор;0.00029
спорт;0.00029
спорт-буля;0.0001
спортивный;0.0001
спортсмен;0.0001
спотсильвейня;0.00019
справиться;0.0001
справка;0.0001
спутник;0.0001
спутниковый;0.0001
сражаться;0.00019
сражение;0.00443
средне-волжский;0.0001
средне-успенский;0.0001
средневековый;0.0001
средний;0.00029
средостение;0.0001
средство;0.0001
сретенский;0.0001
српски;0.0001
срубный;0.0001
ссср;0.00067
ссылка;0.00029
стабилометрический;0.0001
ставка;0.0001
стадион;0.0001
сталин;0.00019
сталиниана;0.0001
сталинский;0.0001
сталкер;0.0001
стальной;0.0001
станислав;0.0001
станция;0.00039
старк;0.0001
старо-костычевский;0.0001
старолатинский;0.0001
старт;0.0001
старший;0.00029
старый;0.00019
стас;0.0001
стасанор;0.0001
стасис;0.0001
статистика;0.0001
статуя;0.0001
стать;0.00077
статья;0.00193
стаффорд;0.00029
стахович;0.0001
стачка;0.0001
сташинский;0.0001
сташис;0.0001
стекло;0.0001
стеллеров;0.0001
стена;0.0001
степан;0.0001
степень;0.0001
стероид;0.0001
стефан;0.00087
стефанссон;0.0001
стефка;0.0001
стив;0.00029
стивен;0.00019
стивенсон;0.0001
стигнуть;0.0001
стиль;0.0001
стильпон;0.0001
стихия;0.0001
сто;0.0001
столкновение;0.00019
стоочковый;0.0001
стоп;0.0001
стоп-земля;0.0001
стороженко;0.0001
сторожка;0.0001
сторона;0.00019
сторонний;0.0001
стоянович;0.0001
страбон;0.00019
страдный;0.0001
страж;0.0001
страконица;0.0001
страна;0.00058
страница;0.00087
страничка;0.0001
страсть;0.0001
стратегический;0.0001
стратегия;0.00019
стратигопул;0.0001
стратокл;0.0001
страховой;0.0001
стрекоза;0.0001
стрела;0.0001
стрелка;0.0001
стрелковый;0.00039
стрельба;0.0001
стрелять;0.0001
стрессовый;0.0001
стриж;0.00077
стрип;0.0001
структура;0.00019
струна;0.0001
студент;0.0001
стукач;0.0001
стэйся;0.0001
стэнли;0.0001
стюард;0.0001
стюарт;0.00039
субкультура;0.0001
суворов;0.0001
суд;0.0001
судак;0.0001
судебный;0.0001
судзуй;0.0001
судзумия;0.0001
судирман;0.0001
судный;0.0001
судьба;0.0001
суер-выер;0.0001
суинфорд;0.00029
сукман;0.00019
сулейман;0.0001
сулейман-шах;0.0001
сулла;0.0001
султан;0.0001
султанат;0.0001
сульпиция;0.00029
сумасшедший;0.00019
сумеречный;0.0001
сумохарджо;0.0001
супербоул;0.0001
супергерой;0.0001
суперкубок;0.00039
суперсоникс;0.0001
супруг;0.00019
сурок;0.0001
сусило;0.0001
сусло;0.0001
суффиксный;0.0001
сухой;0.0001
сухуми;0.0001
существительное;0.00019
сфера;0.0001
сфетта;0.0001
схватка;0.0001
схема;0.0001
сцевол;0.00019
сценарий;0.0001
сципион;0.00058
считаться;0.0001
считывание;0.0001
сша;0.00144
съезд;0.00019
сызранский;0.0001
сызрань;0.0001
сыктывкар;0.0001
сын;0.00077
сыч;0.00019
сьеса;0.0001
сьюзен;0.0001
сэм;0.0001
сэмангый;0.0001
сэмсон;0.0001
сэмуайза;0.0001
сэмюэла;0.00039
сэр;0.0001
сюда;0.0001
сюжет;0.0001
сюникнуть;0.0001
сюркуф;0.0001
табачный;0.0001
табернемонтанус;0.0001
табун;0.0001
таганрог;0.0001
таганский;0.0001
тагар;0.0001
тадес;0.0001
таинственный;0.00019
тайбэя;0.0001
тайвань;0.0001
тайна;0.0001
тайный;0.00019
тайский;0.00019
тайсон;0.0001
так;0.0001
такой;0.0001
тактический;0.0001
таламус;0.0001
талантливость;0.0001
тальковый;0.00019
там;0.0001
тамара;0.0001
тамт;0.0001
танагра;0.00039
танагра-кео;0.0001
тандер;0.0001
танец;0.0001
танк;0.0001
танковый;0.0001
танкред;0.0001
таран;0.00019
тарас;0.00019
тарасенков;0.0001
тарентский;0.0001
таррар;0.0001
татарин;0.0001
татарча;0.0001
татьяна;0.00019
тау;0.0001
таунсенд;0.0001
тафрина;0.0001
тацит;0.0001
ташкент;0.0001
тверская;0.0001
тверской;0.0001
тверь;0.0001
твой;0.00019
творчество;0.0001
те-далс;0.0001
театр;0.00048
театральный;0.0001
тейлор;0.0001
теклбрать;0.0001
текст;0.00019
текст-процессор;0.0001
текущий;0.0001
телевидение;0.00029
телевизионный;0.00019
телекия;0.0001
телемахид;0.0001
телесериал;0.00019
тема;0.0001
темнолицый;0.0001
темнохвостый;0.0001
тен;0.0001
теневой;0.0001
теннис;0.00019
теннисист;0.0001
тенчинский;0.0001
тень;0.0001
теодор;0.00029
теорен;0.0001
теория;0.00048
теофраста;0.0001
теперь;0.0001
тер-микаелян;0.0001
теракт;0.00019
тереза;0.00048
терем-квартет;0.0001
теренция;0.00019
териология;0.0001
термодинамика;0.0001
терон;0.0001
террамар;0.0001
террая;0.0001
терри;0.0001
территориальный;0.00019
территория;0.00058
террор;0.0001
терроризм;0.0001
террорист;0.0001
тессать;0.0001
тест;0.00048
тета;0.0001
техас;0.0001
техасский;0.00058
техника;0.00019
технологический;0.0001
технология;0.0001
тиберий;0.0001
тигран;0.0001
тидус;0.0001
тики-така;0.0001
тикондерог;0.0001
тим;0.0001
тимолеонт;0.00019
тимор;0.0001
тимофей;0.0001
тимурташа;0.0001
тиндалл;0.0001
тип;0.00221
тиран;0.0001
тирасполь;0.0001
тирдроп;0.0001
тироль;0.0001
тирон;0.0001
тирумаленький;0.0001
тит;0.00019
титан;0.0001
титаний;0.0001
титрование;0.0001
тихановский;0.0001
тихвинский;0.0001
тихий;0.00029
тихо;0.0001
тицин;0.0001
тичборный;0.0001
тишина;0.00019
тишков;0.0001
ткань;0.00019
тоа-пайо;0.0001
тоба;0.0001
товар;0.0001
товарищество;0.0001
товарный;0.0001
товт;0.0001
тодда;0.0001
тоди;0.00029
тодуа;0.0001
тойота-центр;0.0001
тойся-паразуся;0.0001
токио;0.0001
токсин-антитоксин;0.0001
толкина;0.0001
толмид;0.0001
толстоголовка;0.0001
толстой;0.00039
тольдо;0.0001
только;0.00019
томас;0.00164
томпсон;0.0001
томсон;0.00019
тон;0.0001
тонг;0.0001
тони;0.00029
тонкослойный;0.0001
тонэ;0.0001
топограф;0.0001
топография;0.0001
тополевый;0.0001
тополиный;0.0001
топонимия;0.0001
тор;0.0001
торбинский;0.0001
торг;0.0001
торговля;0.00019
торговый;0.00019
торий;0.0001
торина;0.0001
торисвинт;0.0001
торкович;0.0001
торновое;0.0001
торонто;0.0001
торрес;0.0001
торри;0.0001
тот;0.00135
тофт;0.0001
точка;0.0001
точность;0.0001
трава;0.00019
традиция;0.0001
трактат;0.0001
тракторозаводский;0.0001
трамвай;0.00048
трансантарктический;0.0001
транскриптомик;0.0001
транспорт;0.00019
транспортно-матричный;0.0001
траутшольд;0.0001
траффорд;0.0001
трахеобронхопатия;0.0001
траян;0.0001
требониан;0.0001
требония;0.0001
тревогин;0.0001
тревожный;0.0001
тревор;0.0001
трезег;0.0001
трейсера;0.0001
трент;0.0001
трентоня;0.0001
третий;0.00058
третьяков;0.0001
третьяковский;0.0001
треугольник;0.00029
трефил;0.0001
три;0.00029
три-майл-айленд;0.0001
триада;0.0001
трибуна;0.0001
трилогия;0.00029
трио;0.0001
триод;0.0001
трипольский;0.0001
трипс;0.0001
триумвир;0.0001
троица;0.0001
троице-сергиев;0.0001
троицкий;0.00019
тройнозубый;0.0001
троллейбус;0.00019
тролльхеттан;0.0001
тропический;0.0001
тростниковый;0.00019
трофей;0.00019
троцкий;0.00039
трубадур;0.0001
трэвис;0.0001
тсонг;0.0001
тсуга;0.0001
туалет;0.0001
тува;0.0001
тула;0.0001
туллий;0.00029
тулс;0.0001
туман;0.0001
туманность;0.00029
тумилович;0.0001
тунберг;0.0001
тунис;0.0001
тупорылый;0.0001
тур;0.00019
туран;0.0001
турбокод;0.0001
тургенев;0.0001
тургут-реис;0.0001
турецкий;0.00029
турецко-персидский;0.0001
турнир;0.00019
турция;0.00029
турчанин;0.0001
тускарора;0.0001
тучный;0.0001
тушп;0.0001
туэнить;0.0001
тхегод;0.0001
тхеравад;0.0001
тхитить;0.0001
тыл;0.0001
тымфа;0.0001
тырговиштский;0.0001
тьма;0.0001
тьюринг;0.0001
тэдзук;0.0001
тэниура-лимма;0.0001
тэтчер;0.00019
тюмень;0.0001
тюфелевый;0.0001
тяжкий;0.0001
тямп;0.0001
уайт;0.00019
убедить;0.0001
убежище;0.0001
убиение;0.0001
убийство;0.00337
убитый;0.0001
убить;0.00019
ублюдок;0.0001
увак;0.0001
уверенный;0.0001
угар;0.0001
угерски-брод;0.0001
угличский;0.0001
уго;0.0001
угол;0.0001
уголовно-процессуальный;0.0001
уголок;0.0001
угольный;0.0001
угон;0.0001
ударение;0.0001
ударный;0.00029
удаться;0.0001
удзав;0.0001
удмуртский;0.0001
уефа;0.00058
ужас;0.0001
уже;0.0001
ужица;0.0001
ужовниковый;0.0001
узкий;0.0001
узкозубый;0.0001
узкоклювый;0.0001
узкотелый;0.0001
узун-хаджи;0.0001
узурпатор;0.0001
уилсон;0.0001
уилт;0.0001
уильям;0.00183
уильямс;0.00019
уильямсон;0.0001
уимблдонский;0.0001
уинстон;0.0001
уирдейлский;0.0001
уичита;0.00067
уйти;0.0001
указание;0.0001
украина;0.00048
украсть;0.0001
укрепить;0.0001
уленбек;0.0001
улица;0.00125
уллевол;0.0001
улунди;0.0001
ульбинский;0.0001
ульянов-ленин;0.0001
уля;0.0001
ум;0.0001
умбриэль;0.0001
умереть;0.00029
умур;0.0001
университет;0.00019
уничтожить;0.0001
унрить;0.0001
уоллис;0.0001
уолтер;0.0001
уоля;0.0001
уорик;0.00019
уорк;0.0001
уорриорз;0.0001
уплисцихе;0.0001
употребление;0.0001
управляемый;0.0001
управлять;0.0001
упряжка;0.0001
ураган;0.0001
урания;0.0001
урановый;0.0001
урарт;0.0001
урипа;0.0001
уробороса;0.0001
уровень;0.0001
урош;0.00048
урс;0.0001
урсакий;0.0001
урсула;0.0001
усадьба;0.0001
усама;0.0001
усатый;0.00019
усач;0.00039
усик;0.0001
условие;0.00029
усман;0.0001
усоян;0.0001
успенский;0.0001
устаревший;0.0001
усташа;0.0001
усташами;0.0001
устинья;0.0001
устройство;0.0001
усть-среднеканский;0.0001
устье;0.0001
устюжна;0.0001
устюжский;0.0001
утический;0.0001
утрата;0.0001
утратить;0.0001
уфа;0.0001
участвовать;0.0001
участие;0.00039
учебник;0.0001
учение;0.0001
училище;0.00019
учительский;0.0001
учреждение;0.0001
уччальский;0.0001
ушастый;0.0001
ущелие;0.00019
уэйл;0.0001
уэйтс;0.0001
уэлен-леонард;0.0001
уэлле;0.0001
уэллс;0.00019
уэльс;0.0001
уэссекский;0.0001
уэст;0.0001
ф;0.00019
фаббиани;0.0001
фабий;0.00019
фавст;0.0001
фагоцит;0.0001
файтинг;0.0001
факт;0.0001
фактотум;0.0001
фалезскай;0.0001
фалерский;0.0001
фалеса;0.0001
фаллуджия;0.0001
фальсификатор;0.0001
фальсификация;0.0001
фальшивый;0.0001
фамагуста;0.0001
фамилия;0.0001
фандас;0.0001
фанди;0.0001
фанний;0.0001
фантазия;0.0001
фантазм;0.0001
фарватер;0.00019
фарид;0.0001
фариха;0.0001
фармакология;0.0001
фарфор;0.0001
фатальный;0.0001
фатих;0.0001
фатьма-султан;0.0001
фаулера;0.0001
фауна;0.0001
фаэта;0.0001
февраль;0.00019
февральский;0.00019
федерация;0.0001
федон;0.0001
федот;0.0001
федул;0.0001
федюшкина;0.0001
фейнман;0.0001
фейстелить;0.0001
феликс;0.0001
фельтрский;0.0001
фемистокл;0.0001
феодальный;0.0001
феодора;0.00019
феодоровский;0.00019
феодосия;0.00019
феофил;0.0001
ферапонт;0.0001
фердинанд;0.0001
фермер;0.0001
фермопильский;0.0001
фернан;0.0001
феррерс;0.0001
фестиваль;0.0001
фешина;0.0001
фея;0.0001
фиат-ижорский;0.0001
фибрилларин;0.0001
фибрилляция;0.0001
фигар;0.0001
фигура-обманка;0.0001
фигурист;0.0001
фигурный;0.00019
физика;0.00019
физиология;0.0001
физический;0.0001
физый;0.0001
фиксина;0.0001
фил;0.0001
филадельфия;0.0001
филателистический;0.0001
филателия;0.00019
филд;0.00019
филин;0.0001
филипович;0.0001
филипп;0.00087
филиппович;0.00019
филисовый;0.0001
философ;0.0001
философия;0.00019
философский;0.00019
филот;0.0001
фильм;0.00144
фильмография;0.0001
финал;0.00106
финансовый;0.0001
финансы;0.0001
финский;0.0001
фитотельмат;0.0001
фиц-гилберт;0.00019
фицалан;0.00029
фицуолтер;0.00019
фишинга;0.0001
флавий;0.0001
флаг;0.00058
флакк;0.00019
фламинго;0.00019
фламиния;0.0001
фландрий;0.0001
флора;0.0001
флорида;0.0001
флот;0.0001
фольксдойча;0.0001
фонд;0.00019
фонологический;0.0001
фонтан;0.0001
формирование;0.00019
формула;0.00019
форресть;0.00019
форс;0.0001
форт;0.00039
форт-пиллоу;0.0001
фортунат;0.0001
форум;0.00019
фотограф;0.0001
фотография;0.00019
фотоискусство;0.0001
фотометрический;0.0001
фотопечать;0.0001
фотосистема;0.0001
фототелевизионный;0.0001
фраат;0.0001
франа;0.0001
франжоля;0.00019
франкенштейн;0.0001
франклин;0.00029
франко;0.0001
франко-итальянский;0.0001
франсишко;0.0001
франтишек;0.0001
франц;0.0001
франция;0.00029
француз;0.0001
французский;0.00039
франческо;0.0001
франшиза;0.0001
фрасибула;0.0001
фрегат;0.0001
фредерик;0.0001
фредериксберг;0.0001
фредериксбергский;0.0001
фредрик;0.0001
фредрикссон;0.0001
фрейд;0.0001
фрейндлих;0.0001
фрейя;0.0001
фригийский;0.0001
фридрих;0.00019
фронт;0.00029
фронт-ройале;0.0001
фронтир;0.0001
фру-фру;0.0001
фрэнк;0.00019
фрэнсис;0.00019
фукидид;0.0001
фульвия;0.00019
фульнеке;0.0001
фунт;0.00019
фурия;0.0001
фурутака;0.00019
фусэк;0.0001
футбол;0.00106
футболист;0.0001
футбольный;0.00096
футуна;0.0001
фьюри;0.0001
хаби;0.0001
хаджибей;0.0001
хайдеггер;0.0001
хайло;0.0001
халид;0.0001
халил-паша;0.0001
халим;0.0001
халиф;0.0001
халс;0.0001
хамбер;0.0001
хамидогуллар;0.0001
хаммел;0.0001
хаммера;0.0001
хан;0.0001
ханбалитский;0.0001
ханский;0.0001
хансный;0.0001
хантингдон;0.0001
хань;0.0001
харбин;0.0001
харди;0.0001
харес;0.0001
харидти;0.0001
харис;0.0001
харперс-ферри;0.0001
харрод;0.0001
харух;0.0001
харьковский;0.0001
хасевич;0.0001
хасима;0.0001
хассон;0.0001
хаумеа;0.0001
хафиз;0.0001
хацухара;0.0001
хачилай;0.0001
хвалебнов;0.0001
хвалить;0.0001
хвойник;0.0001
хвойный;0.0001
хворостинин;0.0001
хвостокол;0.00019
хейза;0.0001
хейуорт;0.0001
хеллсинга;0.0001
хендерсон;0.0001
хеннеман;0.0001
хеннести;0.0001
хентай;0.0001
херефонт;0.0001
херман;0.0001
херонея;0.0001
херсечь;0.0001
хершайзер;0.00019
хески;0.0001
хетерингтон;0.0001
хеттский;0.0001
хижина;0.0001
хилла;0.00039
хилоторакс;0.0001
химия;0.00019
хиросфакт;0.0001
хирургия;0.0001
хитиназ;0.0001
хичкоковский;0.0001
хлеб;0.0001
хлебников;0.0001
хлебный;0.0001
хлебопечение;0.0001
хлор;0.0001
хлорарахниофитовый;0.0001
хлорид;0.0001
ховитта;0.0001
ходить;0.0001
ходынский;0.0001
хойзингтон;0.0001
хоккеист;0.0001
хоккей;0.00019
хоккейный;0.0001
холланд;0.00029
холлидея;0.0001
холм;0.0001
холмск;0.0001
холодное;0.00019
холодный;0.0001
холокост;0.00039
холт;0.0001
хоперскай;0.0001
хор;0.00039
хорватия;0.00029
хорватский;0.00029
хориоидпапиллом;0.0001
хория;0.0001
хорнсби;0.0001
хороший;0.00154
хоррор;0.0001
хорх;0.00019
хотеть;0.0001
хохлатый;0.00019
хошеутовский;0.0001
храм;0.00135
хранитель;0.0001
христианин;0.0001
христианский;0.00029
христианство;0.0001
христов;0.0001
христос;0.00029
хрома;0.0001
хроматография;0.0001
хронический;0.0001
хуго;0.0001
худеть;0.0001
художественный;0.00019
художник;0.00039
хунбо;0.0001
хурул;0.0001
хусамеддин;0.0001
хучбаров;0.0001
хьюй;0.0001
хьюстон;0.0001
хьюстонский;0.0001
хэллоуин;0.0001
хэлси;0.0001
хэлфорд;0.0001
хэма;0.0001
хэмиша;0.0001
хэмма;0.0001
хюнтелара;0.0001
цандрыпша;0.0001
цапля;0.0001
царевич;0.0001
царицынский;0.0001
царский;0.00039
царство;0.00029
царь;0.00058
цвет;0.0001
цветковый;0.0001
цезарь;0.00019
цезий;0.0001
целера;0.0001
целое;0.0001
целый;0.0001
цель;0.0001
цент;0.0001
центр;0.0001
центральный;0.00029
цепион;0.00029
цепной;0.0001
цербер;0.0001
церемония;0.0001
церер;0.0001
церковный;0.0001
церковь;0.00116
цетрониан;0.0001
цефеида;0.0001
цецилия;0.00039
цикл;0.0001
циклон;0.0001
цингер;0.0001
цион;0.0001
цитозоль;0.0001
цифра;0.0001
цицерон;0.00019
цыганский;0.0001
цытович;0.0001
чавес;0.0001
чагаев;0.0001
чагринский;0.0001
чаемый;0.0001
чаири;0.0001
чак;0.0001
чака-бить;0.0001
чандарл;0.0001
чаннер;0.0001
чапаевский;0.0001
чаризард;0.0001
чарльз;0.00039
час;0.0001
частность;0.0001
часто;0.0001
часть;0.00029
чаша;0.0001
чегар;0.0001
чейза;0.0001
чеканка;0.0001
челентано;0.0001
челести;0.00019
человек;0.00096
человек-паук;0.00029
человекоться;0.0001
человечность;0.0001
челси;0.0001
челябинск-сити;0.0001
челябинский;0.0001
чемберлен;0.0001
чемоданчик;0.00019
чемпион;0.00048
чемпионат;0.00048
ченовета;0.0001
чепмена;0.0001
червонец;0.0001
червонный;0.0001
черепашка-ниндзя;0.0001
черниговский;0.0001
черногория;0.0001
чернушинский;0.0001
чернушка;0.0001
чернышевский;0.0001
черта;0.0001
чесменский;0.00029
честейн;0.0001
честер;0.0001
чета;0.0001
четвероевангелие;0.0001
четверть;0.0001
четыре;0.00019
четырнадцать;0.0001
чечня;0.0001
чешкова;0.0001
чешский;0.0001
чжао;0.0001
чикуновский;0.0001
чинук;0.0001
численный;0.0001
числительное;0.0001
число;0.00039
читать;0.0001
член;0.00019
чобить;0.0001
чокина;0.0001
чонси;0.0001
чосера;0.00019
чтение;0.0001
чу;0.0001
чубатый;0.0001
чугайстер;0.0001
чугунный;0.0001
чугунолитейный;0.0001
чудо;0.00039
чудовище;0.0001
чудовищный;0.0001
чудско-псковский;0.0001
чуквуэмек;0.0001
чулан;0.0001
чума;0.0001
чумной;0.0001
чусовая;0.0001
чухаджян;0.0001
шабаш;0.0001
шаблон;0.0001
шагирзян;0.0001
шаджар;0.0001
шайба;0.00019
шайдуллин;0.0001
шалаграм-шило;0.0001
шалить;0.0001
шаллоно;0.0001
шалон;0.0001
шаляпин;0.0001
шамиль;0.00019
шанин;0.0001
шанс;0.0001
шапка;0.0001
шараф-хан;0.0001
шарипутро;0.0001
шариф;0.0001
шарко;0.0001
шарлиз;0.0001
шарлотт;0.0001
шарлотта;0.0001
шарль;0.00029
шатурский;0.0001
шафи;0.0001
шафик;0.0001
шах-армен;0.0001
шах-арменида;0.0001
шахматист;0.0001
шахматный;0.0001
шахматы;0.00058
шахта;0.0001
шашист;0.0001
шаяхмет;0.0001
швайнштайгер;0.0001
шванвич;0.0001
шварц;0.00029
шварцшильд;0.0001
шведский;0.0001
швейцарский;0.0001
швиг;0.0001
шевченко;0.00029
шеин;0.00019
шейкер;0.0001
шейлина;0.0001
шейх;0.0001
шекинский;0.0001
шеклтон;0.0001
шекспир;0.0001
шемси;0.0001
шенандоа;0.0001
шепард;0.0001
шерлок;0.0001
шерман;0.0001
шерпурский;0.0001
шерстистый;0.0001
шестнадцатимиллиметровый;0.0001
шестой;0.00029
шесть;0.0001
шехсувар-бей;0.0001
шея;0.0001
шигирский;0.0001
шизофрения;0.0001
шило;0.0001
ширваншах;0.0001
ширер;0.0001
широковский;0.0001
ширококлювый;0.0001
шифр;0.0001
шихаллионский;0.0001
шихлинский;0.0001
шишкин;0.0001
школа;0.00048
школьник;0.00019
шлеменко;0.0001
шлиман;0.0001
шолля;0.0001
шон;0.0001
шопенгауэр;0.0001
шоссе;0.0001
шоссейный;0.0001
шоссон;0.0001
шотландец;0.00019
шотландия;0.0001
шотландский;0.00029
шоу;0.0001
шоушенка;0.0001
шошина;0.0001
шпигель;0.0001
шпилько;0.0001
шрайер;0.0001
шри-вайшнавизм;0.0001
шрирангам;0.0001
штат;0.0001
штечь;0.0001
штойбен;0.0001
шторм;0.0001
штурм;0.00029
шугнанский;0.0001
шуйский;0.0001
шуйско-смоленский;0.0001
шукуупский;0.0001
шумерский;0.0001
шутеры;0.0001
шэдоу;0.0001
шэнь;0.0001
шэньчжэнь;0.0001
щ;0.0001
щитоносный;0.0001
щука-б;0.0001
э;0.00241
эакид;0.0001
эболь;0.0001
эвакуация;0.0001
эван;0.0001
эвандра;0.0001
эванс;0.00039
эвридика;0.0001
эвримедонт;0.0001
эвфигод;0.0001
эгей;0.0001
эгон;0.0001
эда;0.00029
эдвард;0.00019
эдвардс;0.00029
эдгар;0.0001
эдди;0.00019
эден;0.0001
эдмунд;0.00039
эдриена;0.0001
эдуард;0.00029
эйнаудить;0.0001
эйнтховен;0.0001
эйнштейн;0.0001
эйхман;0.0001
эквивалентность;0.0001
экзосом;0.0001
экзосома;0.0001
экология;0.0001
экономика;0.00096
экономический;0.00048
экосистема;0.0001
эксетереть;0.0001
экслибриум;0.0001
экспедиция;0.00212
эксперимент;0.00039
экспонироваться;0.0001
экспорт;0.0001
экстази;0.00019
эксюк;0.0001
экшен;0.0001
экшн-адвенчур;0.0001
эламский;0.0001
элвин;0.0001
элдрич;0.0001
электра;0.0001
электрический;0.0001
электрозаводский;0.0001
электрозвучание;0.0001
электроника;0.0001
электропрохладительный;0.0001
электростанция;0.0001
элемент;0.0001
элеонора;0.0001
элида;0.0001
элидский;0.0001
элизабет;0.00048
элизиум;0.0001
элктоня;0.0001
элликотт-сити;0.0001
эллинизм;0.0001
эльвира;0.0001
эльдрид;0.0001
эмаль;0.0001
эмануил;0.0001
эмбриология;0.0001
эмбриональный;0.0001
эмброуз;0.0001
эмвей-центр;0.0001
эмера;0.0001
эмерсон;0.0001
эметулла;0.0001
эмил;0.0001
эмилиан;0.0001
эмилий;0.00029
эмиль;0.00019
эмин;0.0001
эмиссионный;0.0001
эмма;0.0001
эммануил;0.0001
эмо-рэп;0.0001
эмфизема;0.0001
эналаприть;0.0001
энгельс;0.0001
энгельсина;0.0001
энди;0.0001
эндомембранный;0.0001
эндрю;0.00019
энергия;0.0001
энн;0.0001
энтандрофрагма;0.0001
энтитема;0.0001
энтнера;0.0001
энтоз;0.0001
энтолом;0.0001
энтомология;0.0001
энтони;0.00048
энцефалит;0.0001
энциклопедия;0.00029
эный;0.0001
эпаминонд;0.0001
эпендимом;0.0001
эпиваккорона;0.0001
эпидемия;0.0001
эпизод;0.00019
эпихарма;0.0001
эпоха;0.0001
эраст;0.0001
эратосфен;0.0001
эрдэни-дз;0.0001
эрекция;0.0001
эретнаогуллар;0.0001
эрзац;0.0001
эривани;0.00019
эрид;0.0001
эрик;0.00048
эрих;0.0001
эрл;0.0001
эрлера;0.0001
эрман;0.0001
эрмитаж;0.00019
эрнест;0.00019
эрнст;0.0001
эрня;0.00019
эрпингем;0.0001
эскадренный;0.00039
эст;0.00029
эстера;0.0001
эстлить;0.0001
эстонец;0.0001
эстония;0.00019
эстонский;0.0001
эсхина;0.0001
эталонный;0.0001
этельфлед;0.0001
этнография;0.0001
этот;0.00039
эфес;0.0001
эфесский;0.0001
эфиальт;0.0001
эфир;0.0001
эфуа;0.0001
эхо;0.0001
эшрефогуллар;0.0001
юбари;0.0001
юг;0.0001
юго-восточный;0.00019
югославия;0.00058
югославский;0.0001
юджин;0.00019
юдифь;0.0001
юдойоно;0.0001
южный;0.00067
юлий;0.00029
юлия;0.0001
юнайтед;0.00019
юния;0.0001
юпитер;0.00019
юрана;0.0001
юрген;0.0001
юрий;0.00087
юродивый;0.0001
юстиниан;0.00029
юсуф;0.0001
ют;0.0001
юханссон;0.0001
яблоко;0.0001
яванский;0.0001
явиться;0.0001
являться;0.0001
ягдтерьер;0.0001
ядерный;0.00019
яджный;0.0001
ядро;0.0001
язык;0.00327
яицкий;0.00019
якоб;0.0001
яков;0.0001
якуб;0.0001
якудз;0.0001
ям;0.0001
ян;0.0001
янбаев;0.0001
янг;0.00019
янка;0.00019
янковский;0.0001
яновский;0.0001
янус;0.00019
япония;0.0001
японский;0.0001
ярд;0.0001
ярополец;0.0001
ярослав;0.00019
ярославль;0.0001
ясеневый;0.0001
ясинский;0.0001
ясно;0.0001
ясногорск;0.0001
ястребарско;0.0001
ястребовский;0.0001
ястржембский;0.0001
яхта;0.0001
яхтенный;0.0001
ячейка;0.0001
яшин;0.0001
