август;0.00149
австрия;0.00075
авторство;0.00075
агел;0.00075
агнесса;0.00075
албания;0.00075
алексей;0.01046
амид;0.00075
ан-гел;0.00075
ангел;0.03438
ангелина;0.01644
англ;0.00224
англичанин;0.00075
андроник;0.00747
анийский;0.00075
анна;0.00822
ансо;0.00075
апокавкинить;0.00075
апокап;0.00075
апулия;0.00075
апухап;0.00075
аравандин;0.00075
арвандин;0.00075
арма;0.00075
армения;0.00149
арменопула;0.00075
армия;0.00075
армяно-византийский;0.00075
армяно-сирийский;0.00075
армянский;0.00149
артавасд;0.00075
архонт;0.00299
арцрунида;0.00075
асеня;0.00149
аспиета;0.00075
афинский;0.00075
ахейя;0.00149
бакуриана;0.00075
бартикян;0.00075
беларускать;0.00075
белград;0.00075
библиографический;0.00075
болгария;0.00149
болгарский;0.00149
больший;0.00224
борьба;0.00075
брак;0.02167
брат;0.00075
бриенна;0.00075
български;0.00075
быть;0.00224
вардан;0.00075
варданий;0.00075
василак;0.00075
василий;0.00075
васильев;0.00075
васильевский;0.00075
васпраканит;0.00075
ватац;0.00149
ватаци;0.00075
вахрамия;0.00075
венгерский;0.00075
венеция;0.00075
веронский;0.00075
версия;0.00224
вести;0.00075
вианден;0.00075
вид;0.00075
виза;0.00075
визант;0.00149
византийский;0.00523
византия;0.00673
викидать;0.00075
викимедиа;0.00075
википедия;0.00224
викисклад;0.00149
вильгельм;0.00075
вихкаци;0.00075
вклад;0.00075
владение;0.00075
власть;0.00075
внешний;0.00075
внутренний;0.00075
военачальник;0.00299
возвышение;0.00075
возвышенный;0.00075
война;0.00075
войти;0.00075
восстание;0.00075
восточный;0.00075
вполне;0.00075
врана;0.00075
вранаин;0.00075
врахамия;0.00075
время;0.00149
второй;0.00075
вурцы;0.00075
выпадать;0.00075
высказать;0.00075
г;0.00075
гавраса;0.00075
гангрена;0.00075
генеалогия;0.00149
генуя;0.00075
германия;0.00075
герцог;0.00448
гиль;0.00149
гипомона;0.00075
гладкий;0.00149
гнунь;0.00075
гнуть;0.00075
год;0.00673
государство;0.00149
граница;0.00149
граф;0.00224
греча;0.00075
гуго;0.00075
гудеть;0.00075
даватин;0.00075
даласина;0.00075
далее;0.00149
дата;0.00149
датский;0.00075
действовать;0.00075
делиться;0.00075
дельфин;0.00075
деспот;0.02093
димитрий;0.00149
династический;0.00075
династия;0.00972
дмитрий;0.00149
договор;0.00075
дом;0.00299
дополнительный;0.00075
доступный;0.00075
дочь;0.01121
древний;0.00149
другой;0.00224
дук;0.01794
дукиня;0.01046
евагионисса;0.00075
евдокия;0.00374
евфимий;0.00075
единый;0.00075
елена;0.00523
ефросинья;0.00224
жена;0.00075
жениться;0.00075
журнал;0.00075
заглавный;0.00075
заметка;0.00075
запись;0.00075
зарегистрировать;0.00075
заутец;0.00075
заявление;0.00075
знак;0.00075
значение;0.00075
зоя;0.00224
иван;0.00149
идти;0.00075
иерусалим;0.00075
избранный;0.00075
иметь;0.00075
император;0.00673
императорский;0.00075
империя;0.00299
имя;0.00149
инструмент;0.00149
инфант;0.00075
иоанн;0.01495
ирина;0.00374
исаак;0.00448
искать;0.00075
исключить;0.00075
использование;0.00075
историко-филологический;0.00075
исторический;0.00075
история;0.00075
источник;0.00075
исчезнуть;0.00075
каждана;0.00149
кажущийся;0.00075
казна;0.00075
кайо;0.00075
калоян;0.00075
каматир;0.00075
камица;0.00075
кантакузина;0.00224
кастамонитисс;0.00075
кастильский;0.00075
каталанский;0.00075
каталог;0.00075
категория;0.00075
кекавмена;0.00149
кефалония;0.00149
киликия;0.00075
князь;0.00224
код;0.00822
кодекс;0.00075
кокалатисс;0.00075
кокковасилий;0.00075
комнина;0.03363
комнинодук;0.00224
комнинодукинить;0.00374
коноставть;0.00075
конрад;0.00075
константин;0.00897
контостефан;0.00075
конфиденциальность;0.00075
король;0.00523
короткий;0.00075
котерец;0.00075
который;0.00224
крайность;0.00075
красота;0.00075
крестовый;0.00075
кризис;0.00075
кринит;0.00075
крит;0.00075
крупный;0.00075
кузина;0.00075
кук;0.00075
куркуас;0.00075
куртикия;0.00075
кыргызча;0.00075
лакапин;0.00075
ларусс;0.00075
ласкарина;0.00075
ласкарис;0.00075
латин;0.00075
лев;0.00075
левуна;0.00075
лемерль;0.00075
леопольд;0.00075
лечча;0.00075
лимитроф;0.00075
литература;0.00149
лицензия;0.00075
лорд;0.00075
м;0.00149
македония;0.00075
македонский;0.00075
мануил;0.00448
манфред;0.00075
мария;0.00673
матео;0.00075
материал;0.00075
матильда;0.00075
махитарий;0.00075
медиафайл;0.00075
мелиссин;0.00149
мелита;0.00075
мир;0.00299
михаил;0.01121
младший;0.00149
мнение;0.00075
мобильный;0.00075
монахиня;0.00075
монашество;0.00075
монферратский;0.00075
мосила;0.00075
мочь;0.00075
мусульманин;0.00075
мысль;0.00075
навигация;0.00224
надо;0.00075
наиболее;0.00075
налоговый;0.00075
нападение;0.00075
научный;0.00075
нафплион;0.00075
нахарарство;0.00075
находиться;0.00075
начало;0.00075
нгел;0.00149
незак;0.00374
незаконный;0.00149
неизвестный;0.00598
некоммерческий;0.00075
неманич;0.00075
неопатрас;0.00224
нет;0.00075
никейский;0.00075
никифор;0.00224
николай;0.00149
новый;0.00075
норманн;0.00075
ноябрь;0.00075
область;0.00149
обострение;0.00075
обостриться;0.00075
обращение;0.00149
обсуждение;0.00149
описание;0.00075
организация;0.00075
орсинь;0.00224
ослабление;0.00075
основание;0.00224
основатель;0.00075
ответственность;0.00075
отдельный;0.00075
отказ;0.00075
отметить;0.00075
относить;0.00075
отношение;0.00075
отойти;0.00075
отразить;0.00075
отредактировать;0.00075
очевидный;0.00075
ошибка;0.00075
п;0.00075
пакуриана;0.00075
палеолог;0.00598
палеологиня;0.00523
паниперсевастый;0.00075
патриция;0.00075
пахлавунь;0.00075
переживать;0.00075
перейти;0.00149
период;0.00075
персональный;0.00075
петралифаина;0.00149
печать;0.00149
пиза;0.00075
пир;0.00075
плачевный;0.00075
поведение;0.00075
подавить;0.00075
поддерживать;0.00075
подробный;0.00075
пожертвовать;0.00075
поиск;0.00149
политика;0.00149
положить;0.00075
получить;0.00149
поль;0.00075
поражение;0.00075
пос;0.04185
последний;0.00149
постоянный;0.00075
потерпеть;0.00075
поход;0.00149
появиться;0.00075
правило;0.00075
правитель;0.00374
править;0.01794
правка;0.00149
правление;0.00149
предполагать;0.00075
представитель;0.00075
представиться;0.00075
прекращение;0.00075
престол;0.00075
префект;0.00075
привилегия;0.00149
примечание;0.00149
принадлежать;0.00075
прислать;0.00075
проводить;0.00075
проект;0.00075
прозвище;0.00075
происходить;0.00149
происхождение;0.00448
прония;0.00075
просмотр;0.00075
простолюдин;0.00075
пространство;0.00075
противоречие;0.00075
протонобилиссимус;0.00075
протосеваста;0.00075
протостратор;0.00075
р;0.00075
радослав;0.00075
раз;0.00075
раздача;0.00075
разработчик;0.00075
распасться;0.00075
растрачивать;0.00075
рауль;0.00149
регент;0.00149
резко;0.00075
результат;0.00075
ресурс;0.00075
речь;0.00075
род;0.00224
родина;0.00075
родиться;0.00149
родоначальный;0.00075
рожер;0.00075
российский;0.00075
рубенида;0.00075
рупение;0.00075
русский;0.00075
ряд;0.00149
сам;0.00075
сведение;0.00075
свежий;0.00075
свергнуть;0.00075
свержение;0.00075
свободный;0.00075
свой;0.00075
связанный;0.00075
связаться;0.00075
сгур;0.00075
севаста;0.00224
севастогипертат;0.00075
севастократор;0.00448
село;0.00075
сельджук;0.00075
сенекерим;0.00075
сент-омер;0.00075
сербия;0.00224
сербский;0.00149
сестра-близнец;0.00075
синаден;0.00075
система;0.00075
сицилийский;0.00075
сицилия;0.00075
скачать;0.00149
склир;0.00075
слабеть;0.00075
словарь;0.00075
слово;0.00075
служебный;0.00075
служить;0.00075
случай;0.00075
случайный;0.00075
смотреть;0.00149
смочь;0.00075
событие;0.00075
совместно;0.00075
содержание;0.00149
создать;0.00075
сокращаться;0.00075
сообщество;0.00075
сообщить;0.00075
состояние;0.00075
состояться;0.00075
софен;0.00075
сохранение;0.00075
справка;0.00075
среда;0.00075
срем;0.00075
српски;0.00075
ссылка;0.00448
старый;0.00075
статистика;0.00075
статья;0.00299
стефан;0.00299
столь;0.00075
страна;0.00075
страница;0.00448
стратиг;0.00075
существовать;0.00075
сфрандзь;0.00075
сын;0.01196
сюда;0.00075
так;0.00149
тамара;0.00075
тарентский;0.00075
таронит;0.00075
тарханиот;0.00075
текст;0.00075
текущий;0.00075
термин;0.00149
тетрарх;0.00075
титул;0.00149
товарный;0.00075
торговый;0.00075
торник;0.00075
торникина;0.00224
тот;0.00075
третий;0.00075
трон;0.00149
увеселение;0.00075
указание;0.00075
ум;0.06054
умереть;0.00075
умерший;0.00075
урош;0.00149
усилить;0.00075
условие;0.00224
участие;0.00075
фадрик;0.00075
фамилия;0.00149
фамильный;0.00075
феодора;0.01046
феодорокать;0.00075
фессалий;0.01345
фессалоника;0.00523
филантропный;0.00075
филипп;0.00149
флот;0.00075
фок;0.00075
фокады;0.00075
фома;0.00149
фонд;0.00075
форум;0.00075
фракия;0.00075
халкида;0.00075
цамплакон;0.00075
цанец;0.00075
царь;0.00448
цезарь;0.00075
целое;0.00075
центрполиграф;0.00149
цикандела;0.00075
цинцнлука;0.00075
цирифон;0.00075
цитировать;0.00075
цопка;0.00075
читать;0.00075
шабарон;0.00075
швабский;0.00075
эвбея;0.00075
экспорт;0.00075
элемент;0.00075
эно;0.00075
энциклопедический;0.00149
энциклопедия;0.00149
эпир;0.01121
эпирский;0.00075
эсташ;0.00075
этимология;0.00075
этолия;0.00673
этот;0.00075
являться;0.00075
язык;0.00075
