абсолютно;0.00029
абсурд;0.0002
абсурдистский;0.0001
абсурдный;0.0001
август;0.00244
авиакомпания;0.00029
австралийский;0.0001
австралия;0.0001
автобус;0.0002
автобусный;0.0002
автомобиль;0.0001
автор;0.00068
авторитетный;0.0001
авторство;0.00029
агентство;0.00029
агностик;0.0001
агрессивный;0.0001
ад;0.00029
адам;0.0001
адвокат;0.0002
адвокатский;0.0001
адрес;0.0001
адыгабзэ;0.0001
айдло;0.0001
айзек;0.00078
айзенштадт;0.0001
айк;0.0001
айман;0.0001
аксессуар;0.0001
акт;0.0001
активистка-эколог;0.0001
активно;0.0001
актриса;0.0001
але;0.0001
александер;0.0001
александр;0.0001
аллюзия;0.0001
алфавит;0.00029
алый;0.0001
аль-каида;0.0001
альберт;0.0001
альбом;0.00078
альтер;0.0001
альтернативный;0.0002
альтруизм;0.0001
альянс;0.0002
америка;0.00059
американец;0.0001
американский;0.00146
анализ;0.0002
анализироваться;0.0001
аналитик;0.0001
аналог;0.0001
аналогичный;0.0001
аналогия;0.0001
анальный;0.00049
англ;0.01873
английский;0.0002
англичанин;0.0002
андерсон;0.0001
аниматор;0.00029
анимационный;0.00127
анимация;0.00156
аниме;0.00029
аниме-телесериал;0.0001
анон;0.0001
анонс;0.00029
анонсировать;0.0002
антигерой;0.0001
антиканадский;0.0001
антисемит;0.0002
антисемитизм;0.0001
антон;0.0001
анус;0.0001
аплодисменты;0.0001
апрель;0.00098
аргумент;0.0001
арест;0.0001
аристократ;0.0002
аркейн;0.0001
арпа;0.0001
артефакт;0.0001
артист;0.0001
архангел;0.0001
архетипичный;0.0001
архивировать;0.01697
архивный;0.00244
арча;0.0001
арчер;0.0001
ас;0.0001
ассистент;0.0002
ассоциация;0.00029
ассошиэйтед;0.0001
атаковать;0.0001
аткина;0.0001
аудио;0.0001
аудиодепартамент;0.0001
аудиофрагмент;0.0001
афро-американец;0.0001
аффлек;0.0002
база;0.0002
балл;0.0001
баллада;0.0001
банджо;0.0002
банкер;0.0001
барак;0.0001
барбра;0.00029
барбрести;0.0001
барт;0.0002
бас-гитара;0.00049
бас-партия;0.0002
басманный;0.0001
бассейн;0.0001
баттерс;0.00088
бахара;0.0001
бахтин;0.0001
башенный;0.0001
башка;0.0001
бедность;0.0001
бедный;0.0001
безвкусность;0.0001
безвкусный;0.0001
бездуховность;0.0001
безобидный;0.0001
безопасность;0.0002
бейер;0.0001
бейсбол;0.0001
бейскетбол;0.0001
беларускать;0.0002
белоруссия;0.0001
белый;0.0001
бен;0.0002
бергман;0.00029
бережно;0.0001
берри;0.0001
беспорядок;0.0001
бессменный;0.0001
бессмысленно;0.0001
бессмысленный;0.0001
бешено;0.0001
бешенство;0.0002
биби;0.0002
библиографический;0.0001
бизнес;0.0002
билл;0.0001
билли;0.0001
биография;0.0001
бипперо;0.0001
бирд;0.00029
битва;0.0002
благодарение;0.0001
благотворительность;0.0001
блевать;0.0001
блейн;0.0001
блейнтология;0.0001
близкий;0.0002
блог;0.0001
блоухол;0.0001
блэк;0.0001
боб;0.00049
бобби;0.0001
бог;0.00029
божество;0.0001
бой;0.0002
бой-бэнд;0.0001
бойкот;0.0001
бойскаут;0.0002
бойтано;0.0002
бойцовский;0.0001
боком;0.0001
бокс-сет;0.0002
болванка;0.0001
более;0.00098
больница;0.0002
больной;0.00029
больший;0.00137
большинство;0.00039
большой;0.00176
бонус;0.0001
борец;0.0001
борьба;0.0001
ботинок;0.0001
брайан;0.00049
брак;0.00029
браслет;0.0001
брат;0.0001
брать;0.0002
браун;0.0001
брейн;0.0002
британец;0.0002
британия;0.0001
британский;0.00039
брофловск;0.00039
брюс;0.00029
будущее;0.00049
будущий;0.0002
буква;0.0001
булочка;0.0001
бульдозер;0.0001
бумага;0.00039
буфер;0.0001
буш;0.0002
български;0.0001
бывший;0.0001
быстро;0.00029
быстрый;0.0001
бытовать;0.0001
быть;0.01229
бэтмена;0.0001
вагин;0.0001
важность;0.0001
важный;0.00039
вайнер;0.0001
ванна;0.0001
вариант;0.0002
вариация;0.0001
введение;0.0001
вдобавок;0.0001
вдова;0.0001
ведение;0.0001
ведущий;0.0001
везти;0.0001
великий;0.00088
великобритания;0.0002
венди;0.00029
верить;0.00039
вернона;0.0002
вернуться;0.0001
верный;0.0002
версия;0.00215
верующий;0.0001
верхний;0.0001
вес;0.0001
веселие;0.0001
весна;0.0001
вести;0.0001
вестись;0.0001
весь;0.00254
вечеринка;0.0001
вечерний;0.0001
вечером;0.0001
вещь;0.00049
взаимоотношение;0.0001
взгляд;0.00039
взрослый;0.00039
взрыв;0.0001
взять;0.0002
вид;0.00039
видео;0.0002
видеоигра;0.00029
видеоклип;0.0001
видеонабор;0.0002
видеооткрытка;0.0001
видеотизер;0.0001
видеофрагмент;0.0001
видеть;0.0001
видный;0.0001
викидать;0.00029
викимедиа;0.0001
викиновость;0.0001
википедия;0.00137
викисклад;0.00039
викицитатник;0.00039
виллзиак;0.00029
винга;0.0001
винить;0.0001
виноватый;0.0001
вклад;0.0001
включение;0.0001
включить;0.0002
вкус;0.0002
владелец;0.00029
владимир;0.00029
властный;0.0001
власть;0.0001
влияние;0.00107
влиять;0.0001
влюбляться;0.0001
вместе;0.00049
внебрачный;0.0001
внезапно;0.0001
внести;0.0001
внешний;0.0002
внимание;0.0002
вновь;0.00039
вносить;0.0001
внушительный;0.0001
вовсе;0.0001
возвращаться;0.0001
возвращение;0.00049
возгорание;0.0001
воздушный;0.0001
воззрение;0.0001
возмездие;0.0002
возможность;0.0001
возможный;0.0002
возмутить;0.0001
возмущаться;0.0001
возмущение;0.0001
возникать;0.00029
возомнить;0.0001
возраст;0.00039
возрасти;0.0001
возрождаться;0.0001
война;0.00166
войти;0.00088
вокал;0.0001
волмера;0.0001
волокно;0.0001
волос;0.0002
волшебный;0.0002
воля;0.0001
вонючий;0.0001
воображение;0.0001
воображеньелэнд;0.0001
воображляндия;0.00068
вообще;0.0001
вопрос;0.00059
ворон;0.0001
воскрешение;0.0001
воспитание;0.0001
воспользоваться;0.0001
воспоминание;0.0002
воспротивиться;0.0001
восьмой;0.0001
вояджер;0.0001
впервые;0.00049
вплоть;0.0002
вполне;0.0001
впоследствии;0.0001
враг;0.0001
враждебный;0.0001
врата;0.0001
временами;0.0001
временной;0.0001
время;0.00312
вручаться;0.0001
всевозможный;0.00049
всегда;0.00078
вселенная;0.0002
вселенский;0.0001
всемирный;0.0001
вскользь;0.0001
вскоре;0.0002
вспоминать;0.0001
встретить;0.0001
встречать;0.0001
встречаться;0.0002
вступать;0.0001
вступление;0.0001
всюду;0.0001
всячески;0.0001
второе;0.0001
второй;0.00137
второстепенный;0.0001
вудсток;0.0001
вульгарный;0.00029
входить;0.0001
выбираться;0.0001
выбор;0.0001
выборы;0.00029
выбрасывать;0.0001
выверять;0.0001
выглядеть;0.00029
выдавать;0.0001
выдающийся;0.0002
выдвигать;0.0001
выдумать;0.00029
вызвать;0.0002
вызывать;0.0001
выиграть;0.0001
выигрывать;0.0001
выйти;0.00205
выкладывание;0.0001
выкрикивать;0.0001
выложить;0.0001
вымышленный;0.0002
вынести;0.0001
вынудить;0.0001
выполнить;0.00039
выполнять;0.0001
выполняться;0.0001
выпуск;0.00029
выпускать;0.00029
выпускаться;0.0002
выпустить;0.00224
выражение;0.00049
выразить;0.0001
вырасти;0.0001
вырезать;0.00039
высказать;0.0001
высказаться;0.0001
высказывать;0.0001
высказываться;0.00039
выслать;0.0001
высмеивание;0.00039
высмеивать;0.00039
высмеиваться;0.00068
высмеять;0.0001
высокий;0.00029
высокогорный;0.0001
выстрел;0.0001
выступать;0.00029
выступить;0.0001
выступление;0.00029
выхлоп;0.0001
выход;0.00117
выходец;0.0001
выходить;0.00068
выяснять;0.0001
выясняться;0.0002
вьетнам;0.0001
вьетнамский;0.0002
г;0.00224
габблза;0.0001
газета;0.00049
галстук-бабочка;0.0001
гараж;0.0001
гарефиный;0.0001
гармошка;0.0001
гаррисон;0.00088
гарфилд;0.00039
где;0.00127
гей;0.00059
гекльберри;0.0001
геолог;0.0001
герблански;0.0001
герман;0.0001
героиня;0.0001
герой;0.00322
гибрид;0.0001
гибридный;0.0002
гибсон;0.00039
гигант;0.0001
гигантский;0.0001
гид;0.0001
гиллиама;0.0002
гиннесса;0.0001
гиперболизированный;0.00029
гиперпространство;0.0001
гитлер;0.0001
глава;0.0002
главный;0.00137
гладиатор;0.0002
глаз;0.0002
глазок;0.0001
глобальный;0.00039
глубокий;0.0002
глупость;0.0001
глупый;0.0001
гниловый;0.0001
гоблин;0.0001
говно;0.0001
говорить;0.00146
говориться;0.0001
год;0.02789
годзиллообразный;0.0001
годовой;0.0001
голливудский;0.0001
голова;0.00039
головной;0.0001
голос;0.0002
голосование;0.00029
голубой;0.0001
голый;0.0001
гомер;0.0001
гомосексуал;0.00059
гомосексуальность;0.0002
гомофоб;0.0002
гомояхта;0.0002
гоночный;0.0001
гоняться;0.0001
гора;0.00039
горбатый;0.0001
горбун;0.0001
гордый;0.0001
город;0.00176
городок;0.00029
городской;0.0002
горячий;0.0001
госдума;0.0002
гот;0.0001
готовый;0.0001
граден;0.0001
граница;0.0001
графика;0.0002
грег;0.0001
греф;0.0001
грех;0.0001
гринч;0.0002
гриффин;0.0001
гриффина;0.00029
громкий;0.0001
гротескный;0.0001
грубо;0.0001
грубый;0.00039
грудь;0.0002
группа;0.00088
грэден;0.0002
грязный;0.0001
губный;0.0001
гуманитарный;0.0001
гэри;0.0002
давать;0.00029
дайана;0.0001
далее;0.0002
далеко;0.0002
дальнейший;0.00039
даниил;0.0001
данлэп;0.0002
данные;0.0002
данный;0.00039
дань;0.0001
дата;0.00254
датский;0.0001
дать;0.00029
даунза;0.0001
даффи;0.0001
два;0.00088
двигаться;0.0001
двое;0.0002
двусмысленный;0.0001
двухминутный;0.0001
дебора;0.0001
дева;0.0002
девочка;0.0001
дед;0.0001
дедушка;0.0002
действие;0.00039
действительно;0.00078
действительность;0.0001
действовать;0.0001
декабрь;0.00137
делать;0.00068
дело;0.00049
демонстрация;0.0001
демонстрировать;0.0002
демонстрироваться;0.00078
денвер;0.0001
день;0.00068
деньга;0.0002
деньгин;0.0001
депутат;0.0002
дерби;0.0001
дерьмо;0.0002
дерьмовый;0.0002
деспотичный;0.0001
десятый;0.0001
деталь;0.00049
дети-гот;0.0001
детский;0.0001
дефекация;0.0001
деятель;0.0001
джабба;0.0001
джадж;0.0001
джей;0.00049
джейн;0.0001
джейсон;0.0001
джек;0.0002
джексон;0.00029
дженнифер;0.00068
джентльмен;0.0001
дженять;0.0001
джеральд;0.0001
джесси;0.00029
джеффри;0.0001
джимбо;0.0002
джимми;0.0001
джингл;0.0001
джиосефи;0.0001
джо;0.0001
джон;0.00088
джонни;0.0001
джонс;0.0002
джонсон-вудс;0.0001
джордж;0.00049
джунгли;0.0001
джунгли-шмунгли;0.00029
джэй;0.0001
дизайн;0.0001
дилогия;0.0002
динесать;0.0001
динозавр;0.0002
диск;0.0002
дискомфорт;0.0001
диснеевский;0.0002
дистрибьютор;0.0001
длина;0.0002
длинный;0.00137
длительность;0.0002
дмитрий;0.0001
дневный;0.0001
днк;0.0001
добиться;0.00059
добровольно;0.0001
добродушный;0.0002
довести;0.0002
доводить;0.0001
довольно;0.00039
догадка;0.0001
договор;0.0002
доза;0.0001
доказательство;0.0001
доказывать;0.0001
доктор;0.00039
документальный;0.00059
долгий;0.00039
долго;0.0001
должность;0.0001
должный;0.00088
долина;0.0001
доллар;0.0001
дом;0.00029
домой;0.0001
дональд;0.0001
донахью;0.0001
допеть;0.0001
доподлинно;0.0001
дополнительный;0.00117
допустимый;0.0001
дорабатывать;0.0001
дорогой;0.0001
дословный;0.0001
доставать;0.0001
достаточно;0.0001
достигнуть;0.0001
достижение;0.0001
достоверность;0.0001
доступ;0.0001
доступный;0.00029
доход;0.0001
драйвер;0.0001
древний;0.0002
дрейфовать;0.0001
друг;0.00273
другой;0.00312
дума;0.0001
думать;0.0001
дурной;0.0001
дух;0.00068
духовный;0.0001
душа;0.0001
дуэль;0.0001
дуэт;0.0002
дэвид;0.0002
дэйв;0.0001
дядеести;0.0001
евангелие;0.0001
евгений;0.0001
еврей;0.00098
еврейский;0.00029
европа;0.0001
едва;0.0001
единственный;0.00059
единый;0.0001
ежедневный;0.0001
елизавета;0.0001
епископ;0.0001
есть;0.00137
ехать;0.0001
жалкий;0.0001
жанр;0.00078
ждать;0.0001
желание;0.0001
жениться;0.0001
женский;0.0002
женщина;0.00049
жертва;0.0001
жестокий;0.0001
жестоко;0.0001
живой;0.0001
животное;0.0002
жид;0.0001
жидов;0.00029
жизнерадостный;0.0001
жизнь;0.00059
житель;0.0001
жить;0.00039
жный;0.0001
жрать;0.0001
журнал;0.00049
журналист;0.0001
заботиться;0.0001
забыть;0.0001
завахири;0.0001
завоевать;0.0001
загадка;0.0002
заглавный;0.00049
загораться;0.0001
загореться;0.0001
заготовка;0.00029
задавать;0.0002
задача;0.0002
задеть;0.0001
задний;0.0001
задница;0.00029
задумываться;0.0002
заинтересованность;0.0001
зайти;0.0002
заказ;0.0002
заказать;0.0001
заключаться;0.0001
заключительный;0.0001
заключить;0.0001
закончиться;0.0001
закрепостить;0.0001
закрывать;0.0001
закусочный;0.0002
заложник;0.0001
замена;0.0001
заменить;0.0002
заменять;0.0002
заместитель;0.0001
заметно;0.0001
заметный;0.0002
замечательный;0.0002
замирать;0.0001
замок;0.0001
заморочить;0.0001
занимать;0.00029
заниматься;0.00078
заноситься;0.0001
занятый;0.0002
занять;0.00059
заняться;0.0001
заодно;0.0001
запиканный;0.0001
запикано;0.0002
запикиваться;0.0001
запираться;0.0001
записать;0.00049
запись;0.00029
запланировать;0.0001
заповедь;0.0001
запоминаться;0.0001
запрет;0.00068
запретить;0.00078
запрос;0.0001
запустить;0.0001
зарабатывать;0.0001
зарегистрировать;0.0001
зародиться;0.0001
заседание;0.0001
заставить;0.00049
заставка;0.00078
заставлять;0.00029
застрелиться;0.0001
застрять;0.00049
затем;0.00078
затрагивать;0.0001
затрагиваться;0.0002
затронуть;0.0001
затруднять;0.0001
захват;0.0001
захватить;0.00039
заходить;0.0001
зачатие;0.0001
зачем;0.0001
зачинщик;0.0001
защита;0.00117
защищать;0.0001
заявить;0.00039
заявление;0.0001
заявлять;0.0001
звать;0.0002
звезда;0.00059
звучать;0.00059
звучащий;0.0002
здесь;0.00039
зеландия;0.0001
земля;0.00029
зигга;0.0001
зиня;0.0001
зло;0.0002
злобный;0.0001
злой;0.0002
знак;0.0002
знаменитость;0.00059
знаменитый;0.00059
знать;0.0002
значащий;0.0001
значение;0.00029
значимый;0.0001
значительно;0.0001
значительный;0.00039
золото;0.00039
зомбировать;0.0001
зонд;0.00039
зоомагазин;0.0001
зрение;0.00029
зритель;0.00029
зутить;0.0001
игра;0.00166
играть;0.00078
игровой;0.00059
игрок;0.0001
игрушка;0.00068
идентифицировать;0.0001
идентичный;0.0001
идея;0.00127
идиотский;0.0001
идти;0.00049
избаловать;0.0001
избивать;0.0002
избиение;0.0001
избрание;0.0001
избранный;0.0001
избыточный;0.0001
известно;0.00059
известный;0.00137
извечный;0.0001
извинение;0.00059
извлечение;0.0001
извлечь;0.0001
изгородь;0.0001
изготавливаться;0.0001
издаваться;0.0001
издание;0.0002
издать;0.0002
издевательский;0.00029
издевательство;0.0001
издеваться;0.0002
изменение;0.00029
изменить;0.00029
изначально;0.0002
изобиловать;0.0001
изображать;0.0001
изображаться;0.0001
изображение;0.00078
изобразить;0.00029
изредка;0.0002
иисус;0.00059
икона;0.0001
иллюстрация;0.0002
иллюстрироваться;0.0001
иметь;0.00107
иммиграция;0.0001
император;0.0001
имя;0.00107
иначе;0.0001
индиана;0.0002
индюшка;0.0001
инкарнация;0.0001
инкуб;0.0001
иногда;0.00098
иной;0.00049
инопланетянин;0.0002
институт;0.0001
инструмент;0.0002
инструментальный;0.0001
инсульт;0.0002
интервью;0.00137
интерес;0.0002
интересный;0.0001
интернет;0.00068
информативный;0.0001
информационный;0.00029
информация;0.00049
инцидент;0.0001
ирак;0.0001
ирвин;0.00059
ирон;0.0001
иронически;0.0001
ироничный;0.00039
ирония;0.0002
иск;0.0002
искать;0.0001
исключение;0.00049
искренне;0.0002
ислам;0.0002
исполнение;0.00098
исполнительный;0.0001
исполнить;0.0001
исполняемый;0.0002
исполнять;0.0002
исполняться;0.0002
использование;0.00098
использовать;0.00068
использоваться;0.00146
испортить;0.00029
исправить;0.0002
испражняться;0.0001
испытывать;0.0001
исследование;0.00059
исследователь;0.0001
история;0.00137
источать;0.0001
источник;0.00078
итог;0.00098
ить;0.00039
иудаизм;0.00039
иудей;0.0001
июль;0.00478
июнь;0.00146
йозерс;0.0001
кабельный;0.00029
кадр;0.00068
каждый;0.00146
казнь;0.0001
кай;0.0001
кайло;0.00341
какой;0.0002
какой-либо;0.00039
какой-нибудь;0.0001
какой-то;0.00039
калька;0.0001
камео;0.0001
каминг-аут;0.0001
кампания;0.0001
канада;0.00029
канадец;0.00068
канал;0.00117
кандидатура;0.0001
каннибал;0.00029
кантри;0.0001
канун;0.0001
капюшон;0.00049
кара;0.0001
кардинально;0.0001
карикатурный;0.0001
карлтон;0.0001
карта;0.0001
картина;0.0001
картман;0.00527
карточный;0.0001
кас-бонит;0.0001
кассовый;0.0002
каталог;0.0001
категорически;0.0001
категория;0.00039
каток;0.0001
католик;0.00029
католицизм;0.0002
католический;0.0002
катушка;0.0001
качественно;0.0001
качественный;0.0002
качество;0.00088
квест;0.0001
кекс;0.0001
келлер;0.0001
кен;0.0001
кеннеалли;0.0001
кеннет;0.0002
кенни;0.00429
керн;0.0001
ким;0.0002
кино;0.00029
киноискусство;0.0001
кинокомпания;0.0001
кинокритик;0.0002
кинонаграда;0.0002
кинотеатр;0.0001
кинофильм;0.0001
кислота;0.0001
китаец;0.00068
китайский;0.00068
китти;0.0001
кладбище;0.0001
класс;0.00078
классический;0.0002
клевета;0.0002
клетка;0.0001
клизма;0.0001
клиника;0.0002
клинтон;0.0001
клип;0.0001
клон;0.0002
клуб;0.0002
клуня;0.00029
клэйпул;0.00039
клюквина;0.0001
книга;0.00166
ковбой;0.0001
ковбой-педик;0.0002
ковчег;0.0001
код;0.0001
кодекс;0.0001
кокран;0.00029
колдунья;0.0001
количество;0.00049
колкость;0.0001
коллекционный;0.0001
коллинза;0.00039
колорадо;0.00078
команда;0.00039
комедийный;0.00039
комедия;0.00078
комик;0.0001
комикс;0.0001
комитет;0.0001
комический;0.0002
комментарий;0.00039
комментатор;0.0001
комментировать;0.0001
компания;0.00049
компания-производитель;0.0001
комплекс;0.0001
комплексовать;0.0001
композитор;0.0001
компьютерный;0.0002
конец;0.00137
конечный;0.0001
конкретный;0.0002
коннора;0.0001
консервативный;0.0002
консервированный;0.0001
контекст;0.0001
контраст;0.0001
контрастировать;0.0002
конфиденциальность;0.0001
конфликт;0.0001
концепция;0.0002
концерт;0.0001
копия;0.00263
корелами;0.0001
королева;0.00029
коронный;0.0002
коротенький;0.0001
короткий;0.0001
короткометражка;0.00029
короткометражный;0.00029
коррекция;0.0001
косвенный;0.0001
космос;0.0001
кость;0.0001
кот;0.0001
который;0.00702
коул;0.0001
кош;0.0002
кошачий;0.0001
кошка;0.0001
кошмарный;0.0002
крабтереть;0.0001
крайне;0.0002
крайний;0.0002
красавица;0.0001
красавица-учительница;0.0001
крейг;0.0001
крепкий;0.0001
крестовый;0.0001
кретин;0.0001
крик;0.0001
криминалист;0.0001
кристофер;0.0001
критик;0.0002
критика;0.00117
критиковаться;0.0001
критический;0.0001
кровавый;0.0002
кровоточить;0.0001
кроу;0.00049
круз;0.00068
крупный;0.0002
крутиться;0.0001
крутой;0.0001
крылатый;0.0001
крыша;0.0001
ктулху;0.0001
ку;0.0001
кубок;0.0001
кук;0.0001
культ;0.0002
культовый;0.0002
культура;0.00029
культурный;0.0001
кумир;0.0001
купить;0.0002
купюра;0.0001
кусочек;0.0001
кыргызча;0.0001
кэти;0.0001
лавкрафт;0.0001
лагерь;0.0001
ладен;0.0001
лазло;0.0002
ландшафт;0.0001
латентный;0.0001
лауреат;0.0001
лгбт-тематика;0.0001
лдпр;0.0001
лев;0.0001
легендарный;0.0002
легко;0.0002
лежать;0.0001
лексика;0.00049
леопольд;0.00029
лес;0.00039
лесбиянка;0.00029
лесной;0.0001
летать;0.0001
либертарианский;0.0002
либлинга;0.0001
лига;0.0002
лидер;0.00029
лидерство;0.0001
лиза;0.0001
линда;0.0001
линия;0.00029
линчевать;0.0001
лист;0.0001
лита;0.0002
литература;0.0002
лицензия;0.0001
лицо;0.00088
личность;0.0001
логически;0.0001
логический;0.0001
логотип;0.00039
локальный;0.0002
лопатка;0.0001
лос-анджелес;0.0002
лукас;0.0002
льгота;0.0001
любимый;0.00059
любитель;0.0001
любить;0.0001
любовник;0.0001
любовь;0.00059
любой;0.00039
людмила;0.0001
ляп;0.0001
магазин;0.0001
магомет;0.0001
мадагаскар;0.0001
мазель;0.0001
мазохист;0.0002
май;0.00098
майк;0.00029
майка;0.0002
майкл;0.0001
макдауэлла;0.0001
македонски;0.0001
маккалох;0.0001
маккейн;0.0001
маккормик;0.00039
макмэхон;0.0002
максимально;0.0001
максимум;0.0001
макхьюг;0.0001
маленький;0.00059
малореальность;0.0001
малькольм;0.0001
мальчик;0.00127
мальчик-мормон;0.0001
мама;0.00039
мамаша;0.0002
мандомба;0.0001
манера;0.0002
маньяк;0.0001
марвин;0.00039
маргаритавилль;0.00029
мария;0.00029
марк;0.0001
марка;0.0001
март;0.00166
мартин;0.0001
мартман;0.0001
марш;0.00068
маршалл;0.0002
массмедиа;0.0001
мастерство;0.0001
мат;0.0001
материал;0.00078
мать;0.00029
мафия;0.0001
машина;0.0001
медиа;0.0001
медиаорганизация;0.0001
медиафайл;0.0002
межрайонный;0.0001
мел;0.0002
мелодия;0.0001
менее;0.00166
меньшинство;0.0001
менять;0.0002
меняться;0.0002
мера;0.0001
место;0.00117
местожительство;0.0001
месяц;0.00039
металл;0.0001
метросексуалы;0.0001
мефесто;0.0001
мех-стрейзанда;0.0001
механизированность;0.0001
мешать;0.0001
мешочек;0.00039
миддл-парк;0.0002
микс;0.0001
миллион;0.00039
милхаус;0.0001
мини-игра;0.0001
мини-комментарий;0.0001
минимум;0.0002
министр;0.0001
минни;0.0001
минута;0.00039
мир;0.00078
мировой;0.00039
мисс;0.0001
миссис;0.00029
миссия;0.0001
мистер;0.00117
михаил;0.0002
мнение;0.00078
многий;0.00068
много;0.0002
многократно;0.0001
многочисленный;0.00029
множество;0.00059
мобильный;0.0002
могила;0.0001
мода;0.0001
модель;0.0001
модный;0.0001
можно;0.00098
мозг;0.0001
мой;0.00059
молодой;0.0001
момент;0.00195
мона;0.0002
монгол;0.0002
монстр;0.0001
монтить;0.00029
мораль;0.00029
мормон;0.00059
мормонизм;0.00029
мортить;0.0002
москва;0.0001
мотив;0.0001
мочь;0.00107
мошенник;0.0001
муж;0.0001
мужчина;0.0002
музей;0.0001
музыка;0.00107
музыкальный;0.00068
музыкант;0.0001
мультипликационный;0.00059
мультсериал;0.00205
мультсериал-пародия;0.0001
мультсериал-ситком;0.0001
мультфильм;0.00176
мусульманский;0.0001
мухаммед;0.00049
мучение;0.0001
мучиться;0.0001
мысль;0.0001
мычание;0.0001
мычать;0.0001
мэк;0.0001
мэри;0.00039
мэтт;0.00263
мюзикл;0.00098
мяуканье;0.0001
н;0.00029
наблюдать;0.0001
набор;0.0001
набросок;0.0002
навигация;0.00029
навсегда;0.00049
наголо;0.0001
награда;0.00137
награждение;0.0002
нагрузка;0.0001
надевать;0.0001
надо;0.00049
надпись;0.0002
название;0.00117
назвать;0.00088
назначение;0.0001
называть;0.00068
называться;0.00029
наиболее;0.0001
найти;0.0002
наказать;0.0001
наказывать;0.0001
накануне;0.0001
наклонность;0.0001
наличие;0.0002
налоговый;0.0001
наложение;0.0001
намеренно;0.0001
намеренный;0.0002
нападки;0.0001
напасть;0.0001
напевать;0.0001
написание;0.0001
написать;0.00078
напоминать;0.00039
нарастание;0.0001
нарезка;0.0001
насилие;0.0002
насмешка;0.00049
насмешливый;0.0001
настолько;0.00029
настоящий;0.00098
настраивать;0.0001
насыщенный;0.0001
наташа;0.0001
научно-фантастический;0.0001
научный;0.0001
находить;0.0001
находиться;0.00049
национальность;0.0002
нация;0.0001
начало;0.00107
начальник;0.0001
начальный;0.00029
начать;0.00039
начаться;0.0002
начинать;0.00107
начинаться;0.00059
наш;0.0001
нашуметь;0.0001
не-рыжий;0.0001
неавторитетный;0.00039
неблагополучный;0.0001
небо;0.0001
небольшой;0.00039
невезение;0.0001
невиновный;0.0001
невменяемый;0.0002
невозможно;0.0002
невозможность;0.0001
невыполнимый;0.0001
невыпущенный;0.0001
негативный;0.0001
неда;0.0001
недавний;0.0001
недавно;0.0001
недалеко;0.0001
неделя;0.00059
недостаток;0.0002
недоступный;0.00049
недоумок;0.0001
недуг;0.0001
независимый;0.00029
нездоровый;0.0001
некогда;0.0001
некоммерческий;0.0001
некорректный;0.0001
некоторый;0.00078
нелепость;0.0001
нельзя;0.0002
немало;0.0002
немалый;0.0001
немного;0.0001
немой;0.0001
ненавидеть;0.00029
ненависть;0.0001
ненормальный;0.0001
ненормативный;0.0002
необрезанный;0.00146
необходимость;0.0001
неоднократно;0.00078
неожиданно;0.00029
неполиткорректность;0.0001
неполноценный;0.0001
непорочный;0.0001
непосредственный;0.0001
неправдоподобность;0.0001
неправдоподобный;0.0001
непристойность;0.0001
непристойный;0.0001
нерабочий;0.0001
неразборчивый;0.0001
неразлучный;0.0001
нередко;0.00039
несколько;0.00146
несомненный;0.0001
нестандартный;0.0001
нести;0.0001
несуществующий;0.0001
несчастный;0.0001
нет;0.00049
нетерпимый;0.0001
неугодный;0.0002
неудачный;0.0001
нехарактерный;0.0001
нехватка;0.0001
нецензурный;0.0002
ниггер;0.0002
никак;0.0002
никакой;0.00049
николя;0.0002
ничего;0.0001
нло;0.0002
новогодний;0.0001
новость;0.00117
новчалый;0.0001
новый;0.00166
нога;0.0001
ножницы;0.0001
номинация;0.00039
номинировать;0.00107
норвежский;0.0001
норт-парк;0.0002
носить;0.00049
нота;0.0002
нотр-дама;0.0001
ночь;0.0002
ношение;0.0001
ноябрь;0.00224
нравиться;0.0001
нью-йорк;0.0002
ньярлатотеп;0.0001
нэнси;0.0001
оба;0.0002
обама;0.0002
обзор;0.0001
обитать;0.0001
обладатель;0.0001
обладать;0.0001
обложка;0.0001
обновить;0.0001
обозначать;0.0001
обозначение;0.0001
обозреватель;0.0002
обосмеяться;0.0001
обрабатывать;0.0002
обработать;0.0001
обработка;0.0001
образ;0.00088
образец;0.0002
обратный;0.0001
обращаться;0.00029
обращение;0.00263
обречь;0.0001
обрить;0.0001
обсоска;0.0001
обстановка;0.0001
обсуждаться;0.0001
обсуждение;0.00039
обсценный;0.0002
общаться;0.0001
общественность;0.0001
общественный;0.00049
общество;0.0002
общий;0.00039
объект;0.0002
объявить;0.00049
объявление;0.0001
объявлять;0.0002
объявляться;0.0001
объяснить;0.0001
объяснять;0.0002
обыграть;0.0001
обыгрывание;0.0002
обычно;0.00127
обычный;0.00039
огонь;0.0001
ограничение;0.00029
ограничительный;0.0001
огромный;0.00029
огурчик;0.0001
одетый;0.0001
один;0.0038
одинаково;0.0001
одинаковый;0.0002
одиннадцатый;0.0001
одновременно;0.00049
одноклассник;0.0001
однополый;0.00039
односерийный;0.0001
оживать;0.0001
ожидаться;0.0001
ожирение;0.0001
озаглавить;0.0001
озвучивание;0.00068
озвучивать;0.00127
озвучить;0.00088
оззь;0.0001
означать;0.0001
оказать;0.0001
оказаться;0.0002
оказываться;0.00049
окно;0.0001
окончание;0.00029
окончательный;0.0002
окрестить;0.0001
окрестность;0.0001
окружающий;0.00029
окружность;0.0001
октябрь;0.00117
олимпийский;0.0001
ом;0.00039
онлайн;0.00049
онлайн-сообщество;0.0001
опасный;0.0001
оператор;0.0001
описание;0.00029
опора;0.0001
опровергать;0.0001
опровергаться;0.0001
опровержение;0.0001
оптимизм;0.0001
оптимист;0.0001
опубликовать;0.00029
оранжевый;0.0001
оргазмый;0.0002
организация;0.0002
организовать;0.00029
организовывать;0.0001
оргия;0.0001
оригинал;0.00088
оригинальный;0.00068
ориентация;0.0001
ортис;0.0001
оружие;0.0002
осама;0.0001
осборн;0.0001
освещать;0.0001
освещение;0.0002
освободить;0.00029
освобождение;0.0001
осень;0.0001
оскар;0.00029
оскорбительный;0.0002
оскорблять;0.00039
основа;0.00098
основатель;0.0001
основать;0.0001
основное;0.00029
основной;0.0002
основный;0.00078
основываться;0.0001
особенно;0.00029
особенность;0.00078
особенный;0.0001
особый;0.0001
осознавать;0.0002
осознание;0.0001
оставаться;0.00029
остальной;0.0002
остановка;0.0002
остаться;0.0002
острый;0.0001
осуществляться;0.0001
отверстие;0.0001
ответ;0.00039
ответный;0.0001
ответственность;0.0001
отвечать;0.0001
отдавать;0.0002
отдать;0.0002
отделаться;0.0001
отдельно;0.0002
отдельный;0.00039
отец;0.00029
отзыв;0.0001
отказ;0.0002
отказаться;0.0001
отказываться;0.0001
открывать;0.0002
открыто;0.0001
открытый;0.00029
отличаться;0.0001
отличие;0.0002
отличительный;0.0001
отличить;0.0001
отличный;0.0002
отложить;0.0002
отменить;0.00029
отметить;0.00049
отмечать;0.0002
относиться;0.0002
отношение;0.00029
отозваться;0.00029
отпатрулировать;0.0001
отправлять;0.0001
отредактировать;0.00029
отрисовать;0.0001
отрицательно;0.0001
отрицательный;0.0002
отрицать;0.0002
отрубать;0.0001
отряд;0.0001
отсеивать;0.0001
отсмотреть;0.0001
отсутствие;0.00029
отсчитывать;0.0002
отсылаться;0.0001
отсылка;0.0002
отхаркивать;0.0001
офицер;0.0001
официально;0.0001
официальный;0.00098
оформление;0.0001
охарактеризовать;0.0001
охота;0.0001
оценить;0.0002
оценка;0.00039
очевидный;0.0002
очень;0.00098
очередной;0.0002
очередь;0.0001
ошибка;0.0002
ошибочно;0.0001
па;0.0001
пайтон;0.00039
пак;0.0001
палата;0.0001
пандервселенная;0.0001
папа;0.0001
пара;0.0001
парадокс;0.0001
параллельно;0.0001
парень;0.0001
парк;0.008
парка;0.00059
паркер;0.00605
пародийно;0.0001
пародийный;0.00059
пародировать;0.00078
пародироваться;0.00049
пародия;0.00146
партия;0.0002
пасха;0.0001
пасхальный;0.0001
патрик;0.0001
патрисия;0.0001
пацан;0.0001
певец;0.0001
педофилия;0.0001
пейзаж;0.0001
пелозить;0.0001
пенис;0.0001
первобытный;0.0001
первоначально;0.00029
первоначальный;0.0001
первый;0.00361
перевести;0.0001
перевод;0.0002
передача;0.0001
переделать;0.0001
переиздание;0.0001
перейти;0.00029
перекладной;0.0001
перенаправляться;0.0001
перенести;0.0001
переноситься;0.0001
переозвучивание;0.0001
перепутать;0.0001
переход;0.0002
переходить;0.0002
перечень;0.0001
перечисление;0.0001
периодически;0.0002
персонаж;0.00527
персональный;0.0001
пертурбация;0.0001
песенка;0.0002
песня;0.00536
песочный;0.0001
петовца;0.0001
петь;0.00195
петься;0.0001
печальный;0.0001
печать;0.0002
пибодить;0.0001
пик;0.0001
пилотный;0.00049
пинбол;0.00039
пингвин;0.0001
пинок;0.0002
пипа;0.0002
пиратский;0.0002
писать;0.00049
письмо;0.00029
питаться;0.0001
план;0.00039
планета;0.0001
планироваться;0.0001
планка;0.0002
пластелиновый;0.0001
пластилиновый;0.0001
платформер;0.0001
платяной;0.0001
плотный;0.0001
плохо;0.0001
плохой;0.00039
по-настоящему;0.0001
по-прежнему;0.0002
по-разному;0.0001
победа;0.0001
победить;0.00039
побить;0.0001
поблагодарить;0.0001
повальный;0.0001
поведение;0.00039
повлиять;0.0001
повод;0.00059
поворот;0.0002
поворотный;0.0001
повторить;0.0001
повторно;0.0002
повторный;0.00029
погибать;0.00029
погибший;0.0001
погоня;0.0001
подавать;0.0001
подарок;0.0002
подать;0.0002
подбородок;0.0001
подвал;0.00029
подведение;0.0001
подвергать;0.0001
подвергаться;0.00029
подвергнуть;0.00029
подвергнуться;0.0002
подводить;0.0001
подводиться;0.0001
поддаваться;0.0002
поддаться;0.0001
поддерживать;0.0002
поддержка;0.00029
подзаголовок;0.0001
подзащитный;0.0001
подкупать;0.0001
поднимать;0.0002
подниматься;0.0001
поднос;0.0001
поднять;0.0001
подобный;0.00049
подозревать;0.0001
подпись;0.0001
подробный;0.0001
подросток;0.0001
подтвердить;0.0001
подумать;0.0001
подчеркнуть;0.0001
поедать;0.0001
пожертвовать;0.0001
пожилой;0.0001
пожирать;0.0001
позволять;0.0001
поздний;0.00107
поздно;0.0001
позиционироваться;0.0001
позиция;0.0002
поиск;0.00039
поймать;0.0001
пока;0.00029
показ;0.00156
показатель;0.0001
показать;0.00166
показной;0.0001
показывать;0.00029
покинуть;0.0001
поклонник;0.0001
поклоняться;0.0001
покойный;0.0001
поколение;0.0001
покончить;0.0002
покупатель;0.0002
пола;0.0001
поле;0.0001
политика;0.00039
политически;0.0001
политический;0.00088
политкорректность;0.0001
полиция;0.0002
полнометражный;0.00156
полностью;0.0002
полноценный;0.0001
полный;0.00039
половина;0.0001
положение;0.0001
положительно;0.0002
положительный;0.0001
полотенчик;0.0002
получать;0.0001
получить;0.00185
польза;0.0001
поменять;0.0001
поменяться;0.0001
пометка;0.0002
помешать;0.0002
помнить;0.0002
помогать;0.0001
помочь;0.00029
помощник;0.0001
помощь;0.00117
поначалу;0.0001
понимать;0.00039
понравиться;0.0001
понять;0.00049
пообщаться;0.0001
поп-культура;0.00059
поп-культурный;0.0001
попадание;0.0001
попадать;0.00029
попасть;0.0001
попробовать;0.0001
попросить;0.0001
попугай;0.0002
популярность;0.00068
популярный;0.00059
попытка;0.00029
пора;0.00068
поражение;0.0001
поровну;0.0002
порождать;0.0001
портфель;0.0001
поручить;0.0001
порядок;0.0001
посвятить;0.00127
посетитель;0.0001
посещать;0.0001
последний;0.00195
последователь;0.0001
последовать;0.00029
послезавтра;0.00029
послужить;0.00039
послушать;0.0001
посмотреть;0.0001
посол;0.00029
пост;0.0001
поставить;0.0002
постепенно;0.0001
постер;0.0001
постмыть;0.0001
постоянно;0.00088
постоянный;0.00059
построение;0.0001
построить;0.0001
постройка;0.0001
поступить;0.0001
поступок;0.00029
потепление;0.00039
потому;0.0001
потявкать;0.0001
похитить;0.0001
похищение;0.0001
поход;0.0001
похоже;0.0001
похожий;0.0002
почти;0.0001
поэтому;0.0002
появиться;0.00059
появление;0.00098
появляться;0.00137
правило;0.00068
правильный;0.0001
правительство;0.00029
править;0.0002
правка;0.0002
право;0.00049
православный;0.0001
праздник;0.0002
празднование;0.0001
прайм-таймовый;0.0001
практически;0.00059
пребывание;0.0001
превратиться;0.0001
предварительный;0.0002
предел;0.0001
предельно;0.0002
предлагать;0.0002
предложение;0.0001
предложить;0.0001
предназначить;0.0002
предполагаться;0.0001
предположение;0.0001
предположительно;0.0001
представать;0.0001
представитель;0.00049
представить;0.00029
представиться;0.0001
представление;0.0001
представлять;0.00039
предыдущий;0.00029
презентация;0.0001
презерватив;0.0001
президент;0.00049
президентский;0.0002
прекращать;0.0001
премия;0.00049
премьера;0.00088
премьерный;0.0001
пренебрежительно;0.0001
преобладать;0.0001
преподавание;0.0001
преподноситься;0.0001
препродаксить;0.0001
прерываться;0.0001
пресс;0.0001
пресс-релиз;0.00029
пресса;0.0002
престижный;0.0001
преступление;0.0001
претендент;0.0001
претендовать;0.0001
претензия;0.0001
претерпеть;0.0001
прибегать;0.0001
привести;0.00029
привлекать;0.0001
привлечь;0.0002
привод;0.0001
приводить;0.00029
привычный;0.0002
пригласить;0.00059
приговариваться;0.0001
приговорить;0.0001
приготовление;0.0001
придать;0.0001
придумать;0.0002
придумывать;0.0001
приезжать;0.0001
призма;0.0001
признак;0.0001
признание;0.0002
призрак;0.0002
призывать;0.0001
прийти;0.0001
приквел;0.0001
приключение;0.00029
прилагаться;0.0002
прилегать;0.0001
применяться;0.0001
пример;0.00176
примерно;0.0002
примечание;0.0002
примитивно;0.0002
примитивность;0.0001
примитивный;0.00029
принадлежать;0.00029
принадлежащий;0.0001
принести;0.0001
принимать;0.00029
принцип;0.0002
принять;0.00029
прирасти;0.0001
природный;0.0001
присоединение;0.0001
приставка;0.0002
присутствовать;0.00059
приходить;0.00049
приходиться;0.0002
прихожанин;0.0001
причина;0.00068
проанализировать;0.0001
проблема;0.00146
проблематика;0.0001
пробрем;0.0001
провалиться;0.0001
проверить;0.0001
проверочный;0.0001
проверять;0.0001
проводить;0.0001
провокационный;0.0002
провоцировать;0.0001
программа;0.00088
прогулка;0.00039
продавец;0.0002
продвижение;0.0001
продемонстрировать;0.0001
продление;0.0001
продлить;0.00029
продолжать;0.0001
продолжаться;0.0002
продолжение;0.00029
продолжительность;0.0001
продукция;0.0001
продюсер;0.00029
проект;0.00039
прозвучать;0.00029
проиграть;0.0002
произведение;0.0001
производиться;0.0001
производство;0.00029
произнесение;0.0001
произнести;0.00049
произносить;0.0002
произноситься;0.0002
произойти;0.00039
происходить;0.00049
происхождение;0.0001
прокат;0.0001
прокуратура;0.0002
промыть;0.0001
проницательный;0.0001
прорисовать;0.0001
прорисовка;0.00029
пророк;0.0001
просить;0.00029
просматривать;0.0001
просмотр;0.00049
простодушный;0.0001
пространство;0.0002
просьба;0.0002
протест;0.00078
протестант;0.0001
протестовать;0.0001
противник;0.0001
противный;0.00029
противоположность;0.0001
противоположный;0.0001
противоречивый;0.0001
противоречие;0.0001
противостоять;0.0001
прототип;0.00059
протяжение;0.0002
профессиональный;0.0001
профессор;0.0002
проходить;0.00039
процесс;0.00049
прочий;0.0001
прошлый;0.0002
прощаться;0.0001
проявляться;0.0001
пруд;0.0001
прямо;0.0002
псевдорекламный;0.0001
псих;0.0001
публика;0.0001
публичный;0.0001
пудинг;0.00029
пуля;0.0001
путать;0.0001
путаться;0.0001
путешественник-педофил;0.0001
путин;0.00039
путь;0.0001
пучок;0.0001
пытать;0.0001
пытаться;0.00137
пэрис;0.00029
пятеро;0.0001
пятидесятник;0.0001
пятый;0.00049
пять;0.0001
работа;0.00107
работать;0.0002
работник;0.0001
раз;0.00156
развивать;0.0001
развитие;0.00029
развлечение;0.0001
разворачиваться;0.0001
разгадать;0.0001
разговор;0.0001
раздел;0.00049
разделить;0.0001
раздумывать;0.0001
различимый;0.0001
различный;0.00029
разместить;0.0001
размещать;0.0001
размещаться;0.0001
размещение;0.0001
размышление;0.0001
разносчик;0.0001
разный;0.00029
разослать;0.0001
разочаровываться;0.0001
разработать;0.0002
разработка;0.0001
разработчик;0.0002
разрешаться;0.0001
разрешение;0.0001
разрешить;0.0001
разрисовывать;0.0001
разрушение;0.0001
разумный;0.0001
рай;0.0002
рак;0.0001
раковый;0.0001
рамка;0.0001
ранее;0.0001
ранний;0.00049
раса;0.0001
расист;0.0001
раскрашивать;0.0001
раскрываться;0.0001
расплатиться;0.0001
расположить;0.00029
распространение;0.0001
распространить;0.00029
рассесть;0.00049
рассказать;0.0002
рассказчик;0.0001
рассказывать;0.00039
рассматриваться;0.0001
рассчитывать;0.0001
расти;0.0001
растить;0.0001
расхожий;0.0001
расшифровка;0.0001
реагировать;0.00039
реакция;0.00029
реалистично;0.0001
реалистичный;0.0001
реальный;0.00088
ребята;0.0002
регулярно;0.0002
редактор;0.00059
редакция;0.00029
редкий;0.00029
редко;0.0001
реднький;0.0001
резко;0.0001
результат;0.00088
рейтинг;0.00078
рейтинговый;0.0001
рейх;0.0001
реклама;0.0001
рекомендовать;0.0001
реконструкция;0.0001
рекорд;0.00029
религиозный;0.0001
религия;0.00039
релиз;0.0002
ремастеринг;0.00029
ремикс;0.0001
ремикшировать;0.0001
репетировать;0.0001
реплика;0.00039
республиканец;0.0001
республиканский;0.0001
ресторанчик;0.0001
ресурс;0.00029
рецензия;0.0001
речь;0.00059
решать;0.0002
решение;0.0001
решить;0.00049
рибо;0.0001
рик;0.00029
рим;0.0001
римский;0.0001
ринопластический;0.0001
рисовать;0.00049
рисунок;0.00039
ритм;0.0002
ричард;0.0002
роберт;0.00029
робин;0.00029
робот-ящер;0.0001
род;0.0002
родитель;0.00059
родительский;0.0001
родиться;0.0001
родственный;0.0001
рожать;0.0001
рождать;0.0001
рождаться;0.0001
рождение;0.0001
рождественский;0.00059
рождество;0.00146
рок;0.0002
рок-группа;0.00039
рок-музыка;0.0001
ролевый;0.0002
ролик;0.00059
роль;0.00088
роман;0.0001
рон;0.0001
российский;0.0001
россия;0.00127
рот;0.0001
ругательство;0.00068
ругаться;0.0001
рука;0.00049
руководитель;0.0001
руководительница;0.0001
руководить;0.0001
руководство;0.0002
рукопашный;0.0001
русалочка;0.0001
русский;0.00039
русскоязычный;0.0001
руссо;0.0001
русый;0.0001
рушить;0.0001
рф;0.0001
рыбка;0.0001
рыбова;0.0001
рыжий;0.0002
рэнди;0.00039
ряд;0.00068
рядом;0.0001
сагет;0.0001
саддам;0.00049
садистский;0.0001
садиться;0.0001
саентолог;0.00029
саентология;0.00068
сайентолог;0.0002
сайентология;0.0002
сайт;0.00244
саламандер;0.0001
салли;0.0001
салливан;0.0001
сам;0.00254
самодовольный;0.0001
самодовольство;0.0001
самоирония;0.0001
самопародия;0.0001
самопроизвольный;0.0001
самоубийство;0.0002
самурай;0.0001
самый;0.00146
сант;0.0001
санта-клаус;0.00039
сатана;0.00029
сатира;0.00049
сатирический;0.0001
саундтрек;0.00039
саус;0.0002
саус-парк;0.00049
саут;0.0001
саут-парк;0.00059
саут-парк-либертарианец;0.0001
саут-парк-республиканец;0.00059
саут-парк-сити;0.0001
саут-парка;0.00107
саха;0.0001
сбор;0.0001
сведение;0.0001
свежий;0.00029
сверхъестественный;0.0001
свидетельствовать;0.0001
свобода;0.0001
свободный;0.00029
своеобразный;0.0001
свой;0.004
сволочь;0.00039
связанный;0.00049
связать;0.0002
связаться;0.0002
связывать;0.0001
связь;0.00029
святой;0.0001
сделать;0.00146
сдохнуть;0.00039
северный;0.0001
сегодня;0.00059
сезон;0.00556
сей;0.0002
сейчас;0.0002
сексуальность;0.0001
сексуальный;0.00029
секунда;0.00039
семья;0.00059
сенат;0.0001
сентябрь;0.01063
сервис;0.0001
сердиться;0.0001
сердце;0.0001
сериал;0.01404
сериальный;0.0001
серия;0.01239
сессия;0.0001
сестра;0.00029
сетевой;0.0001
сеть;0.0002
сеять;0.0001
си;0.0001
сидеть;0.0001
сиквел;0.0001
сильный;0.0001
символизировать;0.0001
символический;0.0001
симпсон;0.00215
синагога;0.0001
сингл;0.00059
синхронизировать;0.0001
система;0.0001
ситком;0.0001
ситуация;0.00068
сказать;0.00088
скандал;0.00029
скандальный;0.0002
сканировать;0.0001
скат;0.00029
скачать;0.0002
скачивание;0.00039
скептик;0.0001
скетч;0.00039
скитереть;0.0001
склонность;0.0001
склонять;0.0001
сколько;0.0001
скорость;0.0001
скотт;0.00039
скромный;0.0001
скрытый;0.0002
скуби-д;0.0002
слава;0.0001
славиться;0.0001
славный;0.0002
слегка;0.0001
следить;0.0002
следствие;0.0001
следующий;0.00029
слететь;0.0001
слишком;0.0002
словарь;0.0001
слово;0.00293
сложный;0.00039
служба;0.0001
служебный;0.0001
служить;0.0002
слух;0.0001
случай;0.00117
случайный;0.0001
случаться;0.0001
смена;0.0001
сменить;0.0001
сменяться;0.0001
смерть;0.00117
смех;0.0001
смешить;0.0001
смешно;0.0001
смешной;0.0002
смеяться;0.0002
сми;0.0001
смит;0.00039
смотреть;0.00059
смысл;0.0002
смысловой;0.0001
смятение;0.0001
сначала;0.00029
снеговик;0.0001
снежно;0.0001
снимать;0.0002
сниматься;0.0001
снова;0.0002
снятой;0.0001
снять;0.0002
сняться;0.0001
собирать;0.0001
собираться;0.00029
соблюдение;0.0001
собрание;0.0001
собрать;0.0002
собственный;0.00049
событие;0.00068
совершать;0.0002
совершенно;0.00039
совет;0.0002
современный;0.0001
совсем;0.0001
согласный;0.0001
соглашаться;0.0001
соглашение;0.0001
содержание;0.00059
содержать;0.00059
создавать;0.0002
создаваться;0.0001
создание;0.00078
создатель;0.00302
создать;0.00068
сондхейм;0.0001
соображение;0.0001
сообщество;0.0002
сообщить;0.0001
соответствие;0.00029
соответствовать;0.00039
соперник;0.0001
сопоставимый;0.0001
сопровождать;0.0001
сопровождаться;0.0002
сопутствовать;0.00039
сортирный;0.0002
сосед;0.0001
сосновый;0.0001
составлять;0.0002
состоять;0.00029
состояться;0.00059
соул;0.0001
сохранение;0.0001
сохранить;0.0001
сохраняться;0.0001
социальный;0.0002
социопатический;0.0001
сочетать;0.0002
сочиняться;0.0001
спарка;0.0001
спародировать;0.00098
спасать;0.0001
спасти;0.0001
спауна;0.0001
сперма;0.0001
спецагент;0.0001
спецвыпуск;0.0001
специально;0.00039
специальный;0.00049
спецэффект;0.0001
спикер;0.0001
спилберг;0.00029
списать;0.0001
список;0.00185
спорный;0.00049
способ;0.00029
способность;0.0002
способный;0.00029
справка;0.0001
сравнение;0.00029
сравнивать;0.0001
сравниваться;0.0001
сражаться;0.0001
среда;0.0001
среднее;0.00039
средний;0.0001
српски;0.0001
српскохрватски;0.0001
ссылка;0.00156
стабильный;0.0001
стадия;0.0001
сталкер;0.0001
стандарт;0.0001
стандартный;0.0002
становиться;0.00039
станция;0.0002
стараться;0.0002
старков;0.0001
стартовать;0.0002
статистика;0.0001
статуя;0.0001
стать;0.00351
статья;0.00254
стволовой;0.0001
стейк;0.0001
стена;0.00039
степень;0.0002
стереотип;0.00215
стереотипный;0.00068
стив;0.00039
стивен;0.0002
стивенс;0.0002
стилизация;0.0001
стилистика;0.00039
стиль;0.00127
стонать;0.0001
сторона;0.00078
стотч;0.00029
стоун;0.00575
стоф;0.00059
стоящий;0.0001
страдать;0.0001
стражинский;0.0001
страммера;0.0001
страна;0.0002
страница;0.00088
странный;0.0001
страсть;0.00059
стратегия;0.0001
страус;0.0001
страшный;0.0002
стрейзанда;0.00029
стриминговый;0.0002
строгий;0.0001
строить;0.0002
строка;0.0002
строчка;0.00029
струсить;0.0001
струтерс;0.0001
студент;0.0001
студия;0.0002
стэн;0.00273
стэнли;0.00029
стюарт;0.00029
субъективный;0.0001
суд;0.0002
судебный;0.00029
судить;0.0001
суза;0.0001
сука;0.0001
сумасшедший;0.0002
суперзлодей;0.0002
суперхороший;0.00049
существенно;0.0001
существенный;0.0002
существование;0.0001
существовать;0.00059
сущность;0.0001
сформировать;0.0001
схожий;0.0001
сцена;0.00107
сценарий;0.00049
сценарист;0.00039
сценка;0.00068
сценка-интро;0.0001
счастливый;0.0001
счесть;0.00029
считать;0.00078
сша;0.00205
сыграть;0.0001
сын;0.00029
сэмюэль;0.0001
сюда;0.0002
сюжет;0.00088
сюжетный;0.0001
табличка;0.0001
табу;0.0002
таймс;0.0001
так;0.0002
такой;0.00117
талант;0.0001
там;0.0001
танец;0.0001
танцевать;0.0001
тараторить;0.0001
татарча;0.0001
тв-цитата;0.0001
тварь;0.0001
твика;0.0002
твиттер;0.0001
твой;0.00039
творческий;0.0001
творчество;0.0001
театр;0.0001
театральный;0.0001
текст;0.00029
текущий;0.00029
телевидение;0.00078
телевизионный;0.0001
телеканал;0.00185
телепат;0.0001
телесериал;0.00049
телесериал-ситком;0.0001
телефон;0.0002
телешоу;0.00029
тело;0.0001
телосложение;0.0001
тема;0.00156
тематика;0.0002
тематический;0.0001
тенорман;0.0002
тень;0.0002
теодор;0.0002
теперь;0.0001
термин;0.00039
терпение;0.0001
терренс;0.00088
терри;0.00039
территория;0.0001
терроризм;0.0001
терять;0.0001
тестабургер;0.0001
техника;0.0001
технический;0.0001
технология;0.0001
течение;0.00029
тимми;0.00059
тимми-тимми;0.0001
тина;0.0002
типичный;0.0002
тито;0.0001
титр;0.00156
товар;0.0001
товарный;0.0001
тодди;0.0001
токен;0.00059
толерантность;0.0001
толлмена;0.0001
толстой;0.0001
только;0.00117
том;0.00029
томас;0.0001
тони;0.0002
торчать;0.0001
тот;0.00673
точка;0.00029
точно;0.0001
точность;0.0001
тошнить;0.0001
траволта;0.00029
трамп;0.0001
трансляция;0.00039
транссексуал;0.0001
требовать;0.0002
трезвомыслящий;0.0001
трей;0.00234
трейлер;0.0001
трек;0.0001
третий;0.00078
треть;0.0001
три;0.00049
трижды;0.0001
трилогия;0.00039
троица;0.0001
тройка;0.0001
тройной;0.0001
трудотерапия;0.0001
трус;0.0001
трындяйкин;0.0001
туалетный;0.0001
туда;0.0002
туонг;0.0002
тупой;0.00059
тыл;0.0001
убеждение;0.0002
убивать;0.0002
убийство;0.00039
убить;0.00117
ублюдок;0.0001
убор;0.0001
убрать;0.0001
уважать;0.0001
уверить;0.0001
увидеть;0.00029
увольнять;0.0001
уговаривать;0.0001
угрожать;0.0002
угроза;0.0001
удалить;0.0001
ударный;0.0001
удачный;0.0001
удмурт;0.0001
удостоиться;0.0001
ужасный;0.0002
уже;0.00059
узнавать;0.0001
узнать;0.00049
узнаться;0.0001
уиллерт;0.0001
уильям;0.0001
уильямс;0.0001
уйти;0.0001
указание;0.0002
указать;0.00039
украина;0.00029
украинский;0.0001
улетать;0.0001
уличить;0.0001
уловить;0.0001
уменьшиться;0.0001
умереть;0.00039
умерший;0.0001
уметь;0.0002
умирать;0.0001
умный;0.0001
университет;0.0001
унижение;0.0001
уничижительный;0.0001
уолтерс;0.0001
упираться;0.0001
упоминание;0.0002
упоминаться;0.0002
упомянуть;0.00029
упорствовать;0.0001
управлять;0.0002
ураган;0.0001
уровень;0.0001
уродливость;0.0001
уродливый;0.0001
урок;0.0001
ус-парк;0.0001
усилие;0.0001
условие;0.00029
условный;0.0001
услышать;0.0002
усмотреть;0.0001
успеть;0.0001
успех;0.00039
успешный;0.0002
устраивать;0.0001
усугубляться;0.0001
ут-парк;0.0001
утвердить;0.0001
утверждать;0.00049
утверждаться;0.0001
утверждение;0.0001
уточнение;0.0001
утратить;0.0001
уход;0.0002
участвовать;0.0001
участие;0.00117
участник;0.00049
участница;0.0001
ученик;0.0002
учитель;0.0001
учиться;0.00029
ф;0.0001
фальшивый;0.0001
фан-сайт;0.0002
фанат;0.00029
фанатик-извращенец;0.0001
фанатский;0.0001
фантазия;0.0001
фауна;0.0001
февраль;0.00029
феномен;0.0001
фестиваль;0.0002
фиггиса;0.0001
фигура;0.0001
фигурировать;0.0001
фигурист;0.0001
фигурка;0.0002
фил;0.0002
филиппины;0.0001
филлипа;0.00088
философ;0.0001
философский;0.00029
фильм;0.00761
финал;0.00049
финальный;0.00068
финн;0.0001
фирменный;0.0001
флаг;0.0002
флот;0.0001
фокса;0.0001
фоля;0.0001
фон;0.00029
фонд;0.0001
фоновый;0.00029
форма;0.0001
формат;0.00029
формирование;0.0001
форум;0.0001
фостер;0.0001
фото;0.0001
фотография;0.0002
фрагмент;0.00088
фрадков;0.0001
фраза;0.00107
француз;0.0001
франшиза;0.0001
фрость;0.0001
фрэнк;0.0001
футболка;0.0001
футурам;0.0002
фэрплей;0.0002
фэрплэя;0.0001
хаббарда;0.0001
хаос;0.00029
характер;0.00029
характеризоваться;0.0001
характеристика;0.0001
характерный;0.00107
хартманный;0.0001
хатт;0.0001
хауэлла;0.00029
хвалить;0.0001
хейза;0.00117
хейс;0.0001
хелен;0.0001
хенстридж;0.0001
хилтон;0.00029
хиппи;0.0002
хипповский;0.0001
хит;0.0001
ход;0.00049
ходить;0.0001
хождение;0.0001
хозяин;0.0001
хоккейный;0.0001
хор;0.0001
хороший;0.00195
хорошо;0.0001
хота-дог;0.0001
хотеть;0.0001
хоуэлла;0.0001
хоуэллом;0.0001
храбрый;0.0001
христианский;0.00059
христианство;0.0002
христов;0.00029
христос;0.00039
хронология;0.0001
художник-постановщик;0.0001
хусейн;0.00049
хэллоуин;0.0002
хэнка;0.0002
хэнли;0.00029
хэнсный;0.0002
царь;0.0001
цвет;0.0002
цвета;0.0001
цветной;0.00039
целое;0.00068
целый;0.00049
цель;0.00039
цензура;0.00156
центавро;0.0001
церемония;0.00059
церковь;0.0002
циничный;0.0001
цирк;0.0002
цитата;0.0002
цитировать;0.0001
цой;0.0001
цыпочка;0.0001
чай;0.0001
чан;0.0001
чарли;0.0001
чарт;0.0001
час;0.00039
частично;0.0001
частность;0.00088
часто;0.00166
частый;0.0002
часть;0.00166
чат;0.00029
чей;0.0001
чей-то;0.0001
челмедведосвина;0.0002
человек;0.00195
человечество;0.0001
чемпионат;0.0002
червь;0.0001
чернобыль;0.0001
чернокожий;0.0001
черта;0.00039
честь;0.0002
четверо;0.0001
четмэн;0.0002
четыре;0.00039
чикаго;0.0001
чинпокомон;0.0001
число;0.00059
читатель;0.0002
читать;0.0002
член;0.00029
чрезвычайно;0.0001
чрезмерно;0.0001
чрезмерный;0.00039
что-то;0.0002
чубакка;0.0002
чубакки;0.00107
чувствительный;0.0001
чувство;0.00039
чудесный;0.0001
чудище;0.0001
чудовище;0.0002
чудовищный;0.0001
чуждый;0.0001
чулан;0.00078
чуть;0.0001
шаблон;0.0001
шайво;0.0001
шанс;0.0001
шварц;0.0001
швейцар;0.0001
шейла;0.00029
шеймана;0.0001
шелли;0.0001
шемрок;0.0001
шерон;0.00029
шестой;0.00039
шесть;0.0002
шеф;0.00244
шефский;0.00039
шикарна-о;0.0001
широкий;0.00029
широко;0.0001
шкаф;0.0001
школа;0.00039
школьный;0.00039
шлем;0.0001
шлюха;0.00049
шляпа;0.00039
шнайдер;0.0002
шокировать;0.0001
шоколадный;0.0002
шоу;0.00302
шоу-бизнес;0.0002
шрифт;0.0002
штаны;0.0001
штат;0.00029
шумиха;0.0001
шутереть;0.0001
шутка;0.00098
шуточный;0.0001
эвок;0.0001
эвфемизм;0.0001
эго;0.0001
эдриан;0.0001
эдриена;0.0002
эйприл;0.00029
эколог;0.0001
экология;0.00029
экран;0.00039
эксперимент;0.0001
экспорт;0.0001
экстремизм;0.0001
экстремистский;0.0001
эл-гомосечь;0.0002
электрогитара;0.0001
элемент;0.00039
элиза;0.0002
эллис;0.0001
элтон;0.0001
эмбрион;0.0001
эмми;0.00049
эмоциональный;0.0001
энг;0.0001
эндора;0.0001
эндрю;0.0001
энистон;0.0002
энн;0.0001
энциклопедия;0.0002
эпизод;0.01619
эпизодический;0.0002
эпитет;0.0001
эрик;0.00215
эрина;0.0001
эрих;0.0001
эссе;0.0001
этап;0.00029
этичный;0.0001
этнический;0.0001
этот;0.00536
эфир;0.0001
эффект;0.0002
ю;0.0001
южный;0.00771
юлия;0.0001
юмор;0.00107
юмористический;0.00029
юридический;0.0001
юрист;0.0001
явление;0.0001
являться;0.00419
явный;0.0002
язык;0.00049
яйцо;0.00039
яковозавр;0.0001
январь;0.00098
яп;0.0001
японец;0.00049
япония;0.0001
яркий;0.00029
ярлык;0.0001
ярый;0.0002
