ааа-фредди;0.00042
август;0.00042
автор;0.00042
авторство;0.00042
агрегатор;0.00042
адаптация;0.00042
активный;0.00042
александр;0.00042
аллигатор;0.00042
алфавит;0.00083
амер;0.0025
американский;0.00042
англ;0.00624
английский;0.00042
андрей;0.00166
аниматроник;0.00458
аниматроника;0.00083
анонс;0.00166
анонсировать;0.00042
антагонист;0.00042
апрель;0.00541
ар;0.00042
архивировать;0.02164
ассистент;0.00042
атмосфера;0.00083
аттракцион;0.00042
афтон;0.00042
балл;0.00042
банан-сплитс;0.00042
безграничный;0.00042
безопасность;0.00208
безопасный;0.00042
бен;0.00125
бесплатный;0.00125
беспрепятственно;0.00042
библиотека;0.00042
битва;0.00042
благотворительный;0.00042
близость;0.00042
боезапас;0.00042
более;0.00166
больший;0.00083
большой;0.00166
бразильский;0.00042
британский;0.00083
брюлька;0.00166
булавка;0.00042
български;0.00042
быть;0.00874
бюджет;0.00042
валовый;0.00042
ванеес;0.00042
ванесса;0.00583
ванни;0.00208
ваш;0.00042
вентиляция;0.00042
версия;0.00166
весь;0.00166
вечеринка;0.00083
вид;0.00042
видеоигра;0.00042
видеокарта;0.00042
видеонаблюдение;0.00042
визуальный;0.00166
викидать;0.00042
викимедиа;0.00042
википедия;0.00291
вилис;0.00042
вилли;0.00042
виниловый;0.00042
виртуальный;0.00083
вклад;0.00042
властвовать;0.00042
вместе;0.00125
внешний;0.00042
внимание;0.00042
возвращаться;0.00042
возглавить;0.00042
возможность;0.00042
вознаграждение;0.00125
возникать;0.00042
войти;0.00083
волчица;0.00042
восемь;0.00042
воспитатель;0.00042
воспитатель-луна;0.00042
воссоединяться;0.00042
восход;0.00042
восьмой;0.00042
впервые;0.00042
враг;0.00042
враждебный;0.00083
время;0.00291
вскоре;0.00083
встретиться;0.00083
встречать;0.00125
всячески;0.00042
второе;0.00042
второй;0.00208
входить;0.00042
выбираться;0.00042
выбор;0.00042
выбраться;0.00042
вывести;0.00042
выводить;0.00042
выдвигать;0.00042
выжить;0.00042
вызвать;0.00042
выйти;0.00042
вынуждать;0.00042
выпуск;0.00166
выпустить;0.00333
выручка;0.00166
высвободиться;0.00042
высокий;0.00125
выступление;0.00042
выход;0.00291
выше;0.00042
выяснять;0.00042
галлюцинация;0.00042
где;0.0025
гейминг;0.00083
геймпада;0.00042
геймплей;0.00125
геймплейный;0.00042
генератор;0.00042
героиня;0.00042
герой;0.00083
главный;0.00125
глаз;0.00083
глушитель;0.00042
глэм-рок;0.00042
глэмрок;0.00083
глэмрок-аниматроника;0.00042
глэмрок-салон;0.00042
говорить;0.00042
год;0.03371
голос;0.00125
гонка;0.00166
графика;0.00042
грегори;0.01581
грядущий;0.00042
давать;0.00083
дальнейший;0.00042
данный;0.00042
дата;0.02455
дать;0.00042
два;0.00042
дверь;0.00083
движок;0.00125
двойник;0.00042
двусторонний;0.00042
дебютировать;0.00042
девочка;0.00042
действие;0.00166
действовать;0.00042
декабрь;0.01082
декабрьский;0.00042
делать;0.00042
день;0.00042
десятка;0.00125
деталь;0.00042
детский;0.00125
дизайнер;0.00042
дистрибуция;0.00042
дмитрий;0.00042
добраться;0.00083
доверять;0.00042
дожить;0.00042
докинза;0.00042
должный;0.00125
доминировать;0.00042
дополнение;0.00166
дополнительный;0.00083
допрос;0.00042
достигнуть;0.00042
достижение;0.00042
доступ;0.00083
доступный;0.00042
другой;0.0025
дружелюбный;0.00042
екатерина;0.00042
есть;0.00083
жанр;0.00125
женщина;0.00042
живот;0.00083
жуткий;0.00042
забетонировать;0.00042
забросить;0.00042
завал;0.00083
завершить;0.00042
зависеть;0.00125
заглавный;0.00042
заглушить;0.00042
загружать;0.00166
загрузка;0.00042
закончиться;0.00042
закрытый;0.00042
заманить;0.00042
замечать;0.00042
замкнуть;0.00042
занять;0.00042
западный;0.00042
запереть;0.00042
запирать;0.00042
записать;0.00042
запись;0.00083
заплатить;0.00042
зарегистрировать;0.00042
засада;0.00042
застревать;0.00042
затем;0.00042
затмение;0.00042
заходить;0.00042
защита;0.00042
заявить;0.00083
заявление;0.00042
заявлять;0.00125
землетрясение;0.00042
злой;0.00042
знак;0.00042
значительный;0.00042
зона;0.00042
игра;0.02913
игровой;0.00333
игрок;0.00624
игромания;0.00083
иероглиф;0.00042
избегать;0.00083
избранный;0.00042
известно;0.00083
известный;0.00042
издание;0.00208
издатель;0.00042
изменение;0.00042
изменить;0.00042
изображение;0.00042
иллюзия;0.00042
именовать;0.00042
имитатор;0.0025
имя;0.00125
индустрия;0.00042
иноязычный;0.00042
инструмент;0.00125
инструментарий;0.00042
интеллект;0.00042
интерфейс;0.00042
искать;0.00042
искусственный;0.00042
испанский;0.00083
использование;0.00083
использовать;0.00083
исправить;0.00042
исследование;0.00042
исследовать;0.00208
история;0.00042
источник;0.00042
итальянский;0.00042
июль;0.00333
июнь;0.00375
каждый;0.00083
какой-либо;0.00042
камера;0.00042
канадский;0.00042
канал;0.00042
карта;0.00042
категория;0.00125
качество;0.00083
квест;0.00042
кенчхон;0.00042
китайский;0.00042
клавиатура;0.00042
книга;0.00042
ковш;0.00042
код;0.00541
кодекс;0.00042
коллекционный;0.00125
команда;0.00166
комната;0.00083
комнатный;0.00042
компакт-диск;0.00042
компания;0.00166
компенсация;0.00042
комплекс;0.00333
компьютер;0.00042
компьютерный;0.00375
конец;0.0025
консоль;0.00208
контекст;0.00042
контент;0.00083
конфиденциальность;0.00042
концовка;0.00458
корейский;0.00083
коробка;0.00042
короткий;0.00042
косплей;0.00042
костюм;0.00042
который;0.00999
коутон;0.0025
красивый;0.00042
критерий;0.00042
критик;0.00125
критика;0.00166
критиковать;0.00125
критичный;0.00042
кролик;0.00208
крошоу;0.00208
крупный;0.00042
кук;0.00042
кулешов;0.00042
курица;0.00042
кэсся;0.0104
лазерный;0.00042
латиноамериканский;0.00042
лежать;0.00042
лидировать;0.00042
лина;0.00083
линейка;0.00042
линия;0.00083
лифт;0.00125
лицензия;0.00083
лицо;0.00083
личность;0.00083
ловушка;0.00042
локация;0.00083
лоскутный;0.00042
луна;0.00125
льюис;0.00042
магнит;0.00042
май;0.00666
майк;0.00083
маковей;0.00125
маленький;0.00083
мальчик;0.0025
мальчишка;0.00042
март;0.00375
маршрут;0.00042
маска;0.00208
масштабирование;0.00042
материал;0.00042
машина;0.00042
мег;0.00291
медведь;0.00125
медиа;0.00042
менее;0.00042
место;0.00166
местонахождение;0.00042
механик;0.00042
мешать;0.00042
милосердно;0.00042
мина;0.00083
мини-фигурка;0.00042
мир;0.00042
многочисленный;0.00083
мобильный;0.00042
модернизация;0.00042
можно;0.00042
монтгомери;0.00042
мочь;0.00499
мощный;0.00042
мышь;0.00042
н;0.00166
наблюдение;0.00042
набор;0.00042
навигация;0.00125
награда;0.00083
надевание;0.00042
название;0.00083
назвать;0.00166
найти;0.00166
намекнуть;0.00042
наносить;0.00042
нападать;0.00083
направляться;0.00042
наручный;0.00042
нарушение;0.00042
настоящий;0.00042
настройка;0.00042
наступать;0.00042
находить;0.00166
находиться;0.00083
начало;0.00042
начинать;0.00042
неделя;0.00166
независимый;0.00042
неизвестный;0.00042
неисправность;0.00042
нейросетевой;0.00042
некоммерческий;0.00042
некоторый;0.00042
немецкий;0.00042
немой;0.00042
необходимо;0.00042
неограниченный;0.00042
неожиданно;0.00042
неожиданный;0.00042
несколько;0.00083
нет;0.00042
ник;0.00042
николай;0.00083
новаторский;0.00042
новинка;0.00083
новый;0.00291
носитель;0.00042
ноутбук;0.00042
ночной;0.00125
ночь;0.00208
ноябрь;0.01457
нужно;0.00042
область;0.00042
облачный;0.00083
обнаруживать;0.00042
обновить;0.00042
обратить;0.00042
обратиться;0.00042
обратно;0.00042
обращение;0.02164
обсуждение;0.00083
общаться;0.00042
объявить;0.0025
объяснить;0.00042
оглушать;0.00042
ограничение;0.00083
огромный;0.00042
один;0.00208
однопользовательский;0.00083
оказаться;0.00042
октябрь;0.00499
онлайн;0.00042
описание;0.00042
опрокидывание;0.00042
оптимизация;0.00083
опубликовать;0.00083
опуститься;0.00042
организация;0.00042
оригинал;0.00125
осень;0.00042
ослушаться;0.00083
осмотр;0.00042
основать;0.00042
основной;0.00042
основный;0.00166
особенно;0.00042
остановить;0.00083
остаток;0.00042
осторожность;0.00042
отбиваться;0.00042
ответвление;0.00083
ответственность;0.00042
отвлекать;0.00042
отдельный;0.00042
отзыв;0.00166
отказ;0.00042
откладываться;0.00083
отключать;0.00208
отключаться;0.00083
отключение;0.00042
отключить;0.00083
открываться;0.00042
открытый;0.00042
открыться;0.00042
отличие;0.00083
отложить;0.00042
отметить;0.00042
отмечать;0.00166
отпатрулировать;0.00042
отпугивать;0.00042
отпускать;0.00042
отредактировать;0.00042
отсек;0.00042
отсутствие;0.00042
оттуда;0.00083
отшучиваться;0.00042
официально;0.00042
официальный;0.00166
оформление;0.00083
охота;0.00042
охотиться;0.00083
охранник;0.00042
охранница;0.00208
оценить;0.00083
оценка;0.00125
ошибка;0.00042
падать;0.00042
память;0.00042
пандемия;0.00042
партия;0.00042
патч;0.00042
первый;0.00333
передавать;0.00042
передать;0.00042
пережить;0.00042
перезагрузка;0.00042
перейти;0.00083
перемещаться;0.00125
переработать;0.00042
персонаж;0.00042
персональный;0.00042
печать;0.00083
пиковый;0.00042
питание;0.00042
пиццаплекс;0.00375
пиццерия;0.00083
пк;0.00042
пк-версия;0.00042
плакат;0.00042
план;0.00042
планироваться;0.00042
платформа;0.00125
плохой;0.00042
площадка;0.00042
плюшевый;0.00042
победить;0.00042
побеждать;0.00042
поведение;0.00042
повторяться;0.00042
подвал;0.00083
подвергнуться;0.00042
подделать;0.00042
поддерживать;0.00125
поддержка;0.00083
подзаряжать;0.00042
подразделение;0.00042
подробный;0.00042
подряд;0.00042
подходить;0.00042
пожертвовать;0.00042
позволять;0.00042
поздний;0.00083
поиск;0.00125
пока;0.00042
показать;0.00083
покидать;0.00042
покинуть;0.00083
политика;0.00042
полномасштабный;0.00042
полностью;0.00083
полный;0.00042
положительно;0.00083
получать;0.00042
получение;0.00125
получить;0.00291
пользоваться;0.00042
помогать;0.00042
помочь;0.00083
помощь;0.00416
понизить;0.00042
попадать;0.00042
попасть;0.00291
попасться;0.00083
портирование;0.00083
портировать;0.00042
португальский;0.00042
последний;0.00208
последующий;0.00083
постоянно;0.00042
постоянный;0.00042
построить;0.00083
посчитать;0.00042
потом;0.00042
потребовать;0.00042
похвалить;0.00125
почему;0.00042
почти;0.00083
появиться;0.00083
появляться;0.00042
правильный;0.00042
править;0.01165
правка;0.00125
право;0.00042
праздничный;0.00042
пребывание;0.00042
превращаться;0.00042
предмет;0.00083
представить;0.00042
представиться;0.00042
представлять;0.00083
предыдущий;0.00083
презентация;0.00208
препятствовать;0.00042
прерыватель;0.00042
претерпеть;0.00042
приводить;0.00042
признать;0.00083
призывать;0.00083
прийтись;0.00042
приказ;0.00042
приказывать;0.00042
приложение;0.00042
примечание;0.00083
принцесса;0.00042
принять;0.00042
присекина;0.00291
присутствовать;0.00042
приходить;0.00042
пробираться;0.00042
проблема;0.00125
программа;0.00042
продавать;0.00083
продажа;0.00375
продвигаться;0.00042
продолжать;0.00083
продолжение;0.00125
продолжить;0.00042
проект;0.00125
производительность;0.00042
прокладывать;0.00042
проприетарный;0.00042
пропуск;0.00042
просить;0.00125
просмотр;0.00042
пространство;0.00042
просыпаться;0.00042
просьба;0.00042
противник;0.00083
прототипирование;0.00042
протяжение;0.00042
проход;0.00042
проходить;0.00125
проходняк;0.00042
процесс;0.0025
прямой;0.00042
прятаться;0.00125
психотерапевт;0.00042
пытаться;0.00166
пять;0.00125
раз;0.00083
разбивать;0.00042
разбирать;0.00042
развлекательный;0.00042
разговор;0.00042
раздел;0.00042
различный;0.00042
размер;0.00042
разногласие;0.00042
разный;0.00083
разработать;0.00208
разработка;0.00166
разработчик;0.00291
разрушить;0.00166
рамка;0.00042
ранее;0.00042
ранний;0.00042
раскритиковать;0.00042
раскрываться;0.00042
раскрыть;0.00042
растение;0.00042
рация;0.00125
реальность;0.00042
регион;0.00042
режим;0.00125
резервный;0.00042
результат;0.00083
рейтинг;0.00042
рейтрейсинг;0.00042
релиз;0.00125
ремонтировать;0.00042
ренат;0.00042
республиканский;0.00042
ресурс;0.00042
рецензент;0.00083
рецензия;0.00042
решать;0.00042
робот;0.00083
роботам-служащий;0.00042
розничный;0.00042
роксанна;0.00042
роксить;0.00375
роль;0.00042
российский;0.00042
рубль;0.00042
рудь;0.00042
руслан;0.00291
русло;0.00042
русский;0.00083
русскоязычный;0.00083
русый;0.00291
рюкзак;0.00042
рядом;0.00042
сад;0.00208
садык;0.00042
сайт;0.00291
сайт-агрегатор;0.00042
сам;0.00042
самый;0.00333
саундтрек;0.00042
сбегать;0.00042
сбежать;0.00042
сбой;0.00042
сведение;0.00042
свежий;0.00042
свернуть;0.00042
свобода;0.00042
свободно;0.00083
свободный;0.00042
сводиться;0.00042
сводный;0.00042
свой;0.00125
связанный;0.00042
связаться;0.00042
связываться;0.00083
сдерживаться;0.00042
сегмент;0.00042
сентябрь;0.00375
сервер;0.00042
сервис;0.00042
серия;0.00208
сеть;0.00042
сигнал;0.00042
система;0.00166
скачать;0.00083
скачивать;0.00042
скорич;0.00083
скотт;0.00291
скримера;0.00042
скриншот;0.00042
скриптинг;0.00042
скрытый;0.00042
слабый;0.00042
следующий;0.00208
слежка;0.00042
слишком;0.00042
сложность;0.00042
сложный;0.00042
служба;0.00042
служебный;0.00042
случай;0.00083
случайно;0.00042
случайный;0.00042
случаться;0.00042
смешанный;0.00083
смотреть;0.00083
смочь;0.00042
снизить;0.00042
собственный;0.00042
событие;0.00083
содержание;0.00083
содержать;0.00042
создатель;0.00042
создать;0.00042
солнце;0.00166
сообщать;0.00042
сообщение;0.00083
сообщество;0.00042
сообщить;0.00083
состояться;0.00083
сохранение;0.00042
сохранить;0.00042
сохранять;0.00042
спасать;0.00042
спасти;0.00083
спин-офф;0.00125
список;0.00125
спорт;0.00042
справка;0.00042
справлять;0.00042
спрашивать;0.00042
спрятаться;0.00042
спускаться;0.00083
сравнение;0.00042
срок;0.00042
ссылка;0.0025
стабильный;0.00042
сталкиваться;0.00042
старый;0.00042
статистика;0.00042
статуэтка;0.00042
стать;0.00208
статья;0.00291
стафф-бот;0.00042
стена;0.00125
стилбук;0.00042
стилизовать;0.00042
стоимость;0.00042
стоить;0.00042
столкнуться;0.00042
сторона;0.00125
страна;0.00042
страница;0.0025
страх;0.00042
строчка;0.00042
стычка;0.00042
судьба;0.00042
сумма;0.00042
схватить;0.00042
схожий;0.00042
сша;0.00083
сюда;0.00042
сюжет;0.00208
сюжетный;0.00042
тайный;0.00042
такой;0.00042
талисман;0.00125
твит;0.00083
твиттер;0.00083
текст;0.00042
текущий;0.00083
тематический;0.00042
теперь;0.00083
технический;0.00208
технология;0.00083
тизер;0.00042
товар;0.00083
товарный;0.00042
только;0.00166
торговый;0.00541
тортовый;0.00042
тот;0.00333
традиционный;0.00042
трансляция;0.00042
требование;0.00042
трейлер;0.00125
третий;0.00166
три;0.00083
тринадцатый;0.00042
тройка;0.00042
тыс;0.00042
тысяча;0.00042
убедиться;0.00042
убить;0.00042
увидеть;0.00042
удаваться;0.00125
удерживаться;0.00042
уже;0.00083
узел;0.00166
узнавать;0.00208
уильям;0.00042
уйти;0.00042
указание;0.00166
указать;0.00042
указывать;0.00083
улучшение;0.00042
уничтожить;0.00083
управление;0.00042
управляемый;0.00042
управлять;0.00083
упрощение;0.00042
уровень;0.00083
усилие;0.00042
условие;0.00125
успевать;0.00042
успешно;0.00042
успешный;0.00083
установить;0.00042
устроить;0.00042
уступить;0.00042
утро;0.00208
уход;0.00083
участие;0.00042
ущерб;0.00042
фаз-камера;0.00042
фаз-часы;0.00042
фазбер;0.00333
фазбер-ключ;0.00042
фазер-бласт;0.00042
фазер-бластер;0.00042
фанат;0.00042
февраль;0.0129
фетхи;0.00083
фигурка;0.00125
финальный;0.00083
фонд;0.00042
формула;0.00042
форум;0.00042
фр;0.00042
французский;0.00083
франшиза;0.00208
фредди;0.01082
хороший;0.00333
хоррор;0.00083
хоррор-момент;0.00042
хотеть;0.00042
хэлп-и;0.00125
целое;0.00042
цель;0.00042
цена;0.00083
ценник;0.00042
центр;0.00624
цитировать;0.00042
цифровой;0.00042
чарт;0.00416
час;0.00166
часть;0.0025
человек;0.00083
чик;0.00042
чинить;0.00042
число;0.00042
читать;0.00042
чудо;0.00042
швец;0.00042
шестиполосный;0.00042
шестой;0.00042
шесть;0.00208
штурмовать;0.00042
шутер;0.00042
экзоскелет;0.00042
экранизация;0.00042
экспорт;0.00042
электричество;0.00042
элемент;0.00125
эндоскелет;0.00042
энергия;0.00042
энциклопедия;0.00042
этот;0.00166
эффект;0.00042
ютубер;0.00042
являться;0.0025
язык;0.00166
январский;0.00042
январь;0.01165
японский;0.00042
