август;0.00103
авторство;0.00051
академия;0.00051
акварель;0.00103
аккуратный;0.00051
александ;0.00051
алфавит;0.00103
альбер;0.00051
альпы;0.00051
американский;0.00103
англ;0.00103
андре;0.00051
анна;0.00051
анри;0.00103
антология;0.00051
апрель;0.00154
арестовать;0.00051
архивировать;0.00462
атлантический;0.00051
бакст;0.00051
балет;0.00154
балетмейстер;0.00051
баррейро;0.00051
беглов;0.00154
бегловой;0.00051
беженец;0.00051
безвоздушный;0.00051
белый;0.00103
бельгийский;0.00051
бенуа;0.00051
биарицца;0.00051
биаррица;0.00051
библиографический;0.00051
библиография;0.00103
биографический;0.00103
биография;0.00103
блеск;0.00051
блестящий;0.00051
близкие;0.00051
близкий;0.00103
более;0.00103
болезнь;0.00051
больший;0.00103
большой;0.00154
босоль;0.00051
брак;0.00103
брат;0.00103
братский;0.00051
брать;0.00051
браться;0.00051
бретань;0.00051
бывать;0.00154
бывший;0.00051
бытовой;0.00051
быть;0.01796
важный;0.00051
вдова;0.00051
вдохновение;0.00051
век;0.00051
великий;0.00051
венеция;0.00051
вера;0.00051
вернер;0.00051
вернуться;0.00051
версия;0.00154
весь;0.00308
вещь;0.00051
видеть;0.00103
визит;0.00051
викидать;0.00103
викимедиа;0.00051
википедия;0.00257
викисклад;0.00103
вилла;0.00051
висеть;0.00051
витраж;0.00308
вклад;0.00051
включить;0.00051
влияние;0.00103
влюбиться;0.00051
вместе;0.00103
внешний;0.00051
внучка;0.00051
вовсе;0.00051
возвращаться;0.00051
возможность;0.00051
возникнуть;0.00051
война;0.00359
войти;0.00051
волшебный;0.00051
волынский;0.00051
ворепа;0.00051
восемнадцать;0.00051
воспоминание;0.00051
восхитительный;0.00051
впечатление;0.00103
время;0.00257
вручать;0.00051
всегда;0.00051
вселенная;0.00051
встретиться;0.00051
встреча;0.00051
встречать;0.00051
вступительный;0.00051
второй;0.00308
выбрать;0.00051
выдаваться;0.00051
выделить;0.00051
вызволить;0.00051
выйти;0.00051
вынужденный;0.00103
выполнить;0.00103
выпускник;0.00051
вырасти;0.00051
выручать;0.00051
высокий;0.00051
выставка;0.00359
выставляться;0.00051
выходить;0.00051
выясниться;0.00051
габриэлла;0.00051
гаврилович;0.00257
газета;0.00051
гармония;0.00103
гарша;0.00051
где;0.00616
генеалогия;0.00051
геннеп;0.00051
герзонь;0.00154
гигантский;0.00051
глава;0.00051
говорить;0.00051
год;0.03848
гончаров;0.00051
гора;0.00051
город;0.00051
городок;0.00051
городской;0.00051
гостиная;0.00051
гость;0.00154
гражданство;0.00257
гранж;0.00051
грезина;0.00051
гренобль;0.00051
григорий;0.00051
гуашь;0.00103
губерния;0.00051
далее;0.00051
дата;0.0077
датироваться;0.00051
дать;0.00051
два;0.00051
двадцать;0.00051
двоюродный;0.00051
дед;0.00051
дедушка;0.00051
действовать;0.00051
декабрь;0.00872
дело;0.00051
дениз;0.00205
деньга;0.00051
депортировать;0.00051
деревушка;0.00051
деталь;0.00051
детский;0.00051
детство;0.00103
дизайн;0.00051
дмитрий;0.00051
добрый;0.00051
документ;0.00051
должный;0.00103
дом;0.00257
домик;0.00051
дополнительный;0.00051
достигать;0.00051
доступный;0.00051
дочка;0.00051
дочь;0.00257
друг;0.00513
другой;0.00205
дружеский;0.00051
дубровин;0.00051
духовный;0.00051
дядя;0.00051
еврейский;0.00051
европа;0.00051
ежегодно;0.00051
екатерина;0.0041
елачич-стравинский;0.00051
елачича;0.00103
есть;0.00051
жан;0.00051
жанр;0.00154
жар-птица;0.00051
желание;0.00051
жена;0.00154
женева;0.00616
женевский;0.00103
жениться;0.00205
живописный;0.00051
живопись;0.00257
жизнь;0.00462
жить;0.00103
жозе;0.00051
жорж;0.00051
журна;0.00103
журнал;0.00154
журналистка;0.00051
забытый;0.00051
заглавный;0.00051
задний;0.00051
задолго;0.00051
заказ;0.00308
заказать;0.00051
закат;0.00051
заключить;0.00051
замечательный;0.00051
замуж;0.00051
занимать;0.00051
заниматься;0.00205
занятие;0.00051
запечатлеть;0.00051
запись;0.00051
зарегистрировать;0.00051
зарисовка;0.00051
заслуга;0.00051
затем;0.00051
зафиксировать;0.00051
заявление;0.00051
здесь;0.00103
земля;0.00051
зима;0.00103
знак;0.00051
знакомство;0.00051
знакомый;0.00051
знаменитый;0.00051
знать;0.00103
значительный;0.00103
золотой;0.00051
иван;0.00051
игнатиевич;0.00051
игоревич;0.00308
игорь;0.00564
избранный;0.00051
известно;0.00103
известность;0.00051
известный;0.00051
издание;0.00051
издательский;0.00051
издательство;0.00103
изображать;0.00051
изображение;0.00103
изобразительный;0.00051
иллюстрировать;0.00051
иметь;0.00154
иммигрировать;0.00051
империя;0.00205
имя;0.00154
индивидуальный;0.00051
иной;0.00051
инструмент;0.00103
интерес;0.00103
интернированный;0.00103
исключение;0.00051
искусство;0.00257
исполнить;0.00051
использование;0.00051
использовать;0.00051
испытывать;0.00051
историк;0.00051
история;0.00103
источник;0.00103
италия;0.00051
итальянский;0.00051
итог;0.00051
июль;0.00103
июнь;0.00103
кабинет;0.00051
кавалер;0.00051
каждый;0.00051
кантон;0.00103
капелла;0.00103
карандаш;0.00051
карантечь;0.00051
кардинал;0.00103
картина;0.00103
катализатор;0.00051
каталог;0.00103
каталогу-резон;0.00051
категория;0.00103
католический;0.00154
католичество;0.00051
квартира;0.00103
китти;0.00154
кладбище;0.00257
кларан;0.00051
классицизм;0.00051
климат;0.00051
клиника;0.00051
клоун;0.00051
книга;0.00154
код;0.00462
кодекс;0.00051
коко;0.00051
кокто;0.00154
комический;0.00051
композитор;0.00513
конец;0.00205
конкретизация;0.00051
конфиденциальность;0.00051
концлагерь;0.00103
корень;0.00051
королева;0.00051
король;0.00154
короткий;0.00051
который;0.00872
кредо;0.00051
критика;0.00051
круг;0.00154
крупный;0.00051
ксения;0.00051
кубизм;0.00051
кувшин;0.00051
кук;0.00051
культура;0.00103
л;0.00103
лагерь;0.00103
ларионов;0.00051
лев;0.00051
лейкинд;0.00205
лето;0.00154
либмена;0.00051
лилиан;0.00051
литература;0.00205
лифарить;0.00051
лицензия;0.00051
лицо;0.00051
лично;0.00051
лозанна;0.00051
лот;0.00051
луг;0.00051
любовь;0.00051
любой;0.00051
людмила;0.00205
м;0.00154
мавр;0.00051
май;0.00359
маленький;0.00051
мандельштам;0.0041
манер;0.00051
манера;0.00051
мариинский;0.00051
мария;0.00205
март;0.00667
мартин;0.00051
масло;0.00051
мастер;0.00103
материал;0.00051
матисс;0.00051
мать;0.00359
медиафайл;0.00051
менеджер;0.00051
местечко;0.00051
местный;0.00051
место;0.00205
месяц;0.00051
мик;0.00051
милена;0.00051
минимальный;0.00051
министерство;0.00051
мир;0.00154
мировой;0.00308
михаил;0.00103
младший;0.00051
мнение;0.00103
много;0.00051
многодетный;0.00051
многоквартирный;0.00051
множество;0.00051
мобильный;0.00051
модельер;0.00051
можно;0.00051
мозаика;0.00051
мой;0.00103
молодой;0.00051
мольер;0.00051
монография;0.00103
монументальный;0.00051
морж;0.00103
мочь;0.00257
музыка;0.00359
музыкальный;0.00051
музыкант;0.00051
музыковед;0.00051
мысль;0.00051
наведываться;0.00051
навигация;0.00154
награда;0.00051
наградить;0.00051
назвать;0.00103
называть;0.00103
намерение;0.00103
нансеновский;0.00051
написать;0.00154
наследие;0.00051
наставник;0.00051
настояние;0.00051
настоящий;0.00051
наталья;0.00154
натура;0.00051
натюрморт;0.00154
натюрморт-этюд;0.00051
находить;0.00051
находиться;0.00257
начало;0.00205
начаться;0.00051
наш;0.00103
небольшой;0.00051
невшатель;0.00051
недалеко;0.00154
недаром;0.00051
недюжинный;0.00051
некоммерческий;0.00051
некоторый;0.00103
некрополистик;0.00051
немецкий;0.00154
немой;0.00051
необходимый;0.00051
необыкновенно;0.00051
несколько;0.0041
нет;0.00051
нехватка;0.00051
нидерл;0.00051
нидерланды;0.00154
ницца;0.00154
новый;0.00103
носенко;0.00103
нотр-дать;0.00051
ноябрь;0.00154
нравиться;0.00103
нужда;0.00051
ныне;0.00051
нью-йорк;0.00051
обержонуа;0.00103
обеспечивать;0.00051
область;0.00051
обоснованный;0.00051
обосноваться;0.00103
образ;0.00051
обращение;0.00462
обсуждение;0.00103
общий;0.00154
объясняться;0.00051
обычно;0.00051
огород;0.00051
один;0.00103
одиннадцать;0.00051
означать;0.00051
оказаться;0.00103
оккупация;0.00103
октябрь;0.00051
олег;0.00051
опера;0.00051
опера-балет;0.00051
оперный;0.00051
описание;0.00051
описывать;0.00051
организация;0.00154
орден;0.00154
освенцим;0.00051
освобождение;0.00051
осень;0.00051
ослепнуть;0.00051
основать;0.00051
особенно;0.00103
особняк;0.00051
оставить;0.00051
остальной;0.00051
остаться;0.00205
ответственность;0.00051
отвечать;0.00051
отдать;0.00051
отдельный;0.00051
отдыхать;0.00051
отец;0.00564
отказ;0.00051
отказаться;0.00051
отмечать;0.00103
относить;0.00051
отношение;0.00103
отпатрулировать;0.00051
отредактировать;0.00051
оттуда;0.00051
официальный;0.00051
оформить;0.00154
оформление;0.00257
оценка;0.00051
ошибка;0.00051
пабло;0.00051
павел;0.00051
папа;0.00103
париж;0.00308
парижский;0.00154
паспорт;0.00051
пастель;0.00051
пастырь;0.00051
певец;0.00051
пейзаж;0.00103
первенец;0.00051
первоначально;0.00051
первый;0.00359
перебиваться;0.00051
перебраться;0.00154
переехать;0.00154
перейти;0.00103
переносить;0.00051
переписка;0.00051
перерасти;0.00051
переселиться;0.00103
переселяться;0.00051
период;0.00154
персоналия;0.00051
персональный;0.00308
петрушка;0.00051
печать;0.00103
пикассо;0.00205
писатель;0.00103
писать;0.00308
письмо;0.00154
племянница;0.00051
плохо;0.00051
плохой;0.00051
побережье;0.00051
побывать;0.00051
поведение;0.00051
погибнуть;0.00051
погибший;0.00051
погрести;0.00051
поддать;0.00051
поддержать;0.00051
поддерживать;0.00103
поддержка;0.00051
подолгу;0.00051
подпись;0.00051
подробный;0.00051
пожертвовать;0.00051
поздний;0.00257
познакомиться;0.00103
поиск;0.00103
поистине;0.00051
пока;0.00051
поколение;0.00051
политика;0.00051
получение;0.00051
получить;0.00308
польша;0.00051
поместить;0.00103
помогать;0.00051
помощь;0.00103
понравиться;0.00051
портрет;0.0041
посвятить;0.00103
поселить;0.00051
поселиться;0.00103
посещать;0.00051
посещение;0.00051
послание;0.00051
последний;0.0041
постановка;0.00103
постоянный;0.00051
построить;0.00103
потому;0.00051
похоронить;0.00103
похоронный;0.00103
почитатель;0.00051
почти;0.00051
почувствовать;0.00051
поэт;0.00103
править;0.01026
правка;0.00103
представитель;0.00051
представиться;0.00051
преемственность;0.00051
премия;0.00051
премьера;0.00051
преодолеть;0.00051
привести;0.00103
приглушить;0.00051
приехать;0.00051
прижизненный;0.00051
признание;0.00051
признать;0.00051
прийтись;0.00051
пример;0.00051
примечание;0.00103
приморский;0.00051
принять;0.00257
приобрести;0.00051
пристрастие;0.00051
приступать;0.00051
приходиться;0.00103
приятный;0.00051
провести;0.00103
проводить;0.00051
проделка;0.00051
продолжать;0.00154
продолжить;0.00051
продукт;0.00051
проект;0.00051
проживать;0.00257
прожить;0.00051
произведение;0.00205
происхождение;0.00051
пройти;0.00205
просмотр;0.00051
пространство;0.00103
просьба;0.00051
протяжение;0.00051
прочий;0.00051
проявить;0.00051
проявлять;0.00051
пульчинелла;0.00051
путь;0.00051
пьеса;0.00051
пять;0.00051
работа;0.0041
работать;0.00154
раз;0.00103
разговаривать;0.00051
различный;0.00103
разработчик;0.00051
райнхарт;0.00051
район;0.00154
рамка;0.00051
рамю;0.00051
ранее;0.00051
ранний;0.00103
расположить;0.00051
распространить;0.00051
рассчитывать;0.00103
расхождение;0.00051
редакция;0.00051
резиденция;0.00051
рен;0.00051
ресурс;0.00051
решение;0.00103
решить;0.00154
римский;0.00103
рисование;0.00154
рисовать;0.00103
рисунок;0.00051
родина;0.00103
родитель;0.00051
родиться;0.0041
родный;0.00051
родня;0.00051
родственник;0.00103
рождение;0.00205
российский;0.00205
россия;0.00051
рош;0.00051
рука;0.00051
русский;0.0041
русый;0.00103
рыбацкий;0.00051
ряд;0.00051
савенко;0.0041
савойский;0.00051
сайт;0.00051
сам;0.00103
самый;0.00051
санкт-петербург;0.00205
свадьба;0.00051
сведение;0.00051
свежий;0.00051
светлана;0.00051
свидетельствовать;0.00051
свободный;0.00051
свой;0.00513
связанный;0.00051
связать;0.00051
связаться;0.00051
связь;0.00154
святой;0.00154
святослав;0.00051
сделать;0.00051
сдержанность;0.00051
северюхин;0.00205
секретарь;0.00051
семейный;0.00103
семья;0.01026
сен-сюльпис;0.00051
сент-женевьев-де-буа;0.00154
сентябрь;0.00051
середина;0.00103
серж;0.00051
сестра;0.00359
сивирей;0.00051
сильно;0.00051
симпатия;0.00051
сингриа;0.00103
система;0.00051
систематический;0.00051
ситуация;0.00051
сказать;0.00051
скапена;0.00051
скачать;0.00103
скрытый;0.00051
словарь;0.00154
слово;0.00103
сложность;0.00051
служебный;0.00051
случай;0.00051
случайный;0.00051
сменить;0.00051
смерть;0.00154
смиронов;0.00051
смотреть;0.00103
снести;0.00051
снять;0.00051
собор;0.00051
собственный;0.00103
событие;0.00051
содержание;0.00103
создание;0.00051
создать;0.0041
солдат;0.00051
солист;0.00051
соображение;0.00051
сообщать;0.00051
сообщество;0.00051
сообщить;0.00051
сопровождать;0.00051
сост;0.00051
составить;0.00103
сохранение;0.00051
сохраниться;0.00051
сочетание;0.00051
сочинение;0.00051
спб;0.00051
способность;0.00103
способствовать;0.00051
справка;0.00051
сразу;0.00051
ссср;0.00103
ссылаться;0.00051
ссылка;0.00359
стабильный;0.00051
станковый;0.00051
старший;0.00103
старый;0.00051
статистика;0.00051
стать;0.00462
статья;0.0041
стефани;0.00051
стиль;0.00103
столица;0.00051
стравинский;0.03079
страдать;0.00103
страна;0.00051
страница;0.00359
страшно;0.00103
стремиться;0.00051
стремление;0.00051
судейкин;0.00051
сулима-стравинский;0.00051
супруг;0.00103
существовать;0.00103
сцена;0.00051
считать;0.00051
считаться;0.00051
сша;0.00103
сын;0.00308
сюда;0.00051
так;0.00103
такой;0.00205
талант;0.00154
талантливый;0.00051
там;0.00205
татьяна;0.00103
творчество;0.00154
театр;0.00051
театральный;0.00051
текст;0.00051
текущий;0.00051
тематический;0.00051
теодор;0.00257
тереза;0.00051
течение;0.00051
товарный;0.00051
тогда;0.00051
только;0.00051
тон;0.00051
тот;0.00359
три;0.00103
тридцать;0.00051
трудный;0.00103
тулуза;0.00051
тщательный;0.00051
тыс;0.00051
тяжело;0.00051
увлечься;0.00051
удобство;0.00051
удостоить;0.00051
удочерить;0.00103
уже;0.00103
указание;0.00051
указать;0.00051
указываться;0.00051
украина;0.00051
ум;0.00103
умберто;0.00051
умение;0.00051
умереть;0.00154
умерший;0.00205
умный;0.00051
унаследовать;0.00051
урожд;0.00051
урок;0.00103
усадьба;0.00051
условие;0.00154
устилуг;0.00103
утвердиться;0.00051
утверждение;0.00051
участие;0.00103
участник;0.00051
ученик;0.00051
ф;0.00103
фамилия;0.00051
фантазия;0.00051
февраль;0.00205
федя;0.00257
фердинанд;0.00051
ферма;0.00051
финансовый;0.00051
фонд;0.00205
фортепиано;0.00051
форум;0.00051
фр;0.00308
франк;0.00051
франция;0.00564
фреска;0.00103
фрибур;0.00103
характер;0.00051
характерный;0.00051
ходить;0.00051
холодность;0.00051
хороший;0.00051
храм;0.00051
христос;0.00051
художественный;0.00205
художник;0.01385
художница;0.00051
царь;0.00051
цвет;0.00051
центр;0.00051
церковь;0.0041
цитировать;0.00051
часовня;0.00051
частность;0.00154
часто;0.00051
частый;0.00051
часть;0.00103
человек;0.00154
черпать;0.00051
честь;0.00051
число;0.00051
читать;0.00051
член;0.00051
чувство;0.00051
шампель;0.00051
шанель;0.00051
шарль;0.00103
швейцария;0.00718
швейцарский;0.00462
шен-бужрать;0.00051
шестьдесят;0.00051
широкий;0.00051
школа;0.00103
экспорт;0.00051
элемент;0.00051
эмиграция;0.00257
эмигрировать;0.00051
энциклопедия;0.00103
эскиз;0.00103
этот;0.00359
ю;0.00103
юмор;0.00051
юрайт;0.00051
юрий;0.00154
явление;0.00051
язык;0.00051
январь;0.00103
ясный;0.00051
