а-барзель;4e-05
а-галиля;4e-05
а-гошрим;4e-05
а-плада;4e-05
а-юваля;9e-05
аба-магсиб;4e-05
абабиль;4e-05
абасан;4e-05
аббас;0.00013
абдалла;4e-05
абдул-малик;4e-05
абед;4e-05
абу;0.00073
абу-даби;4e-05
авадалл;4e-05
август;4e-05
авиабаза;4e-05
авиабомба;9e-05
авиакомпания;4e-05
авианосец;0.00017
авианосный;0.00017
авиаудар;0.00034
авиационный;0.00013
авиация;0.00013
авивить;4e-05
авихая;9e-05
авраам;9e-05
австралийский;4e-05
австралия;4e-05
австрия;4e-05
автобус;9e-05
автоматический;4e-05
автоматный;4e-05
автомобиль;0.00013
автомобильный;4e-05
автономия;4e-05
авторство;4e-05
автостоянка;4e-05
агентство;0.00021
агрессия;9e-05
ад;4e-05
ад-дин;0.00043
адала;9e-05
адамит;4e-05
адван;9e-05
аден;9e-05
аденский;0.00034
аджина;4e-05
ади;4e-05
административный;4e-05
администрация;0.00026
адуан;4e-05
адуана;4e-05
адхан;4e-05
аз-зейтун;4e-05
аззам;4e-05
айман;0.00017
акко;9e-05
акрам;4e-05
акт;0.00013
активизировать;4e-05
активист;4e-05
активность;9e-05
активный;0.00013
акция;0.00043
александр;4e-05
александрия;4e-05
алеппо;0.00026
алеф;4e-05
аллах;9e-05
аллея;4e-05
алонить;4e-05
алфавит;4e-05
аль-аджурить;4e-05
аль-азхар;9e-05
аль-акад;4e-05
аль-акр;4e-05
аль-акс;4e-05
аль-ансар;0.00013
аль-арамша;4e-05
аль-ахнуть;0.00026
аль-бал;9e-05
аль-бира;4e-05
аль-бурейдж;9e-05
аль-гарби;4e-05
аль-дафра;4e-05
аль-джазира;4e-05
аль-кас;4e-05
аль-касса;9e-05
аль-кассам;4e-05
аль-кахлютый;4e-05
аль-кедр;4e-05
аль-кудра;4e-05
аль-кудс;0.00026
аль-саифя;4e-05
аль-фаруан;4e-05
аль-хава;9e-05
аль-хадж;4e-05
аль-халидти;4e-05
аль-халиф;4e-05
аль-хусить;4e-05
аль-шиф;9e-05
аля-азиза;4e-05
аля-акс;9e-05
аля-арурь;4e-05
аля-бахдалиа;4e-05
аля-гандура;4e-05
аля-карара;4e-05
аля-манара;4e-05
аля-рашида;4e-05
аля-хиджазь;4e-05
аля-хинди;4e-05
ама;4e-05
амад;4e-05
амаль;4e-05
амар;4e-05
амбразура;4e-05
амер;0.00145
америка;4e-05
американский;0.0009
амман;4e-05
ан-насер;9e-05
ан-нахал;4e-05
ана-наср;4e-05
анализ;4e-05
аналитика;9e-05
аналогичный;4e-05
анас;4e-05
анастасия;9e-05
анатот;4e-05
англ;0.01185
анклав;4e-05
анна;9e-05
аннулировать;4e-05
аномалия;4e-05
анонимный;4e-05
ансар;9e-05
антисемитизм;0.00038
антисемитский;4e-05
антонио;4e-05
антониу;9e-05
апартеид;4e-05
апокалиптический;4e-05
аппарат;9e-05
апрель;4e-05
ар-рантись;4e-05
араб;0.00034
арабо-израильский;0.00021
арабский;0.00051
арава;9e-05
аравийский;0.00013
аравия;0.00021
арбель;4e-05
арвас;4e-05
аргумент;4e-05
арест;0.00013
арестовать;0.00013
ариэль;9e-05
армейский;0.00013
армения;9e-05
армия;0.00244
арсенал;4e-05
артиллерийский;0.00021
артогонь;4e-05
архивировать;0.03956
архивный;4e-05
ас-сабра;4e-05
ас-сафади;4e-05
асар;4e-05
асаф;4e-05
асиф;4e-05
ассамблея;9e-05
ат-туфф;4e-05
атака;0.00201
атаковать;0.00184
атмосфера;4e-05
атраш;4e-05
африка;4e-05
ахиа;4e-05
ахмед;0.00047
ахронота;4e-05
ацмаут;4e-05
аш-шатить;9e-05
аш-шейх;4e-05
аш-шиф;0.00017
ашраф;4e-05
ашур;4e-05
аэропорт;0.00047
аятолл;4e-05
баб-эль-мандабский;4e-05
баб-эль-мандебский;0.00021
баба;4e-05
бабушка;4e-05
багамский;4e-05
бадар;4e-05
база;0.00026
базовый;4e-05
байден;0.0003
байназаров;4e-05
балкер;0.00026
баллистический;0.00051
балтия;9e-05
бальфура;4e-05
банк;9e-05
баня;4e-05
баня-сухейл;4e-05
бапора;0.00021
бар;4e-05
барак;0.00013
барбадос;4e-05
барин;4e-05
барнеа;4e-05
баруда;4e-05
барух;9e-05
барьер;0.00017
барьерный;4e-05
басам;4e-05
басат;4e-05
батальон;0.00154
бахрейн;0.0003
башня;4e-05
бдительность;4e-05
бедствие;4e-05
беженец;0.00103
бездействие;4e-05
безделье;4e-05
безоговорочно;4e-05
безопасность;0.00137
безопасный;0.00017
безотлагательный;4e-05
безуспешно;4e-05
безуспешный;4e-05
безэкипажный;9e-05
бейрут;9e-05
бейт;4e-05
бейт-гилель;4e-05
бейт-лахий;4e-05
бейт-ханун;4e-05
бейт-хануна;9e-05
беларускать;9e-05
беларусь;0.00013
белиз;0.00013
белновость;9e-05
белый;0.00034
бельгия;4e-05
бен;0.00013
бен-гурион;0.00013
бена-гвира;9e-05
бензин;4e-05
бензовоз;4e-05
бени;4e-05
берген;4e-05
берег;0.00128
береговой;0.00013
берлин;4e-05
берри;4e-05
беседа;4e-05
беспилотник;0.00056
беспилотник-камикадзе;4e-05
беспилотный;0.00017
беспорядок;0.00013
бетонный;4e-05
бецет;4e-05
беэри;9e-05
би-би-си;4e-05
биари;4e-05
бизнесмен;9e-05
билал;4e-05
бин-хамада;4e-05
биньямин;0.00034
битва;4e-05
благотворительный;4e-05
ближневосточный;0.00021
ближний;0.00038
близкий;0.00021
близлежащий;9e-05
блинкен;4e-05
блок;4e-05
блокада;0.0006
блокировать;4e-05
блокировка;4e-05
бный;4e-05
богданов;9e-05
боевик;0.00252
боевой;0.00184
боеготовность;9e-05
боеприпас;0.00026
боец;0.00115
божий;4e-05
бой;0.00098
болгария;0.00017
более;0.00163
болезнь;9e-05
боливия;4e-05
больница;0.00359
больший;9e-05
большинство;0.00017
большой;0.00043
бомба;0.00034
бомбардировка;0.00034
бомбить;0.00013
борислав;4e-05
боррель;4e-05
борт;0.00026
бпл-камикадзе;9e-05
бпнуть;0.00043
бразилия;4e-05
брат;0.00017
брать;4e-05
бригада;0.00317
бригадный;4e-05
британец;4e-05
британия;0.00013
британский;0.0003
бритый;4e-05
бронетанковый;0.00077
бронетехника;4e-05
бросать;4e-05
бросить;9e-05
брюссель;9e-05
бтр;4e-05
будущий;4e-05
бункер;0.00017
бунт;4e-05
буферный;0.00017
български;4e-05
быстрый;4e-05
быть;0.0071
важный;0.00026
вайнер;9e-05
вайс;9e-05
валюта;4e-05
валютный;4e-05
варварский;4e-05
васам;4e-05
василий;4e-05
вахб;4e-05
ваш;9e-05
вашингтон;0.00021
ваэль;4e-05
введение;0.00038
ввести;0.00013
вводить;4e-05
ввоз;4e-05
ввс;0.00103
вебсайт;4e-05
ведение;4e-05
ведомость;0.00013
ведомство;9e-05
ведущий;0.0003
везде;4e-05
великобритания;0.00051
величина;4e-05
венесуэльский;4e-05
веравал;4e-05
вернуть;0.00017
вернуться;0.00017
вероятный;4e-05
версия;0.00013
верховный;0.00013
верхушка;4e-05
весна;4e-05
вести;0.00064
вестись;0.00013
весь;0.00137
вето;9e-05
вечер;0.00013
вечерний;9e-05
вечером;0.00021
вещество;9e-05
вещь;4e-05
взаимно;4e-05
взаимный;9e-05
взаимодействовать;4e-05
взамен;4e-05
взвод;9e-05
взгляд;0.00073
взорвать;0.00017
взорваться;0.00013
взрыв;0.00056
взрывной;0.00013
взрывчатка;9e-05
взрывчатый;9e-05
взятие;0.00021
взять;0.00115
вид;9e-05
видео;0.0003
видеть;4e-05
видимость;4e-05
виза;9e-05
визит;0.00021
викидать;4e-05
викимедиа;4e-05
википедия;0.00111
викисклад;9e-05
вилл;4e-05
вина;4e-05
винтовка;4e-05
вклад;4e-05
включать;4e-05
включить;4e-05
владелец;0.00017
владимир;9e-05
власть;0.00047
влияние;4e-05
вместе;9e-05
вмешаться;0.00013
вмс;0.0012
вмф;4e-05
внести;4e-05
внешнеполитический;4e-05
внешний;4e-05
внешполый;9e-05
внимание;4e-05
внутренний;9e-05
вовлечь;4e-05
вода;0.00068
водный;4e-05
водоизмещение;0.00013
водолаз;9e-05
водопровод;9e-05
воевать;4e-05
военизированный;4e-05
военно-воздушный;9e-05
военно-медицинский;4e-05
военно-морской;0.00017
военно-политический;4e-05
военно-транспортный;4e-05
военнослужащий;0.00081
военный;0.00462
воз;0.00051
возврат;4e-05
возвратить;9e-05
возвращать;4e-05
возвращаться;4e-05
возвращение;0.00013
возглавить;9e-05
возглавлять;0.00017
возгорание;4e-05
воздержаться;0.00021
воздерживаться;4e-05
воздух;0.00013
воздушный;0.0006
возлагать;4e-05
возможность;0.0003
возможный;4e-05
возникновение;4e-05
возникнуть;4e-05
возобновить;0.00047
возобновиться;4e-05
возобновление;0.00034
возрастать;4e-05
возрождение;4e-05
война;0.00402
войско;0.0009
войти;0.00034
волкер;4e-05
волна;9e-05
волшебный;4e-05
вооружение;0.00017
вопрос;0.00021
воронка;4e-05
ворота;4e-05
восемь;0.00013
воскресение;9e-05
воспользоваться;4e-05
воспринимать;4e-05
восстание;4e-05
восстановить;0.00013
восстановиться;4e-05
восстановление;4e-05
восток;0.00043
восточный;0.00056
впервые;0.00051
вправе;4e-05
впустить;4e-05
враждебный;4e-05
врач;0.00013
вред;4e-05
временно;0.00017
временной;4e-05
время;0.00141
вс;0.00021
всегда;4e-05
всемирный;0.00038
вскоре;4e-05
вскрыть;9e-05
вспыхнуть;0.00026
вспышка;4e-05
встать;0.00013
встреча;0.00017
встречаться;4e-05
встроить;4e-05
вступать;0.00013
вступить;0.00013
вторгнуться;0.00013
вторжение;0.00077
вторник;4e-05
второй;0.00086
вуз;4e-05
вход;0.0003
вчера;0.00013
въезд;4e-05
въезжать;9e-05
выборы;4e-05
вывести;0.00013
вывод;9e-05
выводить;4e-05
выдать;4e-05
выдвижение;4e-05
выдвинуться;9e-05
выдворить;9e-05
выехать;4e-05
вызвать;0.00034
вызов;4e-05
вызывать;4e-05
выйти;0.0003
выкрикивать;4e-05
вылазка;4e-05
выломать;4e-05
вынуждать;4e-05
выполнить;9e-05
выполняться;4e-05
выпуск;4e-05
выпускать;4e-05
выпустить;0.00047
выработка;4e-05
выражать;4e-05
выразить;0.00034
вырасти;0.00013
высадиться;9e-05
высказаться;9e-05
высказывание;0.00013
высказывать;4e-05
выслать;4e-05
выслеживать;4e-05
высокий;9e-05
высоко;4e-05
высокопоставленный;0.00026
высокоточный;4e-05
выстрел;4e-05
выстрелить;0.00013
выступать;4e-05
выступить;0.00017
выступление;4e-05
вытекать;4e-05
выходить;9e-05
выявить;4e-05
выявление;4e-05
выясняться;4e-05
вьетнам;4e-05
г;4e-05
га;9e-05
гаарец;4e-05
гааш;4e-05
габен;4e-05
гавана;4e-05
гавань;9e-05
гаджар;4e-05
газ;0.01082
газа;0.01086
газета;0.0015
газовый;4e-05
галант;0.00017
галилея;4e-05
ганец;4e-05
гастарбайтер;4e-05
где;0.00034
гебрейесус;4e-05
генассамблеий;4e-05
генассамблея;9e-05
генерал;0.00017
генерал-лейтенант;4e-05
генерал-майор;4e-05
генеральный;0.00026
геноцид;9e-05
генсек;4e-05
генштаб;0.00013
генштабной;4e-05
географический;4e-05
германия;0.00043
герой;4e-05
герци;0.00013
герцог;9e-05
гибель;0.00047
гиватаить;4e-05
гиватить;0.0003
гидеон;4e-05
гилада;4e-05
гиладь;4e-05
гк;4e-05
глава;0.00128
главарь;4e-05
главное;9e-05
главный;0.00047
глинн;4e-05
глубина;9e-05
гнев;0.00021
говорить;0.00013
говориться;0.00021
говорящий;4e-05
год;0.03251
голани;0.00047
голд;4e-05
голова;4e-05
голод;0.00013
голодать;4e-05
голодный;4e-05
голос;4e-05
голосование;0.00013
гольдштейн;4e-05
гондурас;9e-05
гонконг;4e-05
гонконгский;4e-05
гореть;4e-05
горнота;4e-05
горный;4e-05
город;0.00222
городской;4e-05
горький;4e-05
горячий;0.00013
госпиталь;4e-05
государственный;4e-05
государство;0.00086
готовить;4e-05
готовиться;0.00013
готовность;0.00013
готовый;0.00038
гражданин;0.00077
гражданка;4e-05
гражданский;0.00056
гражданство;0.00013
гранат;0.00017
грандиозный;4e-05
граница;0.00192
график;4e-05
греция;4e-05
греческий;0.00017
гринберг;4e-05
гриффитс;0.00013
грозд;4e-05
грозить;9e-05
громов;4e-05
груз;0.0003
грузия;4e-05
грузовик;0.00047
грузовой;0.00026
грузоперевозка;0.00013
группа;0.00094
группировка;0.00094
губернатор;4e-05
гуля;4e-05
гуманитарный;0.00244
гумпауза;4e-05
гутерриша;0.00017
гуш-катиф;4e-05
дабабаш;4e-05
давать;4e-05
давид;4e-05
далеко;4e-05
далул;4e-05
дальнейший;0.0003
дальность;0.00013
дама;4e-05
дамаск;0.00034
даммам;4e-05
данан;4e-05
даниэль;0.00047
данные;0.0006
данный;0.00021
дань;4e-05
дарадж-туффа;4e-05
дардж;4e-05
даскалить;4e-05
дата;0.04029
датский;4e-05
дать;0.00056
дафна;4e-05
дафома;4e-05
два;0.00167
двадцать;4e-05
дважды;9e-05
дверь;0.00017
двигаться;0.00021
движение;0.00038
двое;0.00017
двойной;9e-05
двор;9e-05
девушко-военнослужащий;4e-05
девять;4e-05
дежурство;9e-05
дейр-эль-бала;9e-05
дейр-эль-балах;4e-05
дейра;4e-05
действие;0.00214
действовать;0.00034
дейф;4e-05
декабрь;0.03332
декларация;9e-05
делегация;4e-05
деление;4e-05
дело;0.00047
деловой;0.00013
демарш;9e-05
демократия;4e-05
демонстрант;0.00013
демонстрация;0.00013
демонстрировать;4e-05
деморализовать;4e-05
денежный;4e-05
денковы;4e-05
день;0.00218
депутат;9e-05
деревня;9e-05
деревянный;4e-05
держава;0.00013
держать;4e-05
десантирован;4e-05
десантник;4e-05
десантный;4e-05
десятка;0.00064
десяток;4e-05
десять;9e-05
деталь;0.0009
детонация;4e-05
детский;0.00034
деятель;4e-05
деятельность;9e-05
джабалии;4e-05
джабалий;9e-05
джабаля-али;9e-05
джавад;4e-05
джалал;4e-05
джамаль;4e-05
джамиль;4e-05
джебалии;0.00038
джебалий;0.00021
джеймс;4e-05
дженин;0.00026
джибриль;4e-05
джибути;4e-05
джидда;0.00013
джихад;0.00051
джо;0.00017
джокер;4e-05
диагностировать;4e-05
дивизия;0.00128
дизентерия;9e-05
динамик;9e-05
динар;4e-05
дипломат;0.00017
дипломатический;0.00026
дир;4e-05
директор;9e-05
дислокация;4e-05
дислоцированный;4e-05
дисциплинарный;4e-05
дишон;4e-05
длина;0.00017
длительный;4e-05
дно;9e-05
добавить;4e-05
добиться;4e-05
добраться;4e-05
добро;4e-05
добровольно;9e-05
добровольный;4e-05
довоенный;4e-05
договор;0.00013
договориться;9e-05
дождь;9e-05
дойти;9e-05
доказательство;0.00021
документ;0.00017
долго;4e-05
должный;0.00043
доллар;9e-05
дом;0.00043
домой;9e-05
дополнительно;9e-05
дополнительный;0.00051
допрос;4e-05
допросить;4e-05
допускаться;4e-05
допустимый;4e-05
допустить;9e-05
дорога;0.00021
дорожный;4e-05
доставить;0.00017
доставка;0.00047
достигнуть;0.0003
достоверность;4e-05
доступ;9e-05
доступный;4e-05
дрейф;4e-05
дрейфовать;4e-05
дрон;0.00043
друг;4e-05
другой;0.0006
дружественный;9e-05
дфоп;9e-05
дэвид;4e-05
еврей;0.00017
еврейский;0.00017
европа;9e-05
европарламент;4e-05
европейский;0.00034
евросоюз;0.00047
египет;0.0009
египетский;0.0003
египетско-израильский;4e-05
еда;9e-05
единица;4e-05
единый;4e-05
ежедневно;4e-05
елена;4e-05
енеска;4e-05
ес;0.00013
естественный;9e-05
есть;0.00021
ждать;4e-05
желать;9e-05
железный;0.00043
женщина;0.00038
жертва;0.00026
живой;0.00021
житель;0.0015
жительница;4e-05
журналист;0.00026
забаррикадироваться;4e-05
заблокировать;4e-05
заболевание;9e-05
заброска;4e-05
завал;0.00013
завершать;4e-05
завершение;0.00013
завершить;0.0003
завершиться;4e-05
заверять;4e-05
завить;4e-05
заглавный;4e-05
загореться;9e-05
задача;9e-05
задержание;4e-05
задержать;0.00017
зайд;4e-05
зайнаб;4e-05
зайти;4e-05
зайтуна;9e-05
заканчивать;4e-05
заканчиваться;4e-05
закария;4e-05
заключаться;9e-05
заключение;4e-05
заключить;0.00021
закон;4e-05
законодательный;0.00013
закономерность;9e-05
законопослушный;4e-05
законопроект;4e-05
закрепиться;4e-05
закрытие;4e-05
закрытый;9e-05
закрыть;9e-05
закрыться;9e-05
закупить;4e-05
залив;0.00043
заливать;9e-05
заложник;0.00257
заложница;0.00021
залп;4e-05
замглавы;4e-05
заместитель;0.00043
заминировать;4e-05
замминистра;4e-05
замначальник;9e-05
замораживание;9e-05
занятой;9e-05
занять;0.00026
запад;0.00026
западный;0.00098
запас;0.00017
записка;4e-05
запись;4e-05
запланировать;9e-05
заполнить;4e-05
запорожье;4e-05
запрет;4e-05
запретить;0.00013
запросить;0.00021
запуск;0.00034
запускаться;4e-05
запустить;0.00047
заразиться;4e-05
заранее;4e-05
зарегистрировать;0.00013
зарита;4e-05
зарплата;4e-05
заряд;4e-05
засада;4e-05
заседание;0.00017
заслать;4e-05
застава;4e-05
застройка;4e-05
заступить;4e-05
затем;0.00013
затишье;4e-05
затонуть;0.00013
затопить;9e-05
затопление;0.00017
затрудниться;4e-05
затягиваться;4e-05
зауари;4e-05
зафиксировать;0.00017
захват;0.00043
захватить;0.0009
заход;4e-05
зачистить;9e-05
зачистка;0.00021
зачищать;4e-05
защита;0.00021
защитить;0.00026
защитный;4e-05
защищать;9e-05
заявить;0.00586
заявление;0.00038
заявлять;0.00017
зверский;4e-05
здание;0.00103
здравоохранение;0.00103
зейтун;0.00013
зеленский;4e-05
земля;0.00026
зиким;4e-05
зима;9e-05
зина;4e-05
зияд;4e-05
зменшенний;4e-05
знак;9e-05
значение;0.00026
значительный;0.00013
зона;0.00077
зрение;4e-05
ибн-син;4e-05
ибрагим;0.00013
иврит;9e-05
ида;4e-05
идать;4e-05
идентификация;4e-05
идентифицировать;4e-05
идти;0.00026
иегуд;4e-05
иедиот;4e-05
иерусалим;0.00026
избранный;4e-05
избыточный;4e-05
известие;4e-05
известно;0.00021
известный;4e-05
изменение;0.00021
измениться;4e-05
изменчивость;4e-05
изнасилование;4e-05
изображение;4e-05
изобразить;9e-05
изолятор;4e-05
израиль;0.02297
израильский;0.00565
израильско-иорданский;4e-05
израильско-ливанский;4e-05
израильско-палестинский;0.00017
израильско-российский;4e-05
израильтянин;0.00064
израильтянка;4e-05
изучать;4e-05
изучение;9e-05
иквота;9e-05
иман;4e-05
именование;4e-05
иметь;0.00034
иметься;4e-05
имя;0.00017
индийский;4e-05
индия;0.00034
индонезийский;4e-05
индус;4e-05
инженер;4e-05
инженерный;0.00043
инициатива;4e-05
иностранец;9e-05
иностранный;0.00073
инспектор;4e-05
институт;0.00013
инструкция;4e-05
инструмент;9e-05
интенсивный;0.00038
интервью;0.00013
интерес;4e-05
интернет-газета;4e-05
интернет-журнал;4e-05
интерфакс;9e-05
интефакс;4e-05
интифада;0.00021
инфекционный;4e-05
информационный;9e-05
информация;0.00047
информирование;4e-05
информировать;4e-05
инфраструктура;0.00021
инцидент;0.00021
иордан;0.0003
иордания;0.0003
ирак;9e-05
иран;0.00098
иранский;0.00026
ирина;4e-05
ирон;4e-05
исключаться;4e-05
исключить;9e-05
исламский;0.00056
исмаил;0.00013
испания;0.00026
использование;0.0003
использовать;0.0006
использоваться;0.0003
испытывать;4e-05
исраэль;4e-05
исса;4e-05
исследование;9e-05
истерзать;4e-05
истечение;4e-05
история;0.00073
источник;0.00094
истощение;4e-05
истребитель;0.00021
истребитель-бомбардировщик;4e-05
исход;4e-05
италия;9e-05
итальянский;9e-05
итамара;4e-05
итая;4e-05
итог;0.00013
иудей;9e-05
иудейский;4e-05
ифтаха;9e-05
ицик;4e-05
ицхак;9e-05
июль;9e-05
июнь;0.00013
йегудеть;4e-05
йемен;0.00128
йеменский;0.00081
йоать;0.00021
йонатан;0.00013
йоссеф;4e-05
йохеведа;4e-05
кабель;9e-05
кабинет;0.00013
кабмин;4e-05
кадер;4e-05
кадр;4e-05
каждый;0.00034
казарма;4e-05
казахстан;9e-05
казнить;9e-05
кайман;4e-05
каков;4e-05
калут;4e-05
камаль;0.00017
камень;4e-05
камера;4e-05
канада;4e-05
канал;0.00068
канцелярия;4e-05
канцлер;9e-05
капитан;9e-05
каплан;4e-05
капрал;0.00013
каракас;4e-05
карара;4e-05
карачи;4e-05
карика;4e-05
карл;4e-05
карта;0.00034
карточный;4e-05
касиф;9e-05
катар;0.00064
катарский;9e-05
катастрофа;0.0003
катастрофический;9e-05
категорически;9e-05
категорический;4e-05
категория;9e-05
катер;0.00021
катер-камикадзе;0.00013
катмаш;4e-05
кац;4e-05
качество;0.00034
квартал;0.00073
квартет;4e-05
квартира;9e-05
керем-шалома;4e-05
керем-шалый;0.00056
керь;4e-05
киббуц;4e-05
кибуц;0.00026
километр;4e-05
кипр;4e-05
кирьят-шмон;9e-05
кислота;4e-05
кисуфима;4e-05
класс;9e-05
классификация;4e-05
клеменс;9e-05
ключевой;0.00013
км;0.0003
кндр;4e-05
кнессет;9e-05
книга;9e-05
ко;4e-05
коби;4e-05
код;0.00287
кодекс;4e-05
колебание;9e-05
количество;0.00021
колода;4e-05
колонна;0.00017
колумбия;4e-05
колумбус;4e-05
команда;0.00013
командир;0.00188
командно-контрольный;4e-05
командный;0.00034
командование;9e-05
командующий;0.00043
комбатант;9e-05
комбриг;4e-05
комиссар;4e-05
комиссия;0.00017
комитет;9e-05
коммандос;9e-05
комментарий;0.00013
коммерсантъ;0.00073
коммерческий;0.00021
коммуникационный;4e-05
компания;0.00073
комплекс;0.00056
комплексный;4e-05
конвоирование;4e-05
конгресс;4e-05
конец;0.00017
конечный;4e-05
конкретизация;4e-05
конкретный;4e-05
конрикус;0.00021
консенсус;4e-05
конспиративный;9e-05
конструктивный;4e-05
консультант;4e-05
консультативный;9e-05
консультация;0.00021
контейнерный;9e-05
контейнеровоз;0.00077
контекст;4e-05
контент;4e-05
контр-адмирал;9e-05
контролировать;9e-05
контролироваться;4e-05
контроль;0.00137
контрольно-пропускной;0.00021
контрольный;4e-05
контрразведка;9e-05
контртеррористический;0.00013
конференция;9e-05
конфиденциальность;4e-05
конфликт;0.00128
концерн;4e-05
координатор;9e-05
координация;9e-05
копия;4e-05
корабль;0.00081
корвет;9e-05
корея;4e-05
коридор;0.00034
корм;4e-05
король;4e-05
короткий;4e-05
коротко;4e-05
корпус;0.00013
косвенный;9e-05
космос;9e-05
который;0.00295
коэн;0.00013
кпп;0.00068
крайне;4e-05
крайний;4e-05
красный;0.0021
крах;9e-05
кремль;4e-05
крест;0.00021
кризис;0.00056
кризисный;4e-05
критика;0.00013
критический;9e-05
кровавый;4e-05
кровать;4e-05
кровь;4e-05
круглосуточный;4e-05
крупный;0.00073
крылатый;0.00013
крыло;0.00038
ксирый;4e-05
кубинец;4e-05
кувез;4e-05
кувейт;4e-05
кук;4e-05
кукла;0.00013
кукуруза;4e-05
купаться;4e-05
купер;4e-05
курсор;4e-05
кусок;4e-05
кфара;4e-05
кфара-юваля;4e-05
кэмерон;4e-05
кэмп-дэвидский;4e-05
л;4e-05
лаборатория;9e-05
лагер;0.00034
лагерь;0.00047
лаз;4e-05
лазер;4e-05
лазерный;9e-05
лангсат;4e-05
лапид;0.00013
лахать;4e-05
лахий;4e-05
леви;4e-05
левый;9e-05
легитимность;4e-05
легковой;4e-05
лежать;4e-05
лейтенант;9e-05
лейшманиоз;9e-05
лента;4e-05
летательный;9e-05
лететь;4e-05
летний;9e-05
лечение;9e-05
либерия;0.0003
ливан;0.00171
ливана;0.00038
ливанский;0.00043
лигроин;4e-05
лидер;0.0006
лизинг;4e-05
ликвидация;0.00026
ликвидировать;0.00077
лиман;4e-05
линейка;4e-05
линия;0.00021
линчевание;4e-05
лист;4e-05
листовка;0.00021
лита;9e-05
литаня;9e-05
лифшиц;4e-05
лицензия;0.00013
лицо;0.0003
личный;4e-05
лишение;4e-05
лишить;4e-05
лиэль;4e-05
ловушка;4e-05
логово;4e-05
лодка;0.00013
лозунг;9e-05
лойман;4e-05
лондон;4e-05
лугера;4e-05
лул;4e-05
львиный;4e-05
любой;0.0003
ляйена;4e-05
м;0.00013
маамра;4e-05
маарахота;4e-05
маарива;0.00013
мааяна;4e-05
маген;9e-05
магидиш;4e-05
мадрид;0.00013
мадридский;4e-05
майор;0.00017
макарычев;4e-05
македонски;4e-05
макет;4e-05
макрон;0.00034
максим;4e-05
малайзийский;4e-05
маленький;4e-05
малкия;4e-05
мальта;0.00013
мальтийский;9e-05
мамдух;4e-05
манар;4e-05
мангалура;4e-05
мандат;4e-05
манифестация;4e-05
маргалиот;4e-05
марзук;4e-05
мария;4e-05
марк;9e-05
март;0.00218
мартин;0.00013
марциано;0.00013
марчиано;4e-05
марш;0.00017
маршаллов;0.00017
маршрут;0.00013
масаб;4e-05
масса;4e-05
массировать;0.00013
массовый;0.00026
мастерская;4e-05
масштабный;9e-05
матат;4e-05
материал;0.00013
мать;0.00013
махдить;4e-05
махмуд;9e-05
мацува;4e-05
машина;0.0003
маяться;4e-05
мвд;4e-05
медведка;4e-05
медиа;4e-05
медиафайл;4e-05
медик;9e-05
медикамент;0.00013
медицинский;0.0003
медработник;0.00013
международный;0.0006
мельдася;4e-05
мельников;4e-05
меморандум;4e-05
менахема;9e-05
менее;0.00017
мера;0.00026
мероприятие;4e-05
местность;9e-05
местный;0.00013
место;0.00026
местонахождение;9e-05
месторождение;4e-05
месяц;0.00021
метод;4e-05
метр;0.00021
метсол;4e-05
метула;4e-05
меч;0.00038
мечеть;0.0003
ми-голан;9e-05
мид;0.00064
мила;9e-05
миллиард;4e-05
миллиардер;4e-05
миллион;0.00038
миля;0.00021
мина;9e-05
минздрав;0.00021
минимизировать;4e-05
минимум;0.0003
минирование;4e-05
минировать;4e-05
министерство;0.00056
министр;0.00077
минобороны;0.0003
миноносец;4e-05
минпрос;4e-05
минувший;9e-05
минута;0.00026
мир;0.00051
мирный;0.00077
мировой;9e-05
миртесный;4e-05
мисгать;4e-05
миссия;0.00017
митинг;9e-05
михаил;9e-05
михаэль;4e-05
михая;4e-05
мишловск;4e-05
младенец;4e-05
млн;9e-05
млрд;4e-05
мнение;0.00013
многий;0.00013
многодневный;4e-05
многолюдный;4e-05
многонациональный;9e-05
многотысячный;4e-05
многоуровневый;9e-05
многоцелевой;9e-05
многочисленный;4e-05
множество;4e-05
мобилизация;4e-05
мобильный;4e-05
моджахед;4e-05
модуль;9e-05
можно;4e-05
мокшанов;4e-05
молодость;4e-05
молчание;4e-05
мольба;4e-05
момбаса;4e-05
момент;9e-05
мониторинговый;9e-05
морг;4e-05
море;0.00265
морской;0.0006
моряк;9e-05
москва;0.00021
моссад;9e-05
мострибун;4e-05
моха;9e-05
мохаммед;0.00013
мохсный;4e-05
мочь;0.00086
моше;9e-05
мощность;4e-05
мощный;4e-05
мощь;4e-05
мтенг;9e-05
муатазза;4e-05
муж;4e-05
мужчина;4e-05
музыкальный;4e-05
мумина;4e-05
муниципалитет;4e-05
мурад;0.00017
муса;9e-05
мусавить;4e-05
мустафа;9e-05
мусульманский;4e-05
мухаммад;9e-05
мухаммед;0.00013
мученик;4e-05
мюнхен;4e-05
мюнхенский;4e-05
мятежник-хусит;4e-05
н;4e-05
набий;4e-05
наблюдатель;4e-05
наблюдательница;9e-05
наблюдательный;0.00026
наблюдение;9e-05
навигация;0.00013
наводка;9e-05
надежда;9e-05
надеяться;4e-05
название;0.00021
назвать;0.00051
наземный;0.00111
назначение;9e-05
назначить;4e-05
называть;9e-05
наиболее;9e-05
наиф;4e-05
найти;0.00038
наказание;9e-05
накапливаться;4e-05
накб;4e-05
наконец;4e-05
наложить;4e-05
намер;9e-05
намерение;0.00013
намеренный;4e-05
намерить;9e-05
нанесение;9e-05
нанести;0.00167
наносить;0.00034
наноситься;4e-05
нападать;4e-05
нападение;0.00081
напасть;9e-05
напоминать;9e-05
направить;0.00043
направиться;4e-05
направление;0.00013
направлять;0.00013
направляться;0.00013
напрямую;4e-05
народ;9e-05
нарушение;9e-05
нарушить;0.00013
население;0.0006
населить;0.00043
насер;9e-05
насера;4e-05
насилие;0.00038
насима;4e-05
наслать;4e-05
наследник;9e-05
наследный;4e-05
насос;4e-05
насралл;4e-05
настаивать;0.00013
настоять;9e-05
настоящий;4e-05
наступать;4e-05
наступить;9e-05
наступление;0.0003
насчитывать;4e-05
натали;4e-05
нафталь;4e-05
нахаль-оз;0.00017
нахаля;0.00013
находиться;0.00094
нацбезопасность;4e-05
нацелить;9e-05
национальный;0.00043
нация;0.00026
начало;0.00141
начальник;0.00021
начать;0.00077
начаться;0.00038
начинать;0.00017
начинаться;4e-05
наш;9e-05
нвспост;9e-05
небензить;0.00021
небольшой;4e-05
неверный;4e-05
невозможно;9e-05
невозможный;9e-05
невообразимый;4e-05
недалеко;4e-05
неделя;0.00021
недоношенный;9e-05
недостаток;0.00017
недостаточно;4e-05
недостаточный;4e-05
недостоверность;4e-05
независимость;4e-05
независимый;9e-05
незаконный;9e-05
незначительный;4e-05
неизбежность;4e-05
неизбирательный;4e-05
неизвестный;9e-05
некоммерческий;4e-05
некорректно;4e-05
некоторый;0.00026
немедленно;0.00026
немедленный;0.00047
немецкий;4e-05
немой;9e-05
необходимость;0.00021
необходимый;0.00021
необычно;4e-05
неоднократно;0.00013
непонимание;4e-05
непосредственно;4e-05
непосредственный;9e-05
неприемлемый;4e-05
непричастность;4e-05
неприятельский;4e-05
нераспознанный;4e-05
нерушимый;9e-05
несанкционированный;4e-05
несколько;0.00073
несовершеннолетний;9e-05
нести;0.00013
несущий;4e-05
несчастный;4e-05
нет;0.00047
нетанияга;0.00013
нетаньяга;4e-05
нетаньяху;0.0006
неудавшийся;4e-05
неудачно;4e-05
неудачный;9e-05
нефтепродукт;9e-05
нефтетрейдер;4e-05
нефтехимический;0.0003
нефть;4e-05
нефтяной;9e-05
нехаммера;4e-05
нехватка;0.00013
нецарить;9e-05
нидаль;4e-05
нидерланды;9e-05
никакой;0.00013
никогда;9e-05
николай;4e-05
нир-ицхак;4e-05
нир-оз;4e-05
нирим;4e-05
ницахон;4e-05
новость;0.00312
новый;0.00133
нога;4e-05
номер;9e-05
норвегия;4e-05
норвежский;0.00021
носить;9e-05
нотт;4e-05
нофаля;4e-05
ночной;9e-05
ночь;0.00081
ночью;9e-05
ноябрь;0.03191
нужный;4e-05
нурита;4e-05
нусейрат;9e-05
нухб;9e-05
нфоп;0.00013
нынешний;4e-05
нэп;4e-05
оаэ;0.00013
оба;0.00013
обайд;9e-05
обвинение;9e-05
обвинить;0.0003
обвинять;0.00013
обезглавливание;4e-05
обеспечение;0.00013
обеспечить;0.00013
обеспокоенность;0.00017
обеспокоить;4e-05
обитатель;9e-05
обладать;4e-05
облако;9e-05
область;9e-05
облачный;9e-05
облегчение;4e-05
обломок;4e-05
обмен;0.00034
обнаружение;0.00013
обнаружить;0.00115
обновить;4e-05
обновление;4e-05
обновляться;4e-05
обозначить;4e-05
обозреватель;4e-05
оборона;0.00145
оборудование;0.00013
оборудовать;9e-05
обострение;9e-05
обостриться;4e-05
обработка;4e-05
образец;4e-05
образование;0.00013
обратить;4e-05
обратиться;0.00021
обратный;4e-05
обращение;0.04003
обследование;9e-05
обследовать;0.00013
обслуживание;4e-05
обстоятельство;4e-05
обстрел;0.00133
обстреливать;9e-05
обстрелять;0.00038
обсудить;0.00013
обсуждаться;4e-05
обсуждение;0.00021
обучаться;4e-05
обучение;0.00017
обход;4e-05
общение;4e-05
общественный;0.00021
общий;0.0003
община;4e-05
объединить;0.00034
объект;0.00103
объявить;0.0021
объявлять;9e-05
объяснение;4e-05
объяснить;0.00017
обыск;4e-05
обычный;4e-05
обязываться;4e-05
овладеть;4e-05
огайо;4e-05
огневой;4e-05
огнестрельный;4e-05
оговорить;4e-05
огонь;0.00231
ограничение;4e-05
ограниченный;4e-05
ограничить;9e-05
огромный;4e-05
один;0.00231
одинаковый;4e-05
одновременно;9e-05
однозначно;4e-05
односторонний;9e-05
одобрение;4e-05
одобрить;0.00013
ожидать;9e-05
ожидаться;9e-05
оз;9e-05
озеро;4e-05
означать;9e-05
оказание;0.00013
оказать;0.00017
оказаться;9e-05
оказывать;4e-05
оккупационный;4e-05
оккупировать;0.00013
окончание;0.00034
окончательный;4e-05
окраина;9e-05
окрестность;0.00043
округ;9e-05
окружение;9e-05
окружить;4e-05
октябрь;0.03092
окуневич;0.00021
олафа;0.00013
олимпиада;4e-05
оман;4e-05
омар;4e-05
онлайн;9e-05
онлайн-обучение;4e-05
онлайн-оповещение;4e-05
оон;0.00376
опасение;4e-05
опасность;4e-05
опасный;9e-05
опера;4e-05
оперативник;4e-05
оперативный;0.00017
оператор;9e-05
операция;0.00329
опираться;9e-05
описание;4e-05
оплот;4e-05
опознание;4e-05
опорный;0.00017
опосредовать;4e-05
опоясания;4e-05
оппозиционный;0.00017
оппозиция;0.00013
оправдание;4e-05
определить;4e-05
опровергать;4e-05
опровергнуть;0.00013
опрос;0.00021
опросить;4e-05
опубликовать;0.00038
опция;4e-05
опытный;4e-05
ор;9e-05
орган;4e-05
организатор;4e-05
организация;0.00111
оригинал;0.00924
ориентировочный;4e-05
ория;4e-05
оружейный;4e-05
оружие;0.00124
орь;4e-05
осада;0.00013
освободить;0.00081
освобождать;0.00013
освобождение;0.00086
осенний;9e-05
ослаблять;4e-05
осло;0.00017
осмотр;4e-05
основа;9e-05
основание;4e-05
основной;0.00017
основный;0.00064
основывать;4e-05
оставаться;0.00017
остановить;0.00013
остановиться;9e-05
остаться;0.00021
остров;0.00026
осудить;0.00021
осуждение;9e-05
осуществить;0.00013
осуществляться;0.00013
отбытие;4e-05
отвергнуть;9e-05
отвести;4e-05
ответ;0.00073
ответить;0.00013
ответный;0.0003
ответственность;0.00051
ответственный;0.00013
отвечать;0.0003
отдавать;4e-05
отдать;9e-05
отдел;9e-05
отдельный;0.00013
отель;4e-05
отзыв;0.00017
отзывать;9e-05
отказ;0.00017
отказаться;0.00017
откладываться;4e-05
откликнуться;4e-05
отключить;4e-05
открывать;4e-05
открытие;0.00017
открыто;4e-05
открыть;0.00086
откуда;9e-05
отложить;9e-05
отмена;4e-05
отменить;0.0003
отметить;9e-05
отмечать;4e-05
отмечаться;9e-05
отношение;0.00064
отождествить;4e-05
отозвать;0.00056
отпор;4e-05
отправить;0.00026
отправка;0.00013
отправлять;0.00013
отпускать;4e-05
отпустить;0.00021
отразить;4e-05
отредактировать;4e-05
отрезать;9e-05
отрицать;9e-05
отряд;0.00021
отстранить;0.00013
отсутствовать;4e-05
оттеснение;4e-05
офер;0.00021
офис;0.00013
офицер;9e-05
официально;0.00026
официальный;0.00034
охарактеризовать;4e-05
охрана;0.00017
охранный;4e-05
оцениваться;4e-05
оценить;9e-05
оценка;0.00017
очевидец;9e-05
очевидный;4e-05
очень;4e-05
очередной;9e-05
очередь;9e-05
очистить;4e-05
ошгпс;4e-05
ошибка;0.00017
ошибочно;4e-05
ошибочный;4e-05
па;4e-05
падение;0.00013
пакистан;4e-05
палатка;4e-05
палестина;0.0015
палестинец;0.00103
палестино-израильский;0.00017
палестинский;0.00205
палуба;4e-05
память;9e-05
панама;0.00013
параметр;0.00021
парламент;0.00017
парламентский;0.00013
партия;0.00017
патологоанатомический;4e-05
патриот;4e-05
патрулирование;4e-05
пауза;0.00047
пациент;0.00038
пво;0.00013
пдая;4e-05
педро;4e-05
пенсильванский;4e-05
пентагон;0.00034
первоначальный;9e-05
первый;0.00098
перебрасывать;4e-05
переброска;9e-05
перевести;4e-05
перевозить;0.00017
перевозка;0.00017
переговорщик;4e-05
переговоры;0.00038
передать;0.0003
передний;4e-05
передышка;4e-05
переживать;9e-05
переименование;0.00013
переименовать;9e-05
перейти;0.00013
перекрыть;0.0003
перелететь;4e-05
переливание;4e-05
переместить;9e-05
переместиться;9e-05
перемещение;0.00021
перемирие;0.00111
перенести;4e-05
переодетый;4e-05
переполненный;4e-05
переправить;4e-05
перерезать;4e-05
перерыв;4e-05
пересечь;4e-05
переслать;4e-05
перестать;4e-05
перестрелка;0.00013
переулок;4e-05
перехват;9e-05
перехватить;0.0003
переход;0.00013
переходить;4e-05
период;4e-05
персидский;4e-05
персонал;0.00021
персональный;4e-05
песок;4e-05
пехлеви;9e-05
пехота;0.00021
пехотный;0.00034
печать;9e-05
пират;4e-05
пиратствовать;4e-05
писториус;4e-05
питание;4e-05
питьевой;4e-05
пища;9e-05
плав;4e-05
плавать;9e-05
план;0.00056
планирование;0.00013
планировать;0.0003
плач;9e-05
плен;0.00021
пленник;4e-05
пленный;9e-05
пловец;4e-05
плохой;4e-05
площадка;0.00013
площадь;0.00013
плюс-минус;4e-05
по-прежнему;9e-05
по-русски;4e-05
победа;9e-05
побережье;0.0003
поведение;4e-05
повестка;9e-05
поворот;4e-05
повредить;0.00021
повреждение;0.00021
повстанец;4e-05
повсюду;4e-05
повторно;4e-05
повышение;9e-05
повышенный;0.00017
погибнуть;0.00158
погибший;0.00013
пограничник;4e-05
пограничный;0.00021
подавать;4e-05
подача;0.00021
подбить;4e-05
подведение;9e-05
подвергаться;4e-05
подвергнуть;9e-05
подвергнуться;0.00038
подводный;9e-05
подготовить;0.00013
подготовка;4e-05
поддержание;4e-05
поддержать;0.0003
поддерживать;0.00021
поддержка;0.00098
поджечь;4e-05
подземный;0.00068
подключиться;4e-05
подлежащее;4e-05
подмандатный;0.00013
подмосковье;4e-05
поднимать;4e-05
подобный;4e-05
подождать;9e-05
подозревать;4e-05
подозрение;4e-05
подозрительный;4e-05
подорвать;4e-05
подписать;9e-05
подполковник;4e-05
подразделение;0.00133
подробность;4e-05
подробный;4e-05
подросток;4e-05
подрыв;4e-05
подстрекательство;4e-05
подтвердить;0.00047
подчеркнуть;9e-05
поездка;4e-05
пожаловать;4e-05
пожар;0.00026
пожертвовать;4e-05
позволить;9e-05
поздний;0.00038
позиция;0.00081
поиск;9e-05
поймать;4e-05
пойти;9e-05
пока;0.00017
показатель;4e-05
показать;9e-05
покаяние;4e-05
покидать;9e-05
покинутый;4e-05
покинуть;0.00051
поклясться;4e-05
покупка;4e-05
покушение;4e-05
пол;4e-05
полагать;4e-05
полевой;4e-05
политбюро;0.00013
политика;0.00021
политический;0.00017
полицейский;9e-05
полиция;0.0003
полковник;9e-05
полностью;0.00038
полный;0.00056
половина;0.00017
положение;0.00026
положительный;4e-05
полуночь;9e-05
получать;4e-05
получение;4e-05
получить;0.00086
пользоваться;9e-05
помешать;9e-05
помещение;9e-05
помочь;9e-05
помощь;0.00312
понадобиться;4e-05
понести;4e-05
пообещать;0.00017
попадание;0.00021
попасть;0.00017
попросить;0.00013
попытаться;9e-05
попытка;0.00034
пора;0.00013
поразить;0.0003
порвать;4e-05
порт;0.00051
порт-саид;9e-05
портал;0.00021
поручить;9e-05
порфирий;9e-05
посадить;9e-05
поселенец;9e-05
поселение;4e-05
посетить;0.00017
посланник;4e-05
послать;9e-05
последний;0.0006
последовать;4e-05
последствие;0.00021
последующий;4e-05
посоветовать;4e-05
посол;0.00073
посольство;0.00013
посредник;9e-05
пост;0.00034
поставить;9e-05
поставка;0.0003
постоянный;0.00026
постпред;4e-05
пострадать;0.00043
построить;9e-05
поступать;0.00017
поступление;4e-05
потенциал;4e-05
потенциальный;4e-05
потеря;0.00038
потерянный;4e-05
потерять;0.00013
поток;0.00013
потопить;4e-05
потребность;9e-05
потребовать;0.00013
потушить;4e-05
похитить;0.00026
похищение;4e-05
похоже;4e-05
почему;0.00013
почти;9e-05
почтить;9e-05
поэтому;4e-05
появиться;9e-05
появление;4e-05
пояс;9e-05
пояснение;4e-05
пояснить;4e-05
правило;9e-05
правильный;4e-05
правительственный;4e-05
правительство;0.00081
править;0.00582
правка;9e-05
право;0.00056
православный;9e-05
правый;4e-05
праздник;4e-05
практически;0.00013
превентивный;9e-05
превратиться;4e-05
превращение;4e-05
превысить;0.00013
предварительный;4e-05
преддверие;4e-05
предлагать;9e-05
предлагаться;4e-05
предложение;4e-05
предложить;0.00017
предмет;4e-05
предназначить;9e-05
предоставить;0.00021
предоставлять;9e-05
предотвращение;4e-05
предписание;4e-05
предполагать;9e-05
предполагаться;4e-05
предположительно;0.00021
предположить;4e-05
предпринять;4e-05
председатель;4e-05
представитель;0.00103
представить;0.00026
представиться;4e-05
представлять;9e-05
предупредительный;9e-05
предупредить;0.00017
предупреждать;9e-05
предыдущий;4e-05
предыстория;9e-05
президент;0.00056
прекратить;0.00017
прекратиться;4e-05
прекращать;4e-05
прекращаться;4e-05
прекращение;0.00197
премия;0.00013
премьер;4e-05
премьер-министр;0.00064
премьера;4e-05
препятствие;9e-05
препятствовать;0.00017
прес-сек;4e-05
пресечение;4e-05
пресечь;4e-05
пресс-конференция;9e-05
пресс-секретарь;0.00026
пресс-служба;0.00068
пресса;0.00013
престижный;4e-05
престол;9e-05
преступление;0.00051
приближаться;0.00013
приблизиться;9e-05
прибор;4e-05
прибывать;4e-05
прибыль;9e-05
прибыть;0.0003
привести;0.00021
привлечь;4e-05
пригласить;4e-05
пригород;9e-05
приграничный;0.0003
пригрозить;0.00043
призвать;0.00145
признать;9e-05
призыв;0.00043
призывать;0.00038
прийти;4e-05
прийтись;9e-05
приказ;0.00021
приказать;9e-05
прикончить;4e-05
прикрываться;0.00013
прилегать;4e-05
приложение;4e-05
приманка;4e-05
применение;0.0003
применить;0.00021
применять;4e-05
пример;4e-05
примерно;0.0003
примечание;9e-05
принадлежать;4e-05
принадлежащий;0.0003
принимать;0.00013
принудить;4e-05
принц;9e-05
принцесса;4e-05
принять;0.00094
приостанавливать;4e-05
приостановить;0.00017
приостановка;9e-05
припас;4e-05
приписать;4e-05
приписывать;4e-05
прислать;4e-05
присоединение;4e-05
присоединиться;0.00017
приступить;0.00021
присутствовать;4e-05
причастность;4e-05
причина;0.00034
причинить;0.00013
проблема;0.00013
проблеск;4e-05
провал;9e-05
проведение;9e-05
проверить;0.00038
проверка;0.00017
провести;0.00094
проводить;0.00017
проводиться;9e-05
прогнозировать;4e-05
проголосовать;0.00017
программа;9e-05
прогреметь;4e-05
продажа;4e-05
продать;4e-05
продвигаться;9e-05
продвинуться;9e-05
продлевать;4e-05
продлеваться;4e-05
продление;0.0003
продлить;0.0003
продовольственный;0.00026
продовольствие;0.00017
продолжать;0.00026
продолжаться;0.00013
продолжение;0.00026
продолжить;0.0003
продолжиться;4e-05
проект;0.00026
проехать;4e-05
проживание;4e-05
производство;0.00038
произойти;0.0003
произраильский;9e-05
проинформировать;0.00021
происходить;0.00021
происхождение;9e-05
происшествие;4e-05
пройти;0.00038
прокат;4e-05
прокомментировать;4e-05
пролив;0.00026
проложить;4e-05
промежуток;4e-05
промысл;4e-05
промышленность;4e-05
проникновение;9e-05
проникнуть;9e-05
пронумеровать;9e-05
пропалестинский;0.00013
пропасть;0.00017
пропускать;9e-05
пропустить;4e-05
прорвать;0.00013
просить;4e-05
просмотр;4e-05
просрочить;4e-05
простой;4e-05
пространство;0.00013
просьба;0.00013
протест;0.00034
протестовать;4e-05
противник;4e-05
противовоздушный;4e-05
противокорабельный;9e-05
противоракетный;0.00021
противостояние;0.00021
противотанковый;0.00077
протченко;4e-05
протяжение;9e-05
профессиональный;4e-05
профессия;4e-05
профессор;4e-05
профиль;0.0003
проход;4e-05
проходить;0.00013
процветание;0.00017
прочный;4e-05
проявление;4e-05
прямо;4e-05
публикация;4e-05
публично;0.00013
пункт;0.0015
пуск;4e-05
пусковой;9e-05
пустыня;4e-05
путешествие;4e-05
путин;0.00013
путь;0.00013
пфнб;4e-05
пытаться;0.00038
пытка;4e-05
пятеро;9e-05
пятнадцать;4e-05
р;0.00017
раанан;9e-05
раафат;4e-05
работа;0.0003
работать;9e-05
работник;0.00013
рабочий;0.00038
рабочий-палестинец;4e-05
равновесие;4e-05
равномерный;4e-05
равносильно;4e-05
радван;9e-05
раджаб;4e-05
радикал;0.00013
радио;0.00026
радиостанция;4e-05
радуга;9e-05
раз;0.00021
разбить;4e-05
разбомбить;4e-05
разбросать;9e-05
разведать;4e-05
разведдать;4e-05
развединформация;9e-05
разведка;0.0006
разведслужба;4e-05
разведывательный;0.00013
развивать;4e-05
развитие;4e-05
разворачиваться;4e-05
разворот;4e-05
развязка;4e-05
разговор;4e-05
разграничение;4e-05
разгром;4e-05
разгромить;9e-05
раздаваться;4e-05
раздел;9e-05
разделительный;0.00017
разделить;9e-05
разделять;4e-05
различный;0.00017
разложить;4e-05
размежевание;9e-05
размер;4e-05
разместить;0.00013
разместиться;4e-05
размещение;4e-05
разминирование;4e-05
разный;4e-05
разорвать;4e-05
разрабатывать;4e-05
разработать;9e-05
разработка;4e-05
разработчик;9e-05
разрешение;4e-05
разрешить;0.0003
разрушение;0.00017
разрушительный;4e-05
разрушить;0.00017
разрыв;4e-05
разрывать;4e-05
район;0.00175
райх;4e-05
ракаба;4e-05
ракета;0.00269
ракетно-артиллерийский;4e-05
ракетный;0.00145
рамадан;9e-05
рамалла;9e-05
рамблер;4e-05
рамка;0.0003
рамота;4e-05
ранее;0.00021
ранение;0.00026
раненый;0.00051
ранить;0.00043
ранний;4e-05
рано;4e-05
рантись;0.00017
раскол;4e-05
располагать;9e-05
располагаться;9e-05
расположение;9e-05
расположить;0.00026
расположиться;4e-05
распорядиться;4e-05
распоряжение;9e-05
распределение;0.00013
распространение;4e-05
распространить;4e-05
распространиться;4e-05
распространяться;4e-05
рассвет;9e-05
рассказать;0.00017
расследование;0.0003
расследоваться;4e-05
рассматривать;0.00017
рассмотреть;9e-05
расстояние;4e-05
расти;4e-05
расходный;4e-05
расширение;9e-05
расширить;0.00017
раунд;4e-05
раф;0.00021
рафат;4e-05
рафах;9e-05
рафаэль;4e-05
рафи;0.00021
рбк;0.00043
реагирование;4e-05
реактивный;4e-05
реакция;0.00026
реальный;4e-05
революция;4e-05
регион;0.00026
региональный;0.00017
регулярный;4e-05
редакция;4e-05
режим;0.00038
реза;9e-05
резать;4e-05
резерв;0.00021
резервист;0.00077
резервный;9e-05
резкий;9e-05
резня;4e-05
резолюция;0.00103
результат;0.00098
реить;9e-05
рейд;0.00051
рейс;0.00017
река;0.0003
рекогносцировка;4e-05
рекомендация;4e-05
республика;9e-05
реформа;9e-05
решение;0.00047
решимость;4e-05
решить;0.00034
реюньон;4e-05
риа;0.00034
рималя;4e-05
риск;0.00026
риска;4e-05
риша;9e-05
роберт;4e-05
родитель;4e-05
родосский;4e-05
рой;9e-05
роль;4e-05
ром;4e-05
романов;4e-05
ронный;4e-05
российский;0.00038
россия;0.00081
россиянин;0.00013
рост;0.00038
рот;4e-05
рота;0.00017
рубеж;4e-05
рука;4e-05
руководитель;0.00013
руководить;9e-05
руководство;0.00026
русский;0.00051
русый;0.01801
рф;0.00013
рыба;4e-05
рыцарь;4e-05
рюкзак;4e-05
рютта;4e-05
ряд;0.00026
рядовой;4e-05
рядом;0.00026
саадат;4e-05
саар;9e-05
сабра;9e-05
сад;9e-05
саджаий;0.00021
саджаийя;9e-05
саид;4e-05
сайед;4e-05
салах-ад-дин;4e-05
салех;4e-05
салиф;4e-05
салман;9e-05
сало;0.00034
сам;9e-05
самария;9e-05
самир;4e-05
самозарядный;4e-05
самооборона;0.00026
самый;0.00026
санитарный;9e-05
санкция;0.00034
сарагость;4e-05
сарадж;4e-05
сареа;4e-05
сари;4e-05
сас;4e-05
саудовский;0.00021
сахар;4e-05
сахибан;4e-05
сб;0.00017
сб-беларусь;4e-05
сбивать;4e-05
сбить;0.00073
сбор;0.00013
сбрасывать;4e-05
сбросить;0.00026
св;0.00013
сведение;0.00026
свежий;4e-05
свет;0.00013
свидетельствовать;4e-05
свинец;9e-05
свобода;0.00026
свободный;0.00021
свой;0.00137
связанный;0.00026
связать;4e-05
связаться;4e-05
связь;0.00051
сдать;4e-05
сдаться;0.0003
сдача;4e-05
сдвигать;4e-05
сделать;0.00026
сделка;9e-05
сдерживание;4e-05
сдерота;0.00034
сдеротом;4e-05
север;0.00167
северный;0.00111
северо-запад;4e-05
сегодня;0.00051
сегодняшний;4e-05
сей;4e-05
сейчас;4e-05
сейшелы;4e-05
секретарь;9e-05
сексуальный;9e-05
сектор;0.01086
семеро;9e-05
семь;0.00013
семья;0.00021
середина;0.00017
сержант;0.00034
сессия;9e-05
сеть;0.00017
сиам;4e-05
сиама;4e-05
сидеть;4e-05
сийя;4e-05
сила;0.0015
силовой;9e-05
сильный;4e-05
симхат;4e-05
синай;9e-05
синвар;9e-05
сингапур;0.00043
синуар;9e-05
синьхуа;4e-05
сионистский;0.00017
сирена;9e-05
сирия;0.00086
система;0.00081
ситуация;0.00021
скала;9e-05
скачать;9e-05
склад;0.00021
складировать;4e-05
склоняться;9e-05
сколько;4e-05
скопление;9e-05
скорый;0.00013
скрытый;0.00017
след;0.00013
следовать;0.00098
следственный;4e-05
следующий;0.00013
слежение;4e-05
слово;0.00026
сложить;4e-05
сложно;4e-05
служащий;9e-05
служба;0.00077
служебный;4e-05
служить;0.00013
случаем;4e-05
случай;0.0003
случайно;0.00013
случайный;9e-05
смартпресс;4e-05
смертность;4e-05
смерть;0.00021
смещение;4e-05
сми;0.00043
смотреть;0.00026
смочь;0.00013
снайперский;4e-05
снаряд;0.00021
снаряжение;4e-05
сначала;9e-05
снести;9e-05
снизиться;4e-05
снимать;4e-05
снир;4e-05
снова;4e-05
снятой;4e-05
снять;4e-05
собирать;4e-05
собираться;0.00013
соблюдать;0.00017
собрать;4e-05
собраться;4e-05
собственный;0.00013
событие;0.00051
совбез;0.00017
совершать;9e-05
совершение;0.00013
совершить;0.00034
совет;0.00094
советник;0.00013
согласие;9e-05
согласиться;0.00013
согласовать;4e-05
соглашение;0.0003
содействие;4e-05
содействовать;4e-05
содержание;0.00013
содержаться;4e-05
соединение;0.00013
соединить;0.00013
соединять;9e-05
сожаление;0.00013
создавать;9e-05
создание;0.00017
создать;0.00034
созыв;4e-05
солдат;0.00047
солидарность;0.00021
соломон;4e-05
сомалиец;4e-05
сомнение;4e-05
соображение;9e-05
сообщать;0.00026
сообщаться;4e-05
сообщение;0.00064
сообщество;0.00013
сообщить;0.00304
сооружение;4e-05
соответствие;4e-05
соответствовать;4e-05
соответствующий;4e-05
сопровождаться;4e-05
сопротивление;0.00017
соседний;9e-05
сослаться;4e-05
состав;9e-05
состояние;0.00043
состоять;0.00013
состояться;4e-05
сосуществование;4e-05
сотня;0.00043
сотрудник;0.00043
соучастница;4e-05
сохранение;4e-05
сохраняться;4e-05
социальный;4e-05
соцсеть;9e-05
союз;0.00017
союзник;0.00013
спасатель;4e-05
спасательный;9e-05
спасать;4e-05
спасаться;4e-05
спасение;4e-05
спасти;4e-05
спастись;4e-05
специалист;9e-05
специальный;0.00021
спецназ;0.0003
спецназовец;4e-05
спецоперация;9e-05
спецподразделение;9e-05
спецсессия;4e-05
спецслужба;4e-05
спина;4e-05
список;0.00038
спор;4e-05
спорадический;4e-05
справедливость;4e-05
справка;0.00034
спрятать;4e-05
спустить;4e-05
сработать;0.00017
сравнение;9e-05
сравнить;9e-05
сражаться;9e-05
сразу;4e-05
среда;0.00013
средиземноморский;4e-05
средиземноморье;0.00017
средиземный;0.00034
средний;4e-05
средство;0.00013
срок;0.00013
срочно;4e-05
срочный;9e-05
српски;4e-05
ссылаться;9e-05
ссылка;0.0003
стабилизация;4e-05
стабильность;4e-05
стадия;4e-05
сталепрокат;4e-05
сталкиваться;9e-05
стальной;4e-05
стамбул;4e-05
станислав;0.00021
становиться;4e-05
старик;4e-05
старший;9e-05
старшина;4e-05
статистика;0.00013
статистический;4e-05
статус;9e-05
стать;0.00073
статья;0.00133
стационар;4e-05
стена;0.00021
стерлинг;4e-05
стихийный;4e-05
сто;4e-05
стоимость;9e-05
столица;0.00021
столкновение;0.0003
столкнуться;0.00017
столп;9e-05
сторона;0.0021
стоять;4e-05
страдание;4e-05
страж;0.00026
стража;9e-05
страна;0.0012
страна-оккупант;4e-05
страна-участница;4e-05
страница;0.00073
стратегически;4e-05
стратегический;0.00017
стратегия;9e-05
страхование;4e-05
страховой;4e-05
стрела;9e-05
стрелковый;4e-05
стрельба;4e-05
стрелять;4e-05
стремиться;4e-05
стремление;4e-05
строгий;4e-05
строительный;9e-05
строй;4e-05
стройплощадка;9e-05
студент;4e-05
стычка;4e-05
стянуть;4e-05
суббота;9e-05
субботина;4e-05
субх;4e-05
суд;0.0006
судебный;9e-05
суджаий;4e-05
судить;4e-05
судно;0.00197
судный;0.0003
судоходный;9e-05
судоходство;4e-05
судьба;0.00013
сумма;4e-05
сунак;9e-05
супруг;9e-05
сутки;0.00073
суть;4e-05
суфа;4e-05
сухогруз;0.00021
сухопутный;0.00017
существенный;4e-05
существование;4e-05
существовать;4e-05
суэц;4e-05
суэцкий;0.00017
сформировать;4e-05
схватка;4e-05
схема;9e-05
сцена;4e-05
считать;0.00021
считаться;9e-05
сша;0.00235
сюда;4e-05
так;0.0009
такой;0.00043
тактический;4e-05
таль;4e-05
там;0.00017
тамара;4e-05
тандемный;4e-05
танджунг;4e-05
танзания;9e-05
танк;0.00051
танкер;0.00107
танковый;0.00021
тасс;0.0006
татти;4e-05
таф;4e-05
тащить;4e-05
тая;4e-05
таянуть;4e-05
твиттер-канал;4e-05
тедроса;4e-05
текст;0.00017
текущий;9e-05
телеграм;4e-05
телеграм-канал;4e-05
телеканал;0.00013
телекоммуникационный;4e-05
телефон;4e-05
телефонный;4e-05
тело;0.0003
тель;9e-05
тель-аль-хав;4e-05
тель-эль-хав;4e-05
теракт;0.00034
теракт-самоубийство;4e-05
термин;4e-05
терпеть;4e-05
территориальный;4e-05
территория;0.00252
террор;9e-05
терроризм;0.00013
террорист;0.00158
террорист-хусит;4e-05
террористамиу;4e-05
террористический;0.00056
террористка;4e-05
техника;0.00013
техническо-производственный;4e-05
течение;0.00017
тип;0.00017
товарный;4e-05
тогда;4e-05
только;0.00021
томер;4e-05
тонна;4e-05
тоннель;0.00017
тоннельный;4e-05
тонуть;4e-05
топливо;0.00043
тор;4e-05
торговый;0.00021
тот;0.00167
тотальный;9e-05
точечный;0.00013
точка;0.00013
точный;4e-05
травматизм;4e-05
травматологический;4e-05
трагедия;9e-05
транзит;4e-05
трансграничный;4e-05
транспортный;0.00013
трасса;4e-05
требование;0.00021
требовать;0.00026
требоваться;4e-05
тревога;9e-05
трекер;4e-05
тренировка;4e-05
тренировочный;9e-05
третий;9e-05
три;0.00056
трижды;4e-05
трое;0.00038
трудный;4e-05
труп;9e-05
трус;4e-05
труфановый;4e-05
туда;9e-05
туннель;0.00141
тупик;4e-05
турецкий;4e-05
турк;9e-05
турция;0.00034
тыл;4e-05
тыловой;4e-05
тыс;0.00034
тысяча;0.00098
тюрьма;0.00021
тянуться;4e-05
уаиль;4e-05
уай-ривер;4e-05
уасам;4e-05
убивать;0.00013
убийство;0.00021
убито;0.00017
убитый;0.00017
убить;0.00098
убрать;4e-05
увага;4e-05
уважение;4e-05
уведомить;9e-05
увеличение;9e-05
увеличить;9e-05
уверенность;4e-05
увкпча;4e-05
углубиться;4e-05
уголовный;9e-05
угрожать;9e-05
угроза;0.00017
удалить;4e-05
удалять;4e-05
удар;0.00364
ударить;0.0003
ударный;0.0003
удаться;0.00013
удвоить;4e-05
удерживать;0.00013
удерживаться;4e-05
удобрение;4e-05
удовлетворение;9e-05
удовлетворительный;4e-05
уехать;4e-05
ужасный;4e-05
уже;0.00013
ужесточение;4e-05
узнать;9e-05
уйти;9e-05
указание;9e-05
указанный;4e-05
указать;0.00021
указывать;9e-05
уколов;4e-05
украина;0.0003
укрепить;0.00021
укрепление;4e-05
укрепрайон;4e-05
укрытие;9e-05
улица;4e-05
улус;9e-05
улучшить;4e-05
улысый;9e-05
уменьшение;9e-05
умереть;9e-05
умолять;4e-05
университет;0.0003
уникальный;4e-05
уничтожение;0.00043
уничтожить;0.00111
упавший;4e-05
упасть;0.00017
уполномоченный;4e-05
управление;0.00038
управляемый;9e-05
управляться;4e-05
упростить;4e-05
урегулирование;0.00017
уровень;0.00013
урсула;4e-05
усиление;4e-05
усиленный;4e-05
усилие;9e-05
условие;0.00056
установить;0.00017
установка;4e-05
установление;4e-05
установленный;4e-05
устареть;4e-05
устойчивый;4e-05
устранить;4e-05
устроить;9e-05
устройство;0.00017
усть-луга;4e-05
усугубиться;4e-05
усугубляться;4e-05
усыплять;4e-05
утвердить;0.00013
утверждать;0.00017
утверждение;0.00017
уточнить;9e-05
утратить;9e-05
утро;0.00013
утром;0.00038
уходить;4e-05
участвовать;0.00026
участие;0.00043
участник;4e-05
участок;0.00013
учебный;4e-05
учение;9e-05
учреждение;9e-05
ущерб;0.00017
уязвимый;4e-05
фаза;0.00021
факт;4e-05
фактически;4e-05
факультет;4e-05
фальсификация;4e-05
фанди;4e-05
фархат;9e-05
фатх;0.00017
февраль;0.0056
федеральный;9e-05
феликс;4e-05
фестиваль;4e-05
фиал;4e-05
филиппины;4e-05
финансы;0.00017
финкельман;4e-05
флаг;0.00107
флотилия;9e-05
фолькер;4e-05
фон;0.00021
фонд;4e-05
форма;4e-05
формирование;9e-05
форум;9e-05
фосфор;0.00017
фосфорный;0.00013
фото;0.00013
фотография;4e-05
франция;0.00043
французский;9e-05
фрг;4e-05
фрегат;4e-05
фронт;9e-05
фруктовый;4e-05
фугас;4e-05
функционировать;9e-05
фунт;4e-05
ха-базак;4e-05
ха-барзель;4e-05
ха-леви;0.00013
ха-мамлахти;4e-05
ха-махан;4e-05
ха-плада;9e-05
ха-эш;9e-05
хаватм;4e-05
хагарь;0.00064
хадаша;4e-05
хадаша-таала;4e-05
хаджи;4e-05
хайо;4e-05
хайфа;0.00013
халеви;4e-05
халиль;4e-05
хамас;0.01488
хамасовец;4e-05
хаменея;4e-05
хамид;4e-05
хамис;4e-05
хан;4e-05
хан-юнес;0.00017
хан-юнис;0.00064
ханий;4e-05
ханикра;4e-05
ханит;4e-05
хания;4e-05
ханна;4e-05
хаотичный;4e-05
хараз;4e-05
хартия;4e-05
хасан;9e-05
хацерим;4e-05
хезболл;0.00128
хезболла;9e-05
херци;4e-05
хехт;4e-05
хизбалл;0.00017
хирург;4e-05
ход;0.0009
ходейда;0.00013
холить;4e-05
холокост;4e-05
хороший;9e-05
хотеть;0.0003
хроника;0.00043
хронология;0.00017
хузаа;4e-05
хусит;0.00214
хуситовый;0.00068
хуситский;9e-05
цабар;4e-05
цахала;4e-05
цахать;0.00958
цвести;4e-05
цветок;4e-05
целевой;4e-05
целенаправленно;4e-05
целенаправленный;4e-05
целиком;4e-05
целиться;4e-05
целое;9e-05
цель;0.00171
ценить;4e-05
центр;0.00115
центральный;0.00051
центрист;4e-05
церковь;0.0003
цех;0.00017
цеэлима;9e-05
цивон;4e-05
цитадель;4e-05
цитировать;4e-05
цифра;4e-05
час;0.00047
частично;9e-05
частность;0.00013
часть;0.00201
часы;9e-05
чей;4e-05
чел;0.00017
человек;0.00175
человечность;4e-05
червь;4e-05
черчилль;4e-05
чеснок;4e-05
четверг;4e-05
четверо;4e-05
четыре;0.00038
четырежды;4e-05
чехия;4e-05
чили;4e-05
численность;9e-05
число;0.00103
читать;4e-05
член;0.00073
чрезвычайный;0.00021
шабак;0.00021
шаблон;0.00026
шабтая;4e-05
шаг;4e-05
шаджаий;4e-05
шаджайя;0.00017
шади;4e-05
шайетета;4e-05
шалит;4e-05
шалый;4e-05
шальдаг;0.00013
шаммаленький;4e-05
шатила;4e-05
шатить;0.00017
шаткий;4e-05
шатт;4e-05
шахский;4e-05
шахта;4e-05
швейцарский;4e-05
шеар-яшув;4e-05
шеджайя;4e-05
шейх;4e-05
шейх-аджлин;4e-05
шекель;4e-05
шелли;4e-05
шестидневный;9e-05
шестинедельный;4e-05
шестнадцать;4e-05
шесть;9e-05
шеф;4e-05
шинель;4e-05
ширина;4e-05
широкомасштабный;4e-05
шиф;0.0009
школа;0.00051
школьный;4e-05
шломить;4e-05
шлюпка;4e-05
шольц;0.00017
шомер;4e-05
шоссе;0.00026
шоу;4e-05
шошана;4e-05
штаб;0.00068
штаб-квартира;0.00013
штабной;4e-05
штат;0.00013
штула;4e-05
штурм;0.00021
штурмовать;9e-05
штурмовик;4e-05
шуалеть;4e-05
шуджаийя;0.00013
шуджайя;4e-05
щит;0.00026
эвакуационный;4e-05
эвакуация;0.00128
эвакуировать;0.00056
эвакуироваться;0.00047
эвен;4e-05
эдрить;9e-05
эйзенхауэр;4e-05
эйлат;0.00034
эйлоно;9e-05
эйн-ха-шлоша;4e-05
экипаж;0.00056
экономика;9e-05
экономический;0.00034
эксплуатировать;4e-05
эксплуатироваться;9e-05
экспорт;4e-05
экстренный;9e-05
элемент;4e-05
эли;9e-05
элиакубить;4e-05
элитный;0.00017
эль-ава;4e-05
эль-бира;4e-05
эль-джубайль;4e-05
эльбитый;4e-05
эльнара;4e-05
эмбарго;4e-05
эмират;9e-05
эмманюэль;0.00013
энергетика;0.00017
энтебба;4e-05
энциклопедия;4e-05
эпидемия;4e-05
эран;4e-05
эрдоган;4e-05
эреза;0.00013
эскадренный;4e-05
эскадрилья;9e-05
эскалация;4e-05
эсминец;0.00051
этап;0.00038
этика;4e-05
этот;0.00073
эфир;4e-05
эшелонировать;4e-05
эялить;4e-05
юар;0.00021
юг;0.00145
юго-восток;9e-05
юго-запад;9e-05
юдит;9e-05
южный;0.00137
юнис;0.00013
юссефома;4e-05
яаковы;4e-05
яалом;9e-05
яар;4e-05
являться;9e-05
явный;4e-05
язык;0.00026
яир;4e-05
як;4e-05
якорь;0.00013
якуб;4e-05
ян;4e-05
янб;4e-05
январь;0.00843
япония;4e-05
ярон;4e-05
ясмина;4e-05
яхалом;4e-05
яхие;0.00017
яхий;4e-05
