абхазия;5e-05
авария;5e-05
август;0.00331
август-сентябрь;5e-05
авдеевка;0.00031
авиабаза;0.0002
авиабомба;0.0001
авиакатастрофа;5e-05
авиаудар;5e-05
авиация;0.00025
австралия;0.0002
австрия;0.00015
автокефалия;5e-05
автоконцерн;5e-05
автомат;0.0001
автомобиль;0.0001
автомобильный;5e-05
автономия;5e-05
автор;0.0001
авторство;5e-05
агентство;0.00036
агрессивный;0.0001
агрессия;0.00061
агрессор;0.0001
ад;5e-05
административный;0.0002
администрация;0.0001
адрес;5e-05
адыгея;5e-05
азаров;5e-05
азербайджанский;5e-05
азербайджанско-армянский;0.0001
азия;0.00041
азовсталь;0.0001
акватория;0.0001
акопов;0.0001
актив;0.0001
активизировать;5e-05
активизироваться;5e-05
активно;0.0002
активность;0.0001
активный;0.0002
акция;0.0001
албания;0.0001
але;0.0001
александр;0.0002
алексей;0.00015
алина;5e-05
альянс;0.00041
амалия;5e-05
амбициозный;5e-05
амер;0.00015
америка;0.00076
американский;0.00036
амуниция;0.0001
анализ;0.0002
аналитик;0.00031
аналитический;5e-05
аналогичный;0.0002
анапа;5e-05
анастасия;5e-05
ангажировать;5e-05
англ;0.00841
андорра;5e-05
андреа;5e-05
андреевка;5e-05
анин;5e-05
анна;5e-05
аннален;5e-05
аннексировать;0.00025
аннексия;0.00046
анонимность;5e-05
анонсировать;5e-05
анталья;5e-05
антивоенный;0.00015
антироссийский;5e-05
антиукраинский;5e-05
антониу;0.0001
антонов;5e-05
ао;5e-05
апелляционный;5e-05
аппарат;0.0001
апрель;0.00718
аргумент;0.00015
арест;0.0001
арестовать;5e-05
арестович;0.00015
армейский;5e-05
армения;0.0001
армия;0.00178
артиллерийский;0.00025
артиллерия;0.00041
артист;5e-05
артобстрел;5e-05
артсистема;5e-05
артснаряд;5e-05
архивировать;0.01666
архивный;5e-05
архитектурный;5e-05
асад;5e-05
аспект;5e-05
ассамблея;0.00025
ассистент-профессор;5e-05
ассоциация;0.0001
атака;0.00132
атаковать;0.00061
ато;0.0001
атомный;5e-05
атташе;5e-05
аудиозапись;5e-05
аудитория;5e-05
афганистан;0.0001
ахтырка;5e-05
аэродром;0.00025
аэродромный;5e-05
аэропорт;5e-05
аэрофлот;5e-05
аэс;0.00076
бавович;5e-05
база;0.00031
базирование;0.0001
байден;0.0002
байрактар;5e-05
балаклея;0.0001
баллистический;0.00015
банально;5e-05
банк;0.00102
банковский;0.00015
барабан;0.0001
баррель;0.00015
бассейн;5e-05
батальйон;5e-05
батальон;0.0002
батарейка;5e-05
бахмут;0.00041
бахмутский;0.0001
башар;5e-05
бегство;5e-05
бедный;5e-05
бежать;0.00015
беженец;0.00046
безвозвратный;0.0001
безопасность;0.00082
безопасный;5e-05
безработица;5e-05
безъядерный;0.0001
беларускать;0.0001
беларусь;0.00061
белгород;5e-05
белгородский;0.00056
беловежский;5e-05
белоруссия;0.00132
белорусский;5e-05
белый;5e-05
бельгия;5e-05
бен;5e-05
бенедек;5e-05
бер;5e-05
бербок;5e-05
бердянск;0.0001
берег;0.0001
берлин;5e-05
берцы;5e-05
бесконтактный;5e-05
беспилотник;0.00061
бесплатный;5e-05
беспрецедентный;5e-05
би-би-си;0.00209
бизнес;0.00025
билет;5e-05
билкова;5e-05
биолог;0.0001
биологический;5e-05
биоразнообразие;5e-05
битва;0.00046
благосостояние;5e-05
ближний;0.00015
близкий;0.00036
блинкен;5e-05
блицкриг;5e-05
блок;0.00015
блокада;0.0002
блокировать;0.0002
блокировка;0.00031
блокировля;5e-05
блокуванний;5e-05
богдан;0.0001
боевой;0.00209
боеприпас;0.00031
боестолкновение;5e-05
боец;0.0002
бой;0.00107
бойко;0.00015
бойкот;0.00015
болгария;0.00015
более;0.00255
больница;0.00025
больной;5e-05
больший;0.00076
большинство;0.00041
большой;0.00076
бомба;0.0001
бомбардировка;0.00031
бомбардировщик;5e-05
бомбить;0.0001
борис;5e-05
боррель;5e-05
борьба;0.00015
босния;0.00015
бояться;5e-05
бпнуть;0.00025
бранденбургский;5e-05
брикс;5e-05
британия;0.00015
британник;0.00036
британский;0.00025
брифинг;0.00015
бронежилет;5e-05
бронетехника;5e-05
броньований;5e-05
бросать;5e-05
бросить;5e-05
брызги;5e-05
брянка;5e-05
брянск;5e-05
брянский;0.00036
будапештский;0.0001
будущее;0.00015
бумага;0.0001
буровой;5e-05
буряад;5e-05
бурятия;5e-05
бухта;5e-05
буча;0.00051
български;5e-05
бывший;0.00015
быстро;0.0001
быстрый;0.00036
бытовой;5e-05
быть;0.00912
бэйлорский;5e-05
бюджет;0.00056
бюро;5e-05
вагнер;0.00076
вагнеровец;0.0001
важный;0.00061
вакансия;5e-05
валерий;5e-05
валюта;0.00056
валютный;0.00036
вампир;5e-05
варьироваться;0.0001
ватикан;5e-05
введение;0.00036
ввести;0.00178
ввод;5e-05
вводить;0.0001
ввп;0.00046
ввс;0.0002
вдали;5e-05
вдвое;5e-05
вебер;5e-05
ведение;0.00015
ведомство;0.0002
ведущий;5e-05
вектор;5e-05
вели;0.0001
великий;0.0001
великобритания;0.00051
величина;5e-05
венгрия;0.0001
венедиктов;5e-05
венесуэла;5e-05
венский;5e-05
вера;5e-05
вербовать;0.0001
вербовка;0.0002
верить;0.00015
вернуть;0.00015
вероятность;5e-05
вероятный;5e-05
версия;0.00031
верхнесадовый;5e-05
верховный;0.00046
весна;0.0001
весомый;5e-05
вести;0.00082
вестись;0.00015
весь;0.00189
вето;0.0002
вечером;5e-05
вещание;5e-05
вещество;0.0001
взаимный;0.0001
взаимоотношение;5e-05
взаимопомощь;5e-05
взгляд;5e-05
взорвать;0.00015
взрослый;5e-05
взрыв;0.0002
взрывчатый;5e-05
взыскать;5e-05
взятие;0.0001
взять;0.00066
взяться;5e-05
вибора;5e-05
виборя;5e-05
вид;0.00015
видение;0.0001
видео;0.00025
видеодоказательство;5e-05
видеозапись;0.0001
видеть;0.00015
визовый;0.0002
визуальный;5e-05
вики-разметка;5e-05
викидать;5e-05
викимедиа;0.0002
викиновость;5e-05
википедия;0.00097
викисклад;0.0002
викицитатник;0.00015
виктор;0.0001
виленский;5e-05
вина;5e-05
виолетта;5e-05
виталий;0.0001
вклад;5e-05
включать;0.0002
включение;0.0001
включить;5e-05
включиться;5e-05
вконтакте;5e-05
владелец;0.0001
владимир;0.00224
власть;0.00189
влечь;5e-05
влияние;0.00036
влиятельный;5e-05
вместе;0.0002
вмешательство;0.00015
внеблоковый;5e-05
внести;5e-05
внешнеторговый;5e-05
внешний;0.00025
внимание;0.00015
вновь;0.0001
внутренне;0.0001
внутренний;0.00015
внушаться;5e-05
внушительный;5e-05
вода;0.00031
водохранилище;5e-05
воевать;0.00036
военизированный;0.0002
военкомат;0.00015
военно-технический;5e-05
военнообязанный;5e-05
военнопленный;5e-05
военнослужащий;0.00153
военный;0.00764
возбудить;0.0001
возбуждение;5e-05
возврат;0.0001
возвращать;5e-05
возвращение;0.00025
воздействие;0.0001
воздержаться;0.0002
воздух;0.00015
воздушно-десантный;5e-05
воздушный;0.00046
возложить;5e-05
возможность;0.00041
возможный;0.00031
возникновение;0.0001
возникнуть;5e-05
возобновить;0.0002
возразить;5e-05
возраст;0.00015
возрасти;0.0001
возрастной;0.0001
воинский;5e-05
война;0.00713
войско;0.0051
войти;0.0002
вокзал;5e-05
волна;0.00015
волнение;5e-05
волноваха;0.00015
волновой;0.0001
волчанск;0.0001
вооружение;0.00107
воплотить;5e-05
вопрос;0.00061
ворзель;5e-05
воронежский;0.0001
ворота;5e-05
восемь;5e-05
восемьдесят;5e-05
воспитательный;5e-05
воссоздать;0.0001
восстановить;0.0001
восстановление;0.00025
восток;0.00066
восточный;0.00025
впервые;0.00051
вперш;5e-05
вплоть;5e-05
впоследствии;0.0001
вправе;5e-05
враг;5e-05
временной;0.00025
время;0.00346
вручить;5e-05
вряд;5e-05
вс;0.00066
всемирный;0.00015
всеобщий;0.0001
всеобъемлющий;0.0001
вскоре;0.0001
вскрыть;5e-05
вставка;5e-05
встать;5e-05
встреча;0.0002
встречать;5e-05
вступить;0.00041
вступление;0.00066
вторжение;0.0079
второй;0.00127
второсортный;5e-05
втрать;5e-05
втянутый;5e-05
втянуть;5e-05
вуз;5e-05
входить;0.00015
въезд;0.00015
выбирать;5e-05
выборы;0.0001
выведение;5e-05
вывести;0.00046
вывод;0.00036
вывоз;0.0001
выглядеть;5e-05
выгодный;5e-05
выдавать;0.0001
выдать;0.0001
выдача;0.0002
выдвигаться;5e-05
выдвинуть;5e-05
выдворять;5e-05
выделять;0.00015
выдумывать;5e-05
выезд;5e-05
выехать;5e-05
выжить;0.0001
вызвать;0.00031
вызывать;0.0001
выйти;0.00051
вынести;0.0001
вынудить;0.00036
выплата;5e-05
выполнение;0.00015
выполнить;0.0001
выпуск;5e-05
выпускать;5e-05
выпустить;0.0001
выравнивание;5e-05
выразить;0.0001
вырасти;0.00015
выручка;0.0002
высадиться;5e-05
высказывание;5e-05
высказываться;0.0001
выслать;5e-05
высокий;0.00046
высокопоставленный;0.0001
высокотехнологичный;0.0001
выстоять;5e-05
выстрел;5e-05
выступать;0.00015
выступить;0.0002
выступление;0.0001
высылка;5e-05
вытеснение;5e-05
вытеснить;0.0001
выход;0.00025
выходец;5e-05
выходить;5e-05
выше;0.0001
вышка;0.00015
выявить;0.0001
выясниться;5e-05
га;5e-05
гаага;0.00025
газ;0.00066
газета;0.00036
газпром;0.00015
галеотти;5e-05
галия;5e-05
гараж;5e-05
гарантия;0.0001
гаубица;5e-05
где;0.00051
гексоген;5e-05
генассамблея;0.0002
генерал;0.00031
генерал-лейтенант;5e-05
генерал-майор;5e-05
генерал-полковник;5e-05
генеральный;0.00046
генетический;5e-05
геническ;5e-05
генический;5e-05
геннадий;5e-05
геноцид;0.00056
геноцидальный;5e-05
генсек;0.0001
географический;5e-05
геополитический;0.00015
германия;0.00046
героизация;5e-05
герцеговина;0.00015
гибель;0.00046
гибнуть;5e-05
гибридный;5e-05
гигантский;5e-05
глава;0.00051
главком;5e-05
главный;0.00046
глобальный;0.0001
глубина;5e-05
глубокий;0.00031
гнездование;5e-05
говорить;0.00051
говориться;0.0001
год;0.02756
годность;5e-05
годовой;0.00015
голова;0.0001
голос;0.00082
голосование;0.0001
голуба;5e-05
гонка;0.0002
гораздо;0.0001
гордо;5e-05
гореть;5e-05
горловка;5e-05
город;0.00132
городской;0.0001
горский;5e-05
горьковский;5e-05
горячий;5e-05
горяшко;5e-05
госдума;5e-05
госкорпорация;5e-05
госпиталь;5e-05
госсекретарь;5e-05
госсми;5e-05
гостомела;5e-05
гостомелить;5e-05
гостомель;5e-05
государственность;5e-05
государственный;0.00102
государство;0.00214
государство-агрессор;0.0001
государство-изгой;5e-05
государство-участник;5e-05
готовий;5e-05
готовить;5e-05
готовиться;0.00015
готовность;0.0001
готовый;0.0001
гражданин;0.00112
гражданский;0.00143
грайворон;5e-05
грайворонский;5e-05
граница;0.00112
граничить;0.0001
гривна;5e-05
григорий;5e-05
грозить;5e-05
груз;0.0001
грузинский;5e-05
грузия;0.0001
грузовой;5e-05
грунау;5e-05
груп;5e-05
группа;0.00071
группировка;0.00046
губа;5e-05
гудков;5e-05
гуманитарный;0.00056
гутерриша;0.0001
гуща;5e-05
гэс;0.0001
давать;5e-05
даваться;5e-05
давление;5e-05
далее;0.0001
дальнейший;0.00046
дальний;0.0001
дальность;0.0001
даниил;5e-05
дания;0.00015
данные;0.00189
данный;5e-05
дата;0.01325
дать;0.00153
два;0.00082
двадцать;5e-05
дверь;5e-05
двзяй;5e-05
двигаться;0.0001
движение;0.00051
двойной;0.00015
дебальцево;5e-05
девальвация;5e-05
девальвировать;5e-05
девять;5e-05
деградация;5e-05
дедолларизация;5e-05
дежурство;5e-05
дезинформация;0.00031
дезориентация;5e-05
действие;0.00403
действительность;0.0002
действовать;0.00046
декабрь;0.00255
декларировать;5e-05
делавер;5e-05
делать;0.0001
делаться;5e-05
дело;0.00082
дельта;0.0001
демилитаризация;0.00025
демократический;5e-05
демонстративно;5e-05
демонстрация;0.00015
демонстрировать;5e-05
демонтировать;0.0001
деморализация;5e-05
денацификация;0.00025
денацифицировать;5e-05
денис;0.0001
день;0.00183
деньга;5e-05
деоккупировать;5e-05
департамент;5e-05
депопуляция;5e-05
депортация;0.0001
депутат;0.00015
деревня;5e-05
держава;5e-05
державный;5e-05
держать;0.00025
дерусификация;5e-05
десантник;0.0001
дестабилизация;5e-05
десятилетие;0.0002
десятка;0.00015
десяток;5e-05
деталь;5e-05
детский;5e-05
дефицит;0.00041
дефолт;0.0001
деятель;0.0001
деятельность;0.00056
джена;5e-05
джеффри;5e-05
джо;0.00015
джонсон;5e-05
диалог;5e-05
диверсант;0.00015
диверсионный;5e-05
диверсия;0.00015
дипломат;0.0001
дипломатический;0.00036
дипфейк;5e-05
директор;0.0001
дискредитация;0.00015
дискриминация;0.00031
диссидент;5e-05
дистанцироваться;5e-05
длительность;5e-05
длительный;5e-05
дмитрий;0.0001
днепр;0.00041
днепровский;5e-05
днр;0.00245
доба;5e-05
добавить;5e-05
добирать;5e-05
добиться;5e-05
добор;5e-05
доброволец;0.00031
добровольческий;0.00031
добыча;0.0001
доверие;0.00015
довоенный;0.0001
договор;0.00041
договориться;0.00015
дождь;5e-05
дозиметр;5e-05
доказательство;5e-05
доказывать;5e-05
доклад;0.0001
документ;0.00036
документировать;0.0001
долг;5e-05
долгий;5e-05
долгосрочный;0.0002
долететь;5e-05
должностной;0.0001
должность;5e-05
должный;0.00071
доллар;0.00071
доля;0.0002
дом;0.00056
доминировать;0.0001
домой;5e-05
донабор;5e-05
донбасс;0.00163
донбасский;0.0001
донец;5e-05
донецк;0.00025
донецкий;0.00092
донос;5e-05
доносить;5e-05
дополнение;5e-05
дополнительно;0.00015
дополнительный;0.0001
доппельгангер;5e-05
допускать;5e-05
допустить;5e-05
дорога;0.0001
дорогой;5e-05
доставка;0.00015
достаточный;5e-05
достигнуть;0.00061
достижение;0.0001
достоверно;0.0001
достоверный;5e-05
доступ;0.00025
доступный;0.0001
доход;0.00031
др;0.00015
драматический;5e-05
драматичный;5e-05
дрло;0.0001
дрон;0.00036
друг;0.00031
другой;0.00158
дружба;5e-05
дружественный;0.0001
дснв;0.0001
дума;5e-05
дунай;5e-05
дух;0.0001
душа;5e-05
дыра;5e-05
дэвид;0.00015
дюйм;5e-05
дягилев;5e-05
евгений;0.00015
евро;0.0002
еврокомиссия;0.0001
евромайдан;0.0001
европа;0.00143
европейский;0.00066
евросоюз;0.00061
егий;5e-05
египет;5e-05
единица;0.00015
единичный;5e-05
единовременно;5e-05
единовременный;5e-05
единственно;5e-05
единственный;5e-05
единый;0.0001
ежегодно;5e-05
ежедневно;5e-05
ежедневный;0.0002
екатерина;0.00015
елизавета;5e-05
ембарго;5e-05
епархия;5e-05
ес;0.00082
есть;0.00015
ефект;5e-05
ехать;5e-05
жан;5e-05
ждать;0.0001
желание;0.0001
желать;5e-05
железный;0.0001
жена;5e-05
женевский;5e-05
женщина;5e-05
жертва;0.00051
жестокий;0.0001
жестокость;5e-05
живой;0.00015
животное;0.0001
жизнь;0.0002
жилой;0.00051
жириновский;0.0001
житель;0.00082
жительница;5e-05
жительство;5e-05
житомирский;5e-05
жить;5e-05
жозеп;5e-05
журналист;0.00041
забезпеченний;5e-05
заблокировать;0.00031
заблуждение;5e-05
забрать;5e-05
заведение;5e-05
завербовать;0.0001
завершение;0.00025
завершить;5e-05
завершиться;0.0001
завести;5e-05
зависеть;0.0001
зависимость;0.00015
завод;0.0001
завышение;5e-05
завязаться;5e-05
заглавный;5e-05
загрузить;5e-05
загрязнение;5e-05
загрязнитель;5e-05
задача;0.0002
задевать;5e-05
задействовать;0.00025
задержать;0.0001
задокументировать;5e-05
задуматься;5e-05
зайти;0.0001
заключение;0.00015
заключить;0.00031
заклятый;5e-05
закон;0.00076
законодатель;5e-05
законодательство;0.00015
закономерность;5e-05
законопроект;5e-05
закрепить;0.0001
закрывать;5e-05
закрытие;5e-05
закрытый;5e-05
закрыть;0.0001
закупать;0.00015
закупка;0.00015
заложник;5e-05
залповый;5e-05
залужный;5e-05
замглавы;5e-05
замена;5e-05
замереть;5e-05
заместитель;0.00015
заметный;5e-05
заморозить;0.0001
заморозка;5e-05
занимать;0.0002
заниматься;0.0001
занятие;5e-05
занятый;0.0001
занять;0.00051
запад;0.00092
западный;0.00066
запас;0.0002
запасный;5e-05
запирать;5e-05
запись;5e-05
запланировать;0.0001
заповедный;5e-05
заполнить;5e-05
запорожский;0.00087
запорожтрансформатор;5e-05
запорожье;5e-05
запрашивать;5e-05
запрет;0.00061
запретить;0.00056
запрещение;0.0001
запросить;5e-05
запустить;0.00025
зарабатывать;5e-05
заработок;5e-05
заранее;0.0001
зарегистрировать;0.0002
зарплата;5e-05
зарубежный;0.00025
заряжаться;5e-05
заседание;0.0001
засекретить;0.00015
заслушать;5e-05
заставить;0.0001
заставлять;5e-05
застопориться;5e-05
застройка;0.0001
застрять;5e-05
затари;5e-05
затем;0.00031
затопить;5e-05
затопление;5e-05
затрата;0.0001
затыкать;5e-05
затягивание;5e-05
зафиксировать;0.00031
захаров;5e-05
захват;0.00087
захватить;0.00112
захищатимутить;5e-05
захоронить;5e-05
зачастую;5e-05
зачем;0.00015
зашить;5e-05
защита;0.00036
защитить;5e-05
защищать;0.00015
заявить;0.0028
заявка;0.00025
заявление;0.00087
заявлять;0.00025
зброй;5e-05
збройна;5e-05
звено;0.0001
звук;5e-05
звучать;0.0001
здався;5e-05
здание;0.00031
здоровый;5e-05
зек;5e-05
зеландия;0.00015
зеленский;0.00173
земельный;5e-05
земледелие;5e-05
земля;0.0002
зенитный;5e-05
зеркало;0.0001
зерно;0.00051
зерновой;0.0002
зимний;0.0001
злочин;5e-05
змеиный;0.00015
знак;0.0001
значение;0.00015
значимый;5e-05
значительно;0.00031
значительный;0.00066
значить;5e-05
зникнуть;5e-05
знов;5e-05
зов;5e-05
золотовалютный;5e-05
золотой;0.0001
зона;0.00061
зонненфельд;5e-05
зрение;0.0001
зритель;5e-05
ибрагимов;5e-05
иван;5e-05
иванов;0.0001
ивашов;5e-05
ившина;5e-05
игра;0.0001
играть;5e-05
идентифицировать;5e-05
идеология;5e-05
идея;5e-05
идти;0.00051
избегать;5e-05
избежание;5e-05
избежать;0.0001
избранный;5e-05
избыточный;0.0001
известно;0.00056
известный;0.0001
извлечение;5e-05
изготовить;5e-05
изготовление;5e-05
изготовлять;5e-05
издавать;5e-05
издание;0.00051
издательство;0.0001
издать;5e-05
изматывать;5e-05
изменение;5e-05
изменить;0.00031
измениться;0.0001
изменяться;5e-05
изнасилование;5e-05
изначальный;0.00025
изображение;5e-05
изоляция;0.00031
изотоп;5e-05
израиль;5e-05
израильский;0.0001
изучение;0.0001
изюм;0.00031
икра;5e-05
иловайск;5e-05
илья;0.00015
иметь;0.00046
иметься;5e-05
имиджевый;5e-05
империализм;5e-05
империя;0.00015
импорт;0.00051
импорт-экспорт;5e-05
импортировать;5e-05
импортный;5e-05
импортозамещение;0.0001
имущество;0.00015
имя;0.00031
инвалидность;5e-05
инвестиционный;0.0001
инвестиция;0.00015
ингулец;0.0001
индийский;5e-05
индия;0.00025
инициатива;0.00025
инициировать;0.00015
иногда;0.0001
иной;0.00015
иностранец;0.0001
иностранный;0.00087
институт;0.00031
инструкция;5e-05
инструмент;0.0001
инсценировать;5e-05
инсценировка;5e-05
интеграция;5e-05
интеллектуальный;5e-05
интенсивность;5e-05
интенсивный;5e-05
интервенция;0.0001
интерес;5e-05
интернет-сми;0.0001
интерпретация;5e-05
интерфакс-украина;0.0001
интерьер;5e-05
инфляция;0.0001
информационный;0.00071
информация;0.00066
информировать;5e-05
инфраструктура;0.00082
инцидент;0.00015
иоаннис;5e-05
иракский;5e-05
иран;0.00036
иранский;5e-05
ирина;5e-05
ирландия;0.0001
иррегулярный;5e-05
иск;0.00036
искажать;0.0001
искажение;0.00015
искандер;5e-05
искать;5e-05
исключение;0.00015
исключить;0.00031
ископаемое;5e-05
исландия;0.0002
испанский;5e-05
исполнение;5e-05
исполнитель;5e-05
исполнять;0.00015
использование;0.00066
использовать;0.00122
использоваться;0.00025
испытание;0.0001
испытывать;0.0002
исследование;0.00046
исследователь;0.00015
исследовательско-аналитический;5e-05
истинный;5e-05
историк;5e-05
исторический;0.00015
история;0.00102
источник;0.00107
истощение;0.00025
исчезнуть;0.0001
исчисление;5e-05
италия;5e-05
итог;0.00056
итоговый;5e-05
июль;0.00285
июнь;0.0053
йельский;5e-05
йенс;5e-05
йош;5e-05
кабаев;5e-05
кавказ;0.0002
кавказский;5e-05
кавычка;5e-05
кадыровца;5e-05
каждый;0.0001
казахстан;0.00015
казнь;5e-05
каков;5e-05
какой;0.0002
какой-либо;0.00015
калибр;5e-05
калужский;5e-05
каля;5e-05
кампания;0.00071
канада;5e-05
канадский;5e-05
канал;0.0001
кандидат;0.0001
канцероген;5e-05
канцерогенный;5e-05
канцлер;5e-05
капитал;0.0001
капитан;0.0001
каравансарай;5e-05
кардинально;5e-05
карибский;5e-05
карнеги;5e-05
карпенко;5e-05
карта;0.00036
карта-схема;5e-05
карточка;0.0001
кассетный;0.0001
катар;5e-05
катастрофа;0.00031
категорически;5e-05
категория;0.00015
католический;5e-05
каховка;0.0001
каховский;5e-05
каховсковать;0.0001
качество;0.00031
квадратный;0.00015
квалификация;5e-05
квартал;0.00015
керченский;5e-05
киев;0.00163
киевский;0.00076
километр;0.00025
кинбурнский;5e-05
кинокомпания;5e-05
кинотеатральный;5e-05
кинуть;5e-05
кипр;5e-05
кира;5e-05
киргизия;5e-05
киргизско-таджикский;5e-05
кириенко;5e-05
кирилл;0.0002
китай;0.00051
китайский;0.0002
классический;0.0001
клинтон;5e-05
клуб;5e-05
ключевой;0.00025
км;0.00025
кндр;5e-05
книжный;5e-05
кнр;5e-05
коап;5e-05
когда-то;5e-05
код;5e-05
кодекс;5e-05
козинка;0.00015
колин;5e-05
количество;0.00041
коллаборант;5e-05
коллаборационизм;5e-05
коллаборационист;5e-05
коллаборационистский;5e-05
коллективный;0.00015
колонка;0.00015
колонна;5e-05
колоссальный;5e-05
команда;5e-05
командир;0.0001
командно-штабной;5e-05
командный;5e-05
командование;0.0001
командующий;0.00025
коментують;5e-05
комиссар;0.0002
комиссариат;5e-05
комиссия;5e-05
комитет;0.00036
комментарий;0.00025
коммерсантъ;0.00015
коммерческий;0.0001
комната;5e-05
компания;0.00107
комплекс;0.0001
комплект;5e-05
компьютер;0.0001
компьютерный;0.0001
конвенция;5e-05
конвертация;5e-05
конвертируемый;5e-05
конец;0.00102
конкретный;5e-05
конотоп;0.0001
консенсус;5e-05
консервативный;5e-05
константин;5e-05
конституционный;5e-05
конституция;0.0001
контактный;5e-05
контейнерный;5e-05
контингент;0.0001
контракт;0.00031
контрактник;0.00015
контрбатарейный;5e-05
контрнаступа;0.0001
контрнаступление;0.00087
контролировать;0.00031
контролироваться;5e-05
контроль;0.00122
контрольно-пропускной;5e-05
конференция;5e-05
конфиденциальность;5e-05
конфиденциальный;5e-05
конфликт;0.00148
концентрация;0.00015
концентрировать;5e-05
концепция;0.0001
концерт;5e-05
координация;5e-05
копия;5e-05
коптеры;5e-05
корабельный;5e-05
корабль;0.00015
корень;5e-05
корея;0.00025
коридор;0.00036
королевский;5e-05
короткий;0.0001
корпус;0.0002
корреспондент;5e-05
коррупция;0.0001
коса;5e-05
косметика;5e-05
коснуться;5e-05
косово;0.0001
котенко;0.0001
который;0.00346
котуласа;5e-05
кража;5e-05
край;0.0001
крайне;0.0001
крайний;5e-05
краматорск;0.0001
краснодарский;0.0001
красный;5e-05
краткий;5e-05
краткосрочный;5e-05
крах;5e-05
кредит;5e-05
кредитный;5e-05
крейсер;0.0002
кременная;0.0001
кременчуг;5e-05
кременчугский;5e-05
кремль;0.00041
кризис;0.00061
крим;5e-05
криминальный;5e-05
кристофферсный;0.0001
критик;5e-05
критика;0.0002
критиковать;0.00015
критический;0.0001
кропман;5e-05
круг;5e-05
крупный;0.00092
крушение;5e-05
крылатый;0.00015
крым;0.00178
крымский;0.00015
крыша;5e-05
ксения;0.0001
ксенофобия;5e-05
куделий;5e-05
кузьмин;5e-05
кук;5e-05
кукуруза;0.0001
кулеб;5e-05
кульбачный;5e-05
культура;0.00015
культурный;0.0001
куник;5e-05
купол;5e-05
купянск;0.0001
купянско-лиманский;5e-05
курдистан;0.0001
курдский;5e-05
курс;0.00031
курский;0.00025
кыргызстан;5e-05
кыргызча;5e-05
лаборатория;5e-05
лавров;5e-05
лагерь;0.0001
ларкина;5e-05
латвийский;5e-05
латвия;0.00025
латинский;5e-05
лауреат;0.0001
лднр;0.00015
лдпр;5e-05
левобережье;5e-05
левый;5e-05
легенда;5e-05
легион;0.0001
легитимизировать;5e-05
легитимность;5e-05
лейтенант;0.0001
ленин;5e-05
леонид;5e-05
лес;5e-05
лесной;5e-05
летальный;0.0001
летательный;5e-05
лето;0.00015
ливанский;5e-05
лидер;0.00036
лиз;5e-05
ликвидация;5e-05
ликвидировать;0.00015
лиман;0.0001
лимит;5e-05
линия;0.00036
лисичанск;0.00015
листовка;5e-05
литва;0.00025
литовский;5e-05
лихтенштейн;0.00015
лицензия;5e-05
лицо;0.00112
лично;0.0001
личность;0.0001
личный;0.0002
лишение;0.0001
лишить;0.00025
лишиться;0.0001
ллойд;5e-05
логистика;5e-05
логистический;0.00015
ложный;5e-05
локальный;5e-05
лояльность;5e-05
лояльный;5e-05
луганск;0.00015
луганский;0.00102
лукашенко;0.00015
львов-белов;5e-05
любечан;5e-05
любой;0.00015
людмила;5e-05
ляйена;5e-05
ляэнеметс;5e-05
м;0.0001
май;0.00341
майдан;5e-05
майор;5e-05
майский;5e-05
макдоналдс;5e-05
македония;0.0001
македонски;5e-05
макрон;0.0001
максим;5e-05
маленький;0.0002
маловероятный;0.0001
малопригодный;0.0001
малый;0.0001
мальдивы;5e-05
мальта;5e-05
манифест;5e-05
маргинальный;5e-05
марий;5e-05
марионеточный;0.0001
мариуполь;0.00071
мариупольский;5e-05
мария;5e-05
марк;5e-05
марка;5e-05
маркировать;5e-05
марплзти;5e-05
март;0.0267
марченко;5e-05
маршрут;5e-05
марьинка;0.0001
масло;0.00015
массив;5e-05
массированый;5e-05
массировать;0.00036
массово;0.0002
массовый;0.00056
масштаб;0.0002
масштабно;5e-05
масштабность;5e-05
масштабный;0.00041
материал;0.0002
материальный;0.0002
материковый;5e-05
маттиас;5e-05
мать;0.00041
мачулискать;5e-05
машина;0.00015
мвд;0.0001
медаль;5e-05
медиа;0.0002
медиа-рынок;5e-05
медиазона;0.00097
медиафайл;0.0001
медикамент;0.0001
медицинский;0.0001
медленно;0.0001
медосмотр;5e-05
медуза;0.00056
медучреждение;5e-05
межгосударственный;0.0001
международный;0.00239
межнациональный;5e-05
мелитополь;0.0002
меморандум;0.0001
менеджмент;5e-05
менее;0.00117
менять;0.0001
меняться;0.00015
мера;0.00051
мероприятие;0.0001
местный;0.00025
место;0.00046
местонахождение;5e-05
месяц;0.00082
мета-вика;5e-05
метаданные;0.0001
металл;0.0001
методичка;5e-05
метр;5e-05
метро;5e-05
механизм;0.0001
миграционный;0.00015
мигрировать;5e-05
мид;0.00015
микронезия;0.0001
микроэлектроника;0.0001
мила;5e-05
милитаризация;0.0001
милиция;5e-05
миллерово;5e-05
миллиард;0.0001
миллион;0.00041
минздрав;5e-05
минимум;0.00036
министерство;0.00031
министр;0.00061
миннекай;5e-05
минный;5e-05
минобороны;0.00066
минский;0.00015
минфин;0.00015
минэкономики;5e-05
мир;0.00102
мирный;0.00082
мировой;0.00107
миссия;0.00036
митинг;0.0001
митрополит;5e-05
миф;0.0001
михайлов;5e-05
мишень;5e-05
млн;0.00132
млрд;0.00041
мнение;0.0002
многий;0.0001
много;0.0001
многократный;5e-05
многолетний;5e-05
многочисленный;0.0002
множественный;0.00015
множество;0.0002
мо;5e-05
мобилизация;0.00214
мобилизовать;0.00082
мобилизовывать;5e-05
мобильный;5e-05
модель;5e-05
можно;5e-05
мозг;5e-05
мой;5e-05
молдавия;0.0001
молдова;0.00015
молниеносный;0.00031
молодой;0.0001
молькино;5e-05
момент;0.00051
монако;5e-05
монгол;5e-05
мониторинговый;0.0002
моральный;5e-05
море;0.00031
морепродукт;5e-05
морок;5e-05
морской;0.00031
моряк;5e-05
москва;0.00132
москва-сити;5e-05
московский;0.00041
мост;0.00025
мотор;5e-05
мочь;0.00092
мощный;5e-05
мощь;0.0001
мп;0.0001
мрия;0.0001
муж;0.0001
мужской;5e-05
мужчина;0.00031
музей;0.0001
музыка;0.0001
муниципальный;5e-05
мур;5e-05
мус;0.0001
мусорный;5e-05
мьянма;0.0001
мюнхенский;0.0001
мясо;0.00015
мятеж;0.0001
мятежный;5e-05
н;0.0001
набирать;0.00015
наблюдатель;0.00015
наблюдать;5e-05
наблюдение;5e-05
набор;0.00015
навигация;0.00015
навык;5e-05
надвигаться;5e-05
надежда;5e-05
надеяться;0.0001
надо;5e-05
назад;0.0001
название;0.0001
назвать;0.00061
наземный;5e-05
назначение;0.00015
называть;0.00031
наиболее;0.0001
наименование;5e-05
найти;0.00031
наказание;0.0001
наказать;5e-05
наказывать;5e-05
накануне;5e-05
накапливаться;5e-05
накрыть;5e-05
наличие;0.0002
наличный;0.0001
налог;0.0001
налоговый;0.0001
налогообложение;5e-05
наложить;0.0001
намерение;0.00015
намеренно;5e-05
намеренный;5e-05
намерить;0.00015
нанесение;5e-05
нанести;0.00046
наносить;0.00031
наноситься;5e-05
наоборот;5e-05
нападение;0.00051
написать;0.0001
направить;0.00051
направление;0.00097
направленость;5e-05
напраление;5e-05
нарастать;5e-05
наращивание;0.00015
наращивать;5e-05
народ;0.00025
народный;0.00036
нарратив;5e-05
нарусов;0.00015
нарушать;0.00025
нарушение;0.00051
нарушитель;5e-05
нарушить;0.0001
нарыв;5e-05
население;0.00117
населить;0.00051
насилие;5e-05
насильно;5e-05
насильственный;5e-05
наследие;5e-05
наследственный;5e-05
настаивать;0.0001
настоящий;0.00122
наступа;0.0001
наступательный;0.0001
наступать;0.00015
наступление;0.00107
нато;0.00214
научный;0.0002
нафт;5e-05
нафтобаза;5e-05
находиться;0.00061
находка;5e-05
нацелить;0.0001
нацизм;5e-05
национал-патриот;5e-05
национализация;0.0001
национализировать;0.0001
национальный;0.00041
нация;5e-05
начало;0.00448
начальник;5e-05
начальный;5e-05
начать;0.00163
начаться;0.00046
начинать;5e-05
наш;0.00015
нбп;5e-05
небесный;0.0001
небо;5e-05
небольшой;5e-05
нева-б;5e-05
неверов;5e-05
невозможно;5e-05
невозможность;5e-05
неволя;5e-05
невыполнение;5e-05
невыполнимый;5e-05
невысокий;5e-05
невыученный;5e-05
негативный;0.00025
негосударственный;0.00015
недавно;5e-05
недееспособность;5e-05
неделя;0.00056
недооценка;5e-05
недостаток;0.0001
недостаточный;5e-05
недостоверный;0.00015
недосчитаться;5e-05
независимость;0.0002
независимый;0.0002
незадолго;5e-05
незаконно;5e-05
незаконный;5e-05
незамедлительный;5e-05
неизбежность;0.0001
неизбирательный;0.0002
неизвестно;5e-05
нейтралитет;0.0002
нейтральный;0.00031
некоммерческий;5e-05
неконтролируемый;5e-05
некорректный;5e-05
некоторый;0.00087
нелетальный;0.0001
нельзя;0.0001
немало;5e-05
немедленно;0.00015
немецкий;0.00031
немой;0.0002
неназванный;5e-05
ненасильственный;0.0001
необратимый;5e-05
необходимость;0.00031
необходимый;0.0002
необъявленный;5e-05
необычный;5e-05
неоднократно;0.00015
неоднократный;5e-05
неоимпериализм;5e-05
неонацизм;0.00015
неонацист;0.0001
неонацистский;0.0001
неофициальный;5e-05
непобедимость;5e-05
непогашенный;5e-05
неподконтрольный;5e-05
непосредственно;5e-05
непосредственный;5e-05
непрерывный;5e-05
непригодность;5e-05
непригодный;0.0001
нептун;5e-05
неразорвавшийся;5e-05
нерациональный;0.0001
нерегулярный;5e-05
несколько;0.00117
несоизмеримый;0.0001
несоответствие;5e-05
нестабильность;5e-05
нести;0.00015
нет;0.00046
неудаление;0.00015
неудача;0.0001
неудачный;0.0001
неуклонный;5e-05
нефтегазовый;5e-05
нефтеперабатывать;5e-05
нефтеперерабатывающий;0.0001
нефтепереработка;0.0001
нефтепродукт;0.0001
нефтепродукция;5e-05
нефтехранилище;0.0001
нефть;0.00148
нефтяной;0.00015
нехватка;0.0001
нехотеевка;5e-05
нечепуренко;5e-05
нечисловой;5e-05
неясно;5e-05
нигде;5e-05
нидерланды;5e-05
низкий;0.0002
никарагуа;5e-05
никогда;0.0001
никой;5e-05
николаев;5e-05
николаевский;0.00015
николай;5e-05
ничейный;5e-05
нобелевский;0.0001
новгородский;5e-05
новоросийск;5e-05
новороссийск;5e-05
новостной;5e-05
новость;0.00025
новый;0.00183
нога;5e-05
номенклатура;5e-05
номерной;5e-05
норвегия;0.00041
норма;5e-05
носитель;5e-05
носить;5e-05
ночной;5e-05
ночью;0.0002
ноябрь;0.00362
нужда;0.00015
нужно;0.0001
нужный;0.0001
ньий;5e-05
оаэ;0.0001
оба;0.00025
обвал;5e-05
обвальный;5e-05
обвинение;0.00041
обвинить;0.00036
обвинять;0.00015
обвиняться;0.0002
обеднить;5e-05
обернуться;5e-05
обеспечение;0.00031
обеспечивать;0.0001
обеспечительный;5e-05
обеспечить;0.0002
обещание;5e-05
обещать;5e-05
обзор;0.0002
обитание;5e-05
область;0.00459
облигация;5e-05
обмен;0.0001
обменный;5e-05
обмундирование;5e-05
обнародование;5e-05
обнародовать;0.0001
обнаружение;0.0001
обнаружить;0.00015
обнаружиться;5e-05
обновлять;5e-05
обновляться;0.0001
обозначение;0.0001
обозреватель;0.00015
обойтись;0.0001
оборона;0.00168
оборонный;0.00041
обороняться;0.0001
оборудование;0.0001
обоснование;0.0001
обосновать;5e-05
обостриться;5e-05
образ;0.00025
образец;5e-05
образование;5e-05
обратить;5e-05
обратиться;0.00036
обращать;5e-05
обращение;0.01365
обсе;0.00046
обслуживание;0.00015
обслуживать;5e-05
обстановка;5e-05
обстоятельство;5e-05
обстрел;0.00092
обстреливать;5e-05
обсуждать;0.0001
обсуждение;0.0001
обувь;5e-05
обучение;0.0001
обход;5e-05
обширный;5e-05
общественный;0.00036
общество;0.00015
обществознание;5e-05
общий;0.00056
община;0.0001
объединение;0.00025
объединить;0.00025
объект;0.00107
объявить;0.00122
объявление;0.00025
объявлять;5e-05
объявляться;5e-05
объяснить;5e-05
объяснять;0.00015
обычный;0.0001
обязательство;0.00025
обязать;0.0002
огневой;0.0001
огнестрельный;0.0001
огонь;0.00031
ограничение;0.00076
ограниченный;0.0001
ограничиваться;5e-05
ограничительный;5e-05
ограничить;0.00036
огромный;0.00015
одевать;5e-05
одежда;0.0001
одесса;0.0001
одесский;5e-05
одеть;5e-05
один;0.00097
одкб;5e-05
одновременно;0.00031
одновременный;5e-05
односторонний;5e-05
одобрение;5e-05
одобрить;0.00015
одобрять;0.0001
ожидание;5e-05
ожидать;0.00015
ожидаться;5e-05
озвучивать;5e-05
озвучить;0.00015
означать;0.00015
означають;5e-05
оказание;0.0001
оказаться;0.00041
оказывать;0.00031
окапываться;5e-05
океания;5e-05
оккупант;0.0001
оккупационный;0.00025
оккупация;0.00036
оккупировать;0.00112
окончание;0.00015
окончательный;5e-05
окончиться;5e-05
округ;0.0001
окружающий;0.0001
окружение;0.0001
окружить;0.00015
октябрь;0.0027
октябрьский;0.0001
окупован;5e-05
олафома;0.0001
олег;0.0001
олимпийский;0.0001
олыко;5e-05
ольга;0.0001
омбудсмен;0.0001
онлайн;0.0001
онлайн-кинотеатр;5e-05
оон;0.00265
опасаться;0.00025
опасение;5e-05
опасность;5e-05
операция;0.00117
описание;0.0001
описывать;5e-05
оплата;5e-05
оплачивать;5e-05
оплачиваться;5e-05
ополченец;5e-05
опорный;5e-05
оппозиционный;0.0001
оппонент;5e-05
оправдание;0.00036
оправдывать;0.0001
определилить;5e-05
определять;5e-05
опровергнуть;5e-05
опровержение;5e-05
опрос;0.00041
опросить;0.0002
оптимистичный;5e-05
опубликовать;0.00051
опыт;0.00025
опять;5e-05
орган;0.00036
организационный;5e-05
организация;0.00148
организм;0.0001
организовать;0.00036
организовывать;5e-05
орден;0.0001
ордер;5e-05
оригинал;0.00189
ориентация;5e-05
ориентировать;5e-05
орлов;0.0001
оружие;0.00163
осада;0.00015
осадить;0.0001
осадный;5e-05
осветить;5e-05
освещать;5e-05
освещение;5e-05
освободить;0.00041
освобождение;0.0002
осень;0.00015
осетия;0.0001
оскол;0.0001
оскорбление;5e-05
ослабить;0.00025
ослабление;0.00025
осложниться;5e-05
осматривать;5e-05
основа;5e-05
основание;0.00051
основатель;5e-05
основать;5e-05
основное;0.0002
основной;0.00056
основный;0.00148
особенно;0.00015
особенность;5e-05
особо;5e-05
особый;0.0001
оставаться;0.0001
оставлять;0.0001
остальной;0.00015
остановить;0.00041
остановиться;5e-05
остаться;0.00041
остин;5e-05
остров;0.0002
острый;5e-05
осудить;0.00076
осуществить;0.0001
осуществление;5e-05
осуществляться;0.0001
отбросить;0.00025
отвергать;5e-05
отвергаться;5e-05
отвести;5e-05
ответ;0.00041
ответить;0.0001
ответный;0.0002
ответственность;0.00041
отвечать;0.00015
отвлекать;5e-05
отвлечь;5e-05
отвод;5e-05
отдаляться;5e-05
отдать;5e-05
отделение;0.00025
отдельный;0.00036
отечественный;0.0001
отзыв;0.0001
отзывать;5e-05
отказ;0.00087
отказаться;0.00061
отказник;0.00025
отказываться;5e-05
откликаться;5e-05
отключаться;5e-05
отключение;0.0001
открывать;5e-05
открыто;0.0001
открытый;0.00036
отличаться;0.0001
отличие;5e-05
отмена;0.0001
отменить;0.00015
отметить;0.0001
отмечать;0.00041
отмечаться;0.00031
отнести;5e-05
относиться;5e-05
отношение;0.00107
отозвать;0.0001
отпатрулировать;5e-05
отправить;0.00036
отправиться;5e-05
отправка;0.0001
отправление;5e-05
отправлять;0.00046
отработать;5e-05
отравлять;5e-05
отражение;0.00025
отрасль;0.0001
отреагировать;5e-05
отредактировать;5e-05
отрезок;5e-05
отрицание;0.0001
отрицательно;5e-05
отрицательный;0.0001
отрицать;0.00025
отрицаться;5e-05
отряд;5e-05
отскок;5e-05
отслеживаться;5e-05
отслужить;5e-05
отставание;5e-05
отстранить;0.0001
отступать;5e-05
отступить;0.0001
отступление;0.00015
отсутствие;0.0002
отсутствовать;0.0001
отсылка;5e-05
отход;0.00025
отчуждение;0.0001
офис;5e-05
офицер;0.00025
официально;0.0002
официальный;0.00102
охватить;0.0001
охранять;5e-05
оценивать;0.0002
оценить;0.00031
оценка;0.00143
очевидец;0.0001
очень;0.00015
очередь;0.0002
ошибка;0.0001
оштрафовать;0.00031
оэср;5e-05
павел;0.00015
падать;5e-05
падение;0.00041
пакет;5e-05
пакетный;5e-05
памятник;0.0001
паника;5e-05
панк;5e-05
пара;5e-05
парад;5e-05
парализовать;5e-05
параллельно;5e-05
параноик;5e-05
парк;5e-05
парламент;5e-05
парламентарий;5e-05
партизан;0.0002
партизанский;0.0001
партия;0.00046
пасечник;5e-05
пассивно;5e-05
патриарх;0.00015
патриархат;0.0001
пауза;5e-05
пахотный;5e-05
пво;0.00025
певой;5e-05
пенсионер;5e-05
пентагон;0.00015
первоначально;5e-05
первоначальный;0.00036
первый;0.00173
перебросить;5e-05
переброска;0.0001
перевезти;5e-05
перевернуть;5e-05
перевести;0.00015
перевозчик;5e-05
перевооружение;5e-05
перевоспитание;5e-05
переговоры;0.00127
перегруппировка;5e-05
передавать;0.0001
передать;0.0002
передача;0.00015
передислоцировать;5e-05
передовой;0.00015
переезд;5e-05
перейти;0.00025
перекос;5e-05
перекрывать;5e-05
перелететь;5e-05
перелом;5e-05
переместить;0.00015
перемещение;5e-05
перемирие;0.0001
перемочь;5e-05
перенести;5e-05
переносный;5e-05
переселение;5e-05
пересечь;5e-05
переслать;0.00036
пересмотр;5e-05
пересмотреть;5e-05
переставить;5e-05
перестать;0.0002
перехватить;0.0001
переход;0.0002
период;0.00056
персональный;0.0002
перспектива;5e-05
петиция;5e-05
пехота;5e-05
пехотный;5e-05
печальный;5e-05
печать;0.00015
пик;0.0001
пилот;5e-05
писать;0.00015
письменный;0.0001
питание;0.0001
питьевой;0.0001
план;0.00102
планировать;0.00025
планироваться;0.00025
платформа;0.0002
плацдарм;0.00015
плен;0.00015
пленение;5e-05
пленный;0.00015
плотина;5e-05
плохо;5e-05
плохой;0.0001
площадка;5e-05
площадь;5e-05
победа;0.00051
победить;5e-05
побережье;0.00015
поведение;5e-05
поверить;5e-05
повестка;0.0001
повинная;5e-05
повлечь;5e-05
повлиять;0.00015
поворотный;5e-05
повредить;0.00071
повреждение;0.0001
повторно;0.0001
повторный;0.00015
повторять;5e-05
повторяться;5e-05
повышение;0.0001
погибать;5e-05
погибнуть;0.00148
поглощение;5e-05
поговорить;5e-05
погодить;5e-05
пограничный;5e-05
подавать;5e-05
подавить;0.0001
подавлять;5e-05
подать;0.00015
подбить;5e-05
подвал;5e-05
подвергаться;0.0002
подвергнуть;5e-05
подвергнуться;0.00031
подготовить;0.0001
подготовка;0.00056
поддаваться;5e-05
поддержать;0.0002
поддерживать;0.0002
поддержка;0.00076
подземный;5e-05
подконтрольный;0.0002
подлежать;5e-05
подлинность;5e-05
поднять;5e-05
подобный;0.0002
подозревать;0.0001
подозрение;5e-05
подорвать;0.00015
подписание;0.0001
подписать;0.00097
подписывать;5e-05
подполковник;5e-05
подразделение;0.00025
подробный;0.0001
подсанкционный;5e-05
подсолнечный;0.00015
подтвердить;0.00056
подтверждать;0.0001
подтверждение;0.0002
подтопление;5e-05
подчеркнуть;5e-05
подчинить;5e-05
поезд;5e-05
пожар;5e-05
пожертвовать;5e-05
позволить;0.0001
позволять;0.00015
поздний;0.00031
позиционный;0.0002
позиция;0.00041
поиск;0.0002
поисковик;5e-05
поисковый;0.0001
пойти;0.00015
пока;5e-05
показ;5e-05
показание;5e-05
показатель;0.00015
показать;5e-05
показывать;0.00015
покидать;5e-05
покинуть;0.00051
поколение;5e-05
покрыть;5e-05
покупатель;5e-05
покупать;5e-05
покупка;5e-05
пол;5e-05
полагать;5e-05
полгода;0.0001
поле;0.00025
полезный;5e-05
полигон;5e-05
политик;0.00015
политика;0.00051
политический;0.00082
политолог;0.0001
политология;0.0001
политтехнолог;5e-05
полк;5e-05
полковник;5e-05
полна;5e-05
полномасштабный;0.00036
полностью;0.00076
полный;0.00071
половина;0.00056
положение;0.00051
положительный;0.0001
полтора;5e-05
полувоенный;5e-05
полуночь;0.0001
полуостров;0.0002
получать;5e-05
получение;5e-05
получить;0.00087
польза;0.0002
пользователь;5e-05
польша;0.0002
польщий;5e-05
поляков;5e-05
поменять;5e-05
помещение;5e-05
помилование;5e-05
помочь;0.00036
помощь;0.00066
понада;5e-05
понести;0.0001
понизить;0.00015
понимание;5e-05
понимать;5e-05
понятие;0.00025
пообещать;5e-05
поощрить;5e-05
поощрять;5e-05
поощряться;5e-05
попадание;5e-05
попадать;0.00015
попасная;0.00015
попасть;0.0002
пополнение;5e-05
попросить;0.00025
популярный;0.0001
популяция;5e-05
попытаться;0.0002
попытка;0.00036
пора;5e-05
поражение;0.00031
поразок;5e-05
порошенко;5e-05
порт;0.00066
порча;5e-05
порядок;0.0002
посвятить;0.0001
послать;5e-05
последний;0.00031
последовательно;5e-05
последствие;0.00097
последующий;0.00025
посол;0.0001
посольство;5e-05
посредничество;5e-05
пост;0.0001
поставить;0.0001
поставка;0.00066
поставлять;0.00015
поставляться;0.00015
постепенно;0.0001
постепенный;5e-05
постоянный;5e-05
пострадать;0.00015
постсоветский;5e-05
поступать;0.00015
поступление;0.0001
потенциал;5e-05
потенциальный;5e-05
потерпеть;0.0001
потеря;0.00316
потерять;0.00031
потеряться;5e-05
потолок;0.00036
потом;0.0001
потому;0.0001
потопить;5e-05
потопление;5e-05
потратить;0.0001
потребность;5e-05
потребовать;0.00031
потребоваться;5e-05
похитить;5e-05
похищать;5e-05
похищение;0.00015
похоже;5e-05
почва;0.00015
почему;0.0002
почти;0.00046
почувствовать;5e-05
появиться;0.0001
появление;5e-05
правило;0.00015
правительственный;0.0002
правительство;0.00112
править;0.0001
правка;0.0001
правление;5e-05
право;0.00102
правобережье;5e-05
правозащитный;0.0001
правоохранительный;5e-05
правопорядок;5e-05
православный;0.00031
правый;5e-05
прайм-тайм;5e-05
практика;5e-05
практически;0.00051
превзойти;5e-05
превосходство;5e-05
превысить;0.00015
превышать;0.00015
предварительный;0.00015
предвоенный;5e-05
предел;0.00025
предлог;0.0002
предложение;0.0001
предложить;0.00015
предмет;0.0001
предоставить;0.0001
предоставление;0.0001
предостеречь;5e-05
предотвратить;0.00015
предотвращение;0.0001
предполагать;0.00025
предполагаться;5e-05
предположение;5e-05
предположительно;5e-05
предприниматель;5e-05
предпринять;0.00015
предприятие;0.00056
председатель;0.0001
предсказывать;5e-05
представитель;0.00031
представиться;5e-05
представлять;5e-05
предупредить;0.00015
предупреждать;5e-05
предупреждение;5e-05
предусматривать;0.0002
предусмотренный;5e-05
предшествовать;5e-05
предыстория;0.0001
прежний;5e-05
президент;0.00127
президентский;5e-05
президентство;0.0001
преимущество;0.00015
прекрасно;5e-05
прекратить;0.00056
прекращать;0.00015
прекращение;0.00046
премьер-министр;5e-05
преобладать;5e-05
преследование;5e-05
преследовать;5e-05
пресс-конференция;0.00015
пресс-секретарь;5e-05
преступление;0.00127
приблизиться;5e-05
прибор;5e-05
прибыль;5e-05
прибыть;5e-05
приведение;5e-05
привести;0.00122
привет;5e-05
привлекать;5e-05
привлечение;0.0002
привлечь;0.00015
приводить;0.00015
привычный;5e-05
приглашаться;5e-05
пригожин;5e-05
пригород;5e-05
приграничный;0.0001
пригрозить;0.00041
придерживаться;5e-05
приднестровье;0.00015
призвать;0.00076
признавать;5e-05
признак;0.0002
признание;0.00025
признанный;0.00025
признать;0.00066
призрак;0.0001
призупиняють;5e-05
призыв;0.00025
призывать;0.0002
призывник;0.00031
призывный;5e-05
прийти;5e-05
прийтись;0.0001
приказ;0.0001
приказать;0.0001
прикрываться;5e-05
применение;0.00025
применить;0.0001
применять;0.00015
примерно;0.0001
примечание;0.00015
принадлежать;5e-05
принимать;5e-05
принуждать;0.0001
принуждение;0.0002
принятие;0.00031
принять;0.00097
приобрести;0.00015
приостановить;0.00031
приостановка;0.00025
приостановление;5e-05
припять;5e-05
приравниваться;5e-05
природа;0.0001
природно-заповедный;5e-05
природный;5e-05
прирост;5e-05
прислать;5e-05
присоединение;0.0001
присоединиться;0.00025
присоединяться;5e-05
приступить;0.0001
присутствие;0.0002
притеснение;5e-05
прифронтовой;5e-05
приходиться;0.0002
причастность;5e-05
причастный;5e-05
причина;0.00036
причинить;5e-05
пробить;0.0001
проблема;0.00025
провал;0.00025
провальний;5e-05
проведение;0.00031
проверить;0.00015
провести;0.00046
проводиться;0.0001
провозгласить;5e-05
провозглашение;0.0001
провокация;0.00015
прогноз;0.00025
прогнозировать;0.0001
проголосовать;0.00025
программа;0.00046
программный;5e-05
прогресс;5e-05
прогрессивный;5e-05
продаватима;5e-05
продавать;0.00025
продажа;0.00031
продать;5e-05
продвижение;0.00036
продвинуться;0.0001
продемонстрировать;5e-05
продлить;5e-05
продлиться;5e-05
продовольствие;0.00015
продолжать;0.00036
продолжаться;0.0002
продолжительный;5e-05
продолжить;0.0002
продолжиться;0.0001
продукт;5e-05
продукция;0.00031
проезд;5e-05
проект;0.00046
проживать;5e-05
проиграть;5e-05
произвести;5e-05
производитель;0.00015
производить;5e-05
производиться;0.0001
производство;0.00031
произодство;5e-05
произойти;0.00041
происходить;0.0002
происхождение;5e-05
происшествие;5e-05
пройти;0.00025
прокуратура;0.0001
прокурор;0.00015
пролив;5e-05
промежуток;0.0001
промышленность;0.0001
проникать;5e-05
проникнуть;5e-05
пропаганда;0.00036
пропагандистский;5e-05
пропасть;0.00046
пропуск;5e-05
прорвать;0.00015
прорваться;0.0001
пророссийский;0.00031
пророчество;5e-05
прорубание;5e-05
прорыв;0.00015
просвещение;0.0001
просить;5e-05
просмотр;0.0001
пространство;0.00036
просьба;0.00015
прота;5e-05
протест;0.00025
протестный;5e-05
протестовать;5e-05
противник;0.00025
противовоздушный;0.0001
противодействие;5e-05
противоречащий;5e-05
противоречивый;5e-05
противоречить;5e-05
противотанковый;5e-05
протить;5e-05
протокол;5e-05
протяжение;5e-05
проукраинский;5e-05
профессиональный;5e-05
профессор;0.0001
проходить;0.00015
процент;5e-05
процентный;5e-05
процесс;0.00025
прочий;0.0002
прочить;5e-05
прошедшее;5e-05
прошлый;0.0001
прощаться;5e-05
проявить;5e-05
прямой;0.00025
прятать;5e-05
псак;5e-05
псковский;5e-05
птица;5e-05
публикация;0.0001
публиковать;0.00015
публиковаться;0.0001
публичный;5e-05
пугать;5e-05
пункт;0.00092
путин;0.00372
путь;0.00015
пушечный;0.0001
пушилин;5e-05
пуще;0.0001
пшеница;0.00031
пшеничный;5e-05
пыль;5e-05
пытать;5e-05
пытаться;0.00051
пытка;0.00015
пятеро;5e-05
пятый;0.0001
пять;0.00031
работа;0.00071
работать;0.00031
работинский;5e-05
работник;5e-05
работоспособный;5e-05
рабочий;5e-05
равномерный;5e-05
рада;0.00036
радиация;5e-05
радикально;5e-05
радикальный;5e-05
радио;0.00112
радиоактивный;5e-05
радиолокационный;5e-05
радиоперехват;5e-05
раз;0.00041
разбирательство;5e-05
разбирать;0.0001
разбиться;5e-05
разбомбить;5e-05
разведка;0.00046
разведслужба;5e-05
разведчик;5e-05
разведывательно-диверсионный;5e-05
разведывательный;0.0001
развернуть;5e-05
развивающийся;5e-05
развитие;0.0002
развить;5e-05
развлекательный;0.0001
развязать;0.0001
разговор;5e-05
разграбить;5e-05
разгром;0.00015
разгромить;0.00015
раздать;0.0001
раздел;0.00025
разделить;5e-05
раздор;5e-05
различный;0.00036
размер;5e-05
размещать;0.0001
размещаться;5e-05
размещение;0.00031
разница;0.0001
разный;0.0001
разорвать;0.0002
разрабатывать;5e-05
разработать;5e-05
разработчик;5e-05
разрешение;0.00015
разрешить;0.00015
разрушение;0.00025
разрушить;0.00082
разрыв;5e-05
район;0.00082
ракета;0.00056
ракетный;0.00046
рамка;0.00025
рамштайна;5e-05
ранг;5e-05
ранее;0.0002
ранение;0.00025
раненый;0.00127
ранить;0.0001
ранний;5e-05
рапорт;5e-05
расклад;5e-05
раскол;0.00015
расколоть;5e-05
распад;5e-05
расплывчатый;5e-05
расположение;5e-05
расположить;0.00015
распоряжение;5e-05
распространение;0.00025
распространять;0.0002
распространяться;0.00031
рассеять;5e-05
рассказать;0.00031
рассказывать;0.00015
расследование;0.00036
расследовательский;0.00015
расследовать;0.0001
рассматривать;0.0002
расстояние;5e-05
расстрел;5e-05
рассчитать;0.0001
рассчитывать;5e-05
растение;0.0001
расти;0.0002
расход;0.00061
расценить;0.00015
расчищать;5e-05
расширение;0.0001
расширить;0.0002
расшифровка;5e-05
ратификация;0.0001
ратифицировать;5e-05
раунд;0.0002
рация;5e-05
рбк;0.00025
реагирование;5e-05
реагировать;5e-05
реактивный;5e-05
реактор;0.0001
реакторный;5e-05
реакция;0.00082
реализация;5e-05
реализовать;5e-05
реалия;0.00061
реальный;0.00036
ребята;5e-05
ревизионистский;5e-05
регион;0.00056
региональный;5e-05
регистрационный;5e-05
регулирование;5e-05
регулярно;0.0001
регулярный;5e-05
регулятор;5e-05
редактор;0.0001
редакция;5e-05
редкий;5e-05
реестр;5e-05
режим;0.00061
резерв;0.00031
резервист;5e-05
резкий;0.00015
резко;0.0002
резник;5e-05
резня;0.0001
резолюция;0.00061
резонанс;5e-05
результат;0.00056
рейд;0.00025
рейтер;0.0002
рейтинг;0.00025
река;0.00025
реклама;0.00015
рекомендация;5e-05
рекомендовать;5e-05
рекордно;5e-05
рекордный;0.0002
религиозный;0.0001
релиз;5e-05
релокация;5e-05
репрессировать;5e-05
репрессия;5e-05
респондент;0.00015
республика;0.00066
ресурс;0.00051
ретранслировать;5e-05
референдум;0.0001
рефлексивный;5e-05
рецессия;5e-05
речь;0.00025
решающий;5e-05
решение;0.00107
решить;0.00056
ржавый;5e-05
риа;0.0001
ричард;5e-05
родильный;5e-05
родитель;5e-05
родный;0.0001
родственник;5e-05
родственный;5e-05
рознь;5e-05
ролик;0.0001
роль;0.0001
роман;5e-05
росгвардия;5e-05
роскомнадзор;0.00046
роскомсвобода;0.0001
российский;0.01641
российско-белорусский;0.0001
российско-германский;5e-05
российско-украинский;0.00082
российско-французский;5e-05
россия;0.02104
россиянин;0.00112
росстат;0.0001
рост;0.00061
ростов-на-дону;5e-05
ростовский;5e-05
рота;0.0001
рофа;5e-05
рпц;0.0001
ртуть;5e-05
рубеж;0.00031
рубежный;0.00015
рубль;0.00087
рудский;5e-05
руина;0.00025
рука;5e-05
руководитель;5e-05
руководить;5e-05
руководство;0.00076
руководящий;5e-05
румыния;5e-05
рунет;0.0001
русский;0.00285
русскоязычный;0.00015
рустам;5e-05
русый;0.00673
русь;5e-05
рухман;5e-05
рухнуть;5e-05
рф;0.00392
рынок;0.00031
ряд;0.00224
рядом;0.00015
рязанский;5e-05
рязань;5e-05
садиться;5e-05
сажать;5e-05
сайт;0.00056
сак;5e-05
сальдо;5e-05
сам;0.00107
саммит;0.0001
самооборона;0.0001
самостоятельно;0.00015
самостоятельный;0.0001
самоходный;5e-05
самый;0.00056
сан-марино;5e-05
санджар;5e-05
санкционный;0.0001
санкция;0.00209
саратовский;5e-05
сассоль;5e-05
саха;5e-05
сб;5e-05
сбербанк;5e-05
сбитие;5e-05
сбить;0.0002
сближение;5e-05
сборная;5e-05
свабод;5e-05
сведение;0.00015
свежий;5e-05
свергнуть;0.0001
свержение;0.0001
сверхсекретный;5e-05
свести;5e-05
свестись;5e-05
светлана;5e-05
светский;5e-05
свечин;5e-05
свидетельство;0.00031
свидетельствовать;0.0001
свинец;5e-05
свобода;0.00117
свободный;0.0001
сводка;0.0001
свой;0.00306
связанный;0.00031
связать;0.00015
связаться;5e-05
связь;0.00071
святогорск;0.0001
священнослужитель;5e-05
сдача;5e-05
сделать;0.00025
сделка;0.00015
сдержать;5e-05
сдерживание;5e-05
сдетонировать;5e-05
севастополь;0.00015
севастопольский;5e-05
север;0.00056
северный;0.00071
северо-восток;0.0002
северо-западный;5e-05
северодонецк;0.0002
северский;5e-05
седляров;0.0001
сей;5e-05
сейчас;0.0001
секретарь;0.0001
секретный;5e-05
сексуальный;5e-05
сектор;0.00015
секунда;0.0002
село;0.00036
сельскохозяйственный;5e-05
семейство;5e-05
семь;0.00025
семья;5e-05
сенатор;0.0001
сентябрь;0.00331
сепаратистский;0.0002
сербия;5e-05
сервис;0.0001
сергей;0.00046
сергейцев;5e-05
середина;0.00031
серый;5e-05
сессия;0.00015
сетка;5e-05
сеть;0.00036
сещ;5e-05
сеять;5e-05
сжидить;5e-05
сибирский;5e-05
сибирь;0.00015
сизый;0.0001
сила;0.00331
силовик;5e-05
сильно;0.0001
сильный;0.0001
символ;0.0001
сингапур;5e-05
синенкова;0.0001
сирена;5e-05
сирия;0.0002
система;0.00051
систематический;5e-05
системно;5e-05
системный;5e-05
ситуация;0.00061
сказать;0.00015
сказаться;5e-05
скарра;5e-05
скачать;0.0001
скидка;0.00015
склад;5e-05
склонять;5e-05
сковорода;5e-05
сколько;0.0001
сконцентрировать;5e-05
скопировать;5e-05
скрывать;5e-05
скрытый;0.00046
скрыть;5e-05
слабеть;5e-05
слава;0.0001
славутич;5e-05
славянск;5e-05
слать;5e-05
следом;5e-05
следствие;5e-05
следующий;0.0002
слить;5e-05
словакия;0.00015
словаччини;5e-05
словения;5e-05
слово;0.00025
сложиться;5e-05
сложно;5e-05
слуга;5e-05
служба;0.00296
служебный;5e-05
случай;0.00097
случайный;5e-05
случиться;5e-05
слушание;0.0001
смена;0.00015
смениться;5e-05
смертность;0.0001
смертоносный;5e-05
смерть;5e-05
сми;0.00199
смириться;5e-05
смотреть;0.00082
смочь;0.00025
смысл;5e-05
снабжение;0.00015
снаряд;0.0002
снаряжение;5e-05
сначала;5e-05
снбо;0.0001
снижение;0.0001
снизить;0.0001
снизиться;0.0002
снимать;5e-05
снимок;5e-05
снова;0.0002
сносить;5e-05
снятие;5e-05
снять;0.0002
собирать;5e-05
собираться;0.0001
соболезновать;5e-05
собрание;5e-05
собранный;5e-05
собрать;5e-05
собственность;5e-05
собственный;5e-05
событие;0.00051
собянинский;5e-05
совбез;0.0002
совершать;0.00015
совершить;0.00025
совет;0.00082
советник;5e-05
советский;0.00025
совместный;0.00025
совокупный;5e-05
современный;5e-05
согласие;5e-05
согласиться;5e-05
согласовать;5e-05
соглашение;0.00036
содействие;5e-05
содержание;0.0001
содержать;5e-05
сожаление;5e-05
создавать;0.0001
создание;0.00071
создать;0.00056
соколов;5e-05
сократить;0.00015
сократиться;0.00025
сокращение;0.00025
сокрушительный;0.00015
солахян;5e-05
солдат;0.00066
солдат-срочник;0.0002
солдатский;0.0002
соледар;0.0001
солидарность;5e-05
сообщать;0.00056
сообщаться;0.00041
сообщение;0.00071
сообщество;0.00036
сообщить;0.00076
соответственно;5e-05
соответствие;5e-05
соответствовать;0.00025
соответствующий;0.0001
соотечественник;5e-05
соотношение;5e-05
сопредельный;5e-05
соприкосновение;0.0001
сопровождаться;0.0001
сопротивление;0.00051
сопрячь;5e-05
соревноваться;5e-05
сослаться;5e-05
сосредоточиться;5e-05
состав;0.00071
составить;0.00031
составлять;0.00041
состояние;0.00061
состоять;5e-05
состояться;0.0002
сотня;5e-05
сотрудник;0.0002
сотрудничать;5e-05
сотрудничество;0.00051
сохранение;5e-05
сохранить;0.00015
сохраняться;5e-05
социалист;5e-05
социалистический;0.0001
социальный;0.00041
социологический;5e-05
социология;5e-05
соцопрос;0.0001
соцсеть;0.0001
союз;0.00051
союзник;0.00015
союзный;0.00015
спасатель;5e-05
спасаться;0.0001
спасть;5e-05
специализировать;5e-05
специализироваться;5e-05
специалист;5e-05
специально;5e-05
специальный;0.00051
специфический;5e-05
спецоперация;0.0002
спецсвязь;5e-05
спецслужба;5e-05
спешно;5e-05
спешный;5e-05
список;0.00025
спонсор;5e-05
спортивный;0.00015
спортсмен;5e-05
способ;5e-05
способность;0.0001
способный;5e-05
способствовать;0.00025
справиться;5e-05
справка;5e-05
спровоцировать;0.00025
спрогнозировать;5e-05
спутниковый;5e-05
сравнение;0.0002
сравнивать;5e-05
сравнить;5e-05
сражение;0.00015
сразу;0.00036
среда;0.00015
среднее;5e-05
среднесрочный;5e-05
средство;0.00041
срочник;0.00066
срочник-военнопленный;5e-05
срочный;0.00025
српски;5e-05
српскохрватски;5e-05
срыву;5e-05
ссср;0.0002
ссылаться;0.0001
ссылка;0.00056
стабилизация;5e-05
стабильность;5e-05
стабильный;0.0001
ставангер;5e-05
ставка;0.0001
стадия;5e-05
сталкиваться;0.00015
стамбул;0.0002
станица;5e-05
становиться;0.00015
станция;0.0001
стараться;5e-05
старобельск;5e-05
старокрымский;5e-05
старший;0.00015
старый;5e-05
статистика;5e-05
статус;0.00046
стать;0.00239
статья;0.00245
ствол;5e-05
степень;0.00015
стимуля;5e-05
сто;5e-05
стоимость;0.0001
стоить;5e-05
стойкость;5e-05
столица;0.0001
столкновение;0.0001
столкнуться;0.0001
столтенберг;5e-05
столько;5e-05
сторона;0.00331
стоянка;5e-05
стоять;5e-05
страдание;5e-05
стража;5e-05
страна;0.00362
страна-агрессор;5e-05
страна-кандидат;5e-05
страна-член;0.0001
страница;0.00041
страница-двойник;5e-05
стратегически;0.00015
стратегический;0.00082
стратегия;0.00051
страчують;5e-05
стрелка;0.0001
стрелять;5e-05
стремительно;5e-05
стремительный;0.00015
стремиться;0.00015
стремление;0.0001
строить;5e-05
строй;0.0001
строчка;5e-05
структура;5e-05
субтитр;5e-05
суверенитет;0.0001
суд;0.00112
судебный;0.0001
судимость;5e-05
судить;5e-05
судно;0.0002
судный;0.0002
судьба;5e-05
сума;0.0001
сумма;0.0002
суммарно;5e-05
сумский;0.00031
сутки;0.0001
суть;5e-05
сухопутный;0.0002
сушан;5e-05
существенно;5e-05
существенный;0.00015
существование;0.00015
сфера;0.0001
сформировать;5e-05
сходиться;5e-05
схождение;5e-05
счесть;5e-05
считать;0.00071
считаться;0.0001
сша;0.00204
сын;0.00015
сырьевой;5e-05
сюда;5e-05
табличный;5e-05
таволжанка;5e-05
таврид;5e-05
тайвань;0.0001
тайна;0.0001
такой;0.00112
тактика;0.00046
тактический;0.0001
там;0.0001
танк;0.00036
танкер;0.0002
танкист;5e-05
танковый;5e-05
тарас;5e-05
татарча;5e-05
татьяна;5e-05
тв;5e-05
тверской;5e-05
творить;5e-05
театр;0.00015
тейза;5e-05
текст;0.0001
текущий;0.00015
телевидение;0.0001
телевизор;0.0001
телеграм-канал;5e-05
телеканал;0.0002
тело;5e-05
темп;0.0001
теперь;0.00015
тепло;5e-05
терапия;5e-05
термин;0.00036
терминология;0.00015
территориальный;0.00031
территория;0.00489
терроризм;5e-05
террористический;5e-05
терять;0.00015
теснить;5e-05
тесный;5e-05
техника;0.00051
технический;5e-05
техногенный;0.0001
технологический;0.0001
технология;0.0002
течение;0.0002
тиждеть;5e-05
тил;5e-05
тимофей;5e-05
тиньковы;5e-05
тисячий;5e-05
тихий;5e-05
товар;0.00025
товарный;0.0002
тогда;0.0001
ток-шоу;5e-05
токсический;5e-05
токсичный;5e-05
только;0.00122
топливный;5e-05
топливо;0.0002
торговать;5e-05
торговаться;5e-05
торговля;0.00031
торговый;5e-05
тот;0.0029
точка;0.00015
традиционно;5e-05
транзит;0.00015
трансляция;5e-05
транспорт;5e-05
транспортный;0.0001
трансформатор;5e-05
трасса;5e-05
тратить;5e-05
требование;0.00036
требовать;0.0002
требоваться;5e-05
тревога;5e-05
тренировочный;5e-05
третий;0.00046
треть;0.00031
три;0.00041
три-четыре;5e-05
тринадцать;5e-05
трлн;0.00036
тройка;5e-05
тройственный;5e-05
тролль;5e-05
тростянец;5e-05
труд;0.00015
трудиться;5e-05
трудность;5e-05
труп;5e-05
туда;5e-05
туманный;5e-05
тупик;0.0001
турецкий;5e-05
турнир;5e-05
турция;0.00025
тут;0.0001
тщательно;5e-05
тыл;0.00015
тыловой;5e-05
тыс;0.00071
тысяча;0.00296
тэс;5e-05
тюркский;0.0001
тюрьма;5e-05
тяжело;5e-05
тяжкий;5e-05
уаз;5e-05
убедиться;5e-05
убежище;5e-05
убивать;0.00015
убийство;0.00031
убийца;5e-05
убирать;5e-05
убитый;0.00132
убить;5e-05
увеличение;0.00031
увеличивать;5e-05
увеличить;0.0002
уверить;5e-05
увольнение;5e-05
увольнять;5e-05
увязнуть;0.0001
углегорский;5e-05
угледар;0.0001
угледаром;5e-05
углубиться;5e-05
уголовный;0.00061
уголь;0.00025
угон;5e-05
угорщина;5e-05
угрожать;0.0002
угроза;0.00097
удалить;0.0002
удар;0.00163
удари;5e-05
ударный;0.00015
удаться;0.00066
удача;5e-05
удвоить;5e-05
удержать;5e-05
удерживать;5e-05
удовлетворение;5e-05
удостоверение;5e-05
уефа;5e-05
ужасать;5e-05
уже;0.00082
узбекистан;5e-05
узел;0.0001
узнать;5e-05
уильям;0.0001
уйти;0.00025
указ;0.00066
указание;5e-05
указать;0.0001
указывать;0.00025
украина;0.0242
украинец;0.00087
украинский;0.00729
украсть;5e-05
укрзализныцть;5e-05
укринформ;5e-05
укрнафт;5e-05
укрпочта;5e-05
укртатнафт;5e-05
улица;5e-05
улучшение;5e-05
улучшить;5e-05
ультимативный;5e-05
ультраправый;0.0001
уменьшить;0.0001
умерщвление;5e-05
уметь;5e-05
умирать;5e-05
унести;0.0001
униана;0.0001
университет;0.0001
уничтожение;0.00041
уничтожить;0.00117
уоллес;5e-05
упавший;5e-05
упадок;5e-05
упасть;0.00025
уполномоченный;5e-05
упоминание;0.00015
упоминаться;0.0001
упорный;5e-05
употребление;5e-05
управление;0.00041
управляемый;5e-05
уразовый;5e-05
урал;5e-05
уран;5e-05
урегулирование;5e-05
уровень;0.00061
урок;0.00015
урон;0.00015
урсула;5e-05
усиление;0.0002
усилие;0.00015
усилить;0.0001
усилиться;0.0001
ускоренный;0.0001
условие;0.00046
условный;5e-05
услуга;5e-05
успех;5e-05
успешный;5e-05
успокоить;5e-05
устав;0.00015
установить;0.00041
установиться;5e-05
установление;0.0002
установленный;0.00015
устаревший;5e-05
устойчивость;5e-05
устранить;5e-05
устроить;5e-05
уступать;5e-05
уступить;0.0001
уступка;5e-05
утвердить;5e-05
утверждать;0.00015
утверждение;0.0002
утечка;0.0002
уткин;5e-05
уточнение;5e-05
уточнить;0.0001
уточняться;5e-05
утро;0.00025
утром;0.00015
уход;0.0001
ухудшиться;5e-05
участвовать;0.0002
участие;0.00092
участиться;0.0001
участник;0.00036
участок;0.0001
участь;5e-05
учебник;0.0001
учебный;0.0001
учение;0.00025
учесть;5e-05
учитель;0.00015
учредить;5e-05
учреждение;5e-05
ущерб;0.0002
фабрика;5e-05
фаза;0.00041
факт;0.00031
фактически;0.00025
фактический;0.0002
фактчекинг;5e-05
фактчекинговый;5e-05
фальсификация;5e-05
фальшивый;5e-05
фашизм;5e-05
февраль;0.01192
федеральный;0.00031
федеративный;5e-05
федерация;0.00071
федкевич;5e-05
фейк;0.00031
фейковый;5e-05
фергана;5e-05
ферма;0.0001
фигура;5e-05
физически;0.00015
физический;0.0001
физлицо;5e-05
фиксироваться;5e-05
фиктивный;5e-05
фильтрационный;5e-05
фильтрация;0.0001
финансовый;0.00015
финансы;0.0002
финляндия;0.00025
фирма;0.00015
флаг;0.0002
флагман;5e-05
флот;0.00036
фон;0.00041
фонд;0.00046
фонтанка;5e-05
форма;5e-05
формат;5e-05
формирование;0.00046
формулировать;5e-05
форсирование;5e-05
форсировать;0.0002
форум;5e-05
фото;0.00015
фотогалерея;5e-05
фотография;0.0001
фохт;5e-05
фр;5e-05
франс-пресс;0.0001
франция;0.0001
французский;0.0001
фронт;0.00076
фрэнсис;5e-05
фсб;0.0001
фск;5e-05
фундаментально;5e-05
функционировать;0.0001
хайн;5e-05
хамид;5e-05
хантер;5e-05
характер;0.00025
характеризовать;5e-05
характеристика;5e-05
харьков;0.00061
харьковский;0.00056
хвиль;5e-05
хезболл;5e-05
херсон;0.00046
херсонский;0.00092
херсонщина;0.00015
хиллари;5e-05
химикат;5e-05
ход;0.00092
холод;0.0001
холодный;0.0001
холокост;0.0001
хотеть;0.00036
храм;0.0001
храниться;5e-05
хроника;5e-05
хронология;0.0001
цб;0.00015
цвет;5e-05
цезарь;5e-05
цековы;5e-05
целое;0.0001
целостность;5e-05
цель;0.00326
цена;0.00087
цензура;0.00046
ценный;0.0001
центр;0.00061
центральный;0.00061
центробанк;0.0001
цепочка;0.0002
церковный;5e-05
церковь;0.00031
цитата;5e-05
цитировать;5e-05
цифра;0.00031
цру;0.0001
чао;5e-05
час;0.00041
частично;0.00031
частичный;0.0002
частность;0.00025
часто;0.00015
частый;0.0001
часть;0.00122
часы;0.00015
чаэс;0.00025
чей;5e-05
человек;0.00306
человеческий;5e-05
человечество;0.0001
челябинец;0.0001
челябинский;5e-05
червоненко;5e-05
чернавский;5e-05
чернигов;0.00025
черниговский;0.00036
чернобыль;0.0001
чернобыльский;0.00036
черногория;0.0001
черноморский;0.00041
четверг;0.0001
четверо;0.0001
четверть;0.0001
четыре;5e-05
чехия;0.00025
чечня;5e-05
чешский;5e-05
чи;0.0001
чий;5e-05
чиновник;0.00036
численность;0.00025
числиться;5e-05
число;0.00138
чистка;0.0001
чисто;5e-05
чистый;5e-05
читать;0.0001
член;0.00036
членство;0.00025
чома;0.0001
чонгарский;5e-05
чп;5e-05
чрезвычайный;0.00015
чтение;5e-05
чудной;5e-05
чужой;0.0001
чурмановый;0.0001
шаг;5e-05
шантаж;0.0001
шанхайский;5e-05
шария;5e-05
швед;5e-05
швейцария;0.00041
швеция;0.00025
шебекинский;5e-05
шейко;5e-05
широкий;0.00015
широко;0.0001
школа;0.00051
школьник;0.0001
школьный;5e-05
шойгу;0.0002
шок;0.0001
шолец;0.0001
штаб;0.0002
штамп;5e-05
штат;0.0001
штатный;5e-05
штраф;0.0001
штурм;0.0001
штурмовой;5e-05
шуляк;5e-05
щит;0.0001
эвакуация;0.00036
эвакуировать;0.0001
эвакуироваться;5e-05
эйрик;0.0001
экземпляр;5e-05
экипировка;0.0001
экологический;0.00025
экономика;0.00122
экономист;0.0001
экономический;0.00066
экс;0.0001
экс-президент;0.0001
эксперт;0.00082
экспертный;5e-05
экспорт;0.00066
экспортировать;0.0001
экспортироваться;5e-05
экспортный;5e-05
экстренно;5e-05
экстренный;0.0001
электричество;5e-05
электроэнергия;5e-05
элемент;0.00015
элита;0.0001
эмансипация;5e-05
эмбарго;0.00031
эммануэль;0.0001
энгельс;0.0001
эндемичный;5e-05
энергетический;0.00015
энергоблок;0.00015
энергодар;5e-05
энергоноситель;0.00056
энергоресурсы;0.0001
энергосистема;5e-05
энтони;5e-05
энциклопедия;0.0002
эпизод;5e-05
эритрея;5e-05
эрнст;5e-05
эскадрилья;5e-05
эстония;0.0002
эстонский;5e-05
этап;0.00036
этнически;5e-05
этнический;5e-05
этот;0.00183
эфиопия;5e-05
эфир;0.0001
эфирный;5e-05
эффект;0.00015
эффективность;0.0001
эффективный;0.0001
эхо;0.0001
юань;5e-05
юар;5e-05
юг;0.00056
юго-восток;0.00015
юго-восточный;0.0002
южный;0.00036
юнеско;0.00015
юнисеф;0.0001
юрий;5e-05
юрисдикция;5e-05
юрист;5e-05
ютюбер;5e-05
явка;5e-05
являться;0.00046
явный;5e-05
ядерный;0.00107
ядовитый;5e-05
язык;0.00015
як;5e-05
январь;0.00321
январь-февраль;5e-05
яндекс;5e-05
янукович;0.0001
япония;0.0002
яруга;5e-05
