автобан;0.00048
автодорога;0.00143
автомагистраль;0.00048
автономный;0.00048
авторство;0.00048
автострада;0.00048
автотрасса;0.0019
аграрий;0.00095
аграрный;0.00095
агропродукция;0.00286
азот;0.00095
акция;0.00428
александр;0.00048
амбиция;0.00048
америка;0.00048
аммиак;0.00048
амстердам;0.00048
англ;0.00571
арка;0.00095
арнем;0.00048
архивировать;0.01095
атмосфера;0.00048
аэропорт;0.00095
баден-вюртемберг;0.00048
барынкина;0.00048
безопасность;0.00095
беларускать;0.00048
белоруссия;0.00048
бельгийский;0.00048
бельгия;0.00048
беспошлинный;0.00143
близкий;0.00048
блокада;0.0019
блокировать;0.00286
блокировка;0.0019
бобовый;0.00048
боевой;0.00048
болгария;0.0019
более;0.00238
больший;0.00095
большинство;0.00095
борьба;0.00048
брауншвейг;0.00048
бремерхафена;0.00048
британский;0.00048
бронетехника;0.00048
брюссель;0.00428
бундесрат;0.00048
бундестаг;0.00048
бунт;0.00048
быстро;0.00048
быть;0.00571
бюджет;0.00095
бюджетный;0.00095
бюрократический;0.00095
вагон;0.00048
варшава;0.00048
введение;0.00048
ввести;0.00095
ввоз;0.00143
вдвое;0.00095
ведущий;0.00048
век;0.00048
великобритания;0.00048
венгрия;0.00048
вента-де-ла-нав;0.00048
версия;0.00095
весна;0.00048
вестись;0.00048
весь;0.00286
викидать;0.00048
викимедиа;0.00048
википедия;0.00286
викисклад;0.00048
виктор;0.00048
виновный;0.00048
вице-премьер;0.00048
вклад;0.00048
включать;0.00048
власть;0.00048
внешний;0.00048
возделывать;0.00048
возмущение;0.00048
возникнуть;0.00048
войти;0.00048
войцеховский;0.00095
вокзал;0.00048
вопрос;0.00048
восемь;0.00048
восток;0.00048
восточный;0.00048
впервые;0.00048
временно;0.00048
временной;0.00048
время;0.00286
встретиться;0.00048
встреча;0.0019
вступить;0.00048
всячески;0.00048
вторжение;0.00048
второй;0.00095
вурден;0.00048
вход;0.00048
выброс;0.00095
выбросить;0.00095
вывести;0.00048
вывозить;0.00048
выгодно;0.00048
выдавить;0.00048
выдвинуть;0.00048
выделяться;0.00048
выехать;0.00048
вызвать;0.00238
выйти;0.00143
выплата;0.00048
выплачивать;0.00048
выполнять;0.00048
вырасти;0.00048
высокий;0.00048
высота;0.00048
выставка;0.00095
высыпать;0.00095
выходить;0.00048
газ;0.00095
газета;0.00095
ганновер;0.00095
где;0.00143
гелдерланд;0.00048
германия;0.00571
глава;0.00095
главный;0.00048
год;0.02475
годонин;0.00048
голландский;0.00048
город;0.00476
горючий;0.00143
государство;0.00048
готовый;0.00048
гранада;0.00048
гранат;0.00048
граница;0.00476
греция;0.00048
гронинген;0.00048
грузовик;0.00286
группа;0.00048
далее;0.00048
данные;0.00048
данный;0.00048
дата;0.01333
дать;0.00048
два;0.00048
движение;0.00286
двухмесячный;0.00048
действие;0.00095
действовать;0.00048
декабрь;0.00048
демонстрант;0.00048
демонстрация;0.00143
день;0.00428
дерево;0.00048
десятка;0.00143
дефицит;0.00048
дизельный;0.00143
диоксид;0.00048
диснейленд;0.00048
длина;0.00048
долг;0.00048
долгобычев;0.00048
должный;0.00095
доля;0.00048
дональд;0.00048
дополнительный;0.00048
дорога;0.00476
дорогуск;0.00095
дорожный;0.00048
дорохуск;0.00095
достигнуть;0.00143
достижение;0.00048
доступный;0.00048
дотация;0.00048
драка;0.00048
другой;0.00524
евро;0.0019
еврокомиссар;0.00095
европа;0.00143
европейский;0.00524
евросоюз;0.00904
единица;0.00143
единый;0.00048
ес;0.00238
ехать;0.00048
железнодорожный;0.00143
жечь;0.00095
заблокировать;0.00381
завязаться;0.00048
заглавный;0.00048
заграждать;0.00048
задержать;0.00143
закон;0.00143
закрытый;0.00048
закупочный;0.00048
замедлить;0.00048
западный;0.00048
запись;0.00048
запрет;0.00048
запретить;0.00095
зарегистрировать;0.00048
затруднить;0.00048
заявить;0.0019
заявление;0.00095
заявляться;0.00048
здание;0.0019
земледелие;0.00048
земля;0.00095
зерно;0.00428
зерновые;0.00048
знак;0.00095
значительный;0.00048
зосина;0.00048
избранный;0.00048
избыток;0.00048
известие;0.00381
изменение;0.00048
иль-журден;0.00048
иметь;0.00095
импорт;0.00571
импортироваться;0.00048
имя;0.00048
инструмент;0.00095
инфляция;0.00095
инцидент;0.00095
исп;0.00048
испания;0.0019
испанский;0.00095
использование;0.00048
истечение;0.00048
история;0.00048
источник;0.00048
италия;0.00143
канада;0.00048
категория;0.00095
качество;0.00048
квартал;0.00143
квота;0.00095
климат;0.00048
климатический;0.00048
км;0.00048
код;0.01761
кодекс;0.00048
колонна;0.00048
комиссия;0.00048
коммуна;0.00048
конец;0.00048
конечный;0.00048
конкурировать;0.00048
контроль;0.00048
контрольно-пропускной;0.00048
конфиденциальность;0.00048
корова;0.00048
короткий;0.00048
корреспондент;0.00048
корчева;0.00048
который;0.00428
кпп;0.00095
крайний;0.00048
краковца;0.00048
кризис;0.00095
крупный;0.00238
кубрак;0.00048
кук;0.00048
культура;0.00048
курс;0.00048
куча;0.00048
л;0.00048
латвия;0.00048
латинский;0.00048
лента;0.00048
либерализация;0.00048
лидер;0.00095
литва;0.00095
литовский;0.00048
лицензия;0.00048
лицо;0.00048
лондон;0.0019
льгота;0.00143
м;0.00048
макрон;0.00048
малый;0.00048
манифестант;0.00048
манифестация;0.00095
марокканский;0.00048
марокко;0.00048
март;0.02761
марш;0.00048
массовый;0.0019
материал;0.00048
медык;0.00095
мелкий;0.00095
мера;0.00143
меркосура;0.00048
место;0.00048
миллион;0.00048
министр;0.00143
мировой;0.00095
митинг;0.00095
митинговать;0.00048
млн;0.00095
млрд;0.00143
мобильный;0.00048
модуль;0.00048
молодой;0.00048
молочный;0.00048
мочь;0.00095
мусор;0.00048
мясо;0.00048
навигация;0.00143
навоз;0.00048
называть;0.00048
наказать;0.00048
наличие;0.00048
налоговый;0.00048
налогообложение;0.00048
наносить;0.00048
направить;0.00095
направление;0.00095
нарбонн;0.00048
нарушение;0.00048
находиться;0.00048
национальный;0.00048
начало;0.0019
начать;0.0019
начаться;0.00095
недалеко;0.00143
недовольный;0.00048
недовольство;0.00095
незаконный;0.00095
неизвестный;0.00095
некоммерческий;0.00048
некомпетентность;0.00048
некоторый;0.00048
немецкий;0.0019
несколько;0.00143
нет;0.00048
нидерланды;0.00286
низкий;0.00095
новый;0.00143
норма;0.00238
нота;0.00048
ноябрь;0.00095
нулевой;0.00048
образоваться;0.00048
обращение;0.01333
обсуждаться;0.00048
обсуждение;0.00095
общественный;0.00048
объединить;0.00048
объявить;0.00048
ограничение;0.00095
ограничить;0.00048
один;0.00143
оказать;0.00048
окситаний;0.00143
октябрь;0.00048
оператор;0.00048
описание;0.00048
опоздание;0.00048
оптовый;0.00048
орбан;0.00048
организация;0.00143
органический;0.00048
основной;0.00048
основный;0.00143
оставить;0.00048
остановить;0.00048
ответственность;0.00048
отделение;0.00095
отдельный;0.00048
отказ;0.00048
отказаться;0.00095
отмена;0.00095
отменить;0.00095
отредактировать;0.00048
отрицать;0.00048
официальный;0.00048
охватить;0.00095
охрана;0.00048
очередь;0.00095
ошибка;0.00048
павильон;0.00048
падение;0.00048
париж;0.00381
парламент;0.00048
первый;0.00048
переговоры;0.00095
переделать;0.00048
перейти;0.00095
перекрытие;0.00048
перекрыть;0.00476
переместиться;0.00048
переход;0.00048
периодически;0.00048
персональный;0.00048
пестицид;0.00048
печать;0.00095
питание;0.00048
план;0.00238
площадь;0.00143
поведение;0.00048
повод;0.00048
повредить;0.00048
повторить;0.00048
поголовье;0.00143
пограничный;0.00048
погранпереход;0.00048
подавление;0.00048
подать;0.00048
поддержка;0.00048
поджечь;0.00143
подобный;0.00048
подобраться;0.00048
подорожать;0.00048
подробный;0.00048
подъезд;0.00048
подъездный;0.00048
пожертвовать;0.00048
поиск;0.00095
показатель;0.00048
покрышка;0.00095
политика;0.0019
политолог;0.00048
полицейский;0.00095
полиция;0.00333
полномочие;0.00048
половина;0.00048
положение;0.00048
полотно;0.00048
получить;0.00143
польский;0.00428
польша;0.00904
помидор;0.00048
помощь;0.0019
поощрять;0.00048
попытка;0.00048
пор-де-версать;0.00048
порт;0.00048
португалия;0.00048
порядок;0.00048
посетить;0.00048
последний;0.00048
поставка;0.00095
поставщик;0.00048
постепенно;0.00048
постоянный;0.00048
пострадать;0.00095
поступление;0.00048
потребовать;0.00048
почему;0.00095
почти;0.00048
пошлина;0.00048
правило;0.00048
правительство;0.00524
править;0.03617
правка;0.00095
правоохранитель;0.00048
предотвращение;0.00048
предполагать;0.00048
представитель;0.00095
представиться;0.00048
предыдущий;0.00048
президент;0.00048
премьер-министр;0.00095
прибыль;0.00048
прибыть;0.00048
привести;0.00333
пригрозить;0.00048
приехать;0.00048
призвать;0.00143
примение;0.00048
применить;0.0019
примечание;0.00095
принимать;0.00048
принять;0.00095
приняться;0.00048
приостановка;0.00048
присоединиться;0.00048
прицеп;0.00048
причина;0.0019
пробка;0.00048
проблема;0.00048
проведение;0.00048
проверять;0.00048
провести;0.00095
провинция;0.00095
программа;0.00048
продовольственный;0.00048
продовольствие;0.00048
продукт;0.00048
продукция;0.00381
проезд;0.0019
проект;0.00048
производство;0.00048
пройти;0.00333
проникнуть;0.00048
пропуск;0.00048
прорваться;0.00048
просмотр;0.00048
пространство;0.00048
протест;0.01713
протестовать;0.01428
противоречить;0.00048
профсоюз;0.00095
проходить;0.00476
процедура;0.00095
процессия;0.00048
пункт;0.00143
пустой;0.00048
путь;0.00048
пять;0.00048
работа;0.00048
рава-русский;0.00095
равный;0.00048
раз;0.00095
разгон;0.00095
раздражение;0.00048
разный;0.00048
разработчик;0.00048
район;0.00048
рамка;0.00048
ранее;0.00095
ранение;0.00048
раненый;0.00048
распространиться;0.00048
расчистка;0.00048
рбк;0.00048
революция;0.00048
регион;0.00048
резкий;0.00095
результат;0.00095
рентабельность;0.00048
решиться;0.00048
розничный;0.00048
российский;0.00048
россия;0.00238
рост;0.0019
руководство;0.00143
румыния;0.00143
русский;0.00095
русый;0.00619
рф;0.00048
рынок;0.00143
ряд;0.00143
саммит;0.00048
самый;0.00048
сахар;0.00048
сведение;0.00048
свежий;0.00048
светошумовой;0.00048
свободный;0.00048
свой;0.00095
связанный;0.00095
связать;0.00048
связаться;0.00048
сдерживать;0.00048
себестоимость;0.00048
север;0.00048
сейм;0.00095
сектор;0.00143
сельский;0.00286
сельскохозяйственный;0.00476
сельхозтехника;0.00095
семь;0.00048
сено;0.00143
сент-этьен-де-фонбеллон;0.00048
сеть;0.00048
сжечь;0.00048
сила;0.00095
синтетический;0.00048
система;0.00048
скачать;0.00095
скидка;0.00048
скот;0.00095
скрытый;0.00048
следующий;0.00048
слезоточивый;0.00095
слишком;0.00048
словакия;0.00143
слово;0.00095
сложить;0.00048
сложный;0.00095
служба;0.00048
служебный;0.00048
случай;0.00048
случайный;0.00048
смотреть;0.00048
смочь;0.00048
смять;0.00048
снижаться;0.00048
снижение;0.00048
снятие;0.00048
собрать;0.00048
собраться;0.00095
собственный;0.00048
событие;0.00048
соглашение;0.00048
содержание;0.00095
содержимое;0.00048
соединение;0.00048
создать;0.00095
сократить;0.00143
сокращение;0.00333
солома;0.00095
сообщество;0.00095
сообщить;0.00048
соответствующий;0.00048
сопровождаться;0.00048
соседний;0.00048
составить;0.00048
составлять;0.00048
сотня;0.00048
сотрудник;0.00048
сохранение;0.00095
социальный;0.00048
союз;0.0019
специальный;0.00048
спецнаряд;0.00048
спецтехник;0.00048
справедливый;0.00048
справка;0.00048
сравнение;0.00048
среднее;0.00048
средний;0.00048
срок;0.00048
ссылка;0.00286
станция;0.00095
статистика;0.00048
стать;0.00143
статья;0.00333
ствол;0.00048
столица;0.0019
столкновение;0.0019
сторона;0.00143
стража;0.00048
страна;0.0119
страница;0.00333
страховой;0.00048
субсидия;0.00286
существенно;0.00048
существовать;0.00048
сша;0.00048
сэкономить;0.00048
сюда;0.00048
так;0.00048
такой;0.00095
там;0.00048
таможенник;0.00048
таможня;0.00143
танк;0.00048
текст;0.00048
текущий;0.00048
техника;0.00095
товарный;0.00048
томат;0.00048
тонна;0.0019
топливо;0.0019
торговля;0.00143
тот;0.00286
трактор;0.00571
транзит;0.00048
транспарант;0.00048
трасса;0.00286
требование;0.00143
требовать;0.00143
третий;0.00048
три;0.00143
триумфальный;0.00095
трое;0.00095
трудно;0.00048
тулуза;0.00048
туск;0.00095
тыс;0.00143
тысяча;0.0019
тюк;0.00095
тянуться;0.00048
убыток;0.00048
убыточно;0.00048
увеличение;0.00143
угрин;0.00048
угрожать;0.00048
удобрение;0.0019
удорожание;0.00048
удорожать;0.00048
уже;0.0019
ужесточение;0.00048
ужин;0.00048
указание;0.00048
указать;0.00048
украина;0.00762
украинский;0.00524
укрупнение;0.00048
улица;0.0019
умело;0.00048
уничтожение;0.00048
условие;0.00143
устилуг;0.00048
уступка;0.00048
утвердить;0.00048
утверждаться;0.00048
утром;0.00048
ухудшение;0.00048
участие;0.00143
участница;0.00048
участок;0.00048
учитывать;0.00048
ущерб;0.00048
февраль;0.02713
федеральный;0.00048
ферма;0.00143
фермер;0.03332
фермерский;0.00095
финансирование;0.00048
флаг;0.00048
фонд;0.00048
форматирование;0.00048
форум;0.00048
фр;0.00048
франция;0.00714
французский;0.00095
фура;0.00048
ход;0.0019
хозяйство;0.00333
хотеть;0.00048
хребен;0.00095
хронология;0.00095
целое;0.00048
цель;0.00048
цена;0.00238
центр;0.00095
центральный;0.00095
цитировать;0.00048
частично;0.00048
частность;0.0019
часть;0.0019
человек;0.00095
черри;0.00048
чехия;0.0019
число;0.00048
читать;0.00048
член;0.00048
шаблон;0.00048
шарантон-ле-пон;0.00048
шарль-де-голля;0.00048
швейцария;0.00048
шегини;0.00095
шина;0.00048
шоссе;0.0019
штурм;0.00048
штурмовать;0.00048
штутгарт;0.00048
экологический;0.00238
экономика;0.00048
экспорт;0.00048
экспортировать;0.00048
экспоцентр;0.00048
экстренный;0.00048
элемент;0.00048
эммануэль;0.00048
энергетический;0.00048
энергоноситель;0.00048
энциклопедия;0.00048
этот;0.00428
являться;0.00048
ягодин;0.00095
язык;0.00095
январь;0.01285
януш;0.00095
