август;0.00029
авиагруппа;0.00029
авиакомпания;0.00029
авиация;0.00029
австрия;0.00143
автомобильный;0.00029
авторский;0.00029
авторство;0.00029
агентство;0.00029
агломерация;0.00029
административный;0.00029
азербайджан;0.00029
аквиль;0.00029
акт;0.00029
алфавит;0.00029
амнистия;0.00029
амстердамский;0.00086
аналогичный;0.00029
англ;0.00115
андорра;0.00287
апрель;0.00229
аргументировать;0.00029
армения;0.00029
аруба;0.00029
архивировать;0.00229
архивный;0.00086
архипелаг;0.00029
ассамблея;0.00029
ассоциация;0.00029
афганистан;0.00029
африка;0.00029
африканский;0.00029
аэропорт;0.00258
аэропортовый;0.00086
база;0.00057
бангладеш;0.00029
банк;0.00115
барселона;0.00029
беженец;0.00029
безвизовый;0.00115
безопасность;0.00086
безусловный;0.00029
беларускать;0.00057
беларусь;0.00029
белоруссия;0.00029
бельгия;0.00115
бенилюкс;0.00029
беспаспортный;0.00029
бесплатно;0.00029
беспрепятственно;0.00029
библиографический;0.00029
бизнес;0.00029
ближний;0.00029
близкий;0.00029
боевой;0.00029
болгария;0.00086
более;0.00086
больший;0.00029
большинство;0.00057
большой;0.00086
борьба;0.00057
будущее;0.00029
будущий;0.00029
български;0.00029
бывший;0.00029
быстрый;0.00029
быть;0.00889
бюджет;0.00029
бюзинген-на-верхнем-рейн;0.00086
важный;0.00057
валюта;0.00029
валютный;0.00029
вариант;0.00029
ватикан;0.00172
введение;0.00057
вводить;0.00029
великобритания;0.00201
венгрия;0.00057
версия;0.00057
вести;0.00057
весь;0.00315
весьма;0.00029
взаимный;0.00029
взгляд;0.00029
вид;0.00057
видеонаблюдение;0.00029
виза;0.01662
визовый;0.00201
визуальный;0.00029
викидать;0.00029
викимедиа;0.00029
википедия;0.00143
викисклад;0.00086
вильнюс;0.00029
вклад;0.00029
включить;0.00029
владелец;0.00057
владение;0.00029
внести;0.00029
внешний;0.00258
вноситься;0.00029
внутренний;0.00115
водительский;0.00057
военный;0.00086
возвращаться;0.00029
возвращение;0.00029
воздушный;0.00115
возможность;0.00115
возражение;0.00057
войти;0.00057
волшебный;0.00029
вопрос;0.00086
восток;0.00029
вплоть;0.00029
временно;0.00086
временной;0.00029
время;0.00516
встать;0.00029
встреча;0.00172
вступить;0.00201
вступление;0.00229
всякий;0.00057
входить;0.00315
входящий;0.00115
въезд;0.00401
въезжать;0.00143
въехать;0.00029
выборочный;0.00057
выборы;0.00029
выбрать;0.00029
выдавать;0.00172
выдаваться;0.00229
выдать;0.00287
выдача;0.00029
выдвигать;0.00029
выезд;0.00057
вынудить;0.00029
вырабатывать;0.00029
выработать;0.00029
выработка;0.00029
выражать;0.00029
высокий;0.00029
выход;0.00057
выходить;0.00029
вычет;0.00029
галилео;0.00029
гана;0.00029
гарантировать;0.00029
где;0.00029
гдр;0.00057
гельголанда;0.00029
генуя;0.00029
географический;0.00057
география;0.00029
георгиос;0.00029
герб;0.00029
германия;0.00115
германско-австрийский;0.00029
гибралтар;0.00057
глава;0.00029
гласить;0.00029
говорить;0.00029
год;0.0129
годный;0.00057
город;0.00201
гость;0.00029
государственный;0.00029
государство;0.01462
государство-участник;0.00229
государство-член;0.00115
готовый;0.00029
гражданин;0.00602
гражданский;0.00057
гражданство;0.00086
граница;0.00831
гренландия;0.00143
греция;0.00057
грузия;0.00029
группа;0.00029
гуманитарный;0.00029
давать;0.00143
дальнейший;0.00029
дания;0.00201
дата;0.00344
датский;0.00029
два;0.00057
движение;0.00029
двухбуквенный;0.00057
де-факто;0.00229
де-юре;0.00029
действие;0.00143
действительный;0.00315
действовать;0.00086
декабрь;0.00688
делаться;0.00029
дело;0.00086
демократический;0.00029
день;0.00172
департамент;0.00029
деревня;0.00029
держатель;0.00029
деятельность;0.00029
дипломатический;0.00057
директива;0.00029
договор;0.00401
документ;0.00057
должный;0.00086
дополнительный;0.00086
допускать;0.00029
допускаться;0.00029
дорога;0.00029
дорожный;0.00029
достигнуть;0.00029
достижение;0.00029
доступ;0.00086
доступный;0.00029
другой;0.00229
евратом;0.00029
евро;0.00057
еврозона;0.00029
евромиф;0.00029
еврооптимизм;0.00029
европа;0.00315
европейский;0.00946
европол;0.00029
евроскептицизм;0.00029
евросоюз;0.00057
евростат;0.00029
евросфера;0.00029
египет;0.00029
единый;0.00143
ес;0.0172
есть;0.00115
еэс;0.00029
жандармерия;0.00029
желание;0.00057
житель;0.00029
жительство;0.00057
журнал;0.00029
заболевание;0.00029
завершить;0.00029
зависимость;0.00029
заглавный;0.00029
заинтересованность;0.00029
законодательный;0.00086
законодательство;0.01376
закрепить;0.00029
замена;0.00029
заместить;0.00057
заморский;0.00258
запись;0.00057
запрет;0.00029
заработать;0.00029
заранее;0.00029
зарегистрировать;0.00029
зарплата;0.00029
заседание;0.00029
затронуть;0.00029
затруднительно;0.00029
затруднить;0.00029
затруднять;0.00029
затянуться;0.00029
заявить;0.00057
заявка;0.00143
заявление;0.00086
здание;0.00029
земля;0.00057
знак;0.00086
знакомый;0.00029
значительный;0.00086
значок;0.00029
зона;0.01204
зрение;0.00115
идентификационный;0.00029
избранный;0.00029
издавать;0.00029
изменение;0.00057
изменяться;0.00029
изначально;0.00057
изъявить;0.00029
изъятие;0.00115
иметь;0.00545
иммиграция;0.00029
имя;0.00029
инвестиционный;0.00057
индивидуальный;0.00086
инициатива;0.00029
инновация;0.00029
иной;0.00086
иностранец;0.00057
иностранный;0.00029
институт;0.00057
инструмент;0.00057
интеграция;0.00057
интерговернментализм;0.00029
интерес;0.00057
интернет;0.00029
информационный;0.00057
ирак;0.00029
иран;0.00029
ирландия;0.00172
ирон;0.00029
исключать;0.00057
исключение;0.00143
исключительный;0.00057
исландия;0.00057
испания;0.00373
испанский;0.00029
исполнять;0.00029
исполняться;0.00029
использование;0.00029
использовать;0.00057
история;0.00115
источник;0.00029
исходный;0.00057
италия;0.00344
итар-тасс;0.00029
июль;0.00057
июнь;0.0043
каждый;0.00086
кампион-д;0.00086
канада;0.00057
капитал;0.00029
карибский;0.00029
карликовый;0.00086
карточка;0.00029
касулидис;0.00029
каталог;0.00029
категория;0.00545
кипр;0.00373
классификация;0.00029
классифицировать;0.00029
княжество;0.00086
когда-либо;0.00029
код;0.00688
кодекс;0.00086
кодовый;0.00029
комбинированный;0.00029
комиссия;0.00029
комитет;0.00029
конвенция;0.00115
конго;0.00029
конкретный;0.00057
конкурентный;0.00029
консенсус;0.00029
консульский;0.00029
контролировать;0.00029
контроль;0.01089
конфиденциальность;0.00029
копия;0.00086
корабль;0.00029
королевство;0.00086
коронный;0.00057
короткий;0.00029
корпоративный;0.00029
корпус;0.00057
который;0.00831
крайний;0.00029
кратковременный;0.00029
краткосрочный;0.00172
крупный;0.00057
кук;0.00029
культура;0.00029
курсив;0.00029
куфштейн;0.00029
къарачай-малкъар;0.00029
кюрасао;0.00029
лазарев;0.00029
латвия;0.00057
легальный;0.00029
лечение;0.00029
ливиньо;0.00029
литва;0.00057
литература;0.00057
лихтенштейн;0.00459
лицензия;0.00029
лицо;0.00029
личность;0.00115
льшуя;0.00029
любой;0.00172
люксембург;0.00143
маастрихта;0.00029
май;0.00459
македонски;0.00029
максимально;0.00029
мальта;0.00057
марка;0.00057
марокканский;0.00057
марокко;0.00029
март;0.00487
мартин;0.00057
марь-астрид;0.00029
материал;0.00029
медиафайл;0.00029
медицинский;0.00029
межгосударственность;0.00029
международный;0.00115
мелилья;0.00115
менее;0.00115
мера;0.00115
место;0.00086
месяц;0.00057
механизм;0.00029
министр;0.00086
миновать;0.00086
мир;0.00029
мнение;0.00029
многий;0.00029
многократный;0.00115
многочисленный;0.00029
мобильный;0.00029
можно;0.00115
мозель;0.00029
молдавия;0.00029
монако;0.00201
монгол;0.00029
морской;0.00143
москва;0.00029
мочь;0.00344
наблюдение;0.00029
навигация;0.00086
надгосударственность;0.00029
надеяться;0.00057
надлежать;0.00029
наднациональный;0.00029
надора;0.00029
надпись;0.00029
название;0.00115
наземный;0.00029
называть;0.00086
наидольший;0.00029
наличие;0.00057
налоговый;0.00029
налогообложение;0.00029
направление;0.00029
население;0.00057
настоящий;0.00029
нато;0.00115
находиться;0.00057
национальный;0.00172
нация;0.00115
начало;0.00029
начаться;0.00029
невозможно;0.00029
невыполнение;0.00029
недостаточно;0.00029
недоступный;0.00029
нежелание;0.00029
независимо;0.00029
незаконный;0.00029
некоммерческий;0.00029
некоторый;0.00086
нелегальный;0.00029
необходимость;0.00057
необходимый;0.00029
неотъемлемый;0.00029
неофункционализм;0.00029
неподконтрольный;0.00029
неполный;0.00057
непосредственный;0.00057
непригодный;0.00029
неприсоединение;0.00029
нерабочий;0.00029
несколько;0.00115
нескоро;0.00029
нести;0.00029
нет;0.00029
неучастие;0.00143
нигерия;0.00029
нидерландский;0.00029
нидерланды;0.00373
новость;0.00086
новый;0.00086
номерной;0.00029
номинал;0.00029
норвегия;0.00229
норма;0.00029
ноябрь;0.00057
нский;0.00029
обеспечить;0.00029
обладатель;0.00029
обладать;0.00115
обновить;0.00029
обозначение;0.00057
обозначить;0.00029
оборона;0.00029
образ;0.00057
образование;0.00086
обратный;0.00029
обращаться;0.00029
обращение;0.00287
обременительный;0.00029
обставить;0.00029
обсуждение;0.00057
общение;0.00029
общий;0.00143
община;0.00057
объединение;0.00029
объезд;0.00029
обычный;0.00057
обязательный;0.00057
обязать;0.00086
обязываться;0.00029
оговорить;0.00029
ограниченный;0.00086
ограничивать;0.00029
один;0.00115
одинаковый;0.00029
однократный;0.00029
одобрить;0.00086
ожидаться;0.00029
означать;0.00057
оккупация;0.00029
округ;0.00029
окружающий;0.00029
окружить;0.00086
октябрь;0.00143
онлайн;0.00029
описание;0.00029
опора;0.00029
определить;0.00086
определяться;0.00029
оптимальный;0.00029
организация;0.00086
оригинал;0.00086
основа;0.00086
основание;0.00029
основной;0.00029
основный;0.00115
особый;0.00086
оставаться;0.00201
остальной;0.00029
останавливаться;0.00029
остров;0.0043
островной;0.00029
осуществление;0.00029
осуществляться;0.00143
ответственность;0.00057
отдельный;0.00086
отец-основатель;0.00029
отказ;0.00086
отказать;0.00029
открытый;0.00029
отличный;0.00029
отложить;0.00029
отмена;0.00201
отменять;0.00029
отменяться;0.00057
отметка;0.00057
относиться;0.00029
отношение;0.00086
отныне;0.00029
отредактировать;0.00029
отсутствовать;0.00057
оформление;0.00029
охрана;0.00029
охранять;0.00029
охраняться;0.00086
очередь;0.00029
ошибка;0.00029
пакистан;0.00029
палата;0.00029
парламент;0.00057
парламентский;0.00029
партия;0.00029
паспорт;0.00229
паспортно-визовый;0.00057
паспортный;0.00459
пассажир;0.00029
первоначальный;0.00029
первый;0.00057
передавать;0.00029
передвижение;0.00086
перейти;0.00057
перемещаться;0.00143
перемещение;0.00115
пересадка;0.00029
пересекать;0.00029
переход;0.00029
персональный;0.00029
печать;0.00057
планировать;0.00029
по-прежнему;0.00057
побережье;0.00029
поведение;0.00029
пограничный;0.00688
погранконтроль;0.00029
подать;0.00086
подача;0.00029
подвижность;0.00029
подготовительный;0.00029
поддать;0.00115
подпадать;0.00029
подписание;0.00029
подписать;0.00143
подписывать;0.00029
подразумевать;0.00029
подробный;0.00029
подходить;0.00029
подходящий;0.00029
подчиняться;0.00029
поездка;0.00143
пожертвовать;0.00029
позволять;0.00086
поздний;0.00057
поиск;0.00057
пока;0.00086
покидание;0.00057
полгода;0.00029
политика;0.00344
политический;0.00057
полицейский;0.00172
полностью;0.00287
полноценный;0.00057
полный;0.00315
положение;0.00229
полугодие;0.00057
получать;0.00057
получить;0.00115
пользоваться;0.00029
польша;0.00057
помощь;0.00029
понедельник;0.00029
понизить;0.00029
понятие;0.00029
попадание;0.00029
попасть;0.00086
порт;0.00172
портал;0.00029
португалия;0.00086
порядок;0.00057
посадка;0.00057
поселение;0.00029
посетитель;0.00057
посещать;0.00086
посещение;0.00344
последний;0.00115
последствие;0.00029
посол;0.00057
поставить;0.00057
постановление;0.00029
постепенный;0.00086
постоянно;0.00029
постоянный;0.00143
поступить;0.00029
потеря;0.00029
поток;0.00029
потребность;0.00029
потребоваться;0.00029
поэтому;0.00143
правило;0.00172
правительство;0.00057
править;0.01376
правка;0.00057
право;0.00974
правоотношение;0.00029
практический;0.00057
пребывание;0.00172
превышать;0.00086
предел;0.00057
предоставить;0.00086
предоставлять;0.00057
предполагаться;0.00057
предположить;0.00029
предпочесть;0.00029
председатель;0.00029
представитель;0.00143
представительство;0.00115
представиться;0.00029
представление;0.00029
представлять;0.00057
предусматривать;0.00029
предусмотреть;0.00115
предшественник;0.00029
предъявить;0.00057
преждевременно;0.00029
президент;0.00057
прекратить;0.00057
пресс-центр;0.00029
прибытие;0.00029
привести;0.00029
прилагать;0.00029
применение;0.00287
применять;0.00459
применяться;0.00086
примечание;0.00086
принадлежащий;0.00057
принимать;0.00029
принцесса;0.00029
принять;0.00115
приостановить;0.00029
приостановление;0.00029
присоединение;0.00172
присоединиться;0.00229
причина;0.00029
проблема;0.00029
проведение;0.00086
провинция;0.00057
проводить;0.00057
продолжать;0.00029
продолжаться;0.00029
продолжительность;0.00029
проевропеизм;0.00029
проект;0.00057
проживать;0.00086
произвольный;0.00029
произойти;0.00029
происходить;0.00029
проследование;0.00029
проследовать;0.00029
просмотр;0.00029
проставить;0.00029
пространство;0.00057
протокол;0.00029
профилактика;0.00029
прохождение;0.00115
процедура;0.00115
процесс;0.00086
прямой;0.00057
путешествие;0.00029
путешествовать;0.00029
пять;0.00057
работа;0.00029
рабочий;0.00029
радио;0.00029
раз;0.00029
разведка;0.00029
развитие;0.00029
раздел;0.00057
разделение;0.00029
разделять;0.00029
разный;0.00057
разрабатываться;0.00029
разработка;0.00029
разработчик;0.00029
разрешить;0.00029
рамка;0.00057
ранее;0.00029
расположить;0.00115
распространять;0.00029
распространяться;0.00201
рассматриваться;0.00029
рассмотреть;0.00029
расширение;0.00029
расширить;0.00057
реагирование;0.00029
регион;0.00057
региональный;0.00029
регистрация;0.00029
регулироваться;0.00057
регулярный;0.00029
режим;0.00201
рейс;0.00057
реконструкция;0.00029
религия;0.00029
республика;0.00143
ресурс;0.00029
решение;0.00057
риа;0.00086
рига;0.00029
родный;0.00029
российский;0.00029
россия;0.00029
россиянин;0.00029
рост;0.00029
руководство;0.00029
румыния;0.00086
русский;0.00029
рф;0.00057
рынок;0.00115
ряд;0.00143
сам;0.00057
самостоятельный;0.00029
самоуправляемый;0.00057
самый;0.00029
сан-марино;0.00201
санкция;0.00029
саха;0.00029
сведение;0.00029
свежий;0.00029
свобода;0.00115
свободный;0.00086
свой;0.00258
связанный;0.00029
связать;0.00029
связаться;0.00029
связь;0.00287
святой;0.00057
северный;0.00201
сезонный;0.00029
сейчас;0.00029
сельскохозяйственный;0.00029
семь;0.00029
семья;0.00029
сен-мартен;0.00086
сентябрь;0.00086
сеут;0.00115
сила;0.00315
сильно;0.00029
символ;0.00029
синт-мартен;0.00115
система;0.00143
скачать;0.00057
скорость;0.00057
скорый;0.00029
скрытый;0.00029
следование;0.00115
следующий;0.00057
словакия;0.00057
словарь;0.00029
словения;0.00057
служба;0.00057
служебный;0.00029
случай;0.00172
случайный;0.00029
сми;0.00029
смотреть;0.00172
сношение;0.00029
снять;0.00029
собирательный;0.00029
событие;0.00086
совершаться;0.00029
совет;0.00115
совместный;0.00029
совокупный;0.00029
согласование;0.00029
соглаша;0.00029
соглашение;0.00974
содержание;0.00057
содержать;0.00029
соединять;0.00029
создание;0.00086
создать;0.00086
сомали;0.00029
сомнение;0.00029
сообщение;0.00029
сообщество;0.00115
сообщить;0.00029
соответственно;0.00029
соответствие;0.00115
соответствовать;0.00086
соответствующий;0.00029
сопровождаться;0.00029
сосед;0.00029
состав;0.00086
составлять;0.00029
состояние;0.00029
состоять;0.00143
сотрудничество;0.00373
сохранение;0.00057
сохранить;0.00029
сохранять;0.00086
союз;0.00889
союзный;0.00029
специально;0.00029
специальный;0.00115
список;0.00057
сплошной;0.00029
спор;0.00029
спорт;0.00029
справка;0.00057
спутниковый;0.00029
сразу;0.00029
среда;0.00029
средний;0.00029
средство;0.00029
срок;0.00201
српски;0.00029
српскохрватски;0.00029
ссылка;0.00287
ставить;0.00029
статистика;0.00086
статус;0.00172
стать;0.00115
статья;0.00201
сторона;0.00086
страна;0.01175
страна-участница;0.00143
страна-член;0.00115
страница;0.00201
строка;0.00029
структура;0.00029
суверенитет;0.00029
суверенный;0.00057
суд;0.00029
судебный;0.00143
судно;0.00029
судный;0.00029
сухопутный;0.00086
сушить;0.00029
существование;0.00086
существовать;0.00172
существующий;0.00029
сфера;0.00029
схема;0.00029
схождение;0.00057
считать;0.00029
считаться;0.00086
сша;0.00057
сюда;0.00029
таковой;0.00057
такой;0.00201
таможенный;0.00459
татарча;0.00029
текст;0.00029
текущий;0.00029
тема;0.00029
теория;0.00057
территориальный;0.00029
территория;0.01318
тетуан;0.00029
технология;0.00029
тип;0.00086
тире;0.00029
товар;0.00057
товарный;0.00029
тогда;0.00029
только;0.00344
торговля;0.00029
тот;0.00401
точка;0.00172
трагический;0.00029
трактат;0.00086
транзит;0.00115
транзитный;0.00143
транспорт;0.00029
транспортный;0.00029
требование;0.00115
требоваться;0.00172
третий;0.00143
три;0.00143
трудовой;0.00029
туда;0.00029
турецкий;0.00057
туризм;0.00029
туристический;0.00086
турция;0.00029
тыл;0.00029
уголь;0.00029
ударный;0.00029
удмурт;0.00029
удостоверение;0.00143
удостоверять;0.00029
уже;0.00057
ужесточать;0.00029
указание;0.00029
указать;0.00029
указывать;0.00057
уклонение;0.00029
украина;0.00057
укрепление;0.00029
унифицировать;0.00057
упомянуть;0.00057
управление;0.00029
упразднять;0.00029
упрощение;0.00029
усилие;0.00029
условие;0.00258
услуга;0.00057
установить;0.00057
установление;0.00029
участвовать;0.00201
участие;0.00258
участник;0.00229
учитывать;0.00029
учреждать;0.00029
учреждение;0.00057
фактически;0.00057
фарерский;0.00201
февраль;0.00057
федерация;0.00029
финансовый;0.00029
финляндия;0.00057
фонд;0.00057
формально;0.00115
формальность;0.00029
формальный;0.00086
форум;0.00029
фракция;0.00029
франция;0.00659
французский;0.00143
фрг;0.00115
фронтекс;0.00029
футбол;0.00143
характер;0.00029
хартия;0.00029
хорватия;0.00057
христофиас;0.00029
хронология;0.00029
целиком;0.00029
целое;0.00029
цель;0.00201
ценность;0.00029
центральный;0.00086
цитировать;0.00029
частично;0.00029
частность;0.00115
часть;0.00315
человек;0.00143
чемпионат;0.00143
черта;0.00029
четыре;0.00029
чехия;0.00057
чикагский;0.00029
число;0.00057
читать;0.00029
член;0.00258
шведский;0.00029
швейцария;0.00373
швейцарский;0.00057
швеция;0.00086
шенга;0.00029
шенген;0.00115
шенгенский;0.03353
широкий;0.00029
шпицберген;0.00143
шпицбергенский;0.00057
шри-ланка;0.00029
штаб;0.00029
штамп;0.00029
экипаж;0.00029
экономика;0.00029
экономический;0.00229
эксклав;0.00057
экспорт;0.00029
элемент;0.00029
энергия;0.00029
энциклопедия;0.00057
эритрея;0.00029
эстония;0.00086
этот;0.00717
эфиопия;0.00029
эффективный;0.00029
являться;0.00516
язык;0.00086
ян-майен;0.00057
январь;0.00344
япония;0.00057
