авария;0.00059
авиация;0.00059
автомагистраль;0.00059
автомобилист;0.00059
автомобиль;0.00118
автомобильный;0.00059
авторство;0.00059
актуальный;0.00059
акция;0.00059
аллисия;0.00059
алфавит;0.00059
амер;0.00118
американский;0.00059
англ;0.01833
апрель;0.00118
арочный;0.00059
атмосферный;0.00059
байден;0.00177
балтимор;0.0136
балтимор-харбор;0.00059
безопасность;0.00177
беларускать;0.00059
береговой;0.00355
блокировка;0.00059
боковой;0.00059
более;0.00059
больница;0.00118
большой;0.00118
бригада;0.00118
бритый;0.00118
брифинг;0.00059
брэндон;0.00059
будущее;0.00059
буттиджич;0.00059
быстро;0.00059
быстрый;0.00296
быть;0.02011
бюро;0.00118
важный;0.00059
ватерлиния;0.00059
ведомство;0.00059
вели;0.00059
версия;0.00237
вертикальный;0.00059
вести;0.00237
весь;0.00237
видео;0.00118
видефельд;0.00118
викидать;0.00177
викимедиа;0.00059
википедия;0.01005
викисклад;0.00118
виргиния;0.00118
вклад;0.00059
внешнеторговый;0.00059
внешний;0.00237
вода;0.00296
водитель;0.00059
водолаз;0.00118
водолаз-спасатель;0.00059
водонепроницаемый;0.00059
военный;0.00059
возникнуть;0.00059
войти;0.00059
ворота;0.00059
восемь;0.00059
восстановительный;0.00059
восточный;0.00237
врезаться;0.00118
временной;0.00059
время;0.00532
всемирный;0.00177
вскоре;0.00177
вступить;0.00059
второй;0.00059
выбоина;0.00059
выдать;0.00059
вызвать;0.00059
выписать;0.00059
выступать;0.00059
выше;0.00059
выявить;0.00059
выясниться;0.00059
гавань;0.00237
гаджет;0.00059
гватемала;0.00059
где;0.00059
гидролокатор;0.00118
главный;0.00118
глубина;0.00118
говориться;0.00059
год;0.01064
голый;0.00059
гондурас;0.00059
госпитализировать;0.00059
гражданин;0.00118
гражданский;0.00059
греческий;0.00059
груз;0.00296
грузовой;0.00059
гуанчжоу;0.00059
губернатор;0.00059
давление;0.00059
далее;0.00118
дальнейший;0.00118
дандолка;0.00059
данные;0.00059
дата;0.01833
датчик;0.00059
дать;0.00059
два;0.00473
двигатель;0.00118
двигаться;0.00059
движение;0.00177
девятый;0.00059
действовать;0.00059
день;0.00118
джеймс;0.00059
джо;0.00118
дзен;0.00059
диаграмма;0.00059
длина;0.00118
добавить;0.00118
доллар;0.00177
дополнительный;0.00059
допускаться;0.00059
дорога;0.00059
доставить;0.00118
доставка;0.00059
доступ;0.00059
доступный;0.00059
дрон;0.00118
другой;0.00591
дым;0.00059
ежедневно;0.00059
жертва;0.00118
жизненно;0.00059
заблокировать;0.00118
забыть;0.00059
завершить;0.00059
заглавный;0.00059
заголовок;0.00059
загореться;0.00059
загрузить;0.00059
загрязнение;0.00059
задать;0.00059
задействовать;0.00118
задержка;0.00059
закрытый;0.00118
замедлиться;0.00059
заметить;0.00118
занимать;0.00059
заниматься;0.00059
занять;0.00059
западный;0.00059
запись;0.00059
зарегистрировать;0.00118
затем;0.00177
затопить;0.00059
затронуть;0.00059
зафиксировать;0.00059
зафрахтовать;0.00118
защита;0.00059
заявить;0.00591
заявление;0.00118
звонок;0.00059
знак;0.00059
идентифицировать;0.00059
идти;0.00059
избранный;0.00059
известить;0.00059
известно;0.00059
извлечь;0.00059
изучение;0.00059
иметь;0.00059
импорт;0.00059
имя;0.00118
индия;0.00059
иностранный;0.00059
инспекция;0.00059
инструмент;0.00118
информация;0.00118
инфракрасный;0.00118
инцидент;0.00177
использование;0.00118
использовать;0.00059
исследование;0.00059
история;0.00059
источник;0.00177
июнь;0.00059
каждый;0.00059
канал;0.00118
карта;0.00059
катастрофа;0.00237
категория;0.00118
км;0.00237
код;0.00769
кодекс;0.00059
коломбо;0.00059
колонна;0.00118
кольцевой;0.00059
команда;0.00177
компания;0.00237
конгресс;0.00059
конец;0.00059
контейнер;0.00118
контейнеровоз;0.00414
контроль;0.00059
конфиденциальность;0.00059
кончик;0.00059
координата;0.00059
координировать;0.00177
корабельный;0.00059
корабль;0.00591
короткий;0.00059
который;0.00473
кризис;0.00059
критерий;0.00296
критический;0.00059
кук;0.00059
лечение;0.00059
лицензия;0.00059
логистика;0.00059
лодка;0.00059
лоцман;0.00059
м;0.00296
малый;0.00059
март;0.03666
маршрут;0.00118
масштабный;0.00059
материал;0.00118
машинный;0.00296
мгновение;0.00059
медиафайл;0.00059
медицинский;0.00059
международный;0.00059
межштатный;0.00059
мексика;0.00059
менее;0.00059
меняться;0.00059
мера;0.00118
местный;0.00059
место;0.00473
металлический;0.00059
миллиард;0.00059
миллион;0.00059
министерство;0.00059
министр;0.00118
минута;0.00059
мировой;0.00059
млн;0.00059
млрд;0.00118
мобильный;0.00059
можно;0.00296
момент;0.00237
морской;0.00296
мост;0.02602
мочь;0.00946
мур;0.00118
мэр;0.00059
мэриленд;0.00355
навигация;0.00177
название;0.00059
наиболее;0.00059
найти;0.00355
направить;0.00237
направиться;0.00059
направление;0.00059
направляться;0.00059
наслать;0.00059
находиться;0.00177
национальный;0.00118
начало;0.00059
начальник;0.00059
начать;0.00177
неделя;0.00059
недостаток;0.00059
недостаточно;0.00059
недостоверный;0.00059
незадолго;0.00059
некоммерческий;0.00059
некорректный;0.00059
некоторый;0.00059
необходимо;0.00118
непосредственно;0.00059
непрерывный;0.00118
неразрывный;0.00059
нераспознанный;0.00059
несколько;0.00473
никакой;0.00118
новостной;0.00059
новый;0.00059
норма;0.00059
нос;0.00059
нью-йорк;0.00118
оба;0.00059
обзор;0.00059
обнаружить;0.00059
обновить;0.00059
обновление;0.00059
обозрение;0.00059
обозримый;0.00059
обработать;0.00059
обработка;0.00059
обратиться;0.00059
обращение;0.01833
обрушение;0.01242
обрушить;0.00059
обрушиться;0.00059
обслужить;0.00059
обсуждение;0.00118
обходить;0.00059
общий;0.00059
объезд;0.00059
объездной;0.00059
объект;0.00059
объявить;0.00355
огонь;0.00059
ограничение;0.00059
один;0.00296
оказание;0.00059
оказаться;0.00059
океанический;0.00059
опасный;0.00177
операция;0.00177
опираться;0.00059
описание;0.00059
описываться;0.00059
опора;0.00296
опорный;0.00059
опубликовать;0.00059
орган;0.00059
организация;0.00059
оригинал;0.00296
осадка;0.00059
осматриваться;0.00059
основание;0.00296
основной;0.00118
основный;0.00177
оставаться;0.00118
оставить;0.00059
остановить;0.00059
остановиться;0.00059
остановка;0.00059
остаток;0.00118
остаться;0.00059
отбытие;0.00059
ответственность;0.00059
отдельный;0.00059
отказ;0.00237
отказаться;0.00118
открытие;0.00059
открыться;0.00059
отметить;0.00059
отправить;0.00059
отправиться;0.00059
отражать;0.00059
отредактировать;0.00059
отрезать;0.00059
отремонтировать;0.00059
охрана;0.00414
оцениваться;0.00059
ошибка;0.00237
панама;0.00059
параметр;0.00059
пассажир;0.00059
патапско;0.00059
первоначально;0.00118
первоначальный;0.00059
первый;0.00059
перевод;0.01242
перевозить;0.00059
перевозка;0.00118
перейти;0.00118
перенаправить;0.00059
пересекать;0.00118
переход;0.00059
персональный;0.00059
печать;0.00118
пикап;0.00118
писать;0.00059
пит;0.00059
планировать;0.00118
плохой;0.00059
поведение;0.00059
поверхность;0.00059
повлиять;0.00059
повод;0.00059
повредить;0.00118
повреждение;0.00237
погаснуть;0.00118
погибнуть;0.00177
погибший;0.00118
поддержка;0.00118
поднять;0.00059
подпись;0.00059
подробный;0.00059
подтвердить;0.00059
подход;0.00059
пожарный;0.00059
пожертвовать;0.00059
поздний;0.00177
поиск;0.00177
поисковый;0.00118
показывать;0.00118
покинуть;0.00118
пол;0.00059
политика;0.00059
полицейский;0.00059
полностью;0.00059
полный;0.00059
положение;0.00059
полоса;0.00059
получить;0.00177
помочь;0.00296
помощь;0.00296
попросить;0.00059
порекомендовать;0.00059
порт;0.00591
портал;0.00059
портовый;0.00059
портсмут;0.00059
последний;0.00177
последовательность;0.00059
последовать;0.00059
последствие;0.00177
постоянный;0.00059
пострадать;0.00118
построить;0.00059
поступать;0.00059
потенциально;0.00059
потерять;0.00118
править;0.01656
правка;0.00118
превышать;0.00059
предложить;0.00059
предположение;0.00059
предположительно;0.00059
представиться;0.00059
представлять;0.00059
предупреждение;0.00059
президент;0.00118
пресс-конференция;0.00059
пресса;0.00059
прибытие;0.00059
прибыть;0.00059
приказать;0.00059
примерно;0.00118
примечание;0.00118
принадлежащий;0.00059
приостанавливать;0.00059
приостановить;0.00059
приостановка;0.00059
причина;0.00059
проблема;0.00118
пробоина;0.00059
проверка;0.00118
провести;0.00059
проезжать;0.00059
проезжий;0.00118
проект;0.00059
произойти;0.00118
проинформировать;0.00059
происшествие;0.00237
пройти;0.00059
пролегать;0.00059
пронзить;0.00059
пропасть;0.00237
пропустить;0.00237
просвет;0.00059
просматривать;0.00059
просмотр;0.00059
пространство;0.00059
профинансировать;0.00059
проходить;0.00059
прошлый;0.00059
прямой;0.00059
пустой;0.00237
путешествовать;0.00059
пять;0.00059
работа;0.00177
работать;0.00118
рабочий;0.00177
раз;0.00059
развалиться;0.00059
развитие;0.00059
развязка;0.00059
разделить;0.00059
разработчик;0.00059
разрушение;0.00118
разрушить;0.00059
разрушиться;0.00059
район;0.00118
рамка;0.00059
ранее;0.00059
раненый;0.00059
распространяться;0.00059
расследование;0.00355
рассматриваться;0.00059
региональный;0.00059
результат;0.00118
рейс;0.00059
река;0.00473
рекомендация;0.00296
реконструкция;0.00059
роттердам;0.00059
руководитель;0.00059
русло;0.00059
русский;0.00177
русый;0.00177
рухнуть;0.00059
сам;0.00118
самый;0.00059
сан-антонио;0.00059
сведение;0.00059
свежий;0.00059
свободный;0.00059
свой;0.00118
связанный;0.00059
связаться;0.00118
северный;0.00059
северо-восток;0.00059
сейчас;0.00059
секунда;0.00177
сентябрь;0.00059
сигнал;0.00059
сила;0.00059
сингапур;0.00118
сингапурский;0.00059
система;0.00059
скачать;0.00118
скорость;0.00118
скотт;0.00296
скрытый;0.00059
слева;0.00355
следовать;0.00059
служба;0.00177
служебный;0.00059
случай;0.00059
случайный;0.00059
смотреть;0.00473
снова;0.00118
событие;0.00591
совет;0.00059
содержание;0.00118
соединить;0.00059
создать;0.00059
соллерс-пойнт;0.00059
сообщаться;0.00059
сообщение;0.00118
сообщество;0.00059
сообщить;0.00296
соответственно;0.00059
соответствовать;0.00059
составлять;0.00177
состояние;0.00177
сотрудник;0.00118
сохранение;0.00118
спасатель;0.00059
спасательный;0.00237
спасти;0.00059
список;0.00296
сплошной;0.00059
способный;0.00059
справа;0.00059
справка;0.00296
спровоцировать;0.00059
среда;0.00059
средство;0.00414
срок;0.00059
ссылка;0.00414
стальной;0.00059
статистика;0.00059
стать;0.00059
статья;0.01419
стационарный;0.00059
столкновение;0.00591
страна;0.00059
страница;0.00473
строительный;0.00118
стропильный;0.00059
структура;0.00059
судно;0.00414
судный;0.00118
судоходный;0.00177
сумма;0.00118
считаться;0.00059
сша;0.00473
сюда;0.00059
текст;0.00059
текущий;0.00296
тело;0.00177
температура;0.00059
терроризм;0.00059
технология;0.00118
течение;0.00059
товарный;0.00059
только;0.00118
тонна;0.00118
топливо;0.00059
торг;0.00059
торговый;0.00059
тот;0.00177
травма;0.00177
транспорт;0.00355
транспортный;0.00473
трасса;0.00059
требование;0.00059
требовать;0.00355
тревога;0.00059
тринадцать;0.00059
труба;0.00059
туда;0.00059
туннель;0.00177
уведомить;0.00059
уведомление;0.00059
удаление;0.00296
удалить;0.00296
удар;0.00059
узел;0.00177
указание;0.00059
указать;0.00118
украина;0.00059
улучшение;0.00296
улучшить;0.00296
уоллес;0.00177
упавший;0.00118
упасть;0.00177
управление;0.00355
управлять;0.00059
усилие;0.00059
условие;0.00177
установить;0.00059
утонуть;0.00059
уточнение;0.00059
уточнить;0.00059
участие;0.00059
участок;0.00118
ущерб;0.00059
уэсом;0.00059
фбр;0.00059
федеральный;0.00118
ферма;0.00237
ферменный;0.00059
флаг;0.00059
фонд;0.00059
форт-макгенри;0.00059
форум;0.00059
фрэнсис;0.00237
фут;0.00177
ход;0.00118
хокинс-пойнт;0.00059
целиком;0.00296
целостность;0.00059
центральный;0.00118
цитировать;0.00059
ч;0.00177
частичный;0.00059
часть;0.00355
человек;0.00237
четыре;0.00059
чинить;0.00059
читать;0.00059
член;0.00237
чрезвычайный;0.00059
шаблон;0.00177
шесть;0.00118
шеф;0.00059
ширина;0.00059
широта;0.00118
шоковый;0.00059
шоссе;0.00059
шри-ланка;0.00059
штат;0.00118
экипаж;0.00177
экономический;0.00059
эксперт;0.00059
экспорт;0.00118
экстренный;0.00118
элемент;0.00118
энциклопедия;0.00059
этот;0.00532
юго-западный;0.00118
южный;0.00059
являться;0.00296
язык;0.00769
