аварийный;0.00371
август;0.00464
авторство;0.00093
администрация;0.00278
александр;0.00093
андрющенко;0.00093
апрель;0.00371
армия;0.00278
архивировать;0.00557
атака;0.00649
атаковать;0.00278
аэс;0.00186
баланс;0.00093
балка;0.00093
баллистический;0.00093
белгород;0.00371
белгородский;0.00093
беспилотник;0.00093
более;0.00093
больница;0.00186
быть;0.01299
ввести;0.00557
ведомство;0.00093
версия;0.00186
весь;0.00649
взрыв;0.00093
взрывной;0.00093
викидать;0.00093
викимедиа;0.00093
викиновость;0.00093
википедия;0.00278
викисклад;0.00186
вилкула;0.00093
винница;0.00093
винницкий;0.00278
вклад;0.00093
владимир;0.00093
внешний;0.00093
вода;0.00093
водоснабжение;0.00186
водохранилище;0.00093
военный;0.00464
воздушный;0.00278
возмездие;0.00186
война;0.00464
войти;0.00093
вокзал;0.00093
волна;0.00093
воронка;0.00093
восстанавливать;0.00093
восстановить;0.00186
впервые;0.00093
время;0.00278
вторжение;0.00557
второй;0.00093
вывести;0.00093
галущенко;0.00093
генератор;0.00093
генпрокуратура;0.00093
герман;0.00093
гидросооружение;0.00093
глава;0.00371
год;0.01113
город;0.00464
гражданский;0.00093
грань;0.00093
график;0.00093
графика;0.00371
гроза;0.00093
гумколонна;0.00093
гэс;0.00278
дамба;0.00278
данные;0.00186
дата;0.00278
двое;0.00093
действовать;0.00093
декабрь;0.00186
день;0.00186
директор;0.00093
дмитрий;0.00093
днепр;0.00278
днепровский;0.00464
днепрогэс;0.00835
днепропетровский;0.00278
должный;0.00093
дом;0.00464
донецк;0.00186
донецкий;0.00093
дополнительный;0.00093
доступный;0.00093
дрон;0.00093
другой;0.00557
европа;0.00093
есть;0.00093
ехать;0.00186
жилой;0.00093
житель;0.00278
завал;0.00093
заглавный;0.00093
загрязнение;0.00186
закон;0.00093
законный;0.00093
зал;0.00093
запись;0.00093
запорожский;0.00278
запорожье;0.00928
зарегистрировать;0.00093
зафиксировать;0.00093
захват;0.00093
заявить;0.00278
заявление;0.00093
знак;0.00093
иван;0.00093
ивано-франковский;0.00278
игорь;0.00186
избранный;0.00093
извлечение;0.00093
имя;0.00093
инструмент;0.00186
информация;0.00093
инфраструктура;0.00835
искандер-м;0.00093
использование;0.00093
использоваться;0.00093
история;0.00093
источник;0.00093
июль;0.00928
июнь;0.00278
каждый;0.00093
каменск;0.00093
карачуновский;0.00093
категория;0.00186
киев;0.00186
кинжал;0.00093
кировоградский;0.00186
код;0.00093
кодекс;0.00093
комбинированный;0.00093
конотопский;0.00093
константиновка;0.00093
контролировать;0.00093
конфиденциальность;0.00093
короткий;0.00093
коротыч;0.00093
который;0.00371
краматорск;0.00186
кременная;0.00093
кременчуг;0.00093
кремль;0.00093
кривая;0.00557
кривой;0.00093
криворожский;0.00093
критический;0.00186
кровля;0.00093
крупный;0.00093
крылатый;0.00186
кудрицкий;0.00093
кук;0.00093
курский;0.00093
лев;0.00093
линия;0.00186
лисичанск;0.00093
лицензия;0.00093
лысак;0.00093
львовский;0.00278
май;0.00278
мариуполь;0.00186
мариупольский;0.00093
март;0.03154
массировать;0.00278
масштабный;0.00186
материал;0.00093
машинный;0.00093
медиафайл;0.00093
медуза;0.00093
менее;0.00278
место;0.00093
минимум;0.00093
министр;0.00093
минобороны;0.00186
минэнерго;0.00093
миргородский;0.00093
мирный;0.00371
мобильный;0.00093
москва;0.00093
москва-сити;0.00093
московский;0.00093
мочь;0.00093
мэр;0.00186
навигация;0.00278
назвать;0.00371
называть;0.00186
нанести;0.00557
нападение;0.00278
нарушение;0.00093
населить;0.00186
находиться;0.00186
начало;0.00093
начаться;0.00093
неизвестно;0.00093
некоммерческий;0.00093
нет;0.00186
нефтепродукт;0.00186
николаев;0.00093
николаевский;0.00278
новый;0.00186
ночь;0.00093
ноябрь;0.00093
оба;0.00093
областной;0.00186
область;0.02876
обломок;0.00093
оборудование;0.00093
обращение;0.00186
обстрел;0.00371
обсуждение;0.00186
объединить;0.00093
объект;0.01206
объявляться;0.00093
обычай;0.00093
одесса;0.00371
одесский;0.00371
один;0.00371
оказаться;0.00093
оккупировать;0.00093
окно;0.00093
октябрь;0.00557
олег;0.00093
онлайн;0.00093
описание;0.00093
опора;0.00093
организатор;0.00093
организация;0.00093
оригинал;0.00093
остаться;0.00464
осторожность;0.00093
ответственность;0.00093
отдельный;0.00093
отказ;0.00093
отключение;0.00835
отключиться;0.00093
открыто;0.00093
отредактировать;0.00093
очередной;0.00093
ошибка;0.00093
павлоградский;0.00093
перебой;0.00093
перейти;0.00186
перестать;0.00186
переходить;0.00093
персональный;0.00093
песок;0.00186
печать;0.00186
плотина;0.00278
поведение;0.00093
повредить;0.00742
погибнуть;0.00464
погибший;0.00278
подвергнуться;0.00093
поддержание;0.00093
подкрановый;0.00093
подробный;0.00093
подстанция;0.00093
пожар;0.00278
пожертвовать;0.00093
поиск;0.00186
покровск;0.00093
политика;0.00093
полномасштабный;0.00093
полностью;0.00371
полтавский;0.00557
получить;0.00186
понимать;0.00186
попадание;0.00186
попасть;0.00186
попытка;0.00093
последний;0.00186
последствие;0.00186
постоянный;0.00093
пострадать;0.00464
почасовой;0.00093
почва;0.00186
править;0.00186
правка;0.00186
практически;0.00093
превентивный;0.00093
предварительный;0.00093
представиться;0.00093
президент;0.00093
пресс-секретарь;0.00093
приграничный;0.00093
прийтись;0.00186
применить;0.00093
примечание;0.00186
проект;0.00093
производство;0.00093
произойти;0.00464
происходить;0.00093
прорыв;0.00186
просмотр;0.00186
пространство;0.00093
просчитать;0.00093
пункт;0.00371
работа;0.00186
радио;0.00186
раз;0.00093
разбитый;0.00186
разработчик;0.00093
разрушение;0.00186
разрушить;0.00371
район;0.00278
ракета;0.00928
ракетный;0.00835
ранее;0.00093
ранение;0.00093
раненый;0.00093
ранить;0.00186
рассказать;0.00093
реакция;0.00186
регион;0.00093
редактирование;0.00093
результат;0.00557
рог;0.00649
российский;0.0102
россия;0.00928
русский;0.00093
русый;0.00093
рф;0.00371
сам;0.00093
самый;0.00186
саха;0.00093
сбить;0.00278
сведение;0.00093
свежий;0.00093
свет;0.00557
свобода;0.00186
свободный;0.00093
связанный;0.00093
связаться;0.00093
семь;0.00186
семьсот;0.00093
сентябрь;0.00278
сергеевка;0.00093
сергей;0.00093
сила;0.00186
сильно;0.00093
синегуб;0.00093
сирота;0.00186
система;0.00093
ситуация;0.00186
скачать;0.00186
скрытый;0.00093
слово;0.00371
сложный;0.00093
служебный;0.00093
случай;0.00093
случайный;0.00093
смотреть;0.00093
событие;0.00371
советник;0.00093
содержание;0.00186
соединять;0.00093
создать;0.00093
сообщение;0.00093
сообщество;0.00093
сообщить;0.00464
сопрячь;0.00093
состояние;0.00278
сохранение;0.00093
спецоперация;0.00186
способ;0.00093
справка;0.00093
ссылка;0.00464
станция;0.00278
статистика;0.00093
статья;0.00557
страна;0.00186
страница;0.00557
строй;0.00093
суверенный;0.00093
сумский;0.00557
сюда;0.00093
таганрог;0.00093
театр;0.00093
текст;0.00093
текущий;0.00093
территория;0.00371
течение;0.00093
товарный;0.00093
тот;0.00186
тревога;0.00093
три;0.00186
трое;0.00093
троллейбус;0.00186
тыл;0.00093
тэс;0.00186
убийство;0.00093
уголовный;0.00093
угроза;0.00093
удар;0.02226
ударный;0.00093
удаться;0.00186
ук;0.00093
указание;0.00093
украина;0.03061
украинский;0.00186
укргидроэнерго;0.00278
укрэнерго;0.00093
умань;0.00093
умышленный;0.00093
условие;0.00278
утечка;0.00186
утренний;0.00093
утро;0.00093
участие;0.00093
факт;0.00093
февраль;0.00278
федерация;0.00093
фонд;0.00093
форум;0.00093
харьков;0.00835
харьковский;0.00464
херсон;0.00093
хмельницкий;0.00649
ход;0.00371
цель;0.00093
цитировать;0.00093
чаплиный;0.00093
час;0.00093
частный;0.00093
часть;0.00278
часы;0.00093
человек;0.00557
чернигов;0.00186
число;0.00093
читать;0.00093
шебекино;0.00093
шестидесятый;0.00093
шосткинский;0.00093
эдитнотис;0.00093
экспорт;0.00093
экстренный;0.00093
электрический;0.00093
электричество;0.00278
электропередача;0.00186
элемент;0.00093
энергетика;0.00464
энергетический;0.00742
энергоатом;0.00093
энергоблок;0.00093
энергосистема;0.00371
энциклопедия;0.00093
этот;0.00093
эфир;0.00093
язык;0.00093
январь;0.00278
ярый;0.00093
