абель;0.00052
абсолютный;0.00028
август;0.0005
авеланж;0.00068
автогол;0.00058
автоголый;0.00068
автоматически;0.00037
авторство;0.0
адаптироваться;0.00058
адольфо;0.00058
адриан;0.00042
азия;0.00022
алан;0.00031
ален;0.00044
алфавит;6e-05
аль-гашиян;0.00138
аль-джабер;0.00068
аль-джабир;0.00068
аль-шариф;0.00206
альбер;0.00144
альбертини;0.00068
альберто;0.00233
альт;0.00068
аля-овайрана;0.00068
аля-увайрана;0.00068
америка;0.0002
американский;0.00052
амин;0.00058
амокача;0.00206
амунеке;0.00138
амуник;0.00068
ана-яна;0.00138
анвар;0.00138
англ;0.00034
англия;0.00062
андерссон;0.0048
андонь;0.00068
андрес;0.00068
андретти;0.00068
анимационный;0.00048
анхелеса;0.00138
апрель;3e-05
аравия;0.00316
аргентина;0.00446
арон;0.00048
артист;0.0008
артуро;0.00412
архивировать;0.00095
архивный;0.00029
асп;0.00206
африка;0.00022
африканский;0.00033
аш-шариф;0.00068
баджо;0.007
бадилья;0.00274
балак;0.00175
бальбо;0.00138
бальдас;0.00138
барезь;0.00068
бастен;0.00068
батистут;0.00206
бебеть;0.00274
бегиристайн;0.00138
беккенбауэр;0.00206
беларускать;0.00013
белодедич;0.00068
бельгия;0.00171
бергкамп;0.00233
берналя;0.00206
библиографический;0.00012
билл;0.00037
блаттер;0.00058
бобби;0.00037
болгария;0.00312
более;0.00018
боливия;0.00288
больший;0.00012
бомбардир;0.0021
боримир;0.00206
бостон;0.00037
боул;0.0103
бразилия;0.0069
брайан;0.00034
бранко;0.00206
бриджес;0.00068
брисио;0.00274
британский;0.00016
бролин;0.0048
бронзовый;0.0003
буджсаим;0.00175
бутсы;0.00138
български;9e-05
бывший;0.00028
быстро;0.00022
быть;3e-05
валенсия;0.00157
вашингтон;0.00244
вега;0.00117
венгрия;0.00082
версия;0.0
весь;0.00011
вид;9e-05
видеообзор;0.00068
викидать;1e-05
викимедиа;0.0
википедия;0.0
викисклад;0.00012
виналда;0.00138
вклад;0.0
включать;0.00017
влажный;0.00048
вместимость;0.00402
вмещать;0.00058
внешний;5e-05
вничью;0.00048
водонепроницаемый;0.00058
война;0.00017
войти;0.0
вон;0.00105
ворота;0.00023
впервые;0.00059
вр;0.00224
вратарь;0.00199
время;0.0001
вручить;0.00039
второе;0.0005
второй;0.00014
выбить;0.00052
выбор;0.0004
выбрать;0.00054
выбыть;0.00048
выглядеть;0.00031
выйти;0.00014
вынести;0.00072
высадка;0.00068
выступить;0.00023
выход;0.00136
выявить;0.00039
габриэль;0.00042
гавирия;0.00138
гарсия;0.00262
гастон;0.00058
гвардиол;0.00138
где;6e-05
генеральный;0.00025
генри;0.00033
генчев;0.00068
георге;0.00134
германия;0.00185
гимн;0.00059
глава;0.00021
главный;5e-05
год;0.00014
гойкоэчеа;0.00206
гол;0.0024
голос;0.00022
голосование;0.00031
голый;0.00033
город;0.00021
госсекретарь;0.00044
гость;0.00029
гр;0.00068
греция;0.00149
группа;0.00233
групповой;0.00069
грюн;0.00138
давид;0.00034
дайана;0.00048
далее;0.0003
далин;0.00274
даллас;0.00446
даниел;0.00117
дания;0.00072
дата;0.00036
дать;7e-05
два;8e-05
девять;0.00053
дегриза;0.00138
действовать;3e-05
декабрь;0.00011
деннис;0.00052
детройт;0.00052
деятельность;0.00017
джайантс;0.0055
джамаль;0.00233
джон;0.00098
джордж;0.00051
джуиня;0.00206
диас;0.00117
диего;0.00044
дизайн;0.00036
дино;0.00052
дмитрий;0.00027
должный;7e-05
доллар;0.00025
домашний;0.00028
дон;0.00119
доп;0.0012
дополнительный;1e-05
допустить;0.00033
доступный;0.0
другой;0.0
думитреск;0.00144
дунг;0.00206
дэниел;0.00037
дэрил;0.00068
европа;0.00017
европейский;0.00015
жаловаться;0.00068
животное;0.00024
жоао;0.00068
жорж;0.00061
жоржиньо;0.00117
жоэль;0.00292
забивать;0.00048
забитый;0.00044
забить;0.00042
завершаться;0.00048
завершиться;0.00025
завоевать;0.00031
заглавный;0.0
заключаться;0.00033
залив;0.00034
замена;0.00029
заменить;0.00016
заметно;0.00048
занять;0.00078
запись;0.0
запрос;0.0002
зарегистрировать;1e-05
затруднять;0.00039
защитник;0.0009
заявка;0.0015
заявление;0.0
зепп;0.00068
знак;1e-05
знаковый;0.00052
золотой;0.00048
зритель;0.01641
игнорировать;0.00058
игра;0.00055
игрок;0.00216
избранный;0.0
известный;8e-05
изготовить;0.00044
изображение;0.00014
илие;0.00058
имя;0.0
ингессон;0.00068
инспекционный;0.00058
инструмент;0.0
интерес;0.00021
интересный;0.00033
ирландия;0.00152
испания;0.0024
исполнитель;0.00026
исполнительный;0.00059
исполнить;0.00131
использование;0.0
использовать;5e-05
ист-ратерфорд;0.00754
история;0.0
источник;0.0
италия;0.00303
итог;0.00015
июль;0.00235
июнь;0.00189
йекиня;0.00138
йерро;0.00138
йонк;0.00206
йордан;0.00052
каден;0.00344
каждый;0.00011
камерун;0.0023
каминеро;0.00206
канада;0.00019
канал;0.00021
канидж;0.00138
карл-хайнц;0.00068
карлссон;0.00138
картер;0.00233
каталог;0.0001
катар;0.00031
категория;1e-05
каф;0.00138
качество;0.00035
квалификация;0.00431
квалифицироваться;0.00096
кеннеди;0.00048
кеннет;0.00096
кинья;0.00344
киссинджер;0.00068
клаудио;0.00048
клинсман;0.00068
клинсманна;0.00274
клинтон;0.00044
кнуп;0.00138
код;5e-05
кодекс;0.0
коллектив;0.00044
колумбия;0.00361
команда;0.00362
комитет;0.00072
компания;0.00011
конец;6e-05
конкакаф;0.00138
конмебол;0.00117
континентальный;0.00027
контроль;0.0002
конференц-центр;0.00068
конфиденциальность;0.0
копия;0.00025
корея;0.00212
корзина;0.0024
короткий;0.0
космический;0.0003
коста-рика;0.00126
который;5e-05
коттон;0.0048
красимира;0.00138
круг;0.00082
кубок;0.00082
кук;0.0
культовый;0.00044
курт;0.00126
кэрол;0.00058
ламолин;0.00206
ларссон;0.00206
лас-вегас;0.00048
лев;0.00024
лести;0.00175
летний;0.00028
лечковы;0.00274
ливия;0.00031
лига;0.00079
лицензия;0.0
лос-анджелес;0.00072
лосано;0.00138
лотар;0.00058
луис;0.00143
луна;0.00039
лупесок;0.00068
маврикий;0.00033
май;0.00019
македонски;0.00011
макс;0.00037
маленький;0.00017
мальдиня;0.00117
мануэль;0.00105
марадон;0.00096
мараканасо;0.00068
марио;0.0021
марк;0.00051
марко;0.00044
маркс;0.00042
марокко;0.00296
марселиный;0.00068
марсило;0.00206
марсио;0.00344
март;2e-05
мартин;0.00025
массарый;0.00206
материал;0.0
маттеус;0.00138
матч;0.00336
медиафайл;8e-05
международный;0.00022
мексика;0.00361
мемориэла;0.00068
менее;0.00012
меола;0.00068
место;0.00066
миккельсный;0.00274
милла;0.00206
миллион;0.00064
мильда;0.00206
минута;0.00028
мир;0.00272
мировой;0.0004
миссия;0.00024
миура;0.00068
мишель;0.00206
многий;0.00014
мобильный;0.0
молодой;0.00031
момент;0.00022
монгол;0.00017
моттрам;0.00206
мохаммед;0.00048
мочь;0.0
мп;0.00365
музыка;0.00018
мэри;0.00034
мягкий;0.0003
мяч;0.00526
н;0.00079
навигация;0.0
награда;0.00072
надер;0.00138
надеяться;0.00034
назначаться;0.00042
намного;0.00044
нападать;0.00061
наско;0.00068
национальный;0.00014
начало;0.00012
неделя;0.00017
неджи;0.00206
недостаточный;0.00042
некоммерческий;1e-05
некоторый;0.00015
непредсказуемость;0.00068
нигерия;0.00309
нидерланды;0.00198
нильссон;0.00068
ничья;0.00044
новый;0.0
нога;0.0003
номер;0.00025
норвегия;0.00144
норьег;0.00138
носить;0.00019
ноябрь;0.00017
нью-йорк;0.00023
оаэ;0.00061
обернуть;0.00058
обеспечить;0.00022
область;0.0001
обнаружить;0.00022
образ;0.00012
обратиться;0.00022
обращение;0.0007
обсуждение;0.0
общий;9e-05
объявить;0.00013
объявлять;0.00033
овермарс;0.00138
один;0.00021
округ;0.00016
октябрь;0.0003
олдридж;0.00117
олег;0.00131
олимпийский;0.00023
омам-бийик;0.00138
оон;0.00024
описание;0.0
опозориться;0.00058
опра;0.00068
организатор;0.00031
организация;2e-05
оригинал;0.00114
орландо;0.00384
оскар;0.00082
основать;0.00041
основный;0.00083
основываться;0.00036
особенно;0.00014
особо;0.00033
остальной;0.00017
отбор;0.00144
отборочный;0.00192
ответственность;0.0
отдача;0.00068
отдельный;1e-05
отказ;0.0
отказаться;0.00016
открытие;0.00113
отличный;0.00036
отобраться;0.00068
отредактировать;1e-05
отстранить;0.00031
официальный;0.00057
очко;0.00044
ошибка;0.0
ощупь;0.00068
п;0.00109
пайретто;0.00138
палый-алтый;0.00138
паоло;0.00105
параметр;0.00022
пасадин;0.0103
певица;0.00039
пеле;0.00048
пен;0.0169
пенальти;0.00238
пенополистирол;0.00068
первый;0.00011
перевод;0.00015
перейти;0.0
перенаправление;0.00048
персональный;0.0
перу;0.00069
песня;0.00043
петер;0.00209
петреск;0.00157
печать;0.0
письмо;0.00024
питер;0.00024
платиня;0.00068
плей-офф;0.00503
победа;0.00016
победитель;0.00028
побить;0.00037
поведение;0.0
повлиять;0.00025
погода;0.00048
подавать;0.00036
подготовка;0.00025
поддержка;0.00015
подробность;0.00037
подробный;1e-05
пожертвовать;0.0
поза;0.00365
поиск;0.0
показать;0.00015
поле;0.00043
политика;0.0
полностью;0.00012
половина;0.00016
положительно;0.00044
полузащитник;0.00138
полуфинал;0.00144
получить;0.0
помогать;0.00028
помочь;0.00015
поначалу;0.00042
понтиак;0.00754
попасть;0.00017
популярный;0.0002
попурри;0.00068
поражение;0.00024
португалия;0.00022
порядок;0.00018
посещаемость;0.0024
последний;1e-05
послематчевый;0.00044
постоянный;1e-05
построить;0.00016
потому;0.0002
потратить;0.00052
почти;0.00014
править;0.0
правка;0.0
право;0.00016
превысить;0.00034
предложение;0.0002
предложить;0.00018
предсказать;0.00052
представиться;0.0
предыдущий;0.00052
презентация;0.00052
президент;0.00015
престижный;0.00036
претендовать;0.00039
привести;0.0001
приветственный;0.00068
приз;0.00084
призовой;0.00058
примечание;4e-05
принимать;0.00034
принцип;0.00023
принять;0.00014
присуждаться;0.00058
присуждение;0.00058
пробить;0.00048
проблема;0.00015
провал;0.00031
проведение;0.00096
провести;0.0001
проводиться;0.00057
проект;1e-05
произнести;0.00044
произойти;0.00012
пройти;0.00014
пропускать;0.00052
пророческий;0.00052
просмотр;0.0
пространство;0.0
профессиональный;0.0005
проходить;0.00027
процесс;0.00012
прошедшее;0.00034
прюдомма;0.00274
пуля;0.00172
пытаться;0.00017
пьерлуиджи;0.00138
пять;0.00012
р;0.00087
радченко;0.00138
раз;2e-05
различный;0.00013
разногласие;0.00042
разработать;0.00027
разработка;0.00025
разработчик;0.0
разыгрывать;0.00058
разыгрываться;0.00058
рамка;0.00017
ранее;0.00027
распространить;0.00023
распустить;0.00044
ратерфорд;0.00068
рашидти;0.00068
рая;0.00138
регламент;0.00042
результат;0.00016
результативность;0.00058
рейтинг;0.00132
рекдаль;0.00138
рекорд;0.00082
рекордный;0.00042
ренато;0.00206
республика;0.0009
ресурс;7e-05
реттон;0.00068
речь;0.00043
решающий;0.00036
решение;0.00011
ридло;0.00138
ричард;0.0002
роберт;0.00023
роберто;0.0021
робин;0.00044
рогера;0.00068
родригес;0.00058
родриго;0.00233
роже;0.00096
розыгрыш;0.00072
рой;0.00076
роль;0.00013
ромарио;0.00824
росс;0.00044
российский;0.00015
россия;0.0011
рост;0.00017
ротенберг;0.00058
роуз;0.00105
роуз-боул;0.0055
рудить;0.00068
руководство;0.00015
румыния;0.00207
русский;0.0
рэдуча;0.00274
рэй;0.00042
саид;0.00052
сайт;0.00028
саленко;0.00412
салинас;0.00138
сам;0.00014
самсон;0.00068
самый;0.00015
сан-франциско;0.00048
санкция;0.00034
сантос;0.00292
саудовский;0.00316
сборная;0.00276
сборный;0.00088
сведение;0.0
свежий;0.0
свободный;0.0
свой;9e-05
связанный;1e-05
связать;0.00015
связаться;0.0
сделать;0.00011
североамериканский;0.00052
секада;0.00068
секретарь;0.00024
сенсационно;0.00105
сентябрь;5e-05
серебряный;0.00059
серия;0.00016
сетка;0.00105
сиасиа;0.00138
силверд;0.00068
сильвердоум;0.00274
символический;0.00172
сирак;0.00138
сирия;0.00085
система;0.0
ситрес;0.00344
ситрус;0.00068
скандал;0.0003
скачать;0.0
скобка;0.0008
скрытый;2e-05
следующий;9e-05
словарь;0.00011
служебный;0.0
случай;1e-05
случайный;0.0
смотреть;2e-05
смочь;0.00019
снижение;0.0003
собака;0.00126
собрать;0.00025
событие;0.0
совершение;0.00036
содержание;0.0
содержать;0.00017
создание;0.00013
создать;0.0
солджер;0.0048
сон;0.00072
сообщество;0.0
сообщить;0.0
соревнование;0.00072
состав;0.00055
составить;0.0002
состояние;0.00012
состояться;0.0003
сохранение;1e-05
специальный;0.00017
спонсор;0.00178
спорт;0.00043
спортивный;0.00025
справка;0.0
средний;0.00018
српски;9e-05
ссылка;0.0
стадион;0.00183
стадия;0.00085
старый;0.00012
статистика;0.0
стать;0.00019
статья;0.0
стефан;0.00029
стиль;0.00019
стоичковы;0.00754
сторона;0.0001
страйкер;0.00138
страна;0.00051
страна-организатор;0.00138
страна-хозяйка;0.00052
страница;0.0
строительство;0.00024
стэдиум;0.00233
стэнфорд;0.0103
стюарт;0.00061
суарес;0.00058
судья;0.01475
считаться;0.00011
сша;0.00268
сыграть;0.00068
сэйвов;0.00068
сюда;0.0
сюттереть;0.00138
таблица;0.00028
тайм;0.00058
такой;6e-05
талисман;0.00365
там;0.00013
танцевальный;0.00048
татарча;0.00013
таумент;0.00138
текст;1e-05
текущий;0.0
телеведущий;0.00052
тематика;0.00037
тематический;0.00012
техада;0.00206
технический;0.00022
течение;0.00011
титул;0.00023
товарный;1e-05
томас;0.00074
тони;0.00037
торжественный;0.00039
торрес;0.00292
тот;0.00013
требование;0.00016
тренер-победитель;0.00068
третий;0.00074
три;0.00011
трофей;0.00036
тунис;0.00066
тур;0.00033
турнир;0.00519
удар;0.00023
удаться;0.0002
уефа;0.00066
уже;8e-05
уильямс;0.00042
уинфри;0.00068
указание;1e-05
указать;0.00017
улучшиться;0.00052
уругвай;0.00066
ускорение;0.00068
условие;1e-05
успех;0.00024
установить;0.00027
установленный;0.00026
участвовать;0.00026
участие;0.0
участник;0.0005
ф;0.00025
фабио;0.00105
фаворит;0.00058
фахад;0.00068
федерация;0.0006
фейра-плейя;0.00068
фернандо;0.00068
филд;0.00365
филип;0.00119
филипп;0.00031
филиппи;0.00138
финал;0.00311
финалист;0.00048
финальный;0.00226
финидти;0.00068
фифа;0.00503
флаг;0.00029
флорин;0.00052
фоксборо;0.01166
фольклорный;0.00058
фонд;1e-05
форма;0.00013
форум;0.0
франсиско;0.00144
франсуа;0.00031
франц;0.00126
франция;0.00052
фрг;0.00034
фуад;0.00068
функционировать;0.00037
футбол;0.00654
футболист;0.0003
футбольный;0.00093
х;0.00076
хаджи;0.00312
харольд;0.00068
хасен;0.00068
хаутон;0.00105
хван;0.00105
хельмут;0.00206
хенрик;0.00068
хет-трик;0.00042
хозяин;0.00167
хокан;0.00068
холифилд;0.00068
холл;0.00042
хон;0.00292
хороший;0.001
хосе;0.00314
христо;0.0035
хулио;0.00058
хьетиль;0.00068
цвет;0.0002
церемония;0.00205
цикл;0.00028
цитировать;3e-05
цюрих;0.00068
чарльтон;0.00052
частность;0.00012
часть;0.0002
человек;6e-05
чемпион;0.00304
чемпионат;0.00984
честной;0.00048
четвертьфинал;0.00119
четыре;0.00011
четырнадцать;0.00048
чик;0.00052
чикаго;0.00446
чили;0.00069
число;0.00012
читать;0.0
член;0.0002
чм;0.00052
чон;0.00138
чуть;0.00031
шандор;0.00344
шапюиза;0.00138
шауша;0.00138
швейцария;0.00241
швеция;0.00432
шотландия;0.00051
ы;0.00052
э;0.0002
эвани;0.00068
эйсебио;0.00058
экерс;0.00068
экономический;0.00021
экспорт;0.0
элемент;0.0
эмба;0.00105
эммануэль;0.00052
энд;0.00274
энрике;0.00117
энциклопедия;0.0
эрвин;0.00052
эрик;0.0003
эрнан;0.00058
эрнесто;0.00117
эрня;0.00058
эскобар;0.00138
этап;0.0004
этот;0.0
юар;0.0003
югославия;0.0003
южноамериканский;0.00052
южный;0.00011
юнг;0.00117
юрген;0.00048
являться;4e-05
язык;0.0
январь;0.00024
япония;0.00022
яшин;0.00052
