аарон;0.00018
абсолютный;0.00012
абхазский;0.00021
аватар;0.00037
авиакомпания;0.00018
авиационный;0.00075
авиация;0.00026
авил;0.0003
аврил;0.00025
австралийский;0.00015
австралия;0.00056
австрия;0.00028
автоматический;0.00016
автор;0.0001
авторство;0.0
агат;0.00046
адели;0.00051
административно-территориальный;0.00045
административный;0.00037
азербайджан;0.00019
азия;0.0001
айдахо;0.00046
академия;0.00029
акт;0.0001
алабама;0.0003
алава;0.00025
албания;0.00036
александр;0.00031
александрович;0.0002
алжир;0.00026
аликанте;0.0003
алкоголь;0.00023
альбасет;0.0003
альберт;0.00015
альбом;0.00094
альмерия;0.0003
альпы;0.00023
альтернативный;0.00028
альфред;0.00047
аляска;0.00076
америка;0.00081
американский;6e-05
амурский;0.0002
анатомия;0.00017
английский;0.00031
англия;0.00063
ангола;0.00016
андорра;0.00026
андрей;0.00014
анимационный;0.00021
анимация;0.00017
аниме;0.00035
антарктика;0.00018
антарктический;0.00017
антверпен;0.00021
антипапа;0.0002
аппарат;0.00016
апрель;3e-05
арабский;0.00011
аравия;0.00014
арбат;0.0003
арена;0.00052
аризона;0.00023
арканзас;0.0003
армения;0.00038
армия;0.00018
артур;0.00014
архиепископ;0.00016
архитектура;0.00032
ассоциация;0.00018
астана;0.00023
астон;0.00023
астрономия;0.00018
астурия;0.0003
атланта;0.0003
атлетика;0.00016
атолл;0.0003
атомный;0.00017
африка;0.0003
аэропорт;0.0006
аэс;0.00031
бабочка;0.00025
бадахоса;0.0003
байконур;0.00021
бакингемшир;0.0003
балеарский;0.00025
баллистический;0.00257
балтимор;0.00018
банк;0.00265
банкнот;0.00042
баня-лука;0.0003
барбадос;0.00039
барбра;0.00025
бардем;0.0003
барселона;0.00046
баскетбол;0.0006
баскетболистка;0.0003
баскетбольный;0.00069
басманный;0.00023
бассейн;0.00013
баффало;0.0006
башкортостан;0.00091
бедфордшир;0.0003
бейба;0.0003
бейсбол;0.00037
беларускать;6e-05
беларусь;0.00015
белград;0.00078
белоруссия;0.00063
белый;9e-05
бельгийский;0.00016
бельгия;0.00017
бенгалс;0.0003
бенин;0.00016
беркшир;0.0003
берлинский;0.00016
берроуза;0.0003
бесконечность;0.0006
беслан;0.00023
бесобой;0.00025
библиография;0.00115
биллс;0.0003
биология;0.00017
биосферный;0.00102
бискайя;0.0003
битва;0.00037
благочиние;0.00051
блок-шота;0.0009
бобби;0.00016
богомолов;0.0003
боевой;0.00073
бой;0.0001
бокс;0.00069
болгария;0.00026
более;0.00021
боливия;0.00016
больший;3e-05
большой;0.00015
бомбардир;0.00018
бомбардирский;0.0006
бордо;0.00025
боро;0.00023
босния;0.00036
бостон;0.00033
бот;0.00018
ботсвана;0.00017
боуя;0.00046
брабант;0.00051
бразилия;0.00045
брандер;0.0003
брат;7e-05
братский;0.00018
браунс;0.0003
брейгель;0.0003
бриг;0.0003
бригада;0.00026
бригантина;0.0003
британский;0.00014
бродско-посавинский;0.0003
броненосец;0.00023
бронетехника;0.00018
брюссельский;0.00025
буер;0.0003
букеровский;0.0003
буковск;0.00025
бургос;0.00025
буркина-фасо;0.00033
буря;0.00021
буш;0.00023
бушков;0.0003
быть;0.0
бьеловарско-билогорский;0.0003
бэтмена;0.00023
ваканда;0.0003
валенсия;0.00046
валентино;0.0003
валл-и;0.0003
валлонский;0.00023
вальядолид;0.0003
валюта;0.0004
валютный;0.00018
ванда;0.00025
вараждинской;0.0003
васильев;0.00018
ваш;0.00014
вашингтон;0.00027
введение;0.0001
ввс;0.00016
ввэр;0.0003
век;0.00024
веласкес;0.0003
вели;0.00015
великий;0.00039
великобритания;0.00012
венгерский;0.00013
венгрия;0.00027
венецианский;0.00059
вермеер;0.0003
версия;0.0
вершина;0.00018
вес;0.00014
вест-индия;0.00021
весь;0.00016
вид;4e-05
видеография;0.0003
вижн;0.0003
викидать;0.0
викимедиа;0.0
википедия;0.0
виктория;0.00058
вилла;0.00017
виллибальд;0.0003
вильярреал;0.0003
винкс;0.00069
вино;0.00018
виргиния;0.00039
вировитицко-подравинский;0.0003
висконсин;0.00023
вице-губернатор;0.00025
вице-президент;0.00073
вишкович;0.0003
вклад;0.0
владимир;0.0001
владимирский;0.00025
власовец;0.0003
вместительный;0.0003
вмс;0.00063
вмф;0.00017
вода;6e-05
водоворот;0.0003
воеводин;0.0003
военно-морской;0.00017
военный;0.00035
воин;0.00015
война;0.00051
войско;0.0004
войти;0.0
вокал;0.00025
вокальный;0.00252
волгоград;0.0002
волжский;0.00018
волк;0.00016
вологда;0.0002
вооружение;0.00033
восточный;0.00021
восьмой;0.00015
вратарь;0.00017
время;5e-05
вселенная;0.00014
всемирный;0.00344
встретить;0.00016
второе;0.00011
второй;0.00033
вуковарско-сремский;0.0003
вулкан;0.00137
вулканический;0.0003
выбрать;0.00016
выдающийся;0.00045
выиграть;0.00173
выпуск;0.00115
высокий;0.00045
высоцкий;0.00023
выставить;0.00017
выступление;0.00023
выше;0.0001
вятский;0.00023
габдулла;0.0003
габон;0.00016
гавайи;0.0003
гаити;0.00037
галактика;0.00018
галерея;0.00022
галет;0.0003
галиот;0.0003
галич;0.0003
гамбия;0.00018
гана;0.00016
гвадалахара;0.0003
гвардейский;0.00042
гватемала;0.00018
гвинея;0.00029
гвинея-бисау;0.00033
где;3e-05
гдр;0.00014
гекбот;0.0003
генерал;0.00014
генерал-губернатор;0.00102
генеральный;0.00034
геннадий;0.00017
генрих;0.00016
география;0.0002
геральдика;0.0002
герб;0.0001
германия;0.0003
германский;0.00024
героический;0.0002
герой;0.00108
герцеговина;0.00037
гершвино;0.0003
гетманов;0.0003
гибралтар;0.00026
гидрография;0.0003
гипускоа;0.0003
глава;0.00622
главный;0.00099
глобус;0.00042
глостершир;0.0003
глюк;0.0003
год;0.00018
гол;0.00015
голгофа;0.00025
голден;0.00051
голова;0.0001
голубой;0.00013
гондурас;0.00017
гонконг;0.00026
горнолыжный;0.0002
горный;0.00013
город;0.0009
город-побратим;0.00021
городской;8e-05
государственный;0.00023
государство;0.00049
гравюра;0.00023
градоначальник;0.00025
градостроительство;0.00025
гражданин;0.00061
гражданский;6e-05
гран-при;0.00051
гранада;0.00025
граф;0.00021
гребной;0.00021
гренада;0.00018
греция;0.00028
гриб;0.00102
григорианский;0.00025
григорий;0.00013
гриффина;0.00021
гродненский;0.00051
гром;0.00021
гронинген;0.00023
грузия;0.0002
группа;0.00026
грэмми;0.00729
губернатор;0.00398
губерния;0.0006
гукор;0.0003
гуркх;0.0003
даля;0.00025
дания;0.00031
дарем;0.00023
дать;3e-05
два;2e-05
дважды;0.00026
движение;6e-05
девиз;0.00015
девон;0.00025
девятый;0.00014
действительный;0.00059
действовать;1e-05
деление;0.00078
дело;5e-05
демократический;0.00021
день;6e-05
депутат;0.00041
дербишир;0.0003
деревянный;0.00014
державинский;0.0003
десна;0.0003
детектив;0.00016
детройт;0.00069
деятель;9e-05
джейс;0.0003
джек;0.00017
джексон;0.00045
джесси;0.00025
джиня;0.00025
джокер;0.00025
джомбич;0.0003
джонс;0.00018
джордан;0.0002
джордж;0.00022
диамандис;0.0003
див;0.0003
дивизион;0.00168
дивизия;0.00031
диего;0.0002
динамо;0.00063
династия;0.00012
динозавр;0.0002
дипломатический;0.00037
дипломатия;0.0002
директория;0.0003
дискография;0.01228
дневный;0.00021
добротный;0.00016
договор;9e-05
дож;0.00025
доктор;0.00012
долгоруковский;0.0003
долфинс;0.0003
доместикация;0.0003
доминиканский;0.00018
домой;0.00014
донецк;0.00018
дополнительный;0.0
дорога;0.00031
дорсет;0.00021
доска;0.00087
достижение;9e-05
доступный;0.0
дракон;0.00041
драфт;0.0009
древний;0.00017
другой;0.0
дубровницко-неретвинский;0.0003
дума;0.00047
душа;0.00012
дуэт;0.00069
дэвид;0.00021
дэлзил;0.0003
евро;0.0003
евролига;0.00051
европа;0.00018
европейский;0.00019
единоборство;0.00021
екатерина;0.00011
епархия;0.00018
жанровый;0.00025
железнодорожный;0.00022
железный;0.00042
женский;0.00153
женщина;0.0003
жертва;0.00018
живой;0.0001
живопись;0.00025
жирон;0.0003
жупаний;0.00598
журнал;0.00039
заведение;0.00013
завод;0.00012
заглавный;0.0
заговор;0.00016
загреб;0.00127
загребский;0.0003
задарский;0.0003
закавказье;0.00021
законодательный;0.00012
закрепить;0.00013
зал;0.00026
заместитель;0.00012
замоскворечье;0.0003
занести;0.00788
западный;0.00025
запись;0.0
заповедник;0.00039
заповедный;0.00025
запорожский;0.00018
запрос;9e-05
запуск;0.00277
зарегистрировать;0.0
зарубежный;0.00048
заслуга;0.00043
заслужить;0.0002
затмение;0.0002
затонуть;0.00021
защита;6e-05
заявление;0.0
звание;0.0003
звезда;0.00115
здание;0.00065
зеландия;0.00028
землетрясение;0.00018
земля;5e-05
земноводное;0.00153
зимний;0.00072
знак;0.00013
знаменитость;0.00021
значение;0.00145
золотой;0.00196
зона;0.00025
ивуар;0.00035
игра;0.00167
игрок;0.00324
игрушка;0.00039
ижевск;0.0003
избрание;0.00026
избранность;0.00025
избранный;0.0
извержение;0.00025
изложение;0.00014
изобразить;0.00011
израиль;0.00053
изсп;0.0006
икс-дивизион;0.0003
иллюстрация;0.00013
император;0.0001
императорский;0.00588
империя;0.00041
имя;0.0
индиана;0.00021
индия;0.00034
индонезия;0.0003
инженерно-архитектурный;0.0003
инок;0.00025
иностранный;0.00045
инспектор;0.00016
институт;8e-05
инструмент;0.0
инструментальный;0.00037
интеркосмос;0.00051
интернационал;0.00023
интерстеллара;0.0003
интертоть;0.0003
информационный;0.00011
ир;0.00039
иран;0.00012
ирландия;0.00058
искусство;0.00045
исландия;0.00037
исп;0.00029
испания;0.00016
исполнение;0.00037
исполнитель;0.00023
использование;0.0
исследование;8e-05
исторический;0.00021
история;1e-05
источник;0.0
истрийский;0.00025
италия;0.00032
июль;3e-05
йолово;0.0003
йоханссон;0.0003
кавалер;0.00214
кавальерс;0.0003
кавказ;0.00015
кадис;0.0003
казань;0.0002
казахстан;0.00054
кайка;0.0003
кальмар;0.00025
камео;0.00023
камера;0.00013
камерун;0.00029
камиль;0.00023
канада;0.00026
канадский;0.00013
кандидат;9e-05
канон;0.0002
канонерский;0.0003
кантабрий;0.0003
кантри-альбом;0.0003
кантри-исполнение;0.0003
канье;0.0003
капитолий;0.00025
кардинал-выборщик;0.0003
карелия;0.00046
карибский;0.00016
карловацкий;0.0003
каролайн;0.00025
картина;0.00094
карточка;0.00015
касерес;0.0003
кассовый;0.00078
кастельон;0.0003
катастрофа;0.00115
категория;1e-05
катер;0.00042
католицизм;0.00014
квебек;0.00015
квинсленд;0.00025
кейнс;0.0003
кембриджшир;0.0003
кент;0.00021
керуака;0.0003
киев;0.00014
ким;0.00033
кингз;0.0003
кинематограф;0.0001
кино;0.0001
кинологический;0.00051
кинопремия;0.00153
кинотеатр;0.00035
кинофестиваль;0.00073
киргизия;0.00016
китай;0.0001
кларк;0.00017
класс;0.00012
классификатор;0.00051
классификация;0.00037
кливленд;0.0009
клипперс;0.0003
клон;0.00023
клуб;0.00061
клубный;0.00021
кндр;0.00028
книга;0.00185
князь;0.00013
князь-соправитель;0.0003
ковальчик;0.0003
код;0.0
кодекс;0.0
коза;0.00025
коко;0.00023
коктейль;0.00023
количество;0.0001
коллекция;0.00017
коломбо;0.00023
колониальный;0.00035
колорадо;0.00023
колумбия;0.00029
командный;0.00015
командующий;0.00045
комедийный;0.00021
комикс;0.0011
комитет;0.00039
коммуна;0.00208
коморский;0.00046
компания;0.0002
комплекс;0.00011
компьютерный;0.00011
конахер;0.0003
конвент;0.0003
конго;0.00051
конец;3e-05
конклав;0.00021
конмебол;0.00025
консульский;0.00039
континентальный;0.00012
конфедеративный;0.0003
конфедерация;0.0004
конференция;0.00013
конфиденциальность;0.0
концлагерь;0.00025
копривницко-крижевацкий;0.0003
корабль;0.00059
корвет;0.00025
кордова;0.0003
корея;0.00046
корнуолл;0.00023
королевский;9e-05
королевство;0.00021
король;0.00024
короткий;0.0
корпус;0.00011
космический;0.00027
космонавтика;0.00018
космос;0.00016
косово;0.00038
коста-рика;0.00018
кот-д;0.00031
который;1e-05
коэн;0.00025
краина;0.00023
край;0.00014
краймбррать;0.00025
крапинско-загорский;0.0003
красновца;0.0003
красносельский;0.0003
красный;0.0022
кратер;0.00023
крейсерский;0.0003
крест;0.00073
кристи;0.00039
кристоф;0.0003
критерий;0.00027
кропивницкий;0.0003
круглороть;0.0012
крупный;0.00036
крым;0.00014
крымский;0.00016
ксавьер;0.0003
куба;0.00014
кубок;0.00167
куинси;0.0003
кук;0.0
культура;0.00015
культурный;0.0001
курс;0.00011
куэнка;0.0003
кэти;0.00023
ла-корунья;0.0003
лавина;0.00025
лагос;0.00025
лан;0.0009
ланкашира;0.0003
лансоновый;0.0003
лас-пальмас;0.0003
латвия;0.00021
латинский;0.0001
лауреат;0.00474
лгбт;0.00018
легион;0.00033
леди;0.00017
лезга;0.00012
лейкерс;0.0003
лем;0.0003
ленд;0.0003
ленд-лиз;0.00025
ленин;0.00017
лента;0.00045
леона;0.00046
леонард;0.00021
лесото;0.0002
лестершир;0.0003
летний;0.00049
либерия;0.00015
либертадорес;0.0006
ливерпуль;0.00017
ливия;0.00028
лига;0.00185
лидер;0.00122
ликско-сеньской;0.0003
лимбург;0.0003
линейный;0.00018
линкор;0.00023
лионеля;0.0003
литва;0.0001
литература;0.00011
лихтенштейн;0.00027
лицензия;5e-05
лишайник;0.00025
лишение;0.00014
лодка;0.00055
локомотив;0.0003
локус;0.00051
лондон;0.0002
лорд;0.00014
лос-анджелес;0.00031
лоц-судно;0.0003
лошадь;0.00016
лувр;0.0003
луганский;0.00017
луго;0.0003
луизианы;0.00025
луна;0.00017
льеж;0.00023
льейд;0.0003
люгер;0.0003
люксембург;0.00036
люмьер;0.00023
маврикий;0.00029
мавритания;0.00031
мадагаскар;0.00029
мадрид;0.00039
майами;0.00023
майкл;0.00041
майор;0.00016
майя;0.0002
македония;0.00012
макс;0.00016
макфарлейный;0.0003
малага;0.0003
мали;0.00016
малина;0.0003
мальта;0.0001
мама;0.00021
манга;0.00017
мантуя;0.0006
манфред;0.00025
манчестер;0.00125
марий;0.00011
марина;0.00021
мария;9e-05
марка;0.002
марпл;0.0003
мартинес;0.00025
марш;0.00015
маршнера;0.0003
марь;0.00016
маска;0.00439
материал;0.0
матч;0.00199
мать;8e-05
медаль;0.00035
меджимурский;0.0003
медицина;0.00014
медработник;0.00025
международный;0.00024
межконтинентальный;0.00021
мексика;0.0001
мелонь;0.0003
мемориальный;0.00128
менеджер;0.00051
менее;0.00011
мерсисайда;0.0003
местный;7e-05
место;2e-05
месяц;9e-05
метал-исполнение;0.0003
металл;0.00018
металлург;0.00023
метохия;0.0003
метр;0.00012
метрополитен;0.00121
метс;0.0003
мещанский;0.00025
микронезия;0.00023
мина;0.00015
министр;7e-05
миннесоты;0.0009
минск;0.00016
минута;0.00012
мир;0.00067
мировой;0.00041
мисс;0.00023
миссия;0.0001
мичиган;0.00046
младший;0.00012
млекопитающее;0.00073
мобильный;0.0
могила;0.00015
могольский;0.0003
мой;8e-05
мокрый;0.00021
молдавия;0.00073
момент;5e-05
монарх;0.00013
монастырь;0.0006
монета;0.00136
монреаль;0.00023
монтана;0.00023
монументальный;0.00021
моравия;0.00025
морской;9e-05
мортить;0.00051
москва;0.00047
москворецкий;0.00025
московский;0.0003
мота;0.0003
мотив;0.00014
мочь;0.0
мститель;0.00063
мудрый;0.00021
мужской;0.00092
мужчина;0.0001
музей;0.00054
музыка;8e-05
музыкальный;0.00022
мультсериал;0.00257
мультфильм;0.00195
муниципалитет;0.01068
мунка;0.00153
мурманский;0.00025
муромский;0.00025
мурсия;0.0003
мухаммед;0.00018
мышца;0.0006
мэн;0.00014
мэр;0.00053
мюнхенский;0.00023
мяч;0.00014
наварра;0.00025
навеки;0.0003
навигация;0.0
награда;0.00384
наградить;0.00049
найтингейл;0.0003
наливка;0.0003
намюр;0.00025
нана;0.00035
народ;0.00032
народный;8e-05
насекомое;0.0016
население;7e-05
населить;0.00011
наследие;0.00346
насс;0.0003
настоящий;6e-05
наука;0.00037
науру;0.00025
научно-фантастический;0.00018
научный;0.00293
национальный;0.00036
нацистский;0.00016
начальник;0.00025
начинающий;0.00015
небраска;0.00025
небьюла;0.0009
невад;0.00023
недавно;0.00011
неделя;7e-05
недрагоценный;0.0003
независимый;0.00018
нейтральность;0.00021
неклассический;0.0003
некоммерческий;0.0
нет;5e-05
нигер;0.0006
нигерия;0.00015
нидерланды;0.0004
никарагуа;0.00016
николаев;0.00018
николаевский;0.00017
никс;0.0003
нобелевский;0.00128
нобель;0.0003
новичок;0.00042
новогодний;0.00021
новозеландский;0.00023
новокузнецк;0.00023
новосибирский;0.00025
новый;0.0
нокаут;0.00051
номер;0.00076
номинант;0.0042
номинация;0.00624
норвегия;0.00018
ноттингемшир;0.0003
ноябрь;3e-05
нумизматика;0.00018
нью-джерси;0.00021
нью-йорк;0.00031
нюрнбергский;0.00023
обвинять;0.00013
обитаемый;0.0003
обладатель;0.00016
область;0.00064
оборона;9e-05
оборонительный;0.0002
обсуждать;0.00015
обсуждение;0.0
общероссийский;0.0003
общество;0.00013
община;0.00271
объект;0.00177
огайо;0.00017
одиннадцатый;0.00021
одри;0.0003
озеро;0.00011
ознакомление;0.00023
округ;0.00058
олег;0.00014
олимпийский;0.00153
опасность;0.00016
опера;0.0004
описание;0.0
оплата;0.00805
орбитальный;0.00023
организация;1e-05
орден;0.00121
орегон;0.00025
оренс;0.0003
оригинальный;0.00021
ориолс;0.00025
орловский;0.00046
освоение;0.00021
осиекско-бараньской;0.0003
осийка;0.0003
оскар;0.00191
османский;0.00013
основатель;0.0001
основной;4e-05
основный;3e-05
особо;0.00014
особый;0.00238
остаться;6e-05
остров;0.0004
ось;0.0002
ответственность;0.0
отдел;0.00038
отдельный;0.0
отечественный;0.00064
отказ;0.0
отношение;4e-05
отредактировать;0.0
отчуждение;0.00018
оуэнс;0.0003
офицер;0.00011
официальный;8e-05
охранять;0.0003
оценивание;0.00017
ошибка;0.0
падишах;0.0003
пакетбот;0.0003
пакистан;0.00055
паленсия;0.0003
памятник;0.00081
памятный;0.00147
память;0.0001
панама;0.00016
пантеон;0.00023
пантера;0.0003
папа;0.0001
парагвай;0.00017
парижский;0.00012
парк;0.00023
парковый;0.00102
парламент;8e-05
партизан;0.00016
партизанский;0.00018
парусно-гребной;0.0003
парусный;0.0021
пассажбот;0.0003
патриарх;0.00016
пво;0.00016
пенальти;0.00017
пенитенциарный;0.00076
пенсильвания;0.00023
первый;0.00023
передача;0.00039
перейти;0.0
перепись;0.00013
перехват;0.00069
период;5e-05
пермский;0.00021
перри;0.00023
персона;0.00021
персонаж;0.00077
персональный;0.0
перу;0.00045
перчатка;0.00023
песня;0.00074
петербургский;0.0002
печать;0.0
печский;0.0003
пианист;0.00021
пиктограмма;0.00023
пилотировать;0.00023
пингвинза;0.0003
пинок;0.00025
писсарро;0.0003
пистонс;0.00051
питер;0.0001
питтсбург;0.00023
план;0.00023
платформа;0.00028
плей-офф;0.00055
плен;0.00018
плита;0.00023
плохой;9e-05
побег;0.00018
победа;0.00021
победитель;0.00037
побыть;0.00025
поведение;0.0
повелитель;0.00023
повесть;0.00063
повстанец;0.00021
погибнуть;8e-05
поглощение;0.00023
подбор;0.00102
подвиг;0.0003
подводный;0.00049
подпольщик;0.0003
подробный;0.0
подсудимый;0.0012
поездка;0.0006
пожегско-славонский;0.0003
пожертвовать;0.0
поиск;0.0
покемон;0.00023
покинутый;0.00025
покушение;0.00017
полакр;0.0003
политех;0.0003
политика;0.0
полнота;0.00021
полный;5e-05
полуостров;0.00015
получить;0.0
полька-альбом;0.0003
польский;9e-05
польша;0.00024
понтеведра;0.0003
поп-альбом;0.0006
поп-исполнение;0.0015
поп-панк-альбом;0.0003
попасть;8e-05
порода;0.00039
порт;0.0001
портал;0.00283
португалия;0.0003
посещать;0.00013
последний;0.0
послематчевый;0.0002
поставить;0.00017
постоянный;1e-05
построить;7e-05
постройка;0.00016
постсоветский;0.00021
потерянный;0.00052
похоронить;0.00014
почтовый;0.00728
поэт-футурист;0.00025
появиться;5e-05
праведник;0.0009
правитель;0.00115
правительство;0.00484
править;0.0
правка;0.0
право;4e-05
православный;0.00028
предел;0.00034
предмет;0.0001
председатель;9e-05
представитель;0.0001
представительство;0.00063
представиться;0.0
президент;0.00123
премия;0.0108
премьер-лига;0.00153
премьер-министр;0.00325
преобразовать;0.00031
пресмыкаться;0.00382
преступность;0.00018
претендент;0.00092
приз;0.00092
приключение;0.00016
приморско-горанский;0.0003
принсипи;0.00017
природный;0.00023
приручить;0.00023
пробег;0.0003
провинция;0.00019
программа;0.00015
прогрессировать;0.00025
проект;2e-05
произведение;0.00041
производиться;0.00023
промышленность;0.00011
просмотр;0.0
пространство;0.0
профессиональный;0.00022
профессор;0.00014
проходить;6e-05
процедура;0.00014
процесс;0.00027
птица;0.00106
пуарый;0.0003
пулитцеровский;0.0009
пункт;0.00017
пунш;0.0003
путешественник;0.00018
путь;0.00019
пэксана;0.0021
пэскоу;0.0003
работа;3e-05
радован;0.0003
раз;0.0
развитие;6e-05
размер;9e-05
разный;6e-05
разработать;0.00012
разработчик;0.0
район;0.00032
ракета;0.0021
ракетка;0.00025
рама;0.0003
рамазотти;0.0003
ран;0.00016
раунд;0.00017
реактор;0.00021
реал;0.00021
революция;9e-05
регби;0.00033
регион;0.00031
регулярный;0.00074
ред;8e-05
режим;8e-05
режиссура;0.00023
резерват;0.00076
результат;3e-05
результативный;0.00046
рей;0.00063
рейган;0.0003
рейнджерс;0.00025
рейтинг;0.00012
река;0.00013
рекопа;0.0003
рекорд;0.00072
религиозный;0.00021
ремикс;0.00025
реслинг;0.0003
республика;0.00102
риека;0.0003
рик;0.00055
римингтон;0.0003
римский;0.0001
риоха;0.0003
рисунок;0.00014
ритм-н-блюз;0.0012
рихтгофен;0.0003
роберт;0.0001
робертсон;0.00021
родительский;0.00021
рожерио;0.0003
розенфельд;0.0003
розыгрыш;0.00016
рок-альбом;0.0003
рок-исполнение;0.0015
рок-песня;0.0003
роль;0.0007
роман;0.00039
рональд;0.00023
российский;0.00167
россия;0.00224
ростовский;0.00021
ротор;0.00025
руанда;0.00014
рудольф;0.00023
руководитель;0.00026
румфорд;0.0003
румыния;0.00027
русский;0.0
рута;0.0003
рыба;0.00073
рэп-альбом;0.0003
рэп-исполнение;0.0006
садр;0.0006
сакраменто;0.0003
саламанка;0.0003
сальвадор;0.00021
самоа;0.00025
самор;0.0003
самый;0.00047
сан-томе;0.00017
сан-франциско;0.00021
сандэнс;0.0003
санкт-петербург;0.00041
санта-крус-де-тенериф;0.0003
сарагоса;0.0003
сардиния;0.0003
сассекс;0.0002
сатира;0.00023
саудовский;0.00014
саут-йоркшир;0.0003
сачин;0.0003
сборная;0.00288
сборный;0.00013
сведение;0.0
свежий;0.0
свердловский;0.00021
световой;0.0015
свобода;7e-05
свободный;0.0
свой;1e-05
связанный;0.0
связаться;0.0
севенти;0.0003
северный;4e-05
севилья;0.0003
сеговия;0.0003
седьмой;0.00031
сезон;0.00357
сейбрзнуть;0.0003
селен;0.00025
селтик;0.0003
селтикс;0.00025
сенат;0.00014
сенатор;0.00035
сени;0.0003
сено;0.00021
сентябрь;2e-05
серафим;0.00025
серб;0.0002
сербия;0.00087
сербский;0.00135
сердце;0.00022
серебряный;0.00051
сериал;0.00087
серия;0.00043
сессия;0.00075
сеть;0.00024
сигрейв;0.0003
сиксерс;0.0003
сила;0.00013
символ;0.00017
симпсон;0.00023
сингапур;0.00013
сингл;0.0002
сисакско-мославинский;0.0003
система;0.0
сицилия;0.00021
скарлетта;0.0003
скачать;0.0
скорин;0.0003
скрытый;1e-05
слава;0.00045
следовать;9e-05
следствие;0.00012
словакия;0.0002
словения;0.00025
служебный;0.0
случай;0.0
случайный;0.0
смоленск;0.00023
смоленский;0.00017
смотреть;1e-05
снайпер;0.00051
снг;0.00014
собака;0.00018
собирать;0.00013
собор;0.00013
событие;0.0
совет;5e-05
советский;0.00063
совместный;0.0002
современный;0.00011
содержание;0.0
соединение;0.00016
создать;0.0
созыв;0.0002
солнечный;0.00049
соломонов;0.00018
сольный;0.00051
сомерсет;0.00017
сообщество;0.0
сообщить;0.0
сооружение;0.00014
соответствие;9e-05
соответствовать;7e-05
сорий;0.0003
состав;0.00036
состояние;5e-05
сохранение;0.0
социалистический;0.00022
союз;0.00047
спартак;0.00023
спартак-нальчик;0.0003
спейс;0.0003
список;0.03699
сплит;0.0003
сплитско-далматинский;0.0003
спорт;0.00019
спортивный;0.00032
спортсмен;0.00033
справка;0.0
сражаться;0.00014
српски;4e-05
ссср;0.00464
ссылка;0.0
стадион;0.00027
сталинградский;0.0012
стандартный;0.00128
станислав;0.00017
станция;0.00094
старик;0.00021
старший;0.00017
статистика;0.0
статус;6e-05
статья;0.0
степень;8e-05
стивить;0.0003
стиль;0.00051
столичный;0.00015
стража;0.00016
страна;7e-05
страница;0.0
стрейзанда;0.00025
стрекоза;0.00023
строительство;0.0001
структура;9e-05
студия;0.00014
стэйт;0.0006
субъект;0.00018
судан;0.00031
судно;0.00013
султан;0.00015
супербоул;0.00025
суперкубок;0.00039
супруг;0.00021
суринам;0.00042
сухопутный;0.00013
существующий;0.00014
сфера;0.0001
сценарий;0.00027
считать;5e-05
сша;0.00084
сьерра-леоне;0.00037
сьюдад-реаля;0.0003
сюда;0.0
таджикистан;0.00075
таиланд;0.00016
тайбэйский;0.0003
тайна;0.00012
такой;3e-05
танзания;0.00035
танкист;0.00025
танцевальный;0.00021
тарас;0.00023
таррагона;0.0003
тасмания;0.00021
татарстан;0.00051
татарча;6e-05
творческий;0.00011
театр;0.00018
текст;0.0
текущий;0.0
телевидение;0.00054
телепередача;0.00025
телесериал;0.00221
тендер;0.0003
тендулкар;0.0003
теннисный;0.00021
теракт;0.00012
термин;7e-05
территория;0.0002
террористический;0.00014
теруэль;0.0003
техас;0.0011
техника;0.00031
технология;0.00012
тибет;0.00023
тикалить;0.0003
тип;6e-05
титул;0.0001
тихоокеанский;0.00025
тобаго;0.00016
товарный;0.0
толедо;0.0003
том;0.00015
тонг;0.00025
торонто;0.00021
точность;0.00015
традиционный;0.00019
трамвайный;0.00025
транспортный;0.00011
траур;0.00042
требак;0.0003
тренер;0.0069
третий;0.00014
тридцать;0.00017
трижды;0.00016
тринидад;0.00017
трофей;0.00031
труд;0.00018
тукать;0.0003
тула;0.00039
тульский;0.00069
тур;0.00014
туркменистан;0.00099
турнир;0.0002
турция;0.00019
тут;0.00016
тюльпан;0.00025
тюменский;0.00051
тяжкий;0.00018
уайт;0.0002
убийство;8e-05
убойный;0.00025
удаление;0.00014
ударный;0.00015
удмуртия;0.00025
уефа;0.00144
уже;7e-05
узбекистан;0.00086
уизардс;0.0003
уилтшир;0.00023
уильям;0.0001
уингз;0.0003
указание;0.0
украина;0.00358
украинский;0.0001
укрепрайон;0.00025
улафа;0.0003
универсальный;0.00013
университет;7e-05
уолл-стрит;0.00025
уорриорз;0.00051
упоминание;0.00011
упразднить;0.00012
уругвай;0.00029
условие;0.0
устройство;0.0001
участие;0.0
участник;0.00022
участок;0.00282
учебный;0.00013
учреждение;0.00018
уэйтс;0.00025
уэльва;0.0003
уэски;0.0003
уэст;0.00023
уэст-йоркшир;0.0003
уэст-мидлендс;0.0003
фанни;0.0003
фашизм;0.00021
федеральный;0.0001
федеративный;0.00017
федерация;0.00061
физика;0.00017
физиология;0.00021
филадельфия;0.00021
филателия;0.00018
фильм;0.00208
фильмография;0.00115
финал;0.00124
финалист;0.00021
финикс;0.0003
финляндия;0.0002
флаг;6e-05
фламандский;0.00025
фландрий;0.00035
флейтовый;0.0003
флоренса;0.0003
флорида;0.00016
флот;0.00421
флотилия;0.00023
фонд;0.0
форинт;0.0003
форум;0.0
фотография;0.00021
франс;0.00023
франциска;0.0002
франция;0.00034
французский;5e-05
фрг;0.00015
фрегат;0.0002
фризий;0.0003
фрисландия;0.0003
фронт;0.00011
фрушко-гора;0.0003
фрэнк;0.00014
фудзь;0.0003
фурия;0.00023
футбол;0.00502
футболист;0.00053
футбольный;0.0001
футурам;0.00023
фэнтези;0.00052
хавьер;0.00025
хайдук;0.0003
хайнлайна;0.0003
хайсмана;0.0003
хард-рок;0.0003
хартфордшир;0.00025
харьковский;0.00016
хаэн;0.0003
хет-трик;0.00238
химия;0.0002
хит;0.0002
хичкок;0.00051
ход;6e-05
хоккей;0.00069
хоккейный;0.00037
хокс;0.0003
хокусать;0.0003
холмс;0.00021
холодное;0.00042
хор;0.00016
хорватия;0.0015
хороший;0.00293
хоум-рановый;0.0003
храм;0.0001
хронология;0.00034
художественный;0.0001
хьюго;0.00076
хьюстон;0.00039
хэнка;0.00025
цвиянович;0.0006
цензура;0.00015
ценный;0.0011
центральноамериканский;0.0003
центральноафриканский;0.00033
центральный;5e-05
цепь;0.00039
церковь;0.00025
цивилизация;0.0002
цинциннать;0.0003
цска;0.00021
чадо;0.00033
чарльз;0.00013
час;9e-05
часовня;0.00017
частица;0.00017
часть;2e-05
человек;4e-05
человек-паук;0.00046
челси;0.0002
челябинск;0.00023
челябинский;0.00042
чемпион;0.00318
чемпионат;0.00219
чен;0.00025
чернобыльский;0.00021
черногория;0.00012
четвертьвековый;0.0003
четыре;9e-05
чехия;0.00011
чехословакия;0.00049
чешский;0.00014
чили;0.00015
читать;0.0
член;0.00026
чхартишвили;0.0003
шайба;0.00069
шаттл;0.0003
швейцария;0.00044
швеция;0.0001
шебека;0.0003
шевченко;0.00018
шерлок;0.0002
шестой;0.00028
шесть;6e-05
шехтеля;0.0003
шея;0.0002
шибеникско-книнский;0.0003
шкура;0.00023
шкут;0.0003
шлюп;0.0003
шмак;0.0003
шмель;0.0003
шнява;0.0003
шотландия;0.00011
шотландский;0.00014
шпаликов;0.00025
шри-ланка;0.00014
штаб;0.00025
штат;0.00066
шумадийский;0.0003
шхуна;0.0003
эвертон;0.00023
эвита;0.0003
эдвард;0.0009
эдгар;0.00016
эйв;0.00025
эйвона;0.0003
эквадор;0.00017
экономика;0.00017
экономист;0.00023
экслибриум;0.00051
эксплуатировать;0.00025
экспорт;0.0
электровоз;0.0003
электроника;0.00021
электропоезд;0.00025
элемент;0.0
эмми;0.00023
энергетика;0.0003
эно;0.00023
энтомология;0.00023
энциклопедия;0.0
эпизод;0.00292
эрос;0.00025
эспот;0.0003
эстлить;0.00025
эстония;0.00023
эстонский;0.00017
этот;0.0
эфиопия;0.00038
ювентус;0.00051
югославия;0.00053
южный;0.00046
юнайтед;0.00121
юнеско;0.00485
юридический;0.00012
юстина;0.0003
юта;0.0003
являться;2e-05
ядерный;0.00016
язык;0.0
яйла;0.0003
ямайка;0.0002
ян;0.00012
янкиз;0.0003
япония;0.00029
ярослав;0.00023
яхта;0.00046
яшчилан;0.0003
