августейон;0.00074
августеон;0.00074
августион;0.00074
аврелиана;0.00063
автобиография;0.00045
авторство;0.0
агиография;0.00074
административно-территориальный;0.00037
адрес;0.00033
азиатский;0.00043
азия;0.00024
айя;0.00524
акведук;0.00074
акр;0.00045
акрит;0.00074
акрополис;0.00074
алаборг;0.00074
алфавит;0.00021
альдейгие;0.00074
альпина;0.00056
амастриана;0.0015
амстердам;0.00043
англ;0.0008
андрей;0.00035
анемас;0.00074
антиоха;0.00074
античность;0.00087
антропоморфный;0.00063
апостол;0.00129
апрель;3e-05
араб;0.00087
арабский;0.00027
аргиропратея;0.00074
аргус;0.00074
арианство;0.00063
арка;0.00082
аркадиан;0.00074
аркадий;0.0021
армия;0.0006
армянин;0.00048
артерия;0.00074
артополей;0.00074
архаичный;0.00052
археологический;0.00041
архивировать;6e-05
архивный;0.00016
архитектор;0.00037
архитектура;0.00081
аспар;0.00074
ататюрк;0.00063
атлас;0.00075
атрибутика;0.00074
аэция;0.00074
базель;0.00074
базилика;0.00137
балат;0.0015
балин;0.00074
балканы;0.00052
бан;0.00056
башня;0.00043
баязид;0.00056
безоблачный;0.00074
беларускать;0.00014
белоснежный;0.00074
белые;0.00048
берег;0.00028
библиографический;0.00014
библиотека;0.00048
близлежащий;0.00056
блъгарский;0.00074
блюдо;0.00045
богатый;0.00028
богомил;0.00063
богородица;0.00247
богородичный;0.00063
богословие;0.00063
болгарин;0.00146
болгария;0.00021
болгаробоец;0.00074
болгарский;0.00138
более;0.00013
больший;0.00072
большой;0.00031
босния;0.00029
босфор;0.00063
брать;0.0003
брокгауз;0.00157
бронзовый;0.00033
буколеон;0.00074
булгар;0.00063
бульвар;0.00056
бунт;0.00033
буондельмонтить;0.00074
бусеева-давыдов;0.00074
български;9e-05
бывший;0.00015
быстро;0.00024
быт;0.00043
быть;4e-05
бьярмаланда;0.00074
бюрократия;0.00074
вадим;0.00052
вайссенбург;0.00074
вакх;0.00074
валент;0.00074
варяг;0.00063
варяжский;0.00127
васил;0.00114
василевс;0.00074
василевус;0.00074
василий;0.00032
ведущий;0.00034
век;0.00215
великий;0.00098
велико-тырново;0.00063
венецианец;0.003
версия;0.0
верхний;0.00043
весь;0.00012
вид;0.0003
видеть;0.00051
виза;0.00041
византид;0.00074
византиец;0.00045
византий;0.00074
византийский;0.00413
византинизм;0.00074
византинистика;0.00074
византия;0.00562
викидать;1e-05
викимедиа;0.0
викиновость;0.00016
википедия;0.0
викисклад;0.00017
викисловарь;0.00062
викитека;0.00075
виноград;0.00052
вклад;0.0
влагна;0.00074
власть;0.0007
влахерна;0.00074
влахернский;0.00171
влахерный;0.0015
влахерня;0.00063
вместе;0.00012
внешний;5e-05
вновь;0.00039
военный;0.00063
возведение;0.00056
возвести;0.00062
возводиться;0.00056
воздвигнуть;0.00092
возрождение;0.00066
война;0.00027
войти;0.0
волжский;0.00045
воловий;0.00074
волхов;0.00074
волшебный;0.00012
ворота;0.00025
восседать;0.00074
восстание;0.00052
восток;0.00019
восточно-римский;0.00074
восточный;0.00068
впадать;0.00052
вплоть;0.00026
враг;0.00026
врата;0.00045
врачански;0.00074
врачанский;0.00063
временник;0.00074
время;0.00019
врийский;0.00074
вселенский;0.00045
вскоре;0.00034
вспыхнуть;0.00043
второй;7e-05
входить;0.00029
выделить;0.00023
выполнить;0.0003
выпустить;0.00044
высказывание;0.00039
высокий;0.00017
высота;0.00054
г;0.00055
гавань;0.00039
галат;0.0019
галатскай;0.00074
галашевич;0.00074
галерея;0.00054
гардарик;0.00074
гастрия;0.00074
где;0.00019
гегемония;0.00063
гектар;0.00056
генуэзец;0.00224
география;0.00025
георгий;0.00033
гептаскалон;0.00074
гер;0.00074
гера;0.0021
геральдика;0.00048
геров;0.00074
гибель;0.00028
гигантский;0.00039
главное;0.00024
главный;0.00012
глаз;0.00054
говорить;0.00016
год;0.00025
голова;0.00024
город;0.00466
городской;0.00095
госиноиздат;0.00074
господство;0.00045
государство;0.00041
готский;0.00052
гравюра;0.00056
град;0.00157
градостроительный;0.00063
гражданский;0.00016
граница;0.00018
грек;0.00087
грекоязычный;0.00074
греция;0.00023
греча;0.00228
греческий;0.00168
грешние;0.00074
гроза;0.00052
грозд;0.00063
группа;9e-05
далее;0.00033
далеко;0.00035
дар;0.00039
дата;2e-05
датский;0.00016
дать;0.00016
дафна;0.00056
два;4e-05
двина;0.00074
двор;0.00058
дворец;0.00388
дева;0.00072
действовать;1e-05
декабрь;4e-05
декор;0.00063
делакруа;0.00074
деление;0.00028
делиться;0.00032
дело;0.00014
деловой;0.00041
день;0.00015
держава;0.00035
держать;0.00033
десять;0.00025
деталь;0.00033
деутерон;0.00074
деятельность;0.00037
диванйол;0.00074
дигест;0.00063
диля;0.00074
династия;0.00115
дипломатия;0.00098
дисциплина;0.00052
длительный;0.00029
днепровский;0.00045
добывать;0.00056
документ;0.00022
доп;0.00078
дополнительный;0.0
дорога;0.00019
дорожный;0.00075
достопримечательность;0.00045
достопримечательный;0.00074
доступный;0.0
др;0.00064
древнеславянский;0.00063
древний;0.00128
древность;0.00043
другой;0.0
дубовик;0.00074
дук;0.00056
евангелист;0.00063
евдоксия;0.00074
евдом;0.00063
еврей;0.00034
еврейский;0.00027
европа;0.00037
европейский;0.00032
единственный;0.00015
език;0.00063
есть;0.0004
ефрон;0.00162
женщина;0.00015
жестокий;0.00035
живопись;0.00092
жизнь;0.00025
житель;0.00015
житие;0.00052
зависимость;0.00041
завоевание;0.00033
завоеватель;0.00087
заглавный;0.0
задумываться;0.00041
заказать;0.00048
заключить;0.00021
залив;0.00075
занимать;0.00016
заново;0.00052
запад;0.0002
западный;0.00061
запись;0.0
запрос;0.00022
запустение;0.00074
зарегистрировать;1e-05
затем;0.00027
захват;0.0003
захватить;0.00024
захватываться;0.00074
заявление;0.0
здание;0.0002
зевгма;0.00074
зевксипп;0.00074
зейрека;0.00074
земля;0.00027
змеиный;0.00063
змея;0.00056
знак;1e-05
знаковый;0.00056
значение;0.00091
зов;0.00056
золотой;0.00052
зонарый;0.00074
играть;0.0002
иеротопий;0.00074
иерусалим;0.00043
избранный;0.0
извилина;0.00074
издательство;0.00056
издать;0.00024
изображение;0.00015
изобразить;0.00028
изучать;0.00029
иисус;0.00087
икона;0.00123
иконоборчество;0.00114
именовать;0.00043
иметь;0.00019
иметься;0.0002
имитировать;0.00074
император;0.00482
император-ромей;0.00074
императорский;0.00303
императрица;0.00105
империя;0.00507
имперский;0.00037
имя;0.0
индекс;0.00035
иногда;0.00026
инсигния;0.0015
институция;0.00056
инструмент;0.0
интерьер;0.00048
иоанн;0.00149
ипподром;0.00171
ираклий;0.00056
ирина;0.00099
иса;0.00039
исавр;0.00074
исихазм;0.00074
искусно;0.00074
искусство;0.00048
искусствоведение;0.00063
использование;0.0
использовать;0.00011
использоваться;0.00053
исправить;0.00029
исследователь;0.00028
исторический;0.0007
история;2e-05
источник;0.0
истый;0.00063
итальянский;0.0002
иудейский;0.00056
июль;7e-05
июльский;0.00056
июнь;5e-05
йерь;0.00074
кайнополис;0.00074
календарь;0.00043
календы;0.00074
каменоломня;0.00063
камень;0.00083
камень-ключ;0.00074
карпов;0.00063
карта;0.00189
картина;0.00059
картограф;0.00074
каталанский;0.00023
каталог;0.00011
категория;1e-05
католик;0.00028
католический;0.00024
кахирие-джами;0.00074
качество;0.00025
кверху;0.00074
кенугарда;0.00074
керополей;0.00074
кинегион;0.00074
кирилл;0.00082
кириотисс;0.00063
китайский;0.00039
кладбище;0.00069
классический;0.00028
ключевой;0.00034
книга;0.00014
книжный;0.00035
код;3e-05
кодекс;0.0
колбяга;0.00074
колония;0.00028
колонна;0.00447
колоннада;0.00074
колпаков;0.00074
комнина;0.00092
комниновский;0.00074
комниновый;0.00127
конец;0.00019
конный;0.00034
константин;0.00605
константиниана;0.00074
константино;0.00074
константинополис;0.00074
константинополь;0.02833
константинопольский;0.00183
конструкция;0.0003
контекст;0.00035
континуитет;0.00063
контоскалион;0.00074
конфиденциальность;0.0
копия;0.00055
короткий;0.0
косвенный;0.00039
космидион;0.00074
космография;0.00074
костюм;0.00043
который;0.00014
крепостной;0.00052
крепость;0.00039
крестовый;0.00129
крестоносец;0.00092
крис;0.00037
круглый;0.00056
крупный;0.0005
крыжовник;0.00074
ксеролофос;0.00074
кук;0.0
культура;0.00037
курбатов;0.00074
кухня;0.00037
кюфт;0.00074
кюфтенца;0.00074
л;0.00039
лавз;0.00074
ларусс;0.0003
лата;0.00299
латинский;0.00153
лев;0.00078
левск;0.00074
левский;0.00074
левченко;0.00074
легенда;0.00034
лежать;0.00028
леомакелон;0.00074
летописание;0.00074
лисипп;0.00074
лист;0.00043
литейный;0.00052
литература;0.00038
литературный;0.00027
лицензия;0.0
лука;0.00039
любш;0.00074
м;0.0009
магнавр;0.00074
май;0.00021
македонски;0.00012
македонский;0.00123
македонянина;0.0015
маленький;0.00018
малый;0.00048
мангана;0.00074
маргарита;0.00072
мария;0.00064
марк;0.00018
маркиана;0.00074
мармара;0.00074
март;8e-05
масштабный;0.00027
материал;0.0
мбул;0.00074
медиафайл;0.00017
медицина;0.00035
междоусобный;0.00056
меря;0.00074
мес;0.00127
местность;0.0006
местный;0.00017
место;0.00021
мефодий;0.00052
мехмед;0.0015
мечеть;0.00087
миграция;0.00041
миклагарда;0.00074
милион;0.00074
миля;0.00048
миниатюра;0.00082
мир;0.0002
мирелейон;0.00074
миссионерский;0.00052
младенец;0.00105
многий;0.00015
мобильный;0.0
можно;0.0008
мозаика;0.00438
мозаичный;0.00063
мокия;0.0015
монастырь;0.00149
монах-копиист;0.00074
монгольский;0.00045
монета;0.00154
монетный;0.00048
монофизитство;0.00074
монумент;0.00048
монументальный;0.00052
море;0.00069
московский;0.00024
мочь;0.0
мрак;0.00063
мрамор;0.0015
мраморный;0.00105
музей;0.00045
музыка;0.00019
мусульманин;0.00037
мыс;0.00052
мюнстер;0.00048
мятеж;0.00041
н;0.00012
наверху;0.00074
навигация;0.0
надгробный;0.00063
название;0.00107
назвать;0.0003
называть;0.00013
называться;0.00074
наименование;0.00035
найти;0.00037
налог;0.00035
нанесение;0.00052
напоминать;0.00037
наречь;0.00056
нарушать;0.00039
население;0.00067
наследница;0.00052
настоящий;0.00042
наступать;0.00034
наука;0.00162
научно-образовательный;0.00033
научный;0.00026
находиться;0.00021
национальный;7e-05
начаться;0.00014
начинаться;0.00081
наш;0.00052
нашествие;0.00052
нбула;0.00074
небесный;0.00105
неверный;0.00066
неделимый;0.00074
недостаток;0.00018
некоммерческий;1e-05
некорректный;0.00062
некоторый;8e-05
немой;0.0002
неоднократный;0.00048
неорион;0.00074
неофициальный;0.00045
непосредственно;0.00019
несколько;0.00019
нет;0.00012
неэнциклопедичный;0.00063
ник;0.00087
никогда;0.00028
николай;0.00022
новелла;0.00056
новый;0.0
номоканон;0.00074
нон-фикшн;0.00074
норвежский;0.0002
норма;0.00027
носить;0.00043
нохчийна;0.00021
нтий;0.00074
ныне;0.00103
нынешний;0.00029
нюрнбергский;0.00056
обелиск;0.00171
область;0.00011
облачение;0.00052
обломок;0.00052
обозначать;0.00041
обочина;0.00074
обрабатывать;0.00048
образ;0.00013
обращение;5e-05
обрушиться;0.00041
обсуждение;0.0
общественный;0.00017
общество;0.00033
объединение;0.00024
объект;0.00034
овладеть;0.00043
огиз;0.00074
огонь;0.00024
огромный;0.00067
одежда;0.00035
одигитрия;0.00063
один;0.00016
одновременно;0.0002
означать;0.00051
окончательно;0.0003
окончательный;0.00024
описание;0.0
опора;0.00037
опубликовать;0.00019
организация;1e-05
ордер;0.00052
осада;0.00207
осман;0.00137
османский;0.00232
основание;0.00031
основать;0.00015
основное;0.00034
основной;0.00011
основный;0.00022
основополагающий;0.00063
особенно;0.00015
особенность;0.00024
особый;0.00021
оставаться;0.0003
остаток;0.00035
остров;0.00016
ответственность;0.0
отдельный;1e-05
отказ;0.0
откуда;0.00039
отметить;0.00037
отождествление;0.00063
отпечатать;0.00063
отправляться;0.00048
отражение;0.00041
отредактировать;1e-05
отстраивание;0.00074
отстраивать;0.00074
официально;0.00036
официальный;0.00021
очертание;0.00056
ошибка;0.0
п;0.00017
павел;0.00028
павликиан;0.00074
павлин;0.00114
павлиний;0.0015
падение;0.00247
палеолог;0.00127
палеологовский;0.00063
палтеские;0.00074
паммакарист;0.00074
памятник;0.00045
панагия;0.00063
пантепопт;0.00074
пантократор;0.00074
папа;0.00026
параметр;0.00024
парафраз;0.00074
париж;0.00022
пасть;0.00041
патриарх;0.00157
патриархат;0.00048
певтингеров;0.00224
пемптон;0.00074
первый;0.00024
перевод;0.00033
переживать;0.00045
переименовать;0.00072
перейти;0.0
перенаправляться;0.00039
перенести;0.00025
перестроить;0.00045
переходить;0.00029
период;0.0004
пернатый;0.00074
перо;0.00261
персональный;0.0
персонификация;0.0015
персонифицировать;0.00074
петрион;0.00074
печать;0.0
пиг;0.00063
питер;0.00026
план;0.00043
платея;0.00063
плацидия;0.00063
площадь;0.00055
по-гречески;0.00056
по-прежнему;0.00078
победа;0.00034
поведение;0.0
повсеместно;0.00052
погружаться;0.00056
подавление;0.00037
подвергаться;0.00028
поддержать;0.00028
подземный;0.00035
подписывать;0.00052
подпись;0.00026
подполье;0.00074
подробный;1e-05
пожертвовать;0.0
позиция;0.00022
поиск;0.0
показать;0.001
поклоняться;0.00063
пол;0.00022
полвека;0.00063
полиевкт;0.00074
полис;0.00224
политика;0.0
политический;0.00017
полностью;0.00013
половина;0.00018
получить;0.0
поль;0.00035
польск;0.00063
понимать;0.0003
поныне;0.00052
попасть;0.00038
пора;0.00026
портал;0.00013
последний;3e-05
последующий;0.0002
постепенно;0.00049
постоянный;1e-05
построить;0.0007
постройка;0.00078
потому;0.00022
поход;0.00086
похожий;0.00064
почтовый;0.0003
появляться;0.00028
пояснительный;0.00063
правило;0.00011
правитель;0.00024
править;0.0
правка;0.0
правление;0.00131
право;0.00018
православный;0.00162
правый;0.00028
практически;0.00022
превратить;0.00043
превышать;0.0003
предел;0.00017
предпочитаться;0.00074
представиться;0.0
представляться;0.00056
предтеча;0.00048
предшествовать;0.00035
предыдущий;0.00019
прежний;0.00035
преимущественно;0.00026
прекратиться;0.00045
привлекать;0.00037
прижизненный;0.00056
прийти;0.0002
применить;0.00037
пример;0.00022
примерно;0.00021
примечание;4e-05
принадлежать;0.00018
приносить;0.00045
прирост;0.00048
приход;0.00033
причина;0.00013
проблема;0.00032
провинция;0.00023
провозглашение;0.00035
программа;0.00037
продлиться;0.00056
продолжаться;0.00025
проект;3e-05
прозвище;0.00032
произведение;0.00017
произвести;0.0003
производство;0.00021
произношение;0.00035
произойти;0.00013
происходить;0.00043
пройти;0.0003
прония;0.00063
пропонтида;0.00074
прославить;0.00056
проследовать;0.00056
просмотр;0.0
пространство;0.0
просфирианский;0.00074
протяжение;0.00048
прохирон;0.00074
проходить;0.00015
процесс;0.00013
прочий;0.00024
прудников;0.00063
псаматия;0.00074
птица;0.00033
птичий;0.00074
пункт;0.00062
пурпурный;0.00063
путевой;0.00074
путешествие;0.00028
путь;0.00032
пушка;0.00045
пытаться;0.00019
пышный;0.00063
пять;0.00014
работа;0.00014
раз;3e-05
развиваться;0.00062
разворачивать;0.00074
раздел;0.00031
разделение;0.00069
разделить;0.00046
размер;0.00045
разногласие;0.00045
разорять;0.00063
разработчик;0.0
разрушить;0.00058
район;0.0008
райхенау;0.00074
ранневизантийский;0.00056
ранний;0.00015
располагаться;0.00062
расположить;0.00036
рассказываться;0.00052
расти;0.00058
расцвет;0.00261
расцветать;0.00074
регион;0.00015
ред;0.0002
редактор;0.00027
редакция;0.00028
резиденция;0.00041
результат;0.00017
реконструкция;0.00064
религиозный;0.00026
религия;0.00022
ремонтироваться;0.00063
ренессанс;0.00048
реплика;0.00048
ресурс;7e-05
реформа;0.00028
реформироваться;0.00074
речник;0.0015
решить;0.00017
рим;0.00403
римляна;0.00052
римский;0.00334
римско-византийский;0.00074
риторика;0.00048
рог;0.00041
род;0.00024
родственный;0.00024
роль;0.00014
ромей;0.00063
ромейский;0.00074
российский;8e-05
ротонда;0.00063
руина;0.00063
рука;0.00034
румельский;0.00074
рунический;0.00063
русиньскый;0.00027
русов;0.00063
русский;0.0
русый;0.0006
русь;0.00069
рыцарь;0.00041
садоводство;0.00063
сажень;0.00074
самоназвание;0.00043
самый;0.00022
сарай;0.00074
сарский;0.00074
св;0.00413
сведение;0.0
свежий;0.0
свободный;0.0
свод;0.00043
своеобразный;0.00041
свозиться;0.00063
свой;5e-05
связанный;1e-05
связаться;0.0
святой;0.00158
священный;0.00075
сгореть;0.00052
сделать;0.00012
себастьян;0.00063
северо-западный;0.0003
сегодняшний;0.00035
сей;0.00033
семь;0.0002
сенат;0.00035
сентябрь;6e-05
сербия;0.00027
сергий;0.00043
середина;0.00035
серкланда;0.00074
серов;0.0015
сероватый;0.00063
сжигать;0.00063
сильно;0.00023
символ;0.0002
символизм;0.00063
симеонов;0.0015
система;0.0
сказаться;0.00045
скачать;0.0
скипетр;0.00074
сколько;0.00035
скрытый;2e-05
скульптор;0.00039
славянин;0.00129
славянский;0.00066
слева;0.00078
следовать;0.00021
словарь;0.00072
словацк;0.00063
словенский;0.00039
слово;0.00063
служебный;0.0
служить;0.00022
случай;1e-05
случайный;0.0
смерть;0.00012
смещаться;0.00074
смотреть;4e-05
сначала;0.0002
сноска;0.00034
собор;0.00166
событие;0.0
совместный;0.00024
современный;0.0004
содержание;0.0
соединить;0.00024
соединяться;0.00048
создаваться;0.00032
создать;0.0
сообщество;0.0
сообщить;0.0
сопоставимый;0.00045
сорок;0.00045
состав;0.0001
составлять;0.00013
сотня;0.00028
софие;0.00074
софия;0.00649
софроний;0.00171
сохранение;1e-05
сохранить;0.00022
сохраниться;0.00127
сохраняться;0.00066
спб;0.00076
способ;0.00024
справа;0.00072
справка;0.0
спросить;0.00063
сражение;0.00033
средневековый;0.00056
средний;0.00019
српски;9e-05
српскохрватски;0.00012
ссылка;0.0
стамбул;0.0032
становиться;0.00041
старославянский;0.00056
старый;0.00014
статистика;0.0
статус;0.00042
статуя;0.0015
стать;0.00021
статья;0.0
стаурион;0.00074
стена;0.00195
стилистически;0.00063
стилистический;0.00039
стиль;0.00021
столб;0.00048
столица;0.00241
столичный;0.00112
столп;0.00056
столько;0.00039
сторона;0.00011
страдание;0.00045
страж;0.00045
страна;0.00019
страница;0.0
стратегион;0.00074
стратегический;0.00035
стремительно;0.00048
строение;0.00041
строительство;0.00131
строиться;0.00099
студийский;0.00074
студион;0.00074
стык;0.00041
судьба;0.00028
сужаться;0.00063
султан;0.00075
султанский;0.00063
супруг;0.00052
существенно;0.00082
существование;0.00024
существовать;0.00038
считаться;0.00012
сытина;0.00048
сюда;0.0
табул;0.00074
тавро;0.0015
так;0.00096
таковой;0.00041
такой;0.00041
тактика;0.00041
там;0.00058
танец;0.00037
творчество;0.00028
текст;1e-05
текущий;0.0
тема;0.00031
теперь;0.00026
тептаскалон;0.00074
термин;0.00072
термы;0.00074
тина;0.00063
тип;0.00015
типичный;0.00045
титул;0.00025
товарный;1e-05
тога;0.00074
тогда;0.00019
тогдашний;0.00048
только;7e-05
топография;0.00048
топоним;0.00056
торговый;0.0009
тот;7e-05
традиционно;0.00028
трактат;0.00039
транспортный;0.00028
траян;0.00052
требовать;0.00016
три;0.00012
тритон;0.00063
триумфальный;0.0021
трон;0.00043
трубадур;0.00063
тур;0.00072
турецкий;0.00069
турок;0.00146
турок-сельджук;0.00074
турция;0.00048
тырновый;0.0015
тыс;0.00022
тысяча;0.00037
тюркский;0.00043
тюрьма;0.00029
увеличиваться;0.00092
увенчать;0.00114
увечье;0.00063
увидеть;0.00058
угол;0.00092
уже;0.00043
уйти;0.00024
указание;2e-05
указатель;0.00063
указать;0.00018
указывать;0.00023
украсить;0.00048
украшаться;0.00074
улица;0.00039
унести;0.00045
университет;0.00017
уничтожаться;0.00074
уничтожить;0.00028
унорожа;0.00074
упадок;0.00087
упоминание;0.00056
упоминаться;0.00029
урбоним;0.00074
усиливаться;0.00052
условие;1e-05
установить;0.00014
утвердиться;0.00043
утверждение;0.00019
уточнение;0.00032
уточнить;0.00035
участие;0.0
фанар;0.00074
фатих;0.00127
фаусто;0.00074
феодора;0.00045
феодосий;0.0015
феодосия;0.00763
феория;0.00074
феофил;0.00063
фигура;0.00207
филадельфиона;0.00074
филоксен;0.00074
филопатеон;0.00074
философия;0.00037
финансовый;0.0003
флорентийский;0.00074
флот;0.00027
фоменко;0.00748
фонд;1e-05
форма;0.00014
формирование;0.00024
форум;0.0
фр;0.00021
фрагмент;0.00035
фракия;0.00056
франкопаный;0.0015
франция;9e-05
француз;0.00034
французский;0.00011
фреска;0.00098
хазар;0.00063
халкопратея;0.00074
халкопратия;0.00063
характерный;0.00027
хелениана;0.00074
ход;0.00031
холм;0.00043
хольмгарда;0.00074
хор;0.00082
хорватия;0.00028
хороший;0.00011
храм;0.00304
хрисотриклиний;0.00074
христианский;0.00089
христианство;0.00032
христос;0.00072
хроника;0.00064
царгород;0.00074
царевградский;0.00074
цариград;0.0015
цариградски;0.00074
цариградский;0.00074
цариградско;0.0015
царица;0.00082
царский;0.00082
царственный;0.00074
царь;0.00149
царь-освободитель;0.00074
царьгра;0.0015
царьград;0.00635
царьградский;0.00074
цвет;0.00022
центр;0.00123
центральный;0.00025
церковнославянский;0.00052
церковь;0.00199
цикл;0.0003
цистерна;0.00224
цитировать;3e-05
частично;0.0002
часто;0.00029
часть;6e-05
человек;0.0001
чемберлиташа;0.00074
чернигов;0.00056
чернила;0.00074
черногория;0.00028
честь;0.00109
читать;0.0
чума;0.00048
шаблон;0.00019
широкий;0.00023
широта;0.00069
школа;0.00039
шлем;0.00048
шлем-туфа;0.00074
шоса;0.00074
шоссе;0.00082
щербаков;0.00063
щит;0.00037
ыст;0.00074
э;0.00022
экз;0.00062
эклога;0.00074
экономика;0.00041
экономический;0.00023
эксокионий;0.00074
экспорт;0.0
элемент;0.0
эмаль;0.00056
энциклопедический;0.00078
энциклопедия;0.0
эпанагога;0.00074
эпистолография;0.00063
эпоха;0.00045
эра;0.00087
эребатан;0.00074
этап;0.00022
этот;1e-05
юго-восток;0.00034
южнославянский;0.00127
юлиан;0.00056
юстиниан;0.00471
юстинианов;0.00074
являться;0.00014
язик;0.00074
язык;0.0
языкова;0.00074
ян;0.00029
янсониус;0.00074
