аббатство;0.00023
август;0.00015
авентинский;0.00072
автономный;0.00018
автор;0.00075
авторитет;0.00022
авторство;0.0
агапит;0.00061
агафон;0.00031
агельтруда;0.00153
адальгар;0.00072
адеодата;0.00061
администрация;0.00012
адресат;0.00036
адресовать;0.00072
адриан;0.00264
адриана;0.00144
акт;0.00023
активно;0.00014
александр;0.00064
алтарный;0.00031
алтарь;0.00027
алфавит;0.0001
алчность;0.00061
альтернатива;0.00025
альфа-книга;0.00031
альфред;0.00038
аналогично;0.00047
ананья;0.00031
анастасий;0.00192
анафема;0.00031
ангельберга;0.00036
ангельский;0.00031
англ;3e-05
английский;7e-05
англичанин;0.00015
англия;0.00043
англосаксонский;0.00022
андрей;0.00017
анекдот;0.00027
аникета;0.00031
анналы;0.00036
аннулирование;0.00055
аннулировать;0.00023
анонимный;0.00099
антаподосис;0.00072
антереть;0.00031
антипапа;0.0007
апостольский;0.00047
апрель;0.00016
ареццо;0.00036
аристократия;0.00044
армия;7e-05
арнульф;0.00521
архивировать;3e-05
архивный;8e-05
архидьякон;0.00036
архиепархия;0.00055
архиепископ;0.00474
архиепископский;0.00036
архиепископство;0.00036
атмосфера;0.00017
атриум;0.00031
ауксилия;0.00252
африканский;0.00017
бавария;0.00044
базилик;0.00101
базилика;0.0011
беглец;0.00055
бегство;0.00021
бежать;0.00055
беларускать;7e-05
беневенто;0.00036
бенедикт;0.00503
бенефиция;0.00036
берег;0.00013
беренгар;0.00122
бесполезный;0.00031
беспорядок;0.00014
бесчинство;0.00036
библиографический;7e-05
библиотекарь;0.00055
биографический;0.00075
биография;0.00061
благодетель;0.00036
благоприятствовать;0.00036
благородство;0.00031
благосклонность;0.00031
благословение;0.00025
благословенный;0.00027
благочестивый;0.00025
благочестие;0.00122
близкий;0.00016
богослужение;0.00027
божественный;0.00025
бозон;0.00036
болгарин;0.00047
болгария;0.00061
болгарский;0.00315
более;0.00019
болезнь;0.00031
больший;9e-05
большой;0.00024
бонифаций;0.00274
борис;0.00148
боровков;0.00061
бороться;0.00035
борьба;0.00049
бояться;0.0002
брат;8e-05
братский;0.00044
бремен;0.00023
бременский;0.0018
брокгауз;0.00038
бросаться;0.00027
бросить;0.00016
будущее;0.00011
будущий;0.00027
булла;0.00153
бунт;0.00016
бургундия;0.00101
бургундский;0.00027
български;5e-05
бывать;0.00017
бывший;0.00074
быстро;0.00012
бытность;0.00036
быть;0.00012
важный;0.00033
валентин;0.00025
вальтер;0.00021
василий;0.00015
ведение;0.00017
век;0.00224
велено;0.00072
великий;0.00012
великолепный;0.00021
веллетрийский;0.00061
верить;0.00046
верность;0.00025
вернуть;0.00032
вернуться;0.0013
версия;0.0
верх;0.00022
верхний;0.00031
весить;0.00036
весна-лето;0.00036
вести;8e-05
весь;0.00017
весьма;0.00016
вече;0.00025
вещь;0.0002
взгляд;0.00024
взять;0.00027
вигилия;0.00031
вид;5e-05
византиец;0.00044
византийский;0.00083
византия;0.00018
викарий;0.00036
викидать;1e-05
викимедиа;0.0
викинг;0.00027
википедия;0.0
викисклад;4e-05
виктор;0.00048
виновный;0.00021
висеть;0.00025
виталий;0.0002
вклад;0.0
включать;9e-05
включить;9e-05
владение;0.0004
владычество;0.00027
власть;0.0002
влияние;0.0004
влиятельный;0.00021
вместе;0.0004
вмешаться;0.00055
вмешиваться;0.00042
вначале;0.00054
внешний;5e-05
внимание;0.00011
вновь;0.00056
вовлекать;0.00031
вовлечь;0.0002
военный;6e-05
возвести;0.00044
возводить;0.00027
возвратить;0.0005
возвращаться;0.00057
возвращение;0.00013
возглавить;0.00013
воздержанность;0.00036
возложить;0.00018
возможность;0.00014
возможный;0.0001
возмутительный;0.00036
возмущение;0.00023
возникнуть;0.00022
возражение;0.00023
войско;0.0001
войти;0.0
волновать;0.00031
волшебный;6e-05
воля;0.00059
вопрос;0.00021
вормс;0.00036
ворота;0.00024
воспользоваться;0.00056
восстановить;0.00046
восстановление;0.00055
восстать;0.00025
восточно-франкский;0.00214
восточный;0.00016
восхвалять;0.00036
восшествие;0.0005
восьмой;0.00018
вплоть;0.00013
вполне;0.00017
впоследствии;0.00022
враг;0.00063
враждовать;0.00025
временно;0.00019
время;0.00032
вряд;0.00025
всегда;0.00013
вселенский;0.00066
всеобщий;0.00016
вскоре;0.00025
вспыхнуть;0.00021
встретиться;0.00016
встречаться;0.00024
вступить;0.0001
всякий;0.00015
всячески;0.00021
вторгнуться;0.00023
вторично;0.00036
второе;0.00013
второй;0.00022
втянутый;0.00025
вульгарий;0.0018
вульгарис;0.00036
входить;7e-05
выбор;0.00032
выборы;0.00034
выбрать;0.00038
вывод;0.00015
выгравировать;0.00031
выдать;0.00017
выдвигать;0.00018
выдвинуть;0.00121
выделить;0.00011
выделяться;0.00033
выдумывать;0.00031
вызвать;0.00022
вызывать;0.00014
выкопать;0.00036
выловить;0.00031
вынудить;0.00055
выполнить;0.0003
вырыть;0.00031
высказать;0.00023
высказывать;0.00021
высказываться;0.00019
высокий;8e-05
высоко;0.00019
выступать;0.00018
выступить;0.00024
вытаскивать;0.00036
вьенна;0.00036
вьеннский;0.00031
вьенный;0.00031
г;0.0004
гай;0.00022
гамбург;0.00088
гамбург-бремен;0.00036
гамбургский;0.00216
гамбургско-бременский;0.00072
гаудерик;0.00072
гвидо;0.00281
гвидонид;0.00214
где;0.00022
геласий;0.00061
генеалогия;0.00015
георгий;0.00032
герман;0.00044
германия;6e-05
герцог;0.00017
гигин;0.00031
гиларий;0.00031
гинкмара;0.00036
гипотеза;0.00047
глава;0.00038
глаз;0.00013
глубокий;0.00017
говорить;0.00015
год;0.00028
голос;0.00011
гонорий;0.00122
гора;0.00011
гораций;0.00072
гормизд;0.00031
город;0.00033
городской;0.00018
готовить;0.00015
готовность;0.00018
готовый;0.00013
гражданин;0.00024
грамматик;0.00031
гран;0.00036
граф;0.00025
грегоровиус;0.00183
греческий;0.00054
григорий;0.00292
григоровиус;0.00072
грумель;0.00036
даваться;0.0002
давление;0.00014
далее;0.00042
дальнейший;0.00025
дамасий;0.00061
данный;0.00027
дар;0.00019
дарение;0.00036
даровать;0.00027
дата;6e-05
датировать;0.00021
датчанин;0.00027
дать;0.00026
два;0.00024
двигать;0.00031
двинуться;0.0007
двое;0.00015
дворец;0.00014
дворник;0.00031
дворянин;0.00031
действие;0.00034
действовать;1e-05
декабрь;6e-05
делать;0.0003
делегат;0.00036
дело;0.00046
денарий;0.00036
день;0.0001
держаться;0.00025
дея;0.00031
деяние;0.00055
деятель;0.00011
джина;0.00062
джованни;0.00044
джотто;0.00036
диакон;0.00183
дижонский;0.00036
диммлера;0.00036
динария;0.00036
династия;0.00042
дионисий;0.00027
дифирамб;0.00036
длиться;0.00017
добиваться;0.00022
добиться;0.00091
добраться;0.00021
добродетельность;0.00036
добрый;0.0005
добыча;0.00017
доверие;0.0002
доверять;0.00027
договориться;0.00022
дойти;0.00077
доказательство;0.00013
доказать;0.00017
доклад;0.00017
документ;0.00021
долгий;0.0002
должность;0.00026
должный;0.00035
доля;0.00011
дом;0.00024
домн;0.00031
доп;0.00013
дополнительный;0.0
допускать;0.00021
допустить;0.00017
дорога;9e-05
достаточно;0.00037
достаточный;0.00019
достигнуть;0.0001
достоверно;0.00055
доступный;0.0
древний;0.0001
друг;6e-05
другой;0.0
духовенство;0.00201
дюммлер;0.00031
евангелизация;0.00031
евгений;0.00128
евразия;0.00022
европа;0.00022
европейский;8e-05
евсевий;0.00025
евтихий;0.00031
единодушие;0.00036
единодушный;0.00036
единственный;0.00021
единый;0.0001
елевферий;0.00031
епархия;0.00242
епископ;0.00918
епископальный;0.00036
епископский;0.00245
есть;4e-05
ефрон;0.00039
жалеть;0.00031
жамбла;0.00031
жан-мари;0.00036
жан-поль;0.00022
желание;0.00044
желать;0.00029
жерон;0.00036
жеронский;0.00036
жертва;0.00011
жизнеописание;0.00061
жизнь;0.00018
житейский;0.00036
житель;7e-05
житие;0.0005
забота;0.00036
зависимость;0.0001
заглавный;0.0
заговор;0.0002
задать;0.00025
задворный;0.00092
задействовать;0.00018
задний;0.00019
задушить;0.00031
заика;0.00036
заклинать;0.00036
заключение;0.00014
заключительный;0.00025
заключить;0.00051
законно;0.00036
законный;0.00056
закончить;0.00015
заменить;9e-05
заметка;0.00022
замечательный;0.0002
занимать;0.00023
заниматься;0.0001
заочно;0.00036
запад;0.0001
западно-франкский;0.00306
западный;0.00022
запись;0.0
запрет;0.00069
запретить;0.00012
запрещать;0.00038
запросить;0.00027
зарегистрировать;0.0
заслуга;0.00017
затем;0.00033
захария;0.00027
захватить;0.00046
захоронение;0.00036
захоронить;0.00044
защита;0.00039
защищать;0.00029
заявить;7e-05
заявление;0.0
здесь;9e-05
здравый;0.00036
земля;6e-05
зефирина;0.00031
злить;0.00036
змея;0.00027
знак;1e-05
знакомый;0.00017
знамение;0.00025
знание;0.00015
знать;0.00061
значение;0.00019
зосим;0.00031
зять;0.00031
игнатий;0.00137
игнорироваться;0.00061
иерарх;0.00027
избиратель;0.00023
избирать;0.00015
избрание;0.00108
избранник;0.00036
избранный;0.0
избрать;0.00115
известие;0.00042
известно;0.00054
известный;0.00013
извне;0.00031
изгнание;0.00031
изгнать;0.00044
издание;0.0001
издательство;0.00013
издать;0.00024
изложение;0.00035
измена;0.00022
изменить;0.00021
изображение;0.00029
изобразить;0.00013
иллирия;0.00036
именоваться;0.00021
иметь;0.00025
иметься;0.0001
иммонида;0.00036
император;0.00317
императорский;0.00146
императр;0.00036
императрица;0.00101
императрица-мать;0.00036
империя;0.00049
имперский;0.00036
имущество;0.0002
имя;0.0
инициатива;0.00013
иннокентий;0.00327
иноземный;0.00031
институт;0.0001
инструктировать;0.00036
инструмент;0.0
интердикт;0.00031
интерес;0.00033
интрига;0.00082
интронизация;0.00031
информация;0.00012
иоанн;0.00745
иоаннном;0.00072
ипполит;0.00055
исключать;0.00082
исключение;0.0002
исключить;0.00015
исполнить;0.00017
использование;0.0
использовать;8e-05
испортиться;0.00092
исследование;0.0001
исследователь;0.00121
историк;0.0013
исторический;8e-05
история;1e-05
источник;0.0
истощить;0.00031
исход;0.00022
исходить;0.00017
итал;0.00138
италия;0.00113
итальянец;0.00062
итальянский;0.0007
итог;0.00039
июль;3e-05
июнь;0.00011
каждый;6e-05
какой;0.00037
какой-то;0.00052
калибитский;0.00036
калибитый;0.00036
каликст;0.00092
кампания;0.00012
кандидат;0.00056
канон;0.00023
канонический;0.00154
капитель;0.00036
капуанский;0.00036
кардинал;0.00052
каринтийский;0.00398
карл;0.00139
карла;0.00128
карниз;0.00036
каролинг;0.00164
каролингский;0.00082
картина;0.00028
касаться;0.00044
каталанский;0.00011
каталог;5e-05
категория;1e-05
католический;0.00011
кафедра;0.00201
качество;0.00079
каяться;0.00036
кгод;0.00031
кентерберийский;0.00044
кирилл;0.0002
клавдия;0.00031
кладбище;0.00017
клан;0.00021
клевета;0.00027
климент;0.00328
клятва;0.00137
книга;0.00014
код;1e-05
кодекс;0.0
колонна;0.00015
командование;0.00016
командовать;0.00027
комментарий;0.0001
компрометировать;0.00036
компромисс;0.00027
компромиссный;0.00061
конец;0.00028
конон;0.00031
константин;0.00014
константинополь;0.00118
константинопольский;0.00286
контроль;0.00042
конфиденциальность;0.0
конфликт;0.00116
конфликтовать;0.00036
копия;0.00013
корнелий;0.00025
королевство;0.00264
король;0.00179
корона;0.00112
коронация;0.00113
короновать;0.00154
короткий;0.0
который;0.00027
кремонский;0.00122
крестить;0.00072
крестный;0.00027
критически;0.00027
ксенодохия;0.00036
кук;0.0
курия;0.00047
л;0.00019
лаврентий;0.00036
ламберат;0.00036
ламберт;0.00226
лангр;0.00036
ландольф;0.00036
ландон;0.00031
ланчиани;0.00036
лапорт;0.00036
лапотр;0.00036
ларусс;0.00015
лата;0.00032
латеранский;0.00025
латинский;0.00024
лебезить;0.00036
лев;0.00189
легат;0.00072
легитимность;0.00027
лентовский;0.00031
либерия;0.00018
лидер;0.00018
лина;0.00023
линде;0.00031
линия;9e-05
лион;0.00031
литвинов;0.00027
литература;9e-05
лиутпранд;0.00137
лицевой;0.00061
лицензия;0.0
лицо;7e-05
лично;0.00031
личность;0.00012
личный;9e-05
лишить;0.00031
лишиться;0.00021
лоран;0.00023
лотарь;0.00061
луция;0.00075
лысый;0.00153
любезно;0.00036
любовь;0.00014
любой;0.00042
людовик;0.00141
м;0.00019
май;3e-05
майнц;0.00036
македонски;6e-05
македонянин;0.00027
маленький;9e-05
мало;0.00072
малый;8e-05
мальмсберийский;0.00036
манасия;0.00036
манна;0.00245
манный;0.00031
марин;0.00117
марина;0.00025
марк;9e-05
марка;0.00011
маркграф;0.00061
март;3e-05
мартин;0.00039
марцелла;0.0005
марцеллин;0.00025
масштабный;0.00013
материал;0.0
мать;0.0001
медиафайл;4e-05
менее;6e-05
мера;0.00018
местный;0.00025
место;0.00012
месяц;0.00011
мефодий;0.00025
милосердие;0.00021
милостыня;0.00036
мильтиада;0.00027
миниатюра;0.0002
мир;0.00013
мирской;0.00031
мирянин;0.00137
миссионер;0.00092
миссия;0.00113
митрополит;0.00044
михаил;0.00011
мнение;0.00086
многий;7e-05
многочисленный;9e-05
мобильный;0.0
могущественный;0.00023
можно;6e-05
мозаика;0.00047
молельня;0.00036
молитва;0.00023
молниеносный;0.00031
момент;6e-05
монарх;0.00015
монах;0.00056
монтекассиный;0.00036
мотив;0.00017
мочь;1e-05
мощь;0.0002
мученик;0.0002
набег;0.00035
набор;0.00018
набросок;0.00031
навигация;0.0
навсегда;0.00022
навязать;0.00027
надругаться;0.00036
назад;0.00013
название;5e-05
назло;0.00031
назначение;0.00059
назначить;0.00061
наиболее;7e-05
найти;0.00036
наложить;0.00019
наместник;0.00031
нанести;0.00012
нападение;0.00013
написать;0.00049
наречие;0.00021
народ;0.0001
нарушать;0.00038
нарушение;0.00033
нарушить;0.00022
насильственный;0.00021
наследник;0.00035
настойчивость;0.00055
настойчивый;0.00061
настолько;0.00017
настояние;0.00023
настоящий;7e-05
находиться;0.0002
находчивость;0.00036
национальный;7e-05
нация;0.00011
начало;0.00024
начальный;0.00014
начать;7e-05
начаться;7e-05
начинать;0.0001
наш;0.00034
неаполь;0.00042
небольшой;8e-05
невежественный;0.00036
недавно;0.00013
недалеко;0.0003
недействительность;0.00027
недействительный;0.00141
неделя;9e-05
недобросовестный;0.00036
недоверчиво;0.00031
недовольный;0.00038
недолгий;0.00031
недолго;0.00055
недолговечный;0.00031
недостаток;9e-05
нежелание;0.00023
независимость;0.00012
независимый;0.00021
незадолго;0.00018
незаконный;0.00017
неизвестно;0.00056
неизвестный;0.00043
некий;0.00033
некоммерческий;0.0
некоторый;0.00054
некрополистик;0.00016
немаловажный;0.00036
немедленно;0.00023
немецкий;0.00033
немой;0.0001
ненависть;0.00022
необходимый;9e-05
неокесарийский;0.00036
непокорный;0.00036
непосредственный;0.00015
неправдоподобный;0.00031
непрекращающийся;0.00031
непристойный;0.00031
нерегулярный;0.00025
нередко;0.00017
несколько;0.00012
несообразность;0.00036
неспокойный;0.00031
нет;0.00012
неудачно;0.00025
неудачный;0.00028
неуместный;0.00036
неф;0.00031
нижний;0.00034
низко;0.00036
низложение;0.00144
никак;0.00039
никакой;0.00034
никогда;0.00027
николай;0.002
ничего;0.0003
новый;0.0
нога;0.00016
номенклатор;0.00072
норвежский;0.0001
норманн;0.00021
ночь;9e-05
нрав;0.00031
ныне;0.00017
оба;0.00023
обвинение;0.00113
обвинить;0.00012
обвинять;0.00032
обеспечить;0.00012
обещание;0.00025
обещать;0.00036
обладать;0.00029
область;0.0001
облачение;0.00101
облик;0.00023
обличать;0.00036
обмен;0.00017
обнаружить;0.00011
оборона;0.00022
оборот;0.00019
обострить;0.00036
образ;0.00026
образование;0.00015
обратиться;0.00036
обратный;0.00015
обращать;0.0002
обращение;0.0001
обрисовать;0.00036
обстоятельство;0.00013
обсуждение;0.0
обуздать;0.00061
общаться;0.00044
общий;0.00014
объединиться;0.00019
объявить;0.00021
объяснение;0.00017
обязательство;0.00018
обязать;0.00015
огласить;0.00031
ограничиться;0.00031
одежда;0.00017
одеть;0.00055
один;0.00037
одновременно;0.00019
одобрение;0.0002
одобрить;0.00015
ожидание;0.00023
ознакомить;0.00031
оказать;0.00013
оказаться;0.0004
оказывать;0.00029
окончательно;0.0003
окончательный;0.00023
окончиться;0.00021
окружение;0.00028
октябрь;0.00031
онлайн;8e-05
опал;0.00025
опасение;0.00039
опасность;0.00019
опасный;0.00015
описание;0.0
описать;0.00013
оплот;0.00025
оправдание;0.00025
оправдать;0.0002
опрометчивый;0.00036
опубликовать;0.00019
организатор;0.00017
организация;0.0
оригинал;5e-05
ориентир;0.00025
освободить;0.00059
осколок;0.00036
ослепление;0.00036
основание;0.00015
основать;0.00014
основный;4e-05
особенно;0.00015
оспаривать;0.00023
оставаться;0.00036
оставить;0.0001
остальной;9e-05
остановить;0.00012
остаться;7e-05
осторожно;0.00027
осторожность;0.00025
остров;0.00016
осудить;0.00101
осуждать;0.00025
осуждение;0.00099
осуществить;0.00015
осуществление;0.00018
ответ;0.00011
ответить;0.00026
ответственность;0.0
отвечать;0.00013
отделить;0.00023
отдельный;1e-05
отеческий;0.00036
отзываться;0.00027
отказ;0.0
отказать;0.00017
отказаться;0.00035
отказываться;0.00016
отклонить;0.00021
открытый;8e-05
открыть;8e-05
откуда;0.00019
отличаться;0.00024
отложить;0.00018
отлучать;0.00036
отлучение;0.0005
отлучить;0.0007
отменить;0.0001
отмечать;0.00078
относиться;0.00046
отношение;0.00056
отодвинуть;0.00027
отомстить;0.00025
отпатрулировать;0.0001
отправить;0.0013
отправиться;0.00069
отправка;0.00025
отпустить;0.00023
отредактировать;0.0
отрезать;0.00044
отреставрировать;0.00031
отречение;0.00022
отречься;0.00055
отрывок;0.00023
отстаивать;0.00025
отстранить;0.00017
отступить;0.0002
оттеснить;0.00031
отчеканить;0.00036
официальный;5e-05
оценивать;0.00066
очень;0.00043
очередь;0.00048
ошибка;0.0
павел;0.00161
палец;0.00047
паломничество;0.00027
память;0.00034
панегирик;0.0018
панно;0.00036
паоло;0.00027
папа;0.01698
папирус;0.00031
папский;0.00478
папство;0.00126
паралич;0.00061
парижский;0.00042
партия;0.00057
пастырь;0.00031
пасть;0.00039
пасхалия;0.00075
патриарх;0.00264
патриархат;0.00023
патриаршество;0.00072
пелагия;0.00061
пер;0.00031
первоначально;0.00069
первоначальный;0.00013
первый;0.00017
перебраться;0.00031
перевести;0.00029
перевод;0.00032
переговоры;0.00013
передать;0.00039
перезахоронить;0.00027
перейти;0.0
перемирие;0.00062
перенести;0.00024
перенос;0.00019
переносить;0.00022
переписка;0.00022
перестать;0.00017
перестроить;0.00022
переход;0.00021
перечень;0.00021
период;0.00051
перо;0.00025
персоналия;0.00012
персональный;0.0
перу;0.00018
печать;0.0
пий;0.00237
писание;0.00027
писатель;0.0001
писать;8e-05
писаться;0.00023
письменный;0.00032
письмо;0.00126
питать;0.00027
план;7e-05
планировать;0.00014
плачевный;0.00047
плегмунд;0.00036
плегмунда;0.00036
пленение;0.00027
плести;0.00036
плохой;0.00031
поблагодарить;0.00025
побудить;0.00031
поведение;0.0
повернуть;0.00031
повествование;0.00055
повлиять;0.00013
повод;0.00045
повсеместно;0.0005
повторение;0.00027
повторить;0.00047
повторно;0.00019
повторный;0.00015
погрести;0.00031
подарок;0.00021
подвергнуть;0.00017
подготовить;0.00015
поддержать;0.00042
поддерживать;0.00026
поддержка;0.00023
подлинный;0.00042
подобный;0.00058
подозрение;0.00019
подозрительность;0.00036
подробный;0.0
подтвердить;0.00063
подтверждать;0.0002
подтверждение;0.00017
подчеркнуть;0.00019
пожертвовать;0.0
позволять;0.00023
поздний;0.00023
поздравить;0.00036
позиция;0.00022
познание;0.00036
поиск;0.0
пока;0.00024
показать;8e-05
показывать;0.00015
покаяние;0.00031
покинуть;0.00027
покойный;0.00044
полагать;0.00018
полагаться;0.00027
полемический;0.00036
политика;0.0
политический;0.00041
полностью;6e-05
полный;0.00019
положение;0.00051
положить;0.00017
получение;0.00026
получить;0.0
пользоваться;0.00015
поместить;0.00016
помешать;0.00038
помочь;8e-05
помощь;0.00013
понтиана;0.00031
понтионский;0.00036
понтификат;0.00384
понять;0.00017
пообещать;0.00039
попасть;9e-05
популония;0.00036
попытаться;0.00017
попытка;0.00032
пора;0.00013
поразить;0.0002
порок;0.00036
порт;0.00034
порто;0.00367
портрет;0.00013
портретный;0.00023
поручить;0.00038
порядок;9e-05
посвятить;0.00026
посвящение;0.00075
поселение;0.00013
посетить;0.00015
послание;0.00039
посланник;0.00023
послать;0.00062
последний;3e-05
последовательность;0.00022
последовать;0.00012
последствие;0.00022
последующий;0.0002
послужить;0.00094
посмертный;0.00055
посол;0.00086
посредничество;0.00021
пост;0.00032
поставить;0.0001
постоянный;1e-05
построить;8e-05
посылка;0.00031
посягать;0.00036
потеря;0.00013
потом;0.00012
потребовать;0.00046
похвалить;0.00027
поход;0.00042
похоронить;0.00035
похоронный;0.00022
почтение;0.00027
почуять;0.00036
поэтому;0.00068
появиться;6e-05
правило;0.00011
правильно;0.00025
правитель;0.00115
править;0.0
правка;0.0
правление;0.0005
право;0.00013
правый;0.00027
практический;0.00019
превозносить;0.00036
превосходный;0.00027
превращаться;0.00025
преданность;0.00072
предать;0.00038
предварять;0.00036
предел;8e-05
предисловие;0.00022
предложение;0.00011
предложить;9e-05
предмет;0.00012
предостеречь;0.00027
предотвратить;0.00052
предположить;0.00018
предпринять;0.00046
председательство;0.00031
председательствовать;0.00031
представитель;0.00049
представить;8e-05
представиться;0.0
представление;0.00014
представлять;0.00021
предшественник;0.00096
преемник;0.00115
преемственность;0.00023
прежний;0.00017
прекратиться;0.00022
преследовать;0.00018
престижный;0.00019
престол;0.00415
претендент;0.00022
прибыль;0.00029
прибыть;0.00052
привести;5e-05
приветствовать;0.00023
привилегия;0.00047
привязанность;0.00072
пригласить;0.00032
приговор;0.00062
пригрозить;0.00023
придавать;0.00021
приехать;0.00035
призвать;0.00025
признавать;0.00015
признание;0.00011
признать;0.00053
призыв;0.00016
призывать;0.00017
прийти;0.0001
прийтись;0.0002
приказ;0.00061
приказать;0.00072
прикрепить;0.00031
прилагать;0.00025
прилагаться;0.00027
примерно;0.0002
примечание;2e-05
примирить;0.00031
примириться;0.00031
принадлежать;0.00043
принимать;0.00036
принять;0.00015
приобрести;0.00026
приписывание;0.00036
приписывать;0.00062
приписываться;0.00023
присвоение;0.00023
присвоить;0.00018
прислать;0.00015
присоединиться;0.00013
присутствие;0.00029
присутствовать;0.00011
присяга;0.00027
присягнуть;0.00036
притеснение;0.00031
притязание;0.00027
причастие;0.00023
причина;0.00056
пробить;0.00025
проблема;8e-05
пробыть;0.00031
прованс;0.00027
провести;5e-05
провинция;0.00011
проводить;9e-05
проводиться;0.0001
провозгласить;0.00029
продвижение;0.00015
продолжать;0.00025
продолжаться;0.00024
продолжить;0.00026
проект;1e-05
прожить;0.00023
проиграть;0.00019
произойти;0.00037
происхождение;0.00019
проницательность;0.00036
проповедник;0.00031
просить;0.0008
просмотр;0.0
простоватый;0.00108
пространство;0.0
просьба;0.00096
противиться;0.00072
противник;0.00071
противный;0.00023
противовес;0.00025
противоположный;0.00025
противоречивый;0.00019
противоречие;0.00019
противостояние;0.00018
противостоять;0.00025
проходить;0.00014
процесс;0.00019
прочий;0.00012
прошедшее;0.00036
прощение;0.00122
проявить;0.00017
проявляться;0.00017
путаница;0.00027
путать;0.00042
пытаться;0.0011
пьяченец;0.00036
пятый;0.00014
р;0.00018
работа;0.00023
равенна;0.0011
равный;0.00017
раз;2e-05
разбирать;0.00022
разбитый;0.00017
разбить;0.00044
развод;0.00047
разгореться;0.00036
раздача;0.00031
разделиться;0.00023
различный;7e-05
размер;0.00011
разместить;0.00016
разный;7e-05
разорение;0.00021
разработчик;0.0
разрешить;0.00033
ранее;0.00021
ранний;0.00014
раскол;0.00038
распад;0.00017
распасться;0.0002
располагаться;0.0003
распоряжение;0.00017
распространить;0.00012
распространять;0.00017
рассматриваться;0.00013
рассмотрение;0.00025
рассмотреть;0.00038
рваться;0.00031
рвение;0.00036
реабилитировать;0.0007
реестр;0.00021
резиденция;0.00059
резко;0.00015
результат;0.00021
реймс;0.00144
реймский;0.00036
реймскома;0.00036
река;8e-05
рекомендация;0.00015
реконструкция;0.00015
религиозный;0.00038
репутация;0.00018
реставрация;0.00027
ресурс;7e-05
речь;0.00011
решающий;0.00019
решение;0.00071
решительно;0.00025
решительный;0.00042
решить;0.00059
рим;0.0072
римлянин;0.00047
римский;0.00368
рисковать;0.00027
рисунок;0.00017
ричард;0.00011
род;0.00024
родина;0.00016
родиться;0.00026
родоальдо;0.00036
родственник;0.00048
рождение;0.00018
роль;7e-05
роман;0.00019
росся;0.00031
рудольф;0.00027
рука;0.00016
руководитель;0.0001
руководство;8e-05
рукопись;0.00023
рукоположение;0.00247
рукоположить;0.00274
русский;0.0
рыбак;0.00023
ряд;0.00033
рядом;0.00031
сабиниан;0.00031
савин;0.00031
сам;0.00029
самый;0.00013
сан;0.0007
санс;0.00072
санстер;0.00183
санстерра;0.00036
сарацин;0.00092
сбежать;0.00019
сближение;0.00047
сблизиться;0.00036
сборник;0.00029
сбросить;0.00023
сведение;0.0
свежий;0.0
свергнуть;0.00038
светский;0.00017
свидетельство;0.00015
свидетельствовать;0.00031
свитка;0.00036
свободный;0.0
свой;0.00044
связанный;3e-05
связать;0.0004
связаться;0.0
связь;0.00011
святой;0.00169
святость;0.00031
священник;0.00039
священнослужитель;0.00031
священный;0.00018
сделать;0.00049
сдержать;0.00025
север;0.00011
северин;0.00031
северный;5e-05
сен-дени;0.00031
сентябрь;0.00015
сервуса;0.00036
сергий;0.00312
серебряный;0.00015
середина;8e-05
серия;0.00017
сжечь;0.00035
сигеберт;0.00031
сигерик;0.00036
сидение;0.00031
сизинния;0.00031
сикст;0.00137
сильверие;0.00031
сильвестр;0.00094
сильно;0.00011
сильный;0.0002
символизировать;0.00021
символически;0.00027
симмах;0.00031
симпатия;0.00021
симплиция;0.00031
синод;0.0027
сириций;0.00031
система;0.0
ситуация;0.00021
сказать;0.00027
скандальный;0.00022
скачать;0.0
склонить;0.00036
склонный;0.00018
сколь-нибудь;0.00036
скончаться;0.00015
скрытый;1e-05
слабый;0.00012
славянский;0.00016
следовать;0.00072
следующий;5e-05
слишком;0.00065
словарь;0.00017
сложиться;0.00015
служебный;0.0
служить;0.00011
случай;2e-05
случайный;0.0
смена;0.0005
сменить;0.00014
смениться;0.0002
смерть;0.00085
сместить;0.00075
смиренно;0.00036
смотреть;1e-05
смочь;0.0005
смута;0.00031
сначала;0.0001
снос;0.00025
снятой;0.00014
снять;0.00011
со-император;0.00031
собираться;0.00015
собор;0.00319
собраться;0.00056
собственность;0.0002
собственный;0.00013
событие;0.0
совершать;0.00015
совершаться;0.00023
совершенный;0.00023
совершить;0.00034
современный;0.00013
совсем;0.0002
согласие;0.00017
согласиться;0.00016
соглашение;0.00019
содержание;0.0
содержать;0.00027
содержаться;0.00038
созвать;0.00075
создание;0.00021
создать;0.0
сомневаться;0.00061
сомнительный;0.00047
сообщать;0.00074
сообщаться;0.00018
сообщение;0.00024
сообщество;0.0
сообщить;0.0
соответвовать;0.00036
соперник;0.00079
соракт;0.00036
сорактский;0.00036
соратник;0.00022
сослаться;0.00023
состав;5e-05
составлять;6e-05
состояние;0.00013
состояться;0.00054
сотереть;0.00031
сохранение;0.0
сохраниться;0.00098
сохранять;0.00015
сочинение;0.00013
союзник;0.00046
спб;0.00024
специальный;9e-05
список;0.00014
сплетня;0.00031
сполето;0.00153
сполетский;0.00398
спор;0.001
спорить;0.00025
способность;0.00016
способствовать;0.00013
справка;0.0
спрятать;0.00022
сразу;0.00011
средневековый;0.00027
средний;0.00056
српски;5e-05
српскохрватски;6e-05
ссора;0.00031
ссылаться;0.00019
ссылка;0.0
стабильный;7e-05
старший;0.0001
старый;0.00026
статистика;0.0
статус;0.00014
стать;0.00021
статья;0.0
стена;0.0004
степень;9e-05
стефан;0.00569
стилиан;0.00108
стиль;0.0001
стоить;0.00011
столетие;0.00015
столица;9e-05
столкнуться;0.00016
сторона;0.00047
сторонник;0.00222
стоять;0.00013
страдать;0.0002
страна;4e-05
страница;0.0
стремиться;0.0005
строгий;0.0002
суд;0.0003
судить;0.00018
суффраган;0.00072
существовать;0.00018
сформировать;0.00014
сформироваться;0.00019
схизма;0.00027
считать;0.00095
считаться;0.00018
сын;0.00052
сюда;0.0
таинство;0.00031
так;0.00029
такой;0.00026
талант;0.00019
талантливый;0.00023
там;0.00014
текст;1e-05
текущий;0.0
телесфора;0.00031
тело;0.00104
теобальда;0.00036
теодор;0.00075
тиберин;0.00072
тибр;0.00122
титул;0.00049
титульный;0.00027
ткань;0.00023
товарный;0.0
тогда;0.00018
толпа;0.00023
толстый;0.00023
только;0.0007
том;0.00018
торжественно;0.00061
тот;0.00061
точно;0.00025
точный;0.0005
традиционно;0.00028
трактат;0.00075
трансюранским;0.00036
требование;8e-05
требовать;8e-05
требоваться;0.00014
тренто;0.00036
три;3e-05
трибура;0.00036
трое;0.00015
труа;0.00082
труд;0.00033
трудно;0.00022
труп;0.00079
трупный;0.00137
тюрьма;0.00029
убедить;0.00039
убийство;0.0001
убить;0.00022
убранство;0.00027
уважение;0.00022
уважительный;0.00036
увенчаться;0.00061
уверенность;0.00092
увидеть;0.00014
уговорить;0.00047
угроза;0.00022
удаться;0.00021
ужасающий;0.00031
уже;0.00041
узнать;0.00016
узурпация;0.00072
узы;0.00036
уильям;0.00012
указ;0.00032
указание;1e-05
указать;0.00017
указывать;0.001
указываться;0.00017
украсить;0.00023
украшать;0.00027
укрепить;0.00017
укрыться;0.00031
улучшить;0.00017
умалять;0.00036
умереть;0.00082
умерший;0.0005
умолять;0.00027
унаследовать;0.00039
уничтожить;0.00027
уполномочить;0.00036
управление;8e-05
управляемый;0.0002
управлять;0.00011
упрекать;0.00055
урбан;0.00245
усиление;0.00015
усилие;0.00054
условие;1e-05
успех;0.00088
установить;7e-05
установление;0.00015
устраивать;0.00022
устроить;0.00014
уступить;0.00017
утвердить;0.00022
утверждать;0.00013
участвовать;0.00014
участие;0.0
участник;7e-05
ученик;0.00016
учитель;0.00018
ущерб;0.00013
уэссекс;0.00036
ф;0.00117
фабиан;0.00031
фаза;0.0005
фазоль;0.00092
факт;0.00045
фактически;0.00011
фактический;0.00016
фанатичный;0.00036
фарольд;0.00036
февраль;7e-05
феликс;0.00066
феодальный;0.00021
фигура;0.00033
фигурировать;0.00021
флаг;8e-05
флодоард;0.00108
фома;0.00023
фонд;0.0
форма;0.00014
формоз;0.03518
формозиец;0.00036
форум;0.0
фотиева;0.00031
фотий;0.00504
фрагмент;0.00086
фракция;0.00066
франк;0.00052
франкский;0.00025
франкфурт;0.00036
франциск;0.00027
францисканец;0.00031
франция;9e-05
французский;5e-05
фреска;0.00023
фресковый;0.00036
фриульский;0.00094
фульдский;0.00036
фульк;0.00144
фулька;0.00252
фулькома;0.00036
характер;0.00072
хвалить;0.00023
хватать;0.00039
хериленд;0.00036
хиестанда;0.00036
хиротония;0.00031
хитрость;0.00036
хлеб;0.00021
хораса;0.00036
хорватский;0.00013
хороший;0.00016
хорошо;0.00013
хотеть;9e-05
храм;0.00012
христианизация;0.00025
христианин;0.00016
христианство;0.00015
христос;0.00017
хроника;0.00061
хронист;0.00108
хронологический;0.0005
хронология;0.00013
хрупкость;0.00036
художник;0.00011
царство;0.00042
царь;0.00014
цвентибольд;0.00036
целестин;0.00153
целомудрие;0.00031
цель;0.00025
ценить;0.00023
ценность;0.00019
ценный;0.00019
цепляться;0.00031
цер;0.00036
церковный;0.00061
церковь;0.00287
цитировать;3e-05
чампиня;0.00036
частность;0.00019
часто;7e-05
частый;0.00013
часть;0.00032
человек;5e-05
черта;0.00014
честной;0.00025
честолюбие;0.00036
честь;0.00011
четыре;6e-05
чехарда;0.00061
число;6e-05
чистота;0.00025
читать;0.0
член;5e-05
чрезмерный;0.00023
шантаж;0.00023
шесть;8e-05
штауфен;0.00061
эварист;0.00027
эда;0.00226
эдом;0.00072
эдуард;0.0002
экз;0.0003
эксгумировать;0.00027
экспансия;0.00023
экспедиция;0.00042
экспорт;0.0
элемент;0.0
энергичность;0.00036
энциклопедический;0.00013
энциклопедия;0.0
эпизод;0.00016
эрнест;0.00021
эрнст;0.0002
этот;1e-05
южный;0.00018
юлий;0.00075
юный;0.00038
юрисдикция;0.00083
явиться;0.00017
являться;0.00022
явствовать;0.00036
яд;0.00036
язык;0.0
январь;0.00015
яркий;0.00019
