август;0.00022
аврига;0.00138
автобусный;0.00105
автомобильный;0.00141
авторство;1e-05
аграрный;0.00084
агропромышленный;0.00472
академия;0.00044
американский;0.00026
англ;0.0004
аниноас;0.00138
анна;0.00048
апрель;0.00032
аргумент;0.00047
аспект;0.00069
база;0.00045
басараби;0.00138
бельгия;0.00038
берег;0.00051
бессарабский;0.00105
бетонный;0.0009
благоприятствование;0.00826
благоприятствуемый;0.00556
близлежащий;0.00105
более;0.00036
болинтин-валя;0.00138
больший;0.00121
борьба;0.00031
брашовский;0.00117
будешти;0.00138
бумбешти-жиу;0.00138
бунт;0.00061
бухарест;0.00635
быть;0.00014
бэрэганский;0.00117
валя-луй-михать;0.00138
ванная;0.00138
великое;0.0008
венгрия;0.00042
версия;0.0
весна;0.00045
весь;0.00037
вид;0.00018
видный;0.00069
викидать;2e-05
викимедиа;0.0
википедия;0.0
винодельческий;0.00138
вклад;0.0
власть;0.00078
вмешательство;0.00059
внимание;0.00133
вновь;0.00036
внутренний;0.00071
вода;0.00027
водопровод;0.00117
возвращение;0.00051
возможность;0.00027
войско;0.00037
войти;0.0
вопрос;0.00027
воспевать;0.00117
восстание;0.00048
восток;0.00036
впервые;0.0003
впоследствии;0.00043
время;0.00014
вскоре;0.00031
встретить;0.00072
второй;0.00014
выбрать;0.00036
вызвать;0.00028
вымереть;0.00105
вынудить;0.00035
выполнять;0.0005
выселение;0.00105
выступать;0.00035
вышеупомянутый;0.00105
гавань;0.00072
гармоничный;0.00117
гвардия;0.00069
где;0.00012
георге;0.00181
георгиу;0.00117
гермэнешти;0.00138
герой;0.00038
год;0.00044
голосование;0.00064
голубой;0.00061
горный;0.00059
город;0.00446
городской;0.00035
государственный;0.00042
гражданский;0.0003
грандиозный;0.00096
гроза;0.00096
давление;0.00166
давно;0.00084
дальнейший;0.00032
данный;0.00026
дать;0.00029
дачиада;0.00117
два;0.00017
движение;0.0003
двухэтажный;0.00138
действие;0.00044
действовать;2e-05
декабрь;0.00022
декларировать;0.00096
делить;0.00084
дело;0.00051
день;9e-05
депортация;0.00066
деревня;0.01416
деревообрабатывающий;0.00138
десталинизация;0.00117
десятилетие;0.00053
десять;0.00047
джуреска;0.00138
диверсификация;0.00117
дин;0.00076
директор;0.00051
диссидентство;0.00117
должный;0.00164
долина;0.00064
дом;0.00305
доминирование;0.00117
дополнительный;1e-05
доступный;0.0
друг;0.0005
другой;0.0
дунай;0.0034
дэрмэнешти;0.00138
европа;0.00017
единственный;0.00055
ернут;0.00138
есть;0.00015
животное;0.00048
жизнеспособный;0.00138
жизнь;0.00068
жилец;0.00138
жилой;0.0008
житель;0.00085
жудец;0.00105
забастовка;0.00084
забросить;0.00105
завершить;0.00073
завод;0.0016
заглавный;0.0
задумать;0.00416
заключаться;0.00066
закон;0.00029
законодательный;0.00057
закрыть;0.00064
запад;0.00038
запись;0.0
запланировать;0.00076
запчасть;0.00105
зарегистрировать;2e-05
затем;0.00025
заявить;0.00028
заявление;0.0
здание;0.00112
здесь;0.00138
знак;2e-05
значимый;0.00055
идентичный;0.0008
идеология;0.00072
идея;0.00094
избежать;0.00059
избранный;0.0
известный;0.00017
илф;0.00117
иметь;0.00024
имя;0.0
инвестиция;0.0008
индивидуальный;0.00228
индивидуум;0.00138
инженерия;0.00117
инициатива;0.001
иной;0.00031
инструмент;0.0
интеллигенция;0.00096
интерес;0.00043
ион;0.00096
использование;0.0
историк;0.00045
история;1e-05
источник;0.0
июль;0.00025
июльский;0.00105
какой-либо;0.00048
канал;0.00172
канализация;0.00278
карла;0.00061
касса;0.00096
категория;1e-05
качество;0.00047
квартира;0.00457
кива;0.00105
код;2e-05
кодекс;0.0
колибаш;0.00138
количество;0.00048
коллективизация;0.0009
коммуна;0.0024
коммунальный;0.00105
коммунистический;0.00072
комната;0.00066
компания;0.00023
компенсация;0.00194
комтурист;0.00117
конгресс;0.00184
конец;0.00048
конечный;0.00061
консультация;0.00096
контроль;0.00081
конференция;0.00061
конфиденциальность;0.0
концепция;0.00115
короткий;0.0
который;8e-05
крестьянин;0.00199
крупный;0.00037
кук;0.0
культ;0.00072
культура;0.00023
кухня;0.00139
лехлиу-гарэ;0.00138
лидер;0.00035
ликвидация;0.00139
ликвидировать;0.00066
лицензия;1e-05
личность;0.00047
личный;0.00033
лишаться;0.00105
магазин;0.00084
магистраль;0.00084
малоэтажный;0.00138
манифест;0.00084
маркс;0.00084
март;0.00024
масштабный;0.0005
материал;0.0
маурер;0.00117
медаль;0.00053
меркуря-чук;0.00138
местность;0.00332
местный;0.00158
место;0.00038
месторасположение;0.00138
месяц;0.0002
мешать;0.00084
миграция;0.00076
минимальный;0.00061
минимум;0.00039
михэйлешти;0.00138
мнение;0.00055
много;0.00032
многоквартирный;0.00543
множество;0.00075
мобильный;0.0
модернизировать;0.00117
молодой;0.00031
молочный;0.00084
момент;0.00022
монора;0.00138
море;0.00129
мочь;0.0
мурфатлар;0.00278
навигация;0.0
навязчивый;0.00105
награда;0.00029
наиболее;0.00142
намеренный;0.0009
направить;0.00039
нарушение;0.00043
население;0.00092
населить;0.00051
находиться;0.00013
национал-коммунизм;0.00117
национализация;0.00096
национальный;0.00042
нация;0.00172
начало;0.00012
начать;0.00026
наш;0.00032
небольшой;0.00031
негативный;0.00069
неграмотность;0.00105
негру-водэ;0.00138
некоммерческий;2e-05
некоторый;0.0003
необходимый;0.00036
неприемлемый;0.00105
несколько;0.00012
нии;0.00194
никита;0.00084
николай;0.00163
ничтожный;0.00138
новый;0.0
нравиться;0.00076
нужный;0.00059
обеспечить;0.00045
обещать;0.00069
обладать;0.00037
образец;0.00166
обсуждение;0.0
общественный;0.00031
общество;0.00031
общий;0.00018
община;0.00057
объединение;0.00045
объединить;0.00044
объявить;0.00081
объяснение;0.00064
обязательный;0.00061
овидиу;0.00117
одежда;0.00066
один;0.0003
означать;0.00047
описание;0.0
организация;5e-05
оруэлловский;0.00138
освобождать;0.00117
основать;0.00027
основное;0.00031
основной;0.00079
оставлять;0.00069
остальной;0.00103
остановить;0.00047
остаться;0.00057
осудить;0.00048
осуществляться;0.00044
ответственность;0.0
отводиться;0.00138
отдать;0.00051
отдельный;1e-05
отказ;0.0
отказаться;0.001
отказываться;0.00061
открытка;0.00117
отменить;0.00077
отметить;0.00034
отношение;0.00036
отодвинуть;0.00105
отопенить;0.00138
отпатрулировать;0.00037
отрасль;0.00139
отредактировать;2e-05
отставка;0.00055
официально;0.00067
очередь;0.00031
ошибка;0.0
палата;0.00053
панельный;0.00416
паров;0.00138
партия;0.00063
патриотический;0.00105
паукер;0.00117
первоначальный;0.00051
первый;0.00022
перевоспитание;0.00105
перейти;0.0
переключить;0.00138
переселение;0.00291
переселить;0.00117
переселять;0.00138
перестроить;0.0017
перестройка;0.00236
период;0.00025
персональный;0.0
перспектива;0.00069
перспективный;0.00138
петров;0.00096
печать;0.0
пивоварня;0.00138
пионерский;0.00105
письменный;0.00061
питешти;0.00105
питьевой;0.00096
план;0.00188
планироваться;0.00221
платить;0.00076
плохой;0.00039
площадь;0.00034
поведение;0.0
повышение;0.00076
погоанел;0.00138
подавить;0.00072
подать;0.0005
подвергнуться;0.00059
подготовить;0.00059
поддержка;0.0003
подробный;1e-05
подчеркнуть;0.00072
подчиниться;0.00117
пожертвовать;0.0
поиск;0.0
политика;0.0
полностью;0.00074
полный;0.00025
половина;0.00033
получить;0.0
помощь;0.00016
понять;0.00066
попадать;0.00061
порядок;0.00036
посевная;0.00105
поселение;0.00243
поселиться;0.00066
послевоенный;0.00084
последний;1e-05
последовать;0.00047
постепенно;0.00091
постоянный;2e-05
построить;0.00456
потеря;0.00155
потерянный;0.0008
почтовый;0.00057
пошив;0.00117
появление;0.00038
появляться;0.00051
правительство;0.00032
править;0.0
правка;0.0
право;0.00049
православный;0.00043
практически;0.0004
пребывание;0.00076
превратить;0.0008
предел;0.00031
предполагаться;0.00064
предприниматься;0.00096
предприятие;0.00184
представитель;0.00023
представить;0.00031
представиться;0.0
предусматривать;0.00218
предыстория;0.00128
президент;0.0006
прекратить;0.00051
преобразовать;0.00072
прервать;0.00072
приблизить;0.0008
привести;0.00021
пригород;0.00076
приказ;0.00059
примечание;8e-05
принудительный;0.00096
принять;0.00029
приоритет;0.00072
приоритетный;0.00138
приостановка;0.00271
приостановление;0.00105
присвоение;0.0009
провести;0.00021
проводиться;0.00038
проголосовать;0.00084
программа;0.00722
продлиться;0.00105
проект;0.00011
проживание;0.00096
производство;0.00039
произойти;0.00048
пролетаризация;0.00138
промышленный;0.00057
просмотр;0.0
пространство;0.0
протест;0.00091
протохронизм;0.00117
процесс;0.00025
птицефабрика;0.00138
пункт;0.00077
пьятра-олт;0.00138
пэулени-чук;0.00138
пятилетка;0.00105
пять;0.00025
работа;0.00025
работать;0.00027
рабочий;0.00067
равнинный;0.0009
радикально;0.00117
раз;2e-05
развитие;0.00081
разгромить;0.00064
раздражение;0.00117
различие;0.00218
разработать;0.00055
разработчик;0.0
район;0.0005
рамка;0.00071
ранее;0.00027
располагаться;0.00229
расположить;0.00067
распространить;0.00047
расти;0.00053
реакция;0.00053
реализация;0.00458
реальный;0.00043
революция;0.00215
регион;0.00028
режим;0.00115
резонанс;0.00096
результат;0.00048
реконструкция;0.00059
реорганизация;0.00096
репрессия;0.00069
республика;0.00078
решить;0.00065
ровинари;0.00556
родный;0.0005
рождение;0.00035
рост;0.00034
руководитель;0.00039
руководство;0.00031
румыния;0.01129
румынский;0.00384
русский;0.0
русый;0.00111
сам;0.00028
сберегательный;0.00138
сведение;0.0
свежий;0.0
свободный;0.0
свой;0.00023
связанный;1e-05
связаться;0.0
связь;0.00022
сделать;0.00047
сейня;0.00138
секуритат;0.00117
село;0.00119
сельский;0.00802
сельскохозяйственный;0.00072
семья;0.00023
сенат;0.00066
сигет;0.00117
сила;0.0002
система;0.0
систематизация;0.01889
ситуация;0.0004
скачать;0.0
скмр;0.00117
скорничешть;0.00138
скынтейя;0.00117
слишком;0.0005
слово;0.00023
слой;0.00069
сломр;0.00117
служебный;0.0
случай;1e-05
случайный;0.0
смена;0.00064
смотреть;1e-05
смысл;0.00059
снести;0.00145
снос;0.00291
собираться;0.00059
соблюдение;0.00059
собрание;0.00047
событие;0.0
совершить;0.00044
совет;0.00072
советский;0.00029
современный;0.00025
совром;0.00117
содержание;0.0
соединить;0.00045
создавать;0.0005
создать;0.0
сократить;0.00069
сообщать;0.00057
сообщение;0.00045
сообщество;0.0
сообщить;0.0
сопротивление;0.00155
сосредоточение;0.00138
сосредоточить;0.00096
сосредоточиться;0.00096
сотня;0.00107
сохранение;2e-05
социалистический;0.00311
спасение;0.00228
список;0.00035
справка;0.0
спровоцировать;0.0008
срок;0.00069
ссср;0.00035
ссылка;0.0
стабилизация;0.0008
стабильный;0.00028
стадион;0.00061
статистика;0.0
статус;0.00497
стать;0.00032
статья;0.0
стойка;0.00096
сторона;0.00041
страна;0.00052
страница;0.0
строительный;0.00208
строительство;0.00145
строй;0.0005
студенческий;0.00105
существование;0.00045
существовать;0.00017
считать;0.00021
сша;0.00085
сюда;0.0
такой;0.00038
тезис;0.00105
текст;1e-05
текстильный;0.00076
текущий;0.0
темп;0.00076
территория;0.00023
типичный;0.00084
товарный;2e-05
тогда;0.00035
только;0.00027
торговля;0.00055
торговый;0.00042
тот;0.00014
требовать;0.0003
три;0.00022
трудящийся;0.00084
тысяча;0.00172
тэлмач;0.00138
тэмэдэу;0.00117
увеличить;0.00069
угольный;0.00096
угрожать;0.00051
уже;0.00016
указ;0.00123
указание;2e-05
улица;0.00036
улучшение;0.00064
унижение;0.00105
уничтожение;0.00171
уничтожить;0.00104
урбанизировать;0.00117
уровень;0.00025
усилить;0.00076
условие;3e-05
услуга;0.00064
устный;0.0009
устранение;0.0009
усыновление;0.00138
участие;0.0
фабрика;0.00139
факт;0.00043
фдс;0.00117
февраль;0.00019
физика;0.0008
финальный;0.00152
флакэра;0.00117
фонд;1e-05
форум;0.0
фридрих;0.0008
фронт;0.001
фрумоас;0.00138
фундуля;0.00138
хозяйство;0.00166
хутор;0.00138
целый;0.00051
цель;0.00096
цензура;0.00069
центр;0.00199
централизация;0.00117
церковь;0.00028
цитировать;6e-05
часть;0.0001
чаушеска;0.02328
человек;0.00032
ченаклуть;0.00117
чиновник;0.00076
читать;0.0
шаг;0.00057
шахта;0.00076
швейный;0.00138
широкий;0.00043
штат;0.00038
штефана;0.00117
ынсурэца;0.00278
экономика;0.00077
экономия;0.00096
экспорт;0.0
экспроприация;0.00138
элемент;0.0
энгельс;0.0009
энциклопедия;0.0
этап;0.0004
этот;0.0
являться;9e-05
ядерный;0.00072
язык;0.0
янка;0.00212
