аба;0.00182
абарон;0.00182
август;0.00015
авторство;1e-05
акерманский;0.00182
акция;0.00091
алкоголь;0.00139
апрель;8e-05
армейский;0.00105
армия;0.00218
артиллерия;0.00335
артобстрел;0.00155
архангел;0.00139
атака;0.00408
атаковать;0.00078
балада;0.00182
баранович;0.00182
батальон;0.004
батарея;0.00118
бахмач;0.00182
беженец;0.00091
беженка;0.00182
беларускать;0.00034
беларусь;0.00091
белоруссия;0.0033
белорусский;0.001
белый;0.00053
березина;0.00182
бетон;0.00118
билевич;0.00182
битва;0.00056
блиндаж;0.00182
боевой;0.00255
бой;0.00481
более;0.00016
болото;0.00139
больший;0.00016
большой;0.00015
братание;0.00182
брест;0.00139
брестский;0.00139
бронзовый;0.00081
бросить;0.00081
брусиловский;0.00182
бывать;0.00169
быть;7e-05
вайн;0.00548
вариант;0.00056
варшава-ивангород;0.00182
вели;0.00091
великий;0.0003
великое;0.00105
версия;0.0
верста;0.00155
вестник;0.00105
весь;0.0001
ветка;0.00155
вечером;0.00081
вещество;0.00087
взорвать;0.001
взять;0.00046
видать;0.00311
викидать;2e-05
викимедиа;0.0
википедия;0.0
вилий;0.00914
вильно;0.0073
вирскай;0.00182
вишневский;0.00279
вклад;0.0
включать;0.00045
власть;0.00034
военно-исторический;0.00155
военнослужащий;0.00087
военный;0.00092
возвести;0.00075
воин;0.00091
воинский;0.00183
война;0.00401
войско;0.00295
войти;0.0
волшебный;0.00031
волынский;0.00127
восемь;0.00132
восток;0.00096
восточный;0.0025
впервые;0.00158
время;0.00014
вступить;0.00104
вход;0.00087
выглядаюць;0.00182
выгодный;0.00111
выпускать;0.00095
выпустить;0.00053
высота;0.00198
вышэйший;0.00182
г;0.00134
газ;0.00218
газета;0.00048
газовый;0.00238
галиция;0.00182
гать;0.00182
гвардеец;0.00139
гвардейский;0.00383
где;0.00016
гений;0.00279
георгиевский;0.00139
германия;0.00031
германский;0.00509
героический;0.00118
герой;0.0005
главный;0.00015
год;0.00017
гориденять;0.00182
горка;0.00155
горлица;0.00155
город;0.00128
государственный;0.00027
грабитель;0.00182
гродненский;0.00155
гужва;0.00366
гулять;0.00139
далее;0.00027
дата;6e-05
два;0.00022
двинуться;0.00118
действие;0.00029
действовать;4e-05
декабрь;0.0003
день;0.00062
деревня;0.0006
держать;0.00081
десятка;0.00136
десять;0.00062
дивизия;0.00764
динамит;0.00155
дополнительный;1e-05
дорога;0.00139
доступный;0.0
древний;0.00052
другой;0.0
дубатовка;0.00182
думка;0.00182
дух;0.00078
ежедневно;0.001
железнодорожный;0.00068
железный;0.00128
женский;0.00062
женщина;0.00073
жертва;0.00165
житель;0.00037
журнал;0.00048
забытый;0.00155
заглавный;0.0
заключить;0.00052
заливать;0.00155
заложить;0.001
запад;0.00253
западный;0.00075
запись;0.0
зарегистрировать;2e-05
зарываться;0.00182
захватить;0.00058
захоронение;0.00091
захоронить;0.00111
заявление;0.0
звязд;0.00182
здесь;0.00091
земля;0.00098
знак;2e-05
значительный;0.00109
золотой;0.00043
зона;0.0005
избранный;0.0
изначально;0.00068
империя;0.00106
имя;0.0
инструмент;0.0
использование;1e-05
использовать;0.00013
история;2e-05
источник;0.0
истощить;0.00155
итог;0.00039
июль;0.00066
июнь;0.00011
июньский;0.00182
кавалерийский;0.00696
кавалерия;0.00182
кавказский;0.00118
каждый;0.0003
кайзеровский;0.00182
камень;0.00068
карпаты;0.00155
карта;0.00038
категория;3e-05
качалов;0.00182
кексгольмский;0.00182
километр;0.00382
кладбище;0.00084
км;0.00064
код;3e-05
кодекс;0.0
количественный;0.00118
количество;0.00032
колокол;0.00127
коммуникация;0.00111
комплекс;0.00066
композиция;0.00105
конец;0.00048
конный;0.00084
контратака;0.00155
конфиденциальность;0.0
конфликт;0.00045
копать;0.00182
короткий;0.0
корпус;0.0033
крево;0.00548
крест;0.00064
крылатый;0.00183
кук;0.0
л;0.00048
лабиринт;0.00139
левый;0.00064
лейб-гвардия;0.00548
лес;0.00066
лида;0.00182
линия;0.00093
литература;0.00046
литовский;0.00068
лицензия;1e-05
лодзь;0.00182
м;0.00024
мазурия;0.00182
март;0.00019
маршевый;0.00182
материал;0.0
мельница;0.00155
мемориал;0.00224
мемориальный;0.00111
местечко;0.00417
местность;0.00072
местный;0.00041
место;0.00025
минск;0.001
минута;0.00075
мировой;0.0046
митава;0.00182
михаил;0.00058
многокилометровый;0.00182
многочисленный;0.00048
мобильный;0.0
молодечно;0.00548
моонзунд;0.00182
мост;0.00066
мочь;0.0
мужество;0.00139
мужчина-солдат;0.00182
н;0.0003
наблюдаться;0.00078
навести;0.00182
навигация;0.0
навстречу;0.00155
называть;0.00032
нанести;0.00062
направить;0.00052
нарочь;0.00548
населить;0.00272
наследие;0.00068
наступать;0.00084
наступление;0.00211
натиск;0.00155
находиться;0.00017
нацыянальнать;0.00182
начало;0.00015
начать;0.00034
начаться;0.00071
некоммерческий;2e-05
некоторый;0.0002
немец;0.00925
немецкий;0.00166
немного;0.00091
нива;0.00127
новик;0.00366
новоспасский;0.00182
новый;0.0
норма;0.00066
ночь;0.00046
ночью;0.00201
оба;0.00077
обеспечивать;0.00084
область;0.00026
обозначить;0.00091
оборона;0.00385
обращение;0.00012
обрыть;0.00182
обстрел;0.00095
обсуждение;0.0
общий;0.00024
обычный;0.00062
огневой;0.00127
огромный;0.00055
ожидать;0.0006
озеро;0.00198
окоп;0.00914
окраина;0.00111
октябрь;0.00016
операция;0.00104
описание;0.0
организация;2e-05
организовать;0.00056
оружие;0.00056
ослабнуть;0.00182
основной;0.00026
оставить;0.0005
останавливать;0.00139
остановить;0.00062
отбирать;0.00139
отбить;0.00155
ответ;0.00056
ответственность;0.0
отвлекать;0.00127
отдельный;2e-05
отказ;0.0
открытый;0.0004
открыть;0.00043
отметить;0.00045
отойти;0.00191
отрава;0.00182
отравить;0.00139
отравлять;0.00155
отразить;0.00169
отредактировать;2e-05
отступать;0.00139
отступление;0.00256
отсюда;0.00118
отходить;0.00127
офицер;0.00136
охватить;0.001
очевидный;0.00075
ошибка;0.0
память;0.0035
паровозный;0.00182
паромный;0.00182
пахнуть;0.00155
первый;0.00128
перейти;0.0
перемирие;0.00528
перемышль;0.00182
переправа;0.00548
переть;0.00366
период;0.00065
персональный;0.0
першать;0.00182
петроградский;0.00155
пехотный;0.00558
печаль;0.00139
печать;0.0
победа;0.00041
поведение;0.0
погибнуть;0.00098
поговорка;0.00311
подкрепление;0.00182
подойти;0.00548
подорвать;0.001
подписание;0.00091
подразделение;0.00068
подробный;2e-05
пожар;0.00084
пожертвовать;0.0
позиционный;0.00417
позиция;0.00165
поиск;0.0
политика;0.0
полк;0.00211
полка;0.00316
полностью;0.00065
пологий;0.00182
полтора;0.00087
получасовой;0.00182
получить;0.0
попасть;0.00046
попросить;0.00087
последний;2e-05
пост;0.00053
постоянный;2e-05
пострадать;0.00087
построить;0.00086
потом;0.00062
потомок;0.00087
появиться;0.00032
править;0.0
правка;0.0
православный;0.00056
правый;0.00068
прасныш;0.00182
предложение;0.00055
предотвратить;0.00087
представиться;0.0
преимущество;0.00078
преображенский;0.00155
применение;0.00078
применить;0.00274
примечание;0.0001
принять;0.00019
провалиться;0.001
проверить;0.00056
проверка;0.00064
провести;0.00027
продвижение;0.00156
продолжать;0.00043
проложить;0.00111
промежуток;0.00105
проникнуть;0.001
прорыв;0.00211
просмотр;0.0
пространство;0.0
противник;0.00541
противостояние;0.00091
протянуться;0.00182
проявить;0.00087
проявлять;0.00111
пруд;0.00118
пруссия;0.00139
психологический;0.00105
пункт;0.00202
пушка;0.00111
раз;4e-05
развитой;0.001
разместить;0.00081
разработчик;0.0
разрушить;0.00211
район;0.00065
раненый;0.00081
расположить;0.00044
растеряться;0.00155
революция;0.00056
резерв;0.00091
резервный;0.00105
рейд;0.001
река;0.00081
ресурс;0.00018
решить;0.00043
рига;0.00224
ровный;0.00139
российский;0.00294
россиянин;0.00084
рота;0.00105
ружейный;0.00155
румыния;0.00055
русский;0.0
сайт;0.00025
сам;0.00018
самый;0.00027
сбор;0.00087
сведение;0.0
свежий;0.0
свенцян;0.00182
свирь;0.00182
свободный;0.0
свой;6e-05
связанный;2e-05
связаться;0.0
святой;0.00043
север;0.00214
северный;0.00025
сено;0.00127
сентябрь;0.00118
сибирский;0.00211
сила;0.00054
система;0.0
скачать;0.0
скосить;0.00182
скрытый;4e-05
скульптура;0.00091
скульптурный;0.00127
слава;0.00183
следующий;0.00024
служебный;0.0
случай;3e-05
случайный;0.0
смаргоннить;0.00548
смерть;0.00031
сморгнать;0.02374
сморгонский;0.0073
сморгонщина;0.00366
сморгонь;0.01862
смотреть;5e-05
снаряд;0.00118
событие;0.0
совершить;0.00058
совместный;0.0006
современность;0.00118
современный;0.00032
содержание;0.0
создавать;0.00066
создать;0.0
сол;0.00182
солдат;0.00371
сообщество;0.0
сообщить;0.0
сохранение;2e-05
сохраниться;0.00062
спешка;0.00155
справка;0.0
сравнительно;0.00105
сражение;0.00323
ссылка;0.0
стабильный;0.00037
станция;0.00128
статистика;0.0
статья;0.0
сторона;0.00107
страница;0.0
стрелковый;0.00105
стрельба;0.00081
студзенить;0.00182
суметь;0.0007
сусветнать;0.00182
сусветный;0.00366
схватка;0.00105
считаться;0.0003
сюда;0.0
такой;0.00016
текст;2e-05
текущий;0.0
территория;0.00092
технический;0.0006
течение;0.00029
товарный;2e-05
тон;0.00111
тоннель;0.00111
тот;0.00042
точка;0.00043
трагический;0.00118
траншея;0.00366
три;0.00015
тыл;0.00088
тяга;0.00155
убитый;0.00081
увеличиваться;0.00111
удар;0.00062
удержать;0.00356
уже;0.00021
узкоколейный;0.00155
указание;2e-05
укрепление;0.00095
университет;0.00043
урна;0.00182
усиленно;0.00182
усилить;0.001
условие;3e-05
успешно;0.00169
установить;0.00035
утром;0.00191
участие;0.0
участиться;0.00139
участок;0.00192
ущерб;0.00068
фактический;0.00081
фаустшлаг;0.00182
февральский;0.00139
флаг;0.00038
фонд;2e-05
форум;0.0
фронт;0.00725
фрукт;0.00118
химатака;0.00182
химикат;0.00127
химический;0.00105
хлор;0.00139
ходить;0.0007
хорошо;0.00066
храм;0.00062
центральный;0.00031
цитировать;7e-05
час;0.0016
часовня;0.00211
часть;0.00027
человек;8e-05
чернять;0.00182
число;0.00016
читать;0.0
шавль;0.00182
школа;0.00048
штурм;0.004
экспорт;0.0
элемент;0.0
энциклопедия;0.0
этот;1e-05
юг;0.0012
южный;0.00031
яблоко;0.00127
язык;0.0
як;0.00127
