абдулло;0.00022
абдуллох;0.00022
абсолютно;0.00015
абсурд;0.00019
абу;0.00017
абхазия;0.00029
аварийно-спасательный;0.00022
август;3e-05
авить;0.00022
австрия;7e-05
автомат;0.00066
автоматный;0.00019
автомобиль;0.00083
авторство;0.0
агалар;0.00019
агаларов;0.00036
агентство;0.00039
агрессия;0.00012
адвокат;0.00134
адвокатский;0.00036
администрация;7e-05
адрес;0.00037
азаттык;0.00032
азерб;0.00019
азербайджан;0.00013
азия;7e-05
аквариум;0.00054
акт;0.0008
активизировать;0.00015
активно;0.00042
актуальный;0.00012
алан;0.0001
александр;0.00048
алексей;0.0001
алина;0.00015
алишер;0.00042
аллах;0.00015
аль-ансари;0.00042
альбом;0.00012
альтернативный;0.0001
амер;0.00011
американец;0.00013
американский;0.00012
аминчон;0.00064
ан-наб;0.00022
анадолу;0.00022
аналитик;0.00013
аналитический;0.00012
англ;0.00027
ангола;0.00012
андрей;0.0002
анимация;0.00013
анонимный;0.00012
антимигрант;0.00064
антимигрантский;0.00084
антитеррористический;0.00032
антиукраинский;0.00019
апрель;0.00011
ар;0.00019
арабский;0.00015
аравия;0.0001
араз;0.00036
аргентина;0.00011
аренда;0.00032
арендатор;0.00022
арест;0.00019
арестовать;0.00076
армения;0.0002
армия;0.00013
арутюнян;0.00022
архивировать;0.00294
асад;0.00017
асхаб;0.00022
атака;0.00212
атаковать;9e-05
аудитория;0.00017
аукцион;0.00019
афганистан;0.00077
афганский;0.00059
аффилировать;0.00019
ахмат;0.00042
аширалиев;0.00022
аэропорт;0.00033
бабинец;0.00022
база;0.00014
базироваться;0.00012
банк;0.00016
банковский;0.00024
баранов;0.00017
барбер;0.00019
бародар;0.00022
баротович;0.00042
басманный;0.00049
бастрыкин;0.00064
бахрейн;0.00012
башар;0.00019
безопасность;0.00063
беларускать;4e-05
беларусь;0.00021
белгородский;0.00014
белград;0.00014
белор;0.00017
белоруссия;0.00045
белый;0.00037
бельгия;6e-05
бензин;0.00017
беслан;0.00113
бесланский;0.00022
бесплатный;0.00024
беспрепятственно;0.00017
би-би-си;0.00069
библиотека;0.00013
бизнес;0.00011
билет;0.00014
бить;0.00017
благовещенск;0.00032
благополучно;0.00022
близкий;0.00056
блогер;0.00019
блок;8e-05
бобров;0.00019
бог;8e-05
боевик;0.00218
боеприпас;0.00035
боец;0.00027
бозпурсия;0.00022
более;0.00033
боливия;0.00012
больница;9e-05
больной;0.00026
больший;4e-05
большинство;4e-05
большой;9e-05
борода;0.00036
бороться;0.00011
бортник;0.00064
борьба;0.00015
босния;9e-05
бот;0.00026
ботанический;0.00029
бразилия;8e-05
брат;0.00029
брать;9e-05
бригада;9e-05
британия;0.00011
британский;0.0001
бритый;0.00015
брифинг;0.00017
бросить;0.0001
брянский;0.00064
буйнакск;0.00022
буквально;0.00014
бумага;0.0001
бурданда;0.00022
бурдж-халиф;0.00042
буркина-фасо;0.00012
български;3e-05
бывший;9e-05
быстро;7e-05
быть;4e-05
вагнер;0.00017
вагнеризация;0.00022
важный;0.00012
валенсия;0.00017
валерий;9e-05
валить;0.00022
вампир;0.00015
вампирский;0.00022
варварский;0.00036
варварство;0.00042
вариант;7e-05
вахдата;0.00022
вашингтон;0.00028
ввести;0.00023
вгтрк;0.00022
ведомость;0.00069
ведомственный;0.00042
ведомство;0.00022
вектор;0.00017
вели;0.00011
великан;0.00022
великий;4e-05
великобритания;0.00021
венгрия;7e-05
венесуэла;0.0001
вербовать;0.00017
вербовка;0.00015
вероятность;0.00023
вероятный;0.00012
версия;0.0
вести;0.00039
вестибюль;0.00022
весь;0.00017
вечер;0.0001
вещание;0.00032
вещество;0.00011
взаперти;0.00022
взрыв;0.00081
взять;0.00048
вид;9e-05
видео;0.00104
видеонаблюдение;0.00014
видеоэкран;0.00022
видеть;0.00022
викидать;0.0
викимедиа;0.0
викиновость;5e-05
википедия;0.0
викисклад;4e-05
виктор;0.0001
вилаят;0.00588
вина;0.00061
винить;0.00019
вино;0.00013
виновный;0.00024
виталий;0.00012
вице-премьер;0.00019
вице-спикер;0.00022
вклад;0.0
включать;5e-05
включить;5e-05
вкупе;0.00017
владелец;0.00016
владеть;8e-05
владикавказ;0.00022
владимир;0.00094
владлен;0.00022
власть;0.00075
вместе;4e-05
вместимость;0.00027
вначале;0.00011
внешний;2e-05
вниз;0.00015
внимание;0.00013
вновь;6e-05
внутренний;6e-05
вода;4e-05
водитель-мигрант;0.00022
воевать;0.00037
военкор;0.00022
военный;0.00014
возбудить;0.00015
воздержаться;0.00013
возможность;8e-05
возможный;0.0006
возникнуть;0.00013
возрасти;9e-05
война;0.00015
войско;6e-05
войти;0.0
волгоград;0.00027
волк;0.00035
волощук;0.00022
вопрос;0.00041
воронин;0.00022
воскресение;0.00011
воссоздать;0.00032
восстанавливать;0.00029
восстановить;0.00013
востоковед;0.00019
восьмимесячный;0.00022
восьмой;0.00032
впоследствии;0.00026
враг;0.00029
враждебный;0.00023
врач;0.00033
временно;0.00012
временной;7e-05
время;0.00013
вручить;0.00013
вскоре;5e-05
вспоминать;0.00011
вспомнить;0.00015
встретиться;0.00019
встреча;6e-05
встречать;0.00011
вторжение;0.00014
второй;0.00013
вуз;0.00013
вход;0.0004
вчк-огпу;0.00022
въезд;0.00024
въехать;0.00019
выбор;6e-05
выборг;0.00019
выбрать;6e-05
выбраться;0.00015
вывезти;0.00013
выдвигать;0.00011
выдвигаться;0.00013
выдвинуть;0.00011
выделить;7e-05
выдерживать;0.00019
вызвать;9e-05
выздоровление;0.00036
вызов;0.00011
выйти;9e-05
выканаць;0.00022
выложить;0.00019
вынесение;0.00017
выписать;0.00015
выпуск;8e-05
выпускать;0.00012
выпустить;6e-05
выражать;0.0002
выразить;0.00017
вырасти;0.00045
высокий;5e-05
выставочный;0.00064
выстрел;0.00026
выступить;0.00043
выступление;8e-05
выход;0.00018
выходить;8e-05
выходной;0.00049
выше;7e-05
выяснить;0.00014
гаглой;0.00022
гаджет;0.00012
газета;0.0017
газпром-медиа;0.00042
гарри;9e-05
гватемала;0.00013
где;9e-05
генеральный;0.00024
гениталии;0.00022
германия;0.00011
героический;0.00014
герцеговина;9e-05
гибель;0.00031
глава;0.00019
главарь;0.00017
главное;0.00027
главный;0.0001
глаз;0.00015
говорить;0.0004
говориться;0.00019
год;0.00028
голиков;0.00064
голова;0.00021
голос;7e-05
горение;0.00071
гореть;0.00037
горло;0.00019
город;0.00017
госдума;0.00014
госнаграда;0.00022
госпитализировать;0.00015
гостелеканал;0.00022
гость;9e-05
государственный;0.00025
государство;0.001
готовить;0.00026
готовиться;0.0004
готовность;0.00011
готовый;8e-05
гражданин;0.00164
гражданка;0.00036
гражданский;9e-05
гражданство;0.00024
граница;0.00057
греция;7e-05
грозить;0.00012
громкий;0.00013
грудцин;0.00022
грузия;7e-05
грузчик;0.00022
группа;0.00034
группировка;0.00174
групповой;0.00011
гулять;0.00017
гумонбарон;0.00022
гурьянов;0.00022
гюбба;0.00022
давать;0.00011
дакка;0.00019
далее;9e-05
далеко;0.00011
далерджон;0.00106
дальнейший;0.00015
данил;0.00019
данилов;0.00019
данные;0.00031
данный;4e-05
дар;0.00012
дата;0.00184
дать;0.00024
даць;0.00022
два;0.0001
двигаться;0.00033
движение;0.00014
двое;0.00045
двухдневный;0.00049
девятый;0.00019
дежурный;0.00022
действие;0.0001
действовать;1e-05
декабрь;1e-05
декаданс;0.00022
делать;0.00029
дело;0.00054
деловой;0.00012
демонстрация;0.00011
денежный;0.0001
день;0.00026
деньга;0.00035
депортация;0.00011
депортировать;0.00024
депутат;0.00022
деревня;7e-05
дерево;0.0002
держать;0.0001
дестабилизировать;0.00019
десятилетие;0.00025
десятка;0.00039
десяток;0.00011
десять;7e-05
деталь;0.0001
деятельность;0.00031
джаз;0.00015
джихадист;0.00019
джон;6e-05
диаспора;0.00015
дикий;0.00014
дилара;0.00022
диловар;0.00106
дипломатический;0.00017
директор;0.00031
дискриминация;0.00012
дистанционный;0.00022
дк;0.00019
дмитрий;0.0005
дмитровский;0.00036
добавить;7e-05
добровольно;0.00013
добровольческий;0.00012
довольно;0.0002
дойти;0.00018
доказательство;8e-05
документ;6e-05
долг;0.00011
долгий;6e-05
долго;0.00012
должный;7e-05
доллар;8e-05
доложить;0.0009
дом;0.00039
домой;0.0001
дополнительный;0.0
допрашивать;0.00015
допрос;0.0004
дора;0.00019
доставить;0.00015
достать;0.00019
достигаться;0.00017
достигнуть;6e-05
доступный;0.0
досье;0.00019
друг;7e-05
другой;0.0
дубай;0.00022
дубинка;0.00019
дубровка;0.00022
дума;0.00012
думать;0.00021
душанбе;0.00022
дым;0.00054
ева;0.00017
евгений;0.00019
европа;0.00023
евросоюз;0.00011
евсеев;0.00019
египет;7e-05
египтянин;0.00022
егоршева;0.00022
единица;0.00014
единый;6e-05
ездить;0.00046
екатерина;8e-05
елена;9e-05
елизавета;9e-05
ерунда;0.00022
есть;0.00011
ехать;0.00022
жалеть;0.00019
ждать;0.0001
желание;9e-05
железный;8e-05
жена;5e-05
женатый;0.00049
жень-шень;0.00022
жертва;0.00051
жестокий;0.0002
живой;8e-05
жилой;0.00097
жирный;0.00012
житель;0.00017
жительство;0.00015
жить;0.00012
жкх;0.00022
журналист;0.00029
жуткий;0.00015
заблаговременный;0.00019
заблокировать;0.00011
заблуждение;0.00017
забыть;0.00014
завал;0.00051
заведение;0.0001
завербовать;0.00019
завершение;0.0001
завершить;0.00028
завершиться;8e-05
загадка;0.00017
загадочный;0.00014
заглавный;0.0
задача;8e-05
задействовать;0.00021
задержание;0.00294
задержать;0.00294
задерживать;0.00019
заключение;0.0005
заключить;0.00012
закрывать;0.0001
закрываться;0.00015
закрытие;9e-05
закрытый;7e-05
закрыть;0.0001
зал;0.00323
зала;0.00019
заложник;0.00011
заместитель;0.00016
заниматься;0.00012
занятие;0.00017
занять;6e-05
запад;0.00018
западный;0.00026
запасный;0.00017
запечатлеть;0.00026
запись;0.0
запланировать;0.00035
запомнить;0.00022
запретить;0.00014
запугать;0.00022
запытать;0.00022
заработок;0.00017
заранее;0.00012
зарегистрировать;1e-05
зарезать;0.00019
заретушировать;0.00042
зарплата;0.00011
зарубежный;9e-05
заседание;0.0001
засовывать;0.00022
заставлять;0.00011
затем;0.00015
зафиксировать;0.0001
захаров;0.00026
захват;9e-05
захватить;0.00013
заходить;0.00013
зацикленный;0.00022
зациклиться;0.00022
защита;0.00014
защищать;0.00017
заявить;0.00189
заявление;0.0
заявлять;0.00036
звено;0.00013
звонок;0.00014
звукоинженерный;0.00022
здание;0.00141
здравоохранение;0.00011
зеленский;0.00059
зеркало;0.00012
злой;0.00013
знак;1e-05
знакомый;0.00011
знать;0.00012
значимый;9e-05
значительный;4e-05
зокирчонович;0.00042
зрение;7e-05
зритель;0.00018
зрительный;0.00143
ибрагимович;0.00017
иваново;0.00017
ивановский;0.00019
иг-й;0.00022
игил;0.004
иго;0.00205
иго-хорасана;0.00022
игрушка;0.00014
идти;0.0001
иероглиф;0.00019
избивать;0.00017
избить;0.00019
избрание;0.00018
избранный;0.0
избрать;9e-05
известие;0.00037
известно;0.00063
известный;5e-05
издание;0.00048
изменить;6e-05
изначально;8e-05
изображение;4e-05
изолятор;0.00015
израиль;0.00019
изъявить;0.00019
изъять;0.00036
иметь;0.00033
иметься;0.00012
иммигрант;0.00014
империя;8e-05
имущество;0.00023
имя;0.0
индивидуальный;0.00012
индия;8e-05
инициатива;8e-05
инкогнито;0.00022
иной;5e-05
иностранец;0.00023
иностранный;0.00026
институт;6e-05
инструмент;0.0
инсценировать;0.00019
интернет;8e-05
интернет-издание;0.00178
интерпол;0.00071
интерфакс;0.00109
информационный;0.00024
информация;0.00075
иордания;0.00011
иран;0.00081
иранский;0.00011
ирина;0.00037
иса;0.00012
искать;0.00019
искра;0.00017
исламист;0.00022
исламистский;0.00019
исламский;0.00291
ислом;0.00064
исломов;0.00126
исмоновый;0.00022
исп;0.00011
исполнитель;0.00089
использование;0.0
использовать;6e-05
использоваться;7e-05
исправный;0.00022
исроилович;0.00042
исроить;0.00042
истерия;0.00022
истечь;0.00019
история;1e-05
источник;0.0
италия;5e-05
итог;5e-05
йеменский;0.00017
кабул;0.00022
кавказ;0.00032
кадр;0.00049
кадыров;0.00042
казань;0.00014
казаться;0.00019
казахстан;7e-05
казахстанец;0.00019
казнь;0.00017
какой;0.00022
калашников;0.00032
калининградский;0.00036
калуга;0.00019
калужский;0.00019
камера;9e-05
камуфляж;0.00036
канада;0.00018
канал;0.00026
канкан;0.00014
карамзин;0.00019
карачевский;0.00022
карта;0.00018
касим;0.00042
каспаров;0.00019
каспийск;0.00022
каталка;0.00022
катар;0.0001
категория;0.0
катетер;0.00022
качество;7e-05
кашен;0.00022
каширский;0.00022
квадратный;0.00042
квадрокоптер;0.00019
квалифицировать;0.00013
квартира;0.00069
кения;0.00013
керман;0.00022
киев;0.00019
киевский;0.00022
кинолог;0.00022
кинологический;0.00019
кирби;0.00022
кирнос;0.00022
кит;0.00013
китай;0.00027
кларк;0.00024
класс;8e-05
клемма;0.00022
клиент;0.00032
ключевой;0.0001
код;0.0
кодекс;0.0
коктейль;0.00032
колин;0.00026
количество;0.00015
коллега;0.00023
коллективный;0.00015
колумбия;0.00011
команда;0.00019
комитет;0.00028
комментатор;0.00017
комментировать;0.00014
коммерсант;0.00019
коммерсантъ;0.00085
компания;7e-05
комсомолец;0.00029
комсомольский;0.00014
кондрашкин;0.00022
конкретика;0.00019
конкретно;0.00017
конспирологический;0.00022
конструкция;0.00026
консульство;0.00022
контакт;0.00035
конфиденциальность;0.0
концерт;0.00077
концертный;0.00205
координировать;0.00013
корея;0.00032
королевство;8e-05
короткий;0.0
корпус;8e-05
корреспондент;0.00032
коррупция;0.00012
корчемный;0.00022
косово;9e-05
который;0.00011
кофейня;0.00022
крайне;0.00017
крайний;9e-05
красногорск;0.00109
красногорский;0.00019
красный;5e-05
кредит;0.00027
кремль;0.00044
кресло;0.00017
кривая;0.00013
криптобиржа;0.00022
криптовалюта;0.00042
криптообменник;0.00022
кристина;0.00015
критика;7e-05
критиковать;0.00022
кричать;0.00015
кровавый;0.00042
кровля;0.00055
кровь;0.00019
крокус;0.03482
крокус-сити;0.00032
крупный;0.00039
крутовый;0.00022
крутой;0.00032
крыло;0.0001
ксенофобия;0.00019
ксенофобный;0.00042
куба;0.00011
кувалда;0.00022
кузов;0.00019
кук;0.0
культура;4e-05
культурный;7e-05
купить;0.00013
куратор;0.00015
курица;0.00017
курок;0.00019
курсив;0.00012
кусок;0.00015
кучеренко;0.00022
кыргызстан;0.00074
кыргызстанец;0.00022
кыргызстанка;0.00022
кыргызча;7e-05
лавров;0.00017
лагер;0.00014
латвия;0.00015
легион;0.00023
лежать;0.00024
леонид;0.00012
лес;0.00023
лесной;0.00035
лестница;0.00015
лехаим;0.00022
лечение;0.00015
либеральный;0.00013
лига;8e-05
лидер;6e-05
ликвидировать;0.00011
лицензия;0.0
лицо;0.00032
лично;9e-05
личность;0.00014
лишение;0.0001
локализация;0.00036
лояльный;0.00036
лукашенко;0.00054
люксембург;9e-05
магазин;0.00013
мадагаскар;0.00011
май;2e-05
макаров;0.00036
македонски;4e-05
макрон;0.00045
максимальный;0.00026
малайзия;0.00012
маленький;5e-05
мало;9e-05
малозаметный;0.00022
мальта;7e-05
мантра;0.00022
марат;0.00017
маргарита;0.0004
марионетка;0.00019
мария;0.00012
марк;5e-05
март;0.00512
маршрут;0.0001
массово;0.00027
массовый;0.00085
масштабный;8e-05
материал;0.0
матч;0.00029
махмадрасул;0.00022
машина;0.00076
мвд;0.0011
медведев;0.00049
медиа;0.00023
медиафайл;5e-05
медик;0.00019
медицинский;0.00017
медорганизация;0.00022
международный;0.0002
мексика;7e-05
мемориал;0.00077
менее;0.0003
меняться;0.0001
мера;0.00043
мероприятие;0.00087
местный;5e-05
место;0.00023
месяц;9e-05
металлический;0.00014
метод;9e-05
метр;0.00033
метро;0.0002
мехико;0.00019
мечта;0.00013
мешок;0.00015
мигрант;0.00069
миграционный;0.00015
мид;0.00077
микроавтобус;0.00019
милан;0.00013
минздрав;0.00045
минимум;0.00012
министерство;0.00013
министр;0.0001
минкультуры;0.00042
миновать;0.00017
минск;0.00012
минтранс;0.00022
минута;0.00104
мир;0.00019
мирзоев;0.00106
мировой;0.00012
миссия;8e-05
михаил;0.00013
михаилович;0.00015
михайлов;0.00017
мкад;0.00017
млрд;0.00014
мнение;8e-05
многий;4e-05
мо;0.00017
мобилизация;0.00013
мобильный;0.0
модар;0.00022
можно;4e-05
молдавия;0.00022
молодой;5e-05
молотов;0.00029
молчать;0.00042
момент;0.00017
монголия;0.00011
мосгордума;0.00022
москва;0.00291
москва-сити;0.00015
московский;0.00104
мотызлевский;0.00022
мочь;1e-05
мракобесие;0.00022
мрачный;0.00017
муджахид;0.00022
мужчина;0.00047
музыкант;0.00019
мумина;0.00036
мурашко;0.00042
муродать;0.00042
мусульманин;0.00011
мухаметшин;0.00022
мухаммадсобир;0.00064
мчс;0.00197
мэр;0.0001
мягкий;0.0001
мякинино;0.00032
наблюдать;0.00011
набрать;0.00012
навигация;0.0
навоз;0.00054
нагнетание;0.00019
награда;9e-05
наградить;9e-05
надземный;0.00019
наедине;0.00042
назаров;0.00019
название;3e-05
назвать;0.00042
наздиконь;0.00022
назначение;0.00026
назначить;0.00012
называть;4e-05
называться;0.00014
наиболее;4e-05
найти;0.00037
накануне;0.00013
накладный;0.00042
налаживать;0.00022
намереваться;0.00015
намерение;0.00011
нанкин;0.00022
наносить;0.00012
нападать;0.00103
нападение;0.0029
напасть;0.00073
напоминать;0.00011
направить;0.00018
направление;0.00024
направленность;0.00022
направляться;0.00021
нарастить;0.00022
народ;6e-05
народный;0.00011
нарушение;0.00013
население;9e-05
населить;8e-05
насилие;0.00019
насколько;0.00013
наслать;0.00012
насридин;0.00022
настолько;0.0001
настоящий;0.00036
настроение;0.00064
насытить;0.00019
нато;0.00021
научно-исследовательский;0.00013
находиться;0.00022
нацелить;0.00014
национальность;0.00014
национальный;8e-05
нацист;0.00014
начало;0.00014
начать;0.00028
начаться;0.00012
наш;0.00015
неверный;0.0001
невозможность;0.00013
недовольный;0.00012
недолжный;0.00022
недостоверный;0.00012
независимый;0.00012
незадолго;0.00032
неизвестно;0.00022
неизвестный;0.00013
нейтрализовать;0.00017
некий;0.00019
некоммерческий;0.0
некоторый;0.00014
нельзя;0.00011
немалый;0.00017
немецкий;5e-05
немного;0.00011
немой;0.00011
ненависть;0.00013
необходимость;0.00022
неоднократный;0.00014
неожиданный;0.00014
неонацист;0.00019
неонацистский;0.00019
неполный;0.00013
непосредственно;6e-05
непосредственный;9e-05
непричастность;0.00019
нераспознанный;0.0001
несколько;0.00016
несовершеннолетний;0.00017
нести;0.00032
нет;7e-05
нидерланды;5e-05
никакой;0.0002
никарагуа;0.00033
николай;0.00019
нина;0.00015
ниоткуда;0.00022
ничтожество;0.00042
новая-европа;0.00064
новосибирск;0.00017
новостной;0.00015
новость;0.00072
новый;0.0
нож;0.00061
норвегия;7e-05
норд-ост;0.00084
носить;0.00012
ночной;0.0001
ночь;0.00016
ночью;0.00012
ноябрь;2e-05
нтв;0.00032
нью-йорк;7e-05
оаэ;0.00028
обвинение;0.00029
обвинительный;0.00022
обвинить;0.00028
обвинять;0.00149
обезвредить;0.00019
обеспечивать;0.0001
обеспечить;7e-05
обещать;0.00032
облава;0.00022
обладать;0.00011
область;0.00048
обнародовать;0.00013
обнаружить;0.00027
обновить;0.00027
обновление;8e-05
обновлять;0.00017
обновляться;0.00027
обозначить;0.00021
обозреватель;0.00015
оборона;7e-05
образец;9e-05
образование;5e-05
обратиться;0.00021
обращать;0.00012
обращаться;0.00013
обращение;0.00385
обрушение;0.00051
обрушиться;0.00023
обсе;0.00013
обстоятельство;8e-05
обсуждение;0.0
общаться;0.00013
общенациональный;0.00054
общественность;0.00013
общественный;5e-05
общество;0.00019
общий;0.0002
объект;0.00015
объявить;0.00073
объявление;0.00011
объяснить;0.0001
обыск;0.00029
обычно;5e-05
обычный;7e-05
обязать;9e-05
овчарка;0.00019
огнестрельный;0.00033
огонь;0.00034
одежда;0.0002
одержать;0.0001
один;0.00034
ожог;0.00017
озодить;0.00036
оказание;0.00013
оказать;0.00015
оказаться;9e-05
оказывать;0.00017
оказываться;0.00012
окно;0.00047
окончание;6e-05
окраина;0.00013
окраситься;0.00022
октябрь;4e-05
омон;0.00106
онлайн;9e-05
оон;0.00022
ооо;0.00019
опасаться;0.00013
опасение;0.00023
оперативный;0.00012
операция;0.00054
опередить;0.00017
оперслужба;0.00022
опечалить;0.00022
описание;0.0
описать;8e-05
описываться;0.00015
опознать;0.00017
оппозиционный;0.00012
оправдать;0.00012
опровергнуть;0.00077
опубликовать;0.00077
опять;0.00011
орган;0.00034
организатор;0.00019
организация;4e-05
организовать;0.00033
оригинал;0.00067
ориентировка;0.00042
оркестр;0.00013
оружие;0.00033
осветить;0.00015
освещать;0.00049
освещение;0.00012
осетия;0.00022
оскорбление;0.00013
осматриваться;0.00019
основание;4e-05
основное;5e-05
основный;6e-05
особенно;4e-05
особый;6e-05
оставаться;4e-05
оставить;0.00023
оставлять;0.00011
остальной;0.00016
остановиться;0.00026
осторожно;0.00032
осудить;0.00037
осуждение;0.00035
осуществить;9e-05
осуществление;0.00021
осуществлять;0.00036
отвергнуть;0.00033
ответ;0.00039
ответвление;0.00013
ответить;0.00023
ответный;0.0001
ответственность;0.0
отвечать;8e-05
отвыкнуть;0.00019
отделение;0.00035
отдельный;0.0
отель;0.00042
отец;0.00022
отказ;0.0
отказаться;0.00015
отказываться;0.0001
открытый;5e-05
открыть;0.00025
откуда;0.00012
отложить;0.00011
отмена;0.00027
отменить;0.00041
отменять;0.00015
отметить;0.00026
отмечать;0.00046
отмечаться;9e-05
отношение;0.00016
отойти;0.00012
отпатрулировать;6e-05
отправить;7e-05
отравление;0.00036
отражать;0.0001
отреагировать;0.00049
отредактировать;0.0
отрезать;0.0009
отрицать;0.00019
отстранить;0.0001
отсутствовать;8e-05
отсюда;0.00014
оттава;0.00017
офис;0.00011
официально;5e-05
официальный;0.00012
охватить;0.00012
охрана;0.00015
охранник;0.00032
охранный;0.00017
оценивать;0.00026
оцениваться;0.00021
оценить;9e-05
оценка;6e-05
оцепить;0.00022
очаг;0.00019
очевидец;0.00042
очевидный;9e-05
очередь;9e-05
очиров;0.00022
ошибка;0.0
п;5e-05
павильон;0.00066
пакистан;0.00019
палата;0.00016
палестина;0.0001
память;0.0002
панама;0.00012
паника;0.00015
парагвай;0.00037
парень;0.00014
парикмахерская;0.00022
паркетный;0.00022
парковка;0.00042
парламентский;0.00025
партер;0.00032
партизан;0.00012
паспорт;0.00024
пассажир;0.00012
патрон;0.00019
патрушев;0.00042
певец;0.00011
первенство;0.00027
первоначально;0.00013
первоначальный;8e-05
первый;0.0001
перевернуться;0.00022
перевести;0.00025
перевозить;0.00013
перевязать;0.00042
перегонцев;0.00022
передать;0.00045
передача;7e-05
передвигаться;0.00015
перезаряжать;0.00022
перейти;0.0
перекладывать;0.00022
перекликаться;0.00019
перелом;0.00015
перенаправить;0.00015
перенести;0.00014
перенос;0.00012
перерезать;0.00014
пересечь;0.00029
переставать;0.00019
переход;0.00025
персональный;0.0
перу;0.00011
песня;0.00013
песок;0.00051
петербург;0.00039
печать;0.0
пешеходный;0.00014
пик;8e-05
пикник;0.00145
пистолет;0.00045
питаться;0.00015
пить;0.00017
план;8e-05
планировать;0.00057
плохо;0.00012
площадка;0.00011
площадь;0.00031
пневмония;0.00022
по-русски;0.00017
победа;5e-05
победить;8e-05
поблагодарить;0.00029
поведение;0.0
повлечь;0.00012
повысить;0.00014
повязка;0.00015
погибнуть;0.00192
погибший;0.00047
подвал;0.00026
подвести;0.00014
подготовить;0.00018
подготовиться;0.00019
подготовка;0.00047
поддерживать;5e-05
поддержка;5e-05
поджечь;0.00049
поджигать;0.00017
поджог;0.00032
подземный;0.0002
подключить;0.00022
подмосковный;0.00054
подмосковье;0.00096
поднять;0.0002
подобный;0.00011
подобрать;0.00019
подозревать;0.00578
подозрение;0.00033
подольск;0.00017
подразделение;0.00016
подробный;0.0
подсветить;0.00022
подсветка;0.00019
подтвердить;0.00044
подтвердиться;0.00022
подтверждение;0.00011
подходить;0.00012
поездка;0.00011
поехать;0.00036
пожар;0.0029
пожарно-технический;0.00022
пожарный;0.00045
пожаротушение;0.00022
пожелание;0.00017
пожелать;0.00019
пожертвовать;0.0
пожизненный;0.00013
позволить;6e-05
позвоночник;0.00022
поздний;0.00019
познакомиться;0.00013
поиск;0.0
поисковый;0.00015
пока;5e-05
показание;0.00012
показательно;0.00017
показать;0.00014
показывать;9e-05
покинуть;0.00031
покрой;0.00022
пол;0.00012
поле;7e-05
полезный;0.00012
полина;0.00019
политик;0.0001
политика;0.0
политический;5e-05
полицейский;8e-05
полиция;0.00042
полностью;0.00022
полова;0.00022
половина;5e-05
полоса;0.00021
полтора;0.00011
получать;6e-05
получение;8e-05
получить;0.0
польша;6e-05
поместить;0.0001
помещение;0.00021
помогать;9e-05
помочь;9e-05
помощница;0.00036
помощь;0.0004
понимать;0.00017
понять;0.00011
пообещать;0.00012
популярность;9e-05
попытаться;0.0001
попытка;0.00019
пора;8e-05
поражение;8e-05
портал;4e-05
португалия;7e-05
поручить;0.00033
посвятить;5e-05
посетитель;0.00054
посещаемость;0.00015
посещать;9e-05
посещение;0.00012
последний;1e-05
последовать;0.00014
пособник;0.00064
пособничество;0.00019
посол;0.0002
посольство;0.00068
постоянный;0.0
пострадать;0.00282
построить;5e-05
поступать;0.00042
поступить;0.00018
поступление;0.00012
поступок;0.00014
посыпаться;0.00022
потенциально;0.00015
потеря;8e-05
потом;7e-05
потому;0.00013
потребовать;9e-05
потянуть;0.00022
похвалить;0.00017
почва;0.00011
почему;0.00058
почти;4e-05
поэтому;6e-05
появиться;0.00026
пояснить;0.00015
правдоподобно;0.00022
правило;3e-05
править;0.0
правка;0.0
право;3e-05
правозащитный;0.00013
правоохранительный;0.00051
правый;0.00016
праз;0.00022
практически;6e-05
пребывание;0.00012
превратиться;0.00011
превращаться;0.00015
превысить;0.00021
предварительный;0.00026
предложение;7e-05
предложить;0.00017
предмет;7e-05
предоставить;7e-05
предоставление;0.00013
предоставлять;0.0001
предостережение;0.00022
предостеречь;0.00017
предотвратить;0.0002
предполагать;0.00091
предположительно;0.00035
предположить;0.00011
предприниматель;0.00035
предпринимать;0.00019
предпринять;9e-05
предприятие;0.0001
председатель;0.00013
предсказуемый;0.00017
представитель;0.00028
представить;0.0001
представиться;0.0
представление;9e-05
предстать;0.00017
предупредить;0.00013
предупреждать;0.0009
предупреждение;0.00069
предыстория;0.00019
президент;0.00082
преимущественно;0.00015
прервать;0.00022
пресечение;0.00054
преследование;0.00019
пресс-секретарь;0.00055
пресс-служба;0.00017
преступление;0.00027
преступник;0.00012
прибежать;0.00022
прибор;0.00029
прибыль;9e-05
прибытие;0.00024
прибыть;0.00023
привести;6e-05
привлечь;0.0001
приговор;0.00013
приговорить;0.00013
приграничный;0.00012
призвать;0.00044
признавать;9e-05
признаваться;0.00024
признак;0.0001
признание;0.00013
признанный;0.00019
признать;0.00042
признаться;0.00015
прийтись;6e-05
прилететь;0.00049
применять;0.00011
пример;7e-05
примерно;6e-05
примечание;1e-05
принадлежать;0.00026
принести;7e-05
принимать;5e-05
принт;0.00022
принять;2e-05
приостанавливать;0.00015
припарковать;0.00022
присвоить;0.00011
прислать;0.00054
присоединиться;8e-05
приспустить;0.00042
приступить;0.00023
притянуть;0.00036
приход;0.0001
приходить;0.00013
причастность;0.00221
причастный;0.00081
причина;4e-05
пробка;0.00019
пробыть;0.00019
провал;0.00039
проведение;0.00015
проверка;8e-05
проверять;0.00021
проверяться;0.00012
провести;0.0001
провинция;7e-05
проводиться;6e-05
провозглашение;0.00011
провокация;0.00049
программа;0.00021
продавец;0.00054
продажа;0.0001
продать;0.00019
продвигать;0.00022
продолжить;8e-05
продолжиться;0.00012
продольный;0.00042
продукт;0.00019
проект;1e-05
проживание;0.00015
проживать;0.00029
прозвучать;0.00015
прозевать;0.00022
произойти;0.00033
происходить;4e-05
происхождение;6e-05
пройти;0.00017
проклятие;0.00017
прокомментировать;0.00064
прокурор;0.00015
проливка;0.00022
проникнуть;0.00012
пропаганда;0.00074
пропагандист;0.00059
пропасть;0.00012
просить;0.0001
прославлять;0.00019
просматривать;0.00014
просмотр;0.0
пространство;0.0
просьба;0.0001
противник;0.00014
противопожарный;0.00064
протяжение;7e-05
профанация;0.00022
профи;0.00022
проходить;0.00017
процесс;4e-05
псевдо-журналистский;0.00022
публиковаться;0.00027
публичный;9e-05
пульт;0.00022
пункт;0.00012
путилковый;0.00019
путин;0.00395
путь;9e-05
пуштун;0.00022
пытать;0.00045
пытаться;0.00032
пытка;0.00193
пять;0.00015
работа;0.0001
работать;0.00037
работник;0.0002
рабочий;0.0001
раджабализод;0.00022
радикал;0.00017
радикальный;0.00012
радио;0.00138
радиой;0.00022
раз;0.0
разбирать;0.00013
разбор;0.00071
разборка;0.00019
разведдать;0.00032
разведка;0.00053
развиваться;0.00026
развитие;4e-05
развлекательный;0.00042
разговаривать;0.00013
раздаться;0.00022
разный;4e-05
разобрать;0.00019
разогнать;0.00029
разоружить;0.00022
разрабатывать;0.00015
разработчик;0.0
разрушить;0.00016
район;0.00022
районный;0.00013
рамзан;0.00022
ранг;0.00013
ранение;0.00053
раненый;0.00037
ранний;0.00013
рано;0.00013
рапси;0.00042
раскрыть;0.00037
распиливание;0.00022
расположить;5e-05
распоряжение;0.0001
расправа;0.00013
расправиться;0.00019
распространение;0.00015
распространить;7e-05
распространять;0.0001
распространяться;8e-05
рассказать;0.00087
рассказовый;0.00019
рассказывать;0.00035
расследование;0.00076
рассматривать;0.0001
рассмотрение;0.00015
расстрел;0.00013
расстреливать;0.00054
расстрелять;0.00046
рассуждать;0.00015
рассылать;0.00022
рассылка;0.00019
растерянность;0.00022
расходиться;0.00014
расширить;8e-05
рачабализод;0.00084
рбк;0.00218
реакция;0.00073
реалия;0.00032
ребро;0.00022
регион;0.00022
регистрация;0.00012
редактор;0.00023
редакция;8e-05
режим;0.00035
резанова-яцкевич;0.00022
резкий;0.00018
результат;0.00029
рейд;0.00035
рекомендовать;0.00044
рено;0.00054
репрессия;0.00021
республика;0.00028
ресурс;2e-05
речь;0.00013
решение;7e-05
ржд;0.00019
риа;0.00051
ривожидина;0.00022
рига;0.00013
род;7e-05
родина;0.0001
родиться;5e-05
родный;0.00023
родовой;0.00019
родственник;0.00028
розыск;0.00036
рок-группа;0.00015
ролик;0.00026
роль;8e-05
росавиация;0.00022
росгвардия;0.00054
российский;0.00135
российско-украинский;0.00042
россия;0.00439
россиянин;0.00049
рост;0.00016
ростов-на-дону;0.00017
рот;0.00013
рубль;0.00053
рука;0.00019
руководитель;6e-05
русиньскый;8e-05
руслан;0.00029
русский;0.0
рустам;0.00019
русый;0.00502
рф;0.00225
рфс;0.00064
рынок;8e-05
ряд;0.0001
рядом;0.00012
рязанский;0.00069
рязань;0.00015
савельев;0.00017
сад;0.00018
саидакр;0.00064
сайт;9e-05
сам;0.00025
самарский;0.00032
самоубийство;0.00012
самсонов;0.00022
самый;3e-05
санкт-петербург;0.00029
сантиметр;0.00019
саудовский;0.0001
сафолзод;0.00022
саха;6e-05
сахар;0.00069
сбежать;0.00012
сборная;7e-05
сборник;9e-05
сбросить;0.00014
сведение;0.0
свежий;0.0
свеча;0.00014
свидетельствующий;0.00019
свобода;0.00078
свободный;0.0
сводиться;0.00015
сводка;0.00019
свой;0.00025
связанный;1e-05
связать;0.00014
связаться;0.0
связь;0.00057
святослав;0.00013
сговор;0.00015
сгореть;0.00015
сдать;0.00059
сделка;0.00014
северный;6e-05
северо-западный;9e-05
севкабель;0.00022
сегодня;0.00019
сегодняшний;0.00011
сей;0.0001
секретарь;0.00037
сель;0.00022
семеро;0.00014
семиэтажный;0.00022
семь;0.00017
семья;0.00021
сентябрь;0.0001
сербия;8e-05
сербский;0.00032
сервер;0.00014
сергей;0.00025
серия;5e-05
сетка;0.00017
сеть;0.00034
сибирь;0.00023
сигнал;0.00014
сидеть;0.00011
сизый;0.00017
силовик;0.00268
силовой;0.00039
силуэт;0.00019
симоньян;0.00084
симфонический;0.00015
синагога;0.00029
сингапур;9e-05
синий;0.00011
синяк;0.00022
сирийский;0.00017
сирия;0.00026
система;0.0
сит;0.00032
сити;0.01408
ск;0.00148
сказать;0.00024
скандал;0.0001
скачать;0.0
сколько;0.00011
скончаться;9e-05
скоординировать;0.00022
скопление;0.00029
скорбь;0.00017
скорый;0.00019
скрытый;1e-05
скрыться;0.00197
славянин;0.00013
след;0.00124
следователь;0.00017
следственный;0.00113
следствие;0.00048
следующий;8e-05
слезть;0.00022
словакия;7e-05
слово;0.00025
сложность;0.00026
сломать;0.00013
слуга;0.00019
служба;0.00065
служебный;0.0
случай;0.0
случайный;0.0
случиться;0.00032
слушание;0.00017
смерть;7e-05
сми;0.00028
смоленский;0.00013
смотреть;1e-05
смочь;6e-05
сначала;0.00011
снбо;0.00032
снова;0.00013
снятой;0.00025
снять;0.00012
собака;0.00026
соболезнование;0.00081
соболезновать;0.00036
собра;0.00022
собразец;0.00084
собрание;7e-05
собрать;8e-05
собраться;0.00012
событие;0.0
совбез;0.00015
совершение;0.00121
совершить;0.00061
совет;0.00015
советский;9e-05
совещание;0.00055
совместно;0.0001
совокупность;0.00013
совпадать;0.0001
современный;7e-05
согласиться;0.0001
соглашение;6e-05
содействие;0.00012
содействовать;0.00017
содержание;0.0
содержаться;0.00012
содержимое;0.00012
соединить;0.00014
создать;0.0
солидарность;0.00045
сообщать;0.00035
сообщаться;0.00042
сообщение;0.00104
сообщество;0.0
сообщить;0.0
соответствовать;5e-05
сопровождаться;0.0001
сопровождение;0.00022
сопротивление;0.00016
соревнование;0.00033
сорокаминутный;0.00022
сосед;0.00012
соседний;8e-05
составлять;7e-05
состояние;0.00022
состоять;6e-05
сотрудник;0.00057
сотрудничать;0.00024
сохранение;0.0
социальный;0.00015
соцсеть;0.00017
соцфонд;0.00022
сочи;0.00036
сочувствие;0.00022
союзник;9e-05
спасатель;0.00059
спасательный;0.00029
спасти;0.00015
специалист;9e-05
специальный;5e-05
спецназ;0.00029
спецоперация;0.00015
спецотряд;0.00022
спецслужба;0.0022
спикер;0.00012
списать;0.00019
список;8e-05
спланировать;0.00019
спорт;0.00026
спортивный;0.00015
способ;7e-05
справиться;0.00013
справка;0.0
спустить;0.00032
сравнивать;0.00014
сравнить;0.00021
сразу;6e-05
среднее;9e-05
средний;6e-05
средство;6e-05
срок;0.00016
српски;3e-05
срубить;0.00019
ссср;6e-05
ссылаться;0.00012
ссылка;0.0
стабильный;4e-05
станислав;0.00013
станция;0.00015
стартовать;0.00017
статистика;0.0
стать;0.00021
статья;0.0
стекло;0.00012
степень;6e-05
стихийный;0.00074
стоить;0.00013
столичный;0.00011
столкновение;9e-05
столкнуться;0.0001
сторона;0.00037
сторонник;0.00025
стоять;8e-05
стоящий;0.00017
стража;0.00092
страйкбольный;0.00042
страна;0.0002
страница;0.0
страшный;0.00014
стрельба;0.00112
стрелять;0.00023
строительный;0.00011
структура;7e-05
суббота;0.00013
субботний;0.00019
субтитр;0.00017
суд;0.00062
судопроизводство;0.00019
судьба;8e-05
сулейман;0.00019
суметь;0.00016
сумма;8e-05
сутки;0.00036
существо;0.00032
существующий;0.00011
сфера;7e-05
сфотографироваться;0.00022
схватиться;0.00022
схема;0.00044
схрон;0.00022
считать;0.0001
сша;0.00059
съесть;0.00019
сын;0.00013
сюда;0.0
тадж;0.00022
таджик;0.00071
таджикистан;0.00168
таджикский;0.00045
тайва;0.00022
тайвань;0.00012
такой;0.00011
такси;0.00029
таксист;0.00022
талиб;0.00022
талибан;0.00106
там;8e-05
танец;0.00021
танцевальный;0.00045
танцполый;0.00019
таскулов;0.00022
тасс;0.00158
татарча;4e-05
татьяна;0.00013
тв;0.00014
тверь;0.00017
театр;6e-05
тейково;0.00022
текст;0.0
текущий;0.0
телевидение;8e-05
телеграм-канал;0.00128
телеканал;0.00054
телекомпания;0.00015
телеобращение;0.00042
тело;0.00015
тема;4e-05
темур;0.00022
тень;0.00011
теория;9e-05
теперь;0.00029
тепловизор;0.00022
теракт;0.02295
территория;0.00032
террор;0.00033
терроризм;0.00053
террорист;0.00703
террористический;0.00201
техас;0.00013
техника;0.00015
технический;7e-05
течение;7e-05
тихий;0.00011
товарный;0.0
ток;0.00032
токсичный;0.00015
толпа;0.00027
только;8e-05
тонна;0.00028
торговый;0.00013
тот;0.00017
тотальный;0.00032
точный;0.00019
травма;0.00014
трагедия;0.00066
трагический;0.00014
транслировать;0.00022
транспорт;0.00014
трасса;0.0001
траур;0.00192
траурный;0.00019
требование;0.0002
требовать;9e-05
тревога;0.00023
треть;0.0001
три;0.00014
трибить;0.00022
трибьют;0.00022
трое;0.00078
трудоустроить;0.00022
тунис;0.00011
туповатый;0.00022
тур;0.00011
турист;0.00017
туркменистан;0.00012
турнир;7e-05
турция;0.00013
тучков;0.00042
тушение;0.0009
тыл;5e-05
тыс;0.00019
тысяча;0.00031
тэрарыст;0.00022
убедить;0.00012
убийство;0.00018
убитый;0.0001
убить;0.0002
увезти;0.00022
увеличение;0.00011
увеличивать;0.00015
увеличиться;0.00013
увидеть;0.00025
увлекаться;0.00019
угар;0.00019
угнетение;0.00022
уголовный;8e-05
угрожать;0.00016
угроза;0.00072
удар;7e-05
удушение;0.00022
уехать;0.00059
ужас;0.00026
уже;0.00022
ужесточить;0.00022
узбек;0.00015
узбекистан;0.0002
узнать;0.00019
уйти;0.00014
ук;0.00019
указание;1e-05
указанный;0.00011
указать;3e-05
указывать;7e-05
указываться;0.0001
уклониться;0.00022
украина;0.00212
украинец;0.00012
украинский;0.00104
укрываться;0.00019
улица;0.00022
умаров;0.00022
умереть;0.00021
уничтожить;0.00016
упомянуть;0.00019
упор;0.00054
управление;0.00014
упырь;0.00022
уровень;0.00015
уроженец;0.00077
уругвай;0.00011
ус;0.00036
усиление;0.00018
усиленный;0.00017
усилить;0.00035
условие;0.0
успанов;0.00042
установить;8e-05
установленный;8e-05
уступать;0.00012
утверждать;0.00037
утверждаться;0.00035
уточнить;0.00011
уточняться;0.00045
утром;0.00022
ухо;0.00096
уходить;0.0002
уцелеть;0.00022
уцяч;0.00022
участвовать;0.00032
участие;0.0
участник;0.00019
учебный;0.0001
учиться;0.0002
учреждение;7e-05
ущерб;0.00016
фабрика;0.00011
файзов;0.00126
факт;0.00013
фактически;6e-05
фаридуня;0.00106
фархан;0.00022
фасад;0.00014
фаста;0.00022
февраль;7e-05
федеральный;0.00014
федерация;0.00025
федучреждение;0.00022
фейк;0.00049
фейковый;0.00036
фигурант;0.00126
физический;0.0001
филиал;0.00026
филиппина;0.00013
финансирование;0.00036
финансировать;0.00012
флаг;0.00026
фойе;0.00042
фон;0.0001
фонд;0.0
фонтанка;0.00032
форма;4e-05
форум;0.0
фотка;0.00019
фото;0.00071
фотография;0.00015
франция;0.00019
фсб;0.00392
фургон;0.00042
хак;0.00022
хамас;0.00015
ханкала;0.00022
ханэда;0.00022
харакири;0.00022
характер;0.00012
хатамович;0.00042
хацунуть;0.00022
химки;0.00019
хинштейн;0.00084
хлопок;0.00015
ход;0.0003
ходить;8e-05
холдинг;0.00032
холл;0.0172
холод;0.00017
хорасана;0.0061
хороший;9e-05
хостел;0.00022
хотеть;0.00011
хохол;0.00022
христианин;0.0001
хроника;9e-05
хронология;0.00086
хузайф;0.00022
хусит;0.00017
хэнаня;0.00022
цвет;0.00025
цвета;0.00015
цветок;0.00015
целый;8e-05
цель;0.00018
центр;0.00047
центральный;0.00011
циничный;0.00036
цитата;9e-05
цитировать;1e-05
цифровой;9e-05
цру;0.00017
час;0.00056
частично;0.00012
частичный;0.0001
частный;0.00015
часто;8e-05
частый;8e-05
часть;8e-05
человек;0.00058
человеческий;9e-05
чемпионат;0.00012
черногория;8e-05
честь;6e-05
четверо;0.00142
четыре;0.0002
чехия;0.00015
чеченский;0.00032
чечня;0.00045
чили;0.00021
чиновник;0.00046
число;0.00034
читать;0.0
член;0.00012
чоп;0.00022
чп;0.00019
что-то;0.00011
чудовищный;0.00015
чужестранец;0.00022
чужой;0.00013
шабашевица;0.00022
шакир;0.00042
шамсидин;0.00022
шамсидина;0.00084
шантаж;0.00014
швейцария;6e-05
швеция;0.00015
шеремета;0.00042
шереметьево;0.00042
шесть;5e-05
широкий;7e-05
широта;0.00013
ширяев;0.00019
шклярский;0.00042
школа;0.00022
шок;0.00014
шоссе;0.00035
шохинджонна;0.00022
шрифт;0.00012
штат;0.00012
шток;0.00019
штурм;0.00012
щодый;0.00022
эвакуационный;0.00019
эвакуация;0.00045
эвакуировать;0.00058
эвакуироваться;0.00017
эгида;0.00029
эдмунд;0.00013
эксперт;0.00029
экспертиза;0.00027
экспо;0.00126
экспорт;0.0
экстремистский;0.00019
экстренно;0.00019
экстренный;0.00012
электричество;0.00012
электронный;0.00012
электроток;0.00022
электрошокер;0.00022
элемент;0.0
эмманюэль;0.00019
энциклопедия;0.0
эпоха;7e-05
этаж;0.00014
этнический;9e-05
этот;1e-05
эфиопия;9e-05
эфир;0.00021
юбилей;0.00022
юго-восточный;0.0001
южный;0.00025
юлия;0.00013
юмористический;0.00036
юрген;0.00015
юридический;0.00017
юрист;0.00013
юсовый;0.00022
являться;4e-05
язык;0.0
январь;4e-05
япония;7e-05
ячейка;0.00059
