аварийный;0.00519
август;0.00075
авторство;1e-05
администрация;0.00188
александр;0.00047
андрющенко;0.00186
апрель;0.00034
армия;0.00111
архивировать;0.00097
атака;0.00483
атаковать;0.00237
аэс;0.00195
баланс;0.00114
балка;0.00158
баллистический;0.00114
белгород;0.0063
белгородский;0.00121
беспилотник;0.0013
более;0.00016
больница;0.00159
быть;6e-05
ввести;0.00308
ведомство;0.00097
версия;0.0
весь;0.0007
взрыв;0.00079
взрывной;0.00114
викидать;2e-05
викимедиа;0.0
викиновость;0.0004
википедия;0.0
викисклад;0.00021
вилкула;0.00186
винница;0.00158
винницкий;0.00423
вклад;0.0
владимир;0.00059
внешний;0.00013
вода;0.00037
водоснабжение;0.00242
водохранилище;0.00114
военный;0.00156
воздушный;0.00201
возмездие;0.0026
война;0.00113
войти;0.0
вокзал;0.00102
волна;0.00063
воронка;0.0013
восстанавливать;0.0013
восстановить;0.00119
впервые;0.0004
время;0.00014
вторжение;0.00378
второй;0.00019
вывести;0.00077
галущенко;0.00158
генератор;0.00121
генпрокуратура;0.00186
герман;0.00114
гидросооружение;0.00142
глава;0.00112
год;0.00015
город;0.00093
гражданский;0.0004
грань;0.00107
график;0.00097
графика;0.00317
гроза;0.0013
гумколонна;0.00186
гэс;0.00321
дамба;0.00472
данные;0.00068
дата;0.00018
двое;0.00079
действовать;2e-05
декабрь;0.0002
день;0.00025
директор;0.00069
дмитрий;0.00074
днепр;0.00305
днепровский;0.00567
днепрогэс;0.01167
днепропетровский;0.00423
должный;0.0002
дом;0.00156
донецк;0.00227
донецкий;0.00121
дополнительный;1e-05
доступный;0.0
дрон;0.00107
другой;0.0
европа;0.00023
есть;0.0002
ехать;0.00195
жилой;0.00107
житель;0.00114
завал;0.00114
заглавный;0.0
загрязнение;0.00242
закон;0.00039
законный;0.00097
зал;0.00079
запись;0.0
запорожский;0.0034
запорожье;0.01072
зарегистрировать;2e-05
зафиксировать;0.00082
захват;0.00077
заявить;0.00114
заявление;0.0
знак;2e-05
иван;0.00069
ивано-франковский;0.00472
игорь;0.00204
избранный;0.0
извлечение;0.0013
имя;0.0
инструмент;0.0
информация;0.00031
инфраструктура;0.00873
искандер-м;0.00186
использование;0.0
использоваться;0.00033
история;0.0
источник;0.0
июль;0.00167
июнь;0.00035
каждый;0.0003
каменск;0.00186
карачуновский;0.00186
категория;3e-05
киев;0.00171
кинжал;0.00142
кировоградский;0.00283
код;0.0
кодекс;0.0
комбинированный;0.00158
конотопский;0.00158
константиновка;0.00186
контролировать;0.00077
конфиденциальность;0.0
короткий;0.0
коротыч;0.00186
который;8e-05
краматорск;0.00316
кременная;0.00158
кременчуг;0.00158
кремль;0.00097
кривая;0.00681
кривой;0.0013
криворожский;0.00142
критический;0.00204
кровля;0.00121
крупный;0.00025
крылатый;0.00186
кудрицкий;0.00186
кук;0.0
курский;0.00102
лев;0.00065
линия;0.00095
лисичанск;0.00158
лицензия;1e-05
лысак;0.00186
львовский;0.00362
май;0.00052
мариуполь;0.0026
мариупольский;0.00158
март;0.00223
массировать;0.0034
масштабный;0.00134
материал;0.0
машинный;0.00121
медиафайл;0.00021
медуза;0.0013
менее;0.00099
место;0.00013
минимум;0.00053
министр;0.00044
минобороны;0.0026
минэнерго;0.00186
миргородский;0.00186
мирный;0.00251
мобильный;0.0
москва;0.00049
москва-сити;0.0013
московский;0.00061
мочь;0.0
мэр;0.00165
навигация;0.0
назвать;0.00148
называть;0.00065
нанести;0.00378
нападение;0.00207
нарушение;0.00058
населить;0.00139
находиться;0.00035
начало;0.00016
начаться;0.00036
неизвестно;0.00097
некоммерческий;2e-05
нет;0.00061
нефтепродукт;0.00227
николаев;0.00114
николаевский;0.00321
новый;0.0
ночь;0.00047
ноябрь;0.00016
оба;0.00039
областной;0.00186
область;0.00817
обломок;0.0013
оборудование;0.00086
обращение;0.00025
обстрел;0.00388
обсуждение;0.0
объединить;0.00059
объект;0.0055
объявляться;0.0013
обычай;0.00102
одесса;0.00428
одесский;0.00407
один;0.00032
оказаться;0.00041
оккупировать;0.00086
окно;0.00082
октябрь;0.00097
олег;0.00089
онлайн;0.0004
описание;0.0
опора;0.00093
организатор;0.00086
организация;2e-05
оригинал;0.00026
остаться;0.0019
осторожность;0.0013
ответственность;0.0
отдельный;2e-05
отказ;0.0
отключение;0.01086
отключиться;0.00158
открыто;0.00102
отредактировать;2e-05
очередной;0.00072
ошибка;0.0
павлоградский;0.00186
перебой;0.00158
перейти;0.0
перестать;0.00178
переходить;0.00074
персональный;0.0
песок;0.00227
печать;0.0
плотина;0.00321
поведение;0.0
повредить;0.00711
погибнуть;0.00249
погибший;0.00246
подвергнуться;0.00079
поддержание;0.00097
подкрановый;0.00158
подробный;2e-05
подстанция;0.00142
пожар;0.00256
пожертвовать;0.0
поиск;0.0
покровск;0.00186
политика;0.0
полномасштабный;0.00142
полностью;0.00132
полтавский;0.00946
получить;0.0
понимать;0.00153
попадание;0.00186
попасть;0.00095
попытка;0.00054
последний;3e-05
последствие;0.00115
постоянный;2e-05
пострадать;0.00445
почасовой;0.00186
почва;0.00178
править;0.0
правка;0.0
практически;0.00054
превентивный;0.0013
предварительный;0.00077
представиться;0.0
президент;0.0004
пресс-секретарь;0.00121
приграничный;0.00102
прийтись;0.00106
применить;0.00093
примечание;0.0001
проект;4e-05
производство;0.00053
произойти;0.00161
происходить;0.00036
прорыв;0.00215
просмотр;0.0
пространство;0.0
просчитать;0.00186
пункт;0.00205
работа;0.00034
радио;0.00153
раз;2e-05
разбитый;0.00171
разработчик;0.0
разрушение;0.00171
разрушить;0.00286
район;0.00099
ракета;0.00928
ракетный;0.0074
ранее;0.00037
ранение;0.00093
раненый;0.00082
ранить;0.00171
рассказать;0.00086
реакция;0.00143
регион;0.00038
редактирование;0.00114
результат;0.00128
рог;0.00712
российский;0.00219
россия;0.00331
русский;0.0
русый;0.0003
рф;0.00317
сам;0.00019
самый;0.00028
саха;0.0005
сбить;0.00389
сведение;0.0
свежий;0.0
свет;0.00335
свобода;0.00092
свободный;0.0
связанный;2e-05
связаться;0.0
семь;0.001
семьсот;0.00186
сентябрь;0.00045
сергеевка;0.00186
сергей;0.00072
сила;0.00054
сильно;0.00058
синегуб;0.00186
сирота;0.00227
система;0.0
ситуация;0.00109
скачать;0.0
скрытый;4e-05
слово;0.00125
сложный;0.00063
служебный;0.0
случай;2e-05
случайный;0.0
смотреть;2e-05
событие;0.0
советник;0.00086
содержание;0.0
соединять;0.00093
создать;0.0
сообщение;0.00061
сообщество;0.0
сообщить;0.0
сопрячь;0.00142
состояние;0.00099
сохранение;2e-05
спецоперация;0.0026
способ;0.00059
справка;0.0
ссылка;0.0
станция;0.00194
статистика;0.0
статья;0.0
страна;0.00023
страница;0.0
строй;0.00067
суверенный;0.00097
сумский;0.00779
сюда;0.0
таганрог;0.00158
театр;0.00054
текст;2e-05
текущий;0.0
территория;0.00125
течение;0.0003
товарный;2e-05
тот;0.00012
тревога;0.00102
три;0.0003
трое;0.00077
троллейбус;0.00242
тыл;0.00045
тэс;0.0026
убийство;0.00051
уголовный;0.00072
угроза;0.00058
удар;0.01509
ударный;0.00093
удаться;0.00109
ук;0.00158
указание;2e-05
украина;0.01286
украинский;0.00122
укргидроэнерго;0.00472
укрэнерго;0.00142
умань;0.00158
умышленный;0.00142
условие;2e-05
утечка;0.00283
утренний;0.00158
утро;0.00093
участие;0.0
факт;0.00058
февраль;0.00038
федерация;0.00054
фонд;2e-05
форум;0.0
харьков;0.01086
харьковский;0.00485
херсон;0.00142
хмельницкий;0.00844
ход;0.00152
цель;0.00032
цитировать;8e-05
чаплиный;0.00186
час;0.00054
частный;0.00067
часть;0.00041
часы;0.00102
человек;0.00051
чернигов;0.00283
число;0.00017
читать;0.0
шебекино;0.00186
шестидесятый;0.00186
шосткинский;0.00186
эдитнотис;0.00158
экспорт;0.0
экстренный;0.00102
электрический;0.00107
электричество;0.00291
электропередача;0.00283
элемент;0.0
энергетика;0.00464
энергетический;0.00742
энергоатом;0.00158
энергоблок;0.00142
энергосистема;0.00483
энциклопедия;0.0
этот;0.0
эфир;0.00093
язык;0.0
январь;0.00038
ярый;0.00114
